"STATION","DATE","LATITUDE","LONGITUDE","ELEVATION","NAME","DP01","DP01_ATTRIBUTES","DP10","DP10_ATTRIBUTES","DP1X","DP1X_ATTRIBUTES","EMXP","EMXP_ATTRIBUTES","PRCP","PRCP_ATTRIBUTES"
"US10kear004","2005","40.5516","-98.997","666.0","MINDEN 4.4 NW, NE US","        78","N","        39","N","         4","N"," 149.9"," ,N,0512, ","    621.5"," ,N"
"US10kear004","2006","40.5516","-98.997","666.0","MINDEN 4.4 NW, NE US","        65","N","        44","N","         7","N","  93.0"," ,N,0617, ","    677.1"," ,N"
