"STATION","DATE","LATITUDE","LONGITUDE","ELEVATION","NAME","DP01","DP01_ATTRIBUTES","DP10","DP10_ATTRIBUTES","DP1X","DP1X_ATTRIBUTES","EMXP","EMXP_ATTRIBUTES","PRCP","PRCP_ATTRIBUTES"
"US10thay019","2007","40.2629","-97.4639","456.9","ALEXANDRIA 4.1 WNW, NE US","        86","N","        54","N","        10","N"," 160.0"," ,N,0801, ","   1071.8"," ,N"
"US10thay019","2008","40.2629","-97.4639","456.9","ALEXANDRIA 4.1 WNW, NE US","        76","N","        56","N","         9","N","  76.2"," ,N,0605, ","    836.0"," ,N"
"US10thay019","2010","40.2629","-97.4639","456.9","ALEXANDRIA 4.1 WNW, NE US","        73","N","        47","N","        11","N","  62.0"," ,N,0824, ","    727.8"," ,N"
"US10thay019","2011","40.2629","-97.4639","456.9","ALEXANDRIA 4.1 WNW, NE US","        60","N","        43","N","         7","N"," 101.6"," ,N,0520, ","    665.0"," ,N"
