"STATION","DATE","LATITUDE","LONGITUDE","ELEVATION","NAME","DP01","DP01_ATTRIBUTES","DP10","DP10_ATTRIBUTES","DP1X","DP1X_ATTRIBUTES","EMXP","EMXP_ATTRIBUTES","PRCP","PRCP_ATTRIBUTES"
"US10red_011","2005","40.023","-100.5626","819.0","MCCOOK 12.8 SSE, NE US","        69","N","        42","N","         5","N","  64.8"," ,N,0817, ","    581.1"," ,N"
"US10red_011","2007","40.023","-100.5626","819.0","MCCOOK 12.8 SSE, NE US","        69","N","        43","N","         6","N","  48.5"," ,N,0601, ","    555.0"," ,N"
"US10red_011","2008","40.023","-100.5626","819.0","MCCOOK 12.8 SSE, NE US","        85","N","        50","N","         6","N"," 131.8"," ,N,0524, ","    770.6"," ,N"
"US10red_011","2009","40.023","-100.5626","819.0","MCCOOK 12.8 SSE, NE US","        99","N","        53","N","         7","N","  53.3"," ,N,1022, ","    745.1"," ,N"
"US10red_011","2010","40.023","-100.5626","819.0","MCCOOK 12.8 SSE, NE US","        83","N","        46","N","         8","N","  52.6"," ,N,0721, ","    640.1"," ,N"
"US10red_011","2011","40.023","-100.5626","819.0","MCCOOK 12.8 SSE, NE US","        81","N","        38","N","         7","N","  62.2"," ,N,0810, ","    599.4"," ,N"
"US10red_011","2012","40.023","-100.5626","819.0","MCCOOK 12.8 SSE, NE US","        55","N","        32","N","         2","N","  27.7"," ,N,0404, ","    277.8"," ,N"
"US10red_011","2013","40.023","-100.5626","819.0","MCCOOK 12.8 SSE, NE US","        74","N","        35","N","         0","N","  17.3"," ,N,0711, ","    324.7"," ,N"
"US10red_011","2014","40.023","-100.5626","819.0","MCCOOK 12.8 SSE, NE US","        77","N","        45","N","         6","N","  44.5"," ,N,0609, ","    613.9"," ,N"
