"STATION","DATE","LATITUDE","LONGITUDE","ELEVATION","NAME","DP01","DP01_ATTRIBUTES","DP10","DP10_ATTRIBUTES","DP1X","DP1X_ATTRIBUTES","EMXP","EMXP_ATTRIBUTES","PRCP","PRCP_ATTRIBUTES"
"US10sher017","2008","42.9929","-102.4713","1057.0","RUSHVILLE 18.9 N, NE US","        68","N","        51","N","         4","N","  61.0"," ,N,1107, ","    542.9"," ,N"
"US10sher017","2009","42.9929","-102.4713","1057.0","RUSHVILLE 18.9 N, NE US","        76","N","        54","N","         3","N","  29.7"," ,N,0614, ","    524.1"," ,N"
"US10sher017","2010","42.9929","-102.4713","1057.0","RUSHVILLE 18.9 N, NE US","        64","N","        43","N","         4","N","  53.3"," ,N,1010, ","    550.2"," ,N"
"US10sher017","2011","42.9929","-102.4713","1057.0","RUSHVILLE 18.9 N, NE US","        69","N","        54","N","         5","N","  44.2"," ,N,0712, ","    570.1"," ,N"
"US10sher017","2012","42.9929","-102.4713","1057.0","RUSHVILLE 18.9 N, NE US","        40","N","        32","N","         1","N","  29.0"," ,N,0722, ","    320.6"," ,N"
"US10sher017","2013","42.9929","-102.4713","1057.0","RUSHVILLE 18.9 N, NE US","        63","N","        47","N","         4","N","  35.3"," ,N,0112, ","    582.5"," ,N"
"US10sher017","2014","42.9929","-102.4713","1057.0","RUSHVILLE 18.9 N, NE US","        65","N","        47","N","         4","N","  83.8"," ,N,0712, ","    688.8"," ,N"
