"STATION","DATE","LATITUDE","LONGITUDE","ELEVATION","NAME","DP01","DP01_ATTRIBUTES","DP10","DP10_ATTRIBUTES","DP1X","DP1X_ATTRIBUTES","EMXP","EMXP_ATTRIBUTES","PRCP","PRCP_ATTRIBUTES"
"US1ARMR0013","2013","36.3141093403101","-92.7640921622515","385.6","YELLVILLE 7.3 NW, AR US","       104","N","        84","N","        12","N","  46.5"," ,N,0130, ","   1139.8"," ,N"
"US1ARMR0013","2014","36.3141093403101","-92.7640921622515","385.6","YELLVILLE 7.3 NW, AR US","        91","N","        66","N","        10","N","  48.3"," ,N,0316, ","    904.9"," ,N"
"US1ARMR0013","2015","36.3141093403101","-92.7640921622515","385.6","YELLVILLE 7.3 NW, AR US","        93","N","        78","N","        22","N"," 137.4"," ,N,1228, ","   1609.5"," ,N"
"US1ARMR0013","2017","36.3141093403101","-92.7640921622515","385.6","YELLVILLE 7.3 NW, AR US","        88","N","        58","N","        11","N","  81.0"," ,N,0422, ","   1005.5"," ,N"
"US1ARMR0013","2018","36.3141093403101","-92.7640921622515","385.6","YELLVILLE 7.3 NW, AR US","       106","N","        81","N","        14","N","  59.9"," ,N,0221, ","   1246.7"," ,N"
"US1ARMR0013","2019","36.3141093403101","-92.7640921622515","385.6","YELLVILLE 7.3 NW, AR US","       109","N","        75","N","        20","N"," 101.1"," ,N,1007, ","   1547.4"," ,N"
