"STATION","DATE","LATITUDE","LONGITUDE","ELEVATION","NAME","DP01","DP01_ATTRIBUTES","DP10","DP10_ATTRIBUTES","DP1X","DP1X_ATTRIBUTES","DSND","DSND_ATTRIBUTES","DSNW","DSNW_ATTRIBUTES","EMSD","EMSD_ATTRIBUTES","EMSN","EMSN_ATTRIBUTES","EMXP","EMXP_ATTRIBUTES","PRCP","PRCP_ATTRIBUTES","SNOW","SNOW_ATTRIBUTES"
"US1ARPS0058","2014","34.82398","-92.25307","155.4","NORTH LITTLE ROCK 2.5 N, AR US","       117","N","        71","N","        10","N","        5","","         2","N","    71"," ,N,0208, ","    71"," ,N,0208, ","  75.9"," ,N,0414, ","   1111.3"," ,N","      139"," ,N"
"US1ARPS0058","2015","34.82398","-92.25307","155.4","NORTH LITTLE ROCK 2.5 N, AR US","       122","N","        82","N","        21","N","        9","","         2","N","   152"," ,N,0305, ","   152"," ,N,0305, "," 127.3"," ,N,1228, ","   1667.5"," ,N","      244"," ,N"
"US1ARPS0058","2016","34.82398","-92.25307","155.4","NORTH LITTLE ROCK 2.5 N, AR US","       107","N","        76","N","        13","N","        3","","         1","N","   178"," ,N,0122, ","   173"," ,N,0122, "," 131.1"," ,N,0430, ","   1357.0"," ,N","      176"," ,N"
"US1ARPS0058","2017","34.82398","-92.25307","155.4","NORTH LITTLE ROCK 2.5 N, AR US","       112","N","        72","N","        15","N","        2","","         1","N","    25"," ,N,0107,+","    25"," ,N,0106, "," 136.4"," ,N,0430, ","   1279.9"," ,N","       25"," ,N"
"US1ARPS0058","2018","34.82398","-92.25307","155.4","NORTH LITTLE ROCK 2.5 N, AR US","       139","N","        92","N","        25","N","        3","","         1","N","    51"," ,N,0116, ","    41"," ,N,0116, "," 103.6"," ,N,0223, ","   1813.3"," ,N","       61"," ,N"
"US1ARPS0058","2019","34.82398","-92.25307","155.4","NORTH LITTLE ROCK 2.5 N, AR US","","","","","","","        0","","         0","N","     0"," ,N,1231,+","     0","T,N,1210,+","","","","","        0","T,N"
