"STATION","DATE","LATITUDE","LONGITUDE","ELEVATION","NAME","DP01","DP01_ATTRIBUTES","DP10","DP10_ATTRIBUTES","DP1X","DP1X_ATTRIBUTES","EMXP","EMXP_ATTRIBUTES","PRCP","PRCP_ATTRIBUTES"
"US1AZMH0004","2012","34.766303","-114.495421","169.2","TOPOCK 3.3 NNW, AZ US","        24","N","        12","N","         0","N","  24.4"," ,N,0713, ","    124.2"," ,N"
"US1AZMH0004","2013","34.766303","-114.495421","169.2","TOPOCK 3.3 NNW, AZ US","        23","N","        12","N","         0","N","  24.6"," ,N,0830, ","    121.1"," ,N"
"US1AZMH0004","2014","34.766303","-114.495421","169.2","TOPOCK 3.3 NNW, AZ US","        19","N","         8","N","         1","N","  29.2"," ,N,0909, ","    103.8"," ,N"
"US1AZMH0004","2015","34.766303","-114.495421","169.2","TOPOCK 3.3 NNW, AZ US","        25","N","        13","N","         0","N","  22.9"," ,N,1214, ","    138.0"," ,N"
"US1AZMH0004","2016","34.766303","-114.495421","169.2","TOPOCK 3.3 NNW, AZ US","        29","N","        17","N","         0","N","  21.6"," ,N,1222, ","    155.6"," ,N"
"US1AZMH0004","2017","34.766303","-114.495421","169.2","TOPOCK 3.3 NNW, AZ US","        21","N","        10","N","         1","N","  25.4"," ,N,0908, ","    106.5"," ,N"
