"STATION","DATE","LATITUDE","LONGITUDE","ELEVATION","NAME","DP01","DP01_ATTRIBUTES","DP10","DP10_ATTRIBUTES","DP1X","DP1X_ATTRIBUTES","EMXP","EMXP_ATTRIBUTES","PRCP","PRCP_ATTRIBUTES"
"US1AZYV0003","2010","34.861139","-111.808011","1338.7","SEDONA 0.7 W, AZ US","        66","N","        45","N","         5","N","  63.5"," ,N,0121, ","    570.3"," ,N"
"US1AZYV0003","2011","34.861139","-111.808011","1338.7","SEDONA 0.7 W, AZ US","        39","N","        27","N","         2","N","  34.3"," ,N,0219, ","    277.9"," ,N"
