"STATION","DATE","LATITUDE","LONGITUDE","ELEVATION","NAME","DP01","DP01_ATTRIBUTES","DP10","DP10_ATTRIBUTES","DP1X","DP1X_ATTRIBUTES","EMXP","EMXP_ATTRIBUTES","PRCP","PRCP_ATTRIBUTES"
"US1AZYV0052","2015","34.43488611","-112.607875","1466.4","PRESCOTT 11.1 SW, AZ US","        77","N","        47","N","         2","N","  30.7"," ,N,0303, ","    482.6"," ,N"
"US1AZYV0052","2016","34.43488611","-112.607875","1466.4","PRESCOTT 11.1 SW, AZ US","        71","N","        40","N","         3","N","  35.6"," ,N,1222, ","    404.1"," ,N"
"US1AZYV0052","2017","34.43488611","-112.607875","1466.4","PRESCOTT 11.1 SW, AZ US","        59","N","        31","N","         5","N","  51.1"," ,N,0228, ","    435.0"," ,N"
"US1AZYV0052","2018","34.43488611","-112.607875","1466.4","PRESCOTT 11.1 SW, AZ US","        68","N","        39","N","         1","N","  27.9"," ,N,0110, ","    366.0"," ,N"
"US1AZYV0052","2019","34.43488611","-112.607875","1466.4","PRESCOTT 11.1 SW, AZ US","        69","N","        42","N","         4","N","  76.2"," ,N,1129, ","    584.3"," ,N"
