"STATION","DATE","LATITUDE","LONGITUDE","ELEVATION","NAME","DP01","DP01_ATTRIBUTES","DP10","DP10_ATTRIBUTES","DP1X","DP1X_ATTRIBUTES","EMXP","EMXP_ATTRIBUTES","PRCP","PRCP_ATTRIBUTES"
"US1AZPM0261","2016","32.2554856404608","-110.844934612517","766.6","TUCSON 5.0 ENE, AZ US","        57","N","        32","N","         2","N","  42.9"," ,N,0702, ","    377.7"," ,N"
"US1AZPM0261","2018","32.2554856404608","-110.844934612517","766.6","TUCSON 5.0 ENE, AZ US","        53","N","        35","N","         2","N","  26.2"," ,N,1014, ","    348.2"," ,N"
"US1AZPM0261","2019","32.2554856404608","-110.844934612517","766.6","TUCSON 5.0 ENE, AZ US","        61","N","        35","N","         2","N","  33.3"," ,N,0829, ","    392.8"," ,N"
