"STATION","DATE","LATITUDE","LONGITUDE","ELEVATION","NAME","DP01","DP01_ATTRIBUTES","DP10","DP10_ATTRIBUTES","DP1X","DP1X_ATTRIBUTES","EMXP","EMXP_ATTRIBUTES","PRCP","PRCP_ATTRIBUTES"
"US1CASC0012","2009","37.31905","-121.788742","61.0","SAN JOSE 3.5 ENE, CA US","        52","N","        29","N","         4","N","  54.4"," ,N,1014, ","    375.3"," ,N"
"US1CASC0012","2010","37.31905","-121.788742","61.0","SAN JOSE 3.5 ENE, CA US","        82","N","        52","N","         4","N","  34.0"," ,N,0120, ","    542.6"," ,N"
"US1CASC0012","2011","37.31905","-121.788742","61.0","SAN JOSE 3.5 ENE, CA US","        73","N","        37","N","         2","N","  29.0"," ,N,0219, ","    346.2"," ,N"
"US1CASC0012","2012","37.31905","-121.788742","61.0","SAN JOSE 3.5 ENE, CA US","        76","N","        38","N","         1","N","  26.2"," ,N,1224, ","    384.1"," ,N"
"US1CASC0012","2013","37.31905","-121.788742","61.0","SAN JOSE 3.5 ENE, CA US","        35","N","        13","N","         0","N","  17.3"," ,N,0922, ","    110.9"," ,N"
"US1CASC0012","2017","37.31905","-121.788742","61.0","SAN JOSE 3.5 ENE, CA US","        77","N","        42","N","         4","N","  39.9"," ,N,0221, ","    491.3"," ,N"
