"STATION","DATE","LATITUDE","LONGITUDE","ELEVATION","NAME","DP01","DP01_ATTRIBUTES","DP10","DP10_ATTRIBUTES","DP1X","DP1X_ATTRIBUTES","EMXP","EMXP_ATTRIBUTES","PRCP","PRCP_ATTRIBUTES"
"US1CODG0231","2015","39.1949","-104.933347","2193.0","LARKSPUR 2.2 WNW, CO US","       143","N","        77","N","         9","N","  51.6"," ,N,1117, ","    919.7"," ,N"
"US1CODG0231","2017","39.1949","-104.933347","2193.0","LARKSPUR 2.2 WNW, CO US","       111","N","        47","N","         1","N","  27.9"," ,N,0519, ","    514.1"," ,N"
