"STATION","DATE","LATITUDE","LONGITUDE","ELEVATION","NAME","DP01","DP01_ATTRIBUTES","DP10","DP10_ATTRIBUTES","DP1X","DP1X_ATTRIBUTES","EMXP","EMXP_ATTRIBUTES","PRCP","PRCP_ATTRIBUTES"
"US1CAMT0020","2013","36.777","-121.72694","5.2","CASTROVILLE 1.6 ENE, CA US","        41","N","        11","N","         0","N","  16.5"," ,N,0106, ","     77.9"," ,N"
"US1CAMT0020","2014","36.777","-121.72694","5.2","CASTROVILLE 1.6 ENE, CA US","        62","N","        33","N","         3","N"," 108.2"," ,N,1212, ","    471.9"," ,N"
"US1CAMT0020","2015","36.777","-121.72694","5.2","CASTROVILLE 1.6 ENE, CA US","        39","N","        17","N","         0","N","  23.1"," ,N,1222,+","    243.9"," ,N"
"US1CAMT0020","2017","36.777","-121.72694","5.2","CASTROVILLE 1.6 ENE, CA US","        68","N","        37","N","         6","N","  43.7"," ,N,0104, ","    529.0"," ,N"
