"STATION","DATE","LATITUDE","LONGITUDE","ELEVATION","NAME","DP01","DP01_ATTRIBUTES","DP10","DP10_ATTRIBUTES","DP1X","DP1X_ATTRIBUTES","DSNW","DSNW_ATTRIBUTES","EMSN","EMSN_ATTRIBUTES","EMXP","EMXP_ATTRIBUTES","PRCP","PRCP_ATTRIBUTES","SNOW","SNOW_ATTRIBUTES"
"US1COLR1049","2015","40.551022","-105.066383","1524.6","FORT COLLINS 0.3 SSE, CO US","       106","N","        51","N","         2","N","","","","","  42.7"," ,N,0509, ","    511.6"," ,N","",""
"US1COLR1049","2017","40.551022","-105.066383","1524.6","FORT COLLINS 0.3 SSE, CO US","","","","","","","         7","N","   173"," ,N,0519, ","","","","","      703"," ,N"
"US1COLR1049","2018","40.551022","-105.066383","1524.6","FORT COLLINS 0.3 SSE, CO US","        83","N","        38","N","         2","N","","","","","  35.1"," ,N,0503, ","    322.0"," ,N","",""
