"STATION","DATE","LATITUDE","LONGITUDE","ELEVATION","NAME","DP01","DP01_ATTRIBUTES","DP10","DP10_ATTRIBUTES","DP1X","DP1X_ATTRIBUTES","EMXP","EMXP_ATTRIBUTES","PRCP","PRCP_ATTRIBUTES"
"US1CASZ0036","2015","37.1952777777778","-122.140555555556","299.9","BOULDER CREEK 4.1 N, CA US","        56","N","        29","N","         5","N","  94.2"," ,N,0207, ","    555.1"," ,N"
"US1CASZ0036","2016","37.1952777777778","-122.140555555556","299.9","BOULDER CREEK 4.1 N, CA US","        90","N","        60","N","        21","N"," 119.9"," ,N,0306, ","   1361.5"," ,N"
