"STATION","DATE","LATITUDE","LONGITUDE","ELEVATION","NAME","DP01","DP01_ATTRIBUTES","DP10","DP10_ATTRIBUTES","DP1X","DP1X_ATTRIBUTES","DSNW","DSNW_ATTRIBUTES","EMSN","EMSN_ATTRIBUTES","EMXP","EMXP_ATTRIBUTES","PRCP","PRCP_ATTRIBUTES","SNOW","SNOW_ATTRIBUTES"
"US1CAMT0002","2011","36.475668","-121.728467","109.4","CARMEL VALLEY VILLAGE 0.8 SSW, CA US","        56","N","        28","N","         1","N","         0","N","    13"," ,N,0226, ","  53.3"," ,N,0320, ","    396.4"," ,N","       13"," ,N"
"US1CAMT0002","2012","36.475668","-121.728467","109.4","CARMEL VALLEY VILLAGE 0.8 SSW, CA US","        73","N","        36","N","         4","N","         0","N","     0"," ,N,1231,+","  59.4"," ,N,1201, ","    503.3"," ,N","        0"," ,N"
