"STATION","DATE","LATITUDE","LONGITUDE","ELEVATION","NAME","DP01","DP01_ATTRIBUTES","DP10","DP10_ATTRIBUTES","DP1X","DP1X_ATTRIBUTES","DSNW","DSNW_ATTRIBUTES","EMSN","EMSN_ATTRIBUTES","EMXP","EMXP_ATTRIBUTES","PRCP","PRCP_ATTRIBUTES","SNOW","SNOW_ATTRIBUTES"
"US1COBO0084","2005","40.1951","-105.1323","1545.0","LONGMONT 2.6 NW, CO US","","","","","","","","","","","","","    283.4"," ,N","",""
"US1COBO0084","2006","40.1951","-105.1323","1545.0","LONGMONT 2.6 NW, CO US","","","","","","","        15","N","   528"," ,N,1221, ","","","","","     1478"," ,N"
"US1COBO0084","2013","40.1951","-105.1323","1545.0","LONGMONT 2.6 NW, CO US","        76","N","        37","N","         4","N","","","","","  48.5"," ,N,0912, ","    403.5"," ,N","",""
"US1COBO0084","2015","40.1951","-105.1323","1545.0","LONGMONT 2.6 NW, CO US","       100","N","        43","N","         2","N","","","","","  43.4"," ,N,0509,+","    464.3"," ,N","",""
"US1COBO0084","2017","40.1951","-105.1323","1545.0","LONGMONT 2.6 NW, CO US","        82","N","        37","N","         1","N","","","","","  58.9"," ,N,0519, ","    361.9"," ,N","",""
