"STATION","DATE","LATITUDE","LONGITUDE","ELEVATION","NAME","DP01","DP01_ATTRIBUTES","DP10","DP10_ATTRIBUTES","DP1X","DP1X_ATTRIBUTES","DSNW","DSNW_ATTRIBUTES","EMSN","EMSN_ATTRIBUTES","EMXP","EMXP_ATTRIBUTES","PRCP","PRCP_ATTRIBUTES","SNOW","SNOW_ATTRIBUTES"
"US1COFM0030","2005","38.4216","-105.207","1642.0","CANON CITY 2.2 SE, CO US","        65","N","        30","N","         1","N","        12","N","   236"," ,N,0130, ","  36.8"," ,N,0130, ","    302.0"," ,N","     1084"," ,N"
"US1COFM0030","2006","38.4216","-105.207","1642.0","CANON CITY 2.2 SE, CO US","        72","N","        37","N","         2","N","        10","N","   165"," ,N,0120, ","  45.7"," ,N,0706, ","    409.1"," ,N","      866"," ,N"
"US1COFM0030","2007","38.4216","-105.207","1642.0","CANON CITY 2.2 SE, CO US","        70","N","        37","N","         1","N","        20","N","   142"," ,N,1226, ","  36.3"," ,N,0507, ","    323.7"," ,N","     1337"," ,N"
"US1COFM0030","2008","38.4216","-105.207","1642.0","CANON CITY 2.2 SE, CO US","        61","N","        23","N","         0","N","        12","N","   109"," ,N,0108, ","  20.8"," ,N,0606, ","    210.5"," ,N","      874"," ,N"
