"STATION","DATE","LATITUDE","LONGITUDE","ELEVATION","NAME","DP01","DP01_ATTRIBUTES","DP10","DP10_ATTRIBUTES","DP1X","DP1X_ATTRIBUTES","EMXP","EMXP_ATTRIBUTES","PRCP","PRCP_ATTRIBUTES"
"US1CASK0005","2009","41.7326","-122.6495","820.5","YREKA 0.9 WNW, CA US","","","","","","","","","    334.4"," ,N"
"US1CASK0005","2010","41.7326","-122.6495","820.5","YREKA 0.9 WNW, CA US","       129","N","        64","N","         2","N","  46.0"," ,N,1024, ","    643.5"," ,N"
