"STATION","DATE","LATITUDE","LONGITUDE","ELEVATION","NAME","DP01","DP01_ATTRIBUTES","DP10","DP10_ATTRIBUTES","DP1X","DP1X_ATTRIBUTES","EMXP","EMXP_ATTRIBUTES","PRCP","PRCP_ATTRIBUTES"
"US1COBO0009","2011","40.0311","-105.2883","1663.0","BOULDER 1.4 NNW, CO US","        85","N","        40","N","         3","N","  37.3"," ,N,0519, ","    451.3"," ,N"
"US1COBO0009","2016","40.0311","-105.2883","1663.0","BOULDER 1.4 NNW, CO US","        91","N","        35","N","         2","N","  51.1"," ,N,0323, ","    440.3"," ,N"
