"STATION","DATE","LATITUDE","LONGITUDE","ELEVATION","NAME","DP01","DP01_ATTRIBUTES","DP10","DP10_ATTRIBUTES","DP1X","DP1X_ATTRIBUTES","EMXP","EMXP_ATTRIBUTES","PRCP","PRCP_ATTRIBUTES"
"US1DEKN0002","2011","39.175833","-75.6325","20.1","DOVER 6.4 WNW, DE US","       131","N","        84","N","         8","N"," 175.5"," ,N,0828, ","   1347.1"," ,N"
"US1DEKN0002","2013","39.175833","-75.6325","20.1","DOVER 6.4 WNW, DE US","       125","N","        73","N","        16","N"," 117.3"," ,N,0608, ","   1372.1"," ,N"
