"STATION","DATE","LATITUDE","LONGITUDE","ELEVATION","NAME","DP01","DP01_ATTRIBUTES","DP10","DP10_ATTRIBUTES","DP1X","DP1X_ATTRIBUTES","EMXP","EMXP_ATTRIBUTES","PRCP","PRCP_ATTRIBUTES"
"US1FLOR0014","2010","28.502658","-81.352742","30.5","ORLANDO 1.3 E, FL US","       116","N","        69","N","        11","N"," 141.7"," ,N,0702, ","   1291.6"," ,N"
"US1FLOR0014","2011","28.502658","-81.352742","30.5","ORLANDO 1.3 E, FL US","       118","N","        80","N","        16","N"," 131.1"," ,N,1009, ","   1546.7"," ,N"
"US1FLOR0014","2012","28.502658","-81.352742","30.5","ORLANDO 1.3 E, FL US","       131","N","        84","N","        14","N","  61.5"," ,N,0907, ","   1285.7"," ,N"
"US1FLOR0014","2013","28.502658","-81.352742","30.5","ORLANDO 1.3 E, FL US","       148","N","        89","N","        15","N"," 108.7"," ,N,0422, ","   1433.4"," ,N"
