"STATION","DATE","LATITUDE","LONGITUDE","ELEVATION","NAME","DP01","DP01_ATTRIBUTES","DP10","DP10_ATTRIBUTES","DP1X","DP1X_ATTRIBUTES","EMXP","EMXP_ATTRIBUTES","PRCP","PRCP_ATTRIBUTES"
"US1FLDV0019","2010","30.310137","-81.443868","4.9","JACKSONVILLE BEACH 4.4 WNW, FL US","        86","N","        60","N","         8","N","  81.3"," ,N,1103, ","    769.9"," ,N"
"US1FLDV0019","2012","30.310137","-81.443868","4.9","JACKSONVILLE BEACH 4.4 WNW, FL US","       122","N","        73","N","        11","N"," 158.8"," ,N,0625, ","   1840.9"," ,N"
"US1FLDV0019","2013","30.310137","-81.443868","4.9","JACKSONVILLE BEACH 4.4 WNW, FL US","       142","N","        96","N","        18","N"," 117.6"," ,N,0503, ","   1597.5"," ,N"
"US1FLDV0019","2014","30.310137","-81.443868","4.9","JACKSONVILLE BEACH 4.4 WNW, FL US","       128","N","        94","N","        29","N"," 117.1"," ,N,0917, ","   1870.7"," ,N"
"US1FLDV0019","2015","30.310137","-81.443868","4.9","JACKSONVILLE BEACH 4.4 WNW, FL US","       142","N","        86","N","        16","N"," 269.2"," ,N,1109, ","   1808.4"," ,N"
