"STATION","DATE","LATITUDE","LONGITUDE","ELEVATION","NAME","DP01","DP01_ATTRIBUTES","DP10","DP10_ATTRIBUTES","DP1X","DP1X_ATTRIBUTES","EMXP","EMXP_ATTRIBUTES","PRCP","PRCP_ATTRIBUTES"
"US1FLAL0026","2014","29.65547","-82.31708","53.3","GAINESVILLE 1.7 SE, FL US","       123","N","        86","N","        22","N","  82.6"," ,N,0815, ","   1651.4"," ,N"
"US1FLAL0026","2015","29.65547","-82.31708","53.3","GAINESVILLE 1.7 SE, FL US","       137","N","        81","N","        13","N","  70.1"," ,N,0831, ","   1296.3"," ,N"
