"STATION","DATE","LATITUDE","LONGITUDE","ELEVATION","NAME","DP01","DP01_ATTRIBUTES","DP10","DP10_ATTRIBUTES","DP1X","DP1X_ATTRIBUTES","EMXP","EMXP_ATTRIBUTES","PRCP","PRCP_ATTRIBUTES"
"US1FLES0026","2016","30.466405","-87.171483","33.8","PENSACOLA 1.9 NE, FL US","       113","N","        82","N","        23","N"," 100.1"," ,N,1206, ","   1668.3"," ,N"
"US1FLES0026","2017","30.466405","-87.171483","33.8","PENSACOLA 1.9 NE, FL US","       122","N","        83","N","        26","N"," 152.7"," ,N,0621, ","   2346.9"," ,N"
"US1FLES0026","2018","30.466405","-87.171483","33.8","PENSACOLA 1.9 NE, FL US","       149","N","       103","N","        24","N"," 132.6"," ,N,0905, ","   2256.0"," ,N"
"US1FLES0026","2019","30.466405","-87.171483","33.8","PENSACOLA 1.9 NE, FL US","       123","N","        79","N","        17","N"," 100.6"," ,N,0810, ","   1455.1"," ,N"
