"STATION","DATE","LATITUDE","LONGITUDE","ELEVATION","NAME","DP01","DP01_ATTRIBUTES","DP10","DP10_ATTRIBUTES","DP1X","DP1X_ATTRIBUTES","EMXP","EMXP_ATTRIBUTES","PRCP","PRCP_ATTRIBUTES"
"US1GAMA0022","2016","34.056522","-83.296406","239.0","HULL 2.9 N, GA US","        96","N","        62","N","         6","N","  44.7"," ,N,0122, ","    789.7"," ,N"
"US1GAMA0022","2017","34.056522","-83.296406","239.0","HULL 2.9 N, GA US","       103","N","        73","N","        16","N","  88.1"," ,N,0616, ","   1454.9"," ,N"
