"STATION","DATE","LATITUDE","LONGITUDE","ELEVATION","NAME","DP01","DP01_ATTRIBUTES","DP10","DP10_ATTRIBUTES","DP1X","DP1X_ATTRIBUTES","EMXP","EMXP_ATTRIBUTES","PRCP","PRCP_ATTRIBUTES"
"US1INMN0003","2007","39.261861","-86.593625","233.2","ELLETTSVILLE 2.7 NE, IN US","","","","","","","","","   1065.6"," ,N"
"US1INMN0003","2014","39.261861","-86.593625","233.2","ELLETTSVILLE 2.7 NE, IN US","       158","N","        83","N","        12","N","  64.8"," ,N,0902, ","   1193.6"," ,N"
"US1INMN0003","2017","39.261861","-86.593625","233.2","ELLETTSVILLE 2.7 NE, IN US","       143","N","        68","N","        11","N","  67.8"," ,N,1106, ","   1182.8"," ,N"
