"STATION","DATE","LATITUDE","LONGITUDE","ELEVATION","NAME","DP01","DP01_ATTRIBUTES","DP10","DP10_ATTRIBUTES","DP1X","DP1X_ATTRIBUTES","EMXP","EMXP_ATTRIBUTES","PRCP","PRCP_ATTRIBUTES"
"US1ILRH0007","2013","38.139833","-89.739255","146.0","SPARTA 2.4 NW, IL US","       107","N","        76","N","        16","N","  80.3"," ,N,0531, ","   1226.7"," ,N"
"US1ILRH0007","2015","38.139833","-89.739255","146.0","SPARTA 2.4 NW, IL US","       112","N","        78","N","        16","N","  77.2"," ,N,1227,+","   1503.3"," ,N"
"US1ILRH0007","2017","38.139833","-89.739255","146.0","SPARTA 2.4 NW, IL US","        91","N","        57","N","        10","N","  91.7"," ,N,0430, ","    979.3"," ,N"
"US1ILRH0007","2018","38.139833","-89.739255","146.0","SPARTA 2.4 NW, IL US","","","","","","","","","   1513.3"," ,N"
"US1ILRH0007","2019","38.139833","-89.739255","146.0","SPARTA 2.4 NW, IL US","       120","N","        80","N","        10","N","  49.3"," ,N,1027, ","   1103.0"," ,N"
