"STATION","DATE","LATITUDE","LONGITUDE","ELEVATION","NAME","DP01","DP01_ATTRIBUTES","DP10","DP10_ATTRIBUTES","DP1X","DP1X_ATTRIBUTES","EMXP","EMXP_ATTRIBUTES","PRCP","PRCP_ATTRIBUTES"
"US1ILLG0030","2012","40.25812","-89.36701","192.0","ATLANTA 7.1 W, IL US","        86","N","        54","N","         5","N","  57.9"," ,N,1014, ","    632.9"," ,N"
"US1ILLG0030","2013","40.25812","-89.36701","192.0","ATLANTA 7.1 W, IL US","        91","N","        65","N","         4","N","  40.6"," ,N,0411, ","    820.8"," ,N"
"US1ILLG0030","2016","40.25812","-89.36701","192.0","ATLANTA 7.1 W, IL US","        96","N","        69","N","         7","N","  37.1"," ,N,0722, ","    861.8"," ,N"
"US1ILLG0030","2017","40.25812","-89.36701","192.0","ATLANTA 7.1 W, IL US","        93","N","        61","N","         7","N","  59.7"," ,N,0710, ","    758.9"," ,N"
"US1ILLG0030","2019","40.25812","-89.36701","192.0","ATLANTA 7.1 W, IL US","       115","N","        76","N","         8","N","  66.5"," ,N,0501, ","   1090.4"," ,N"
