"STATION","DATE","LATITUDE","LONGITUDE","ELEVATION","NAME","DP01","DP01_ATTRIBUTES","DP10","DP10_ATTRIBUTES","DP1X","DP1X_ATTRIBUTES","DSND","DSND_ATTRIBUTES","DSNW","DSNW_ATTRIBUTES","EMSD","EMSD_ATTRIBUTES","EMSN","EMSN_ATTRIBUTES","EMXP","EMXP_ATTRIBUTES","PRCP","PRCP_ATTRIBUTES","SNOW","SNOW_ATTRIBUTES"
"US1ILOG0004","2010","42.1747","-89.2678","224.9","BYRON 3.2 N, IL US","       124","N","        65","N","         7","N","","","","","","","",""," 127.3"," ,N,0724, ","   1007.5"," ,N","",""
"US1ILOG0004","2011","42.1747","-89.2678","224.9","BYRON 3.2 N, IL US","       121","N","        62","N","        10","N","","","","","","","","","  78.5"," ,N,0728, ","    933.5"," ,N","",""
"US1ILOG0004","2012","42.1747","-89.2678","224.9","BYRON 3.2 N, IL US","        99","N","        63","N","         2","N","","","","","","","","","  69.1"," ,N,0415, ","    607.2"," ,N","",""
"US1ILOG0004","2013","42.1747","-89.2678","224.9","BYRON 3.2 N, IL US","       136","N","        75","N","         5","N","","","","","","","","","  99.3"," ,N,0418, ","    959.3"," ,N","",""
"US1ILOG0004","2014","42.1747","-89.2678","224.9","BYRON 3.2 N, IL US","       136","N","        71","N","         8","N","","","","","","","","","  62.5"," ,N,0619, ","    896.8"," ,N","",""
"US1ILOG0004","2016","42.1747","-89.2678","224.9","BYRON 3.2 N, IL US","       131","N","        69","N","        11","N","","","         6","N","","","   135"," ,N,1205, ","  45.0"," ,N,0722, ","    910.9"," ,N","      591"," ,N"
"US1ILOG0004","2017","42.1747","-89.2678","224.9","BYRON 3.2 N, IL US","       131","N","        73","N","        12","N","       12","","         6","N","    76"," ,N,1231,+","    69"," ,N,0313, ","  74.7"," ,N,0720, ","   1074.2"," ,N","      289"," ,N"
