"STATION","DATE","LATITUDE","LONGITUDE","ELEVATION","NAME","DP01","DP01_ATTRIBUTES","DP10","DP10_ATTRIBUTES","DP1X","DP1X_ATTRIBUTES","EMXP","EMXP_ATTRIBUTES","PRCP","PRCP_ATTRIBUTES"
"US1INDV0017","2012","38.620518","-87.135882","149.0","WASHINGTON 3.3 SE, IN US","       111","N","        70","N","         7","N","  69.3"," ,N,0926, ","    877.1"," ,N"
"US1INDV0017","2013","38.620518","-87.135882","149.0","WASHINGTON 3.3 SE, IN US","","","","","","","","","   1332.7"," ,N"
"US1INDV0017","2014","38.620518","-87.135882","149.0","WASHINGTON 3.3 SE, IN US","       124","N","        75","N","        11","N","  55.4"," ,N,0404, ","   1152.4"," ,N"
"US1INDV0017","2016","38.620518","-87.135882","149.0","WASHINGTON 3.3 SE, IN US","","","","","","","","","   1151.0"," ,N"
