"STATION","DATE","LATITUDE","LONGITUDE","ELEVATION","NAME","DP01","DP01_ATTRIBUTES","DP10","DP10_ATTRIBUTES","DP1X","DP1X_ATTRIBUTES","EMXP","EMXP_ATTRIBUTES","PRCP","PRCP_ATTRIBUTES"
"US1ILWL0063","2013","41.49964","-87.96025","213.7","NEW LENOX 1.8 SE, IL US","       149","N","        69","N","         8","N","  77.2"," ,N,0418, ","    939.2"," ,N"
"US1ILWL0063","2015","41.49964","-87.96025","213.7","NEW LENOX 1.8 SE, IL US","","","","","","","","","   1138.5"," ,N"
"US1ILWL0063","2016","41.49964","-87.96025","213.7","NEW LENOX 1.8 SE, IL US","       141","N","        71","N","         8","N","  75.4"," ,N,0813, ","   1026.9"," ,N"
"US1ILWL0063","2017","41.49964","-87.96025","213.7","NEW LENOX 1.8 SE, IL US","       138","N","        74","N","        11","N","  78.2"," ,N,1015, ","   1236.9"," ,N"
