"STATION","DATE","LATITUDE","LONGITUDE","ELEVATION","NAME","DP01","DP01_ATTRIBUTES","DP10","DP10_ATTRIBUTES","DP1X","DP1X_ATTRIBUTES","EMXP","EMXP_ATTRIBUTES","PRCP","PRCP_ATTRIBUTES"
"US1ILWL0099","2013","41.407458","-87.962401","204.5","MANHATTAN 1.9 SE, IL US","       126","N","        66","N","         7","N","  92.7"," ,N,0418, ","    957.9"," ,N"
"US1ILWL0099","2014","41.407458","-87.962401","204.5","MANHATTAN 1.9 SE, IL US","       127","N","        76","N","        12","N","  62.5"," ,N,0712, ","   1167.9"," ,N"
"US1ILWL0099","2015","41.407458","-87.962401","204.5","MANHATTAN 1.9 SE, IL US","       116","N","        78","N","        11","N","  69.1"," ,N,0616, ","   1162.0"," ,N"
"US1ILWL0099","2016","41.407458","-87.962401","204.5","MANHATTAN 1.9 SE, IL US","       113","N","        68","N","        14","N","  56.9"," ,N,0718, ","   1114.7"," ,N"
"US1ILWL0099","2018","41.407458","-87.962401","204.5","MANHATTAN 1.9 SE, IL US","       126","N","        74","N","         7","N","  72.9"," ,N,0622, ","    971.3"," ,N"
