"STATION","DATE","LATITUDE","LONGITUDE","ELEVATION","NAME","DP01","DP01_ATTRIBUTES","DP10","DP10_ATTRIBUTES","DP1X","DP1X_ATTRIBUTES","DSND","DSND_ATTRIBUTES","DSNW","DSNW_ATTRIBUTES","EMSD","EMSD_ATTRIBUTES","EMSN","EMSN_ATTRIBUTES","EMXP","EMXP_ATTRIBUTES","PRCP","PRCP_ATTRIBUTES","SNOW","SNOW_ATTRIBUTES"
"US1IAST0030","2015","41.644656","-90.587065","236.8","ELDRIDGE 0.7 SSW, IA US","       117","N","        71","N","        15","N","","","         8","N","","","   203"," ,N,1121, "," 102.1"," ,N,0707, ","   1231.4"," ,N","     1037"," ,N"
"US1IAST0030","2016","41.644656","-90.587065","236.8","ELDRIDGE 0.7 SSW, IA US","       115","N","        70","N","        11","N","       30","","         7","N","   152"," ,N,1205, ","   183"," ,N,1205, "," 126.5"," ,N,0812, ","   1066.0"," ,N","      575"," ,N"
"US1IAST0030","2017","41.644656","-90.587065","236.8","ELDRIDGE 0.7 SSW, IA US","       122","N","        62","N","        10","N","","","         4","N","","","   130"," ,N,1230, ","  85.9"," ,N,0921, ","    931.1"," ,N","      403"," ,N"
"US1IAST0030","2018","41.644656","-90.587065","236.8","ELDRIDGE 0.7 SSW, IA US","       136","N","        81","N","        11","N","","","        13","N","","","   305"," ,N,1126, ","  84.1"," ,N,0621, ","   1188.9"," ,N","     1255"," ,N"
"US1IAST0030","2019","41.644656","-90.587065","236.8","ELDRIDGE 0.7 SSW, IA US","       158","N","        94","N","        10","N","","","        17","N","","","   135"," ,N,0123, ","  52.6"," ,N,0529, ","   1219.0"," ,N","     1365"," ,N"
