"STATION","DATE","LATITUDE","LONGITUDE","ELEVATION","NAME","DP01","DP01_ATTRIBUTES","DP10","DP10_ATTRIBUTES","DP1X","DP1X_ATTRIBUTES","DSNW","DSNW_ATTRIBUTES","EMSN","EMSN_ATTRIBUTES","EMXP","EMXP_ATTRIBUTES","PRCP","PRCP_ATTRIBUTES","SNOW","SNOW_ATTRIBUTES"
"US1ILLK0049","2009","42.3954","-88.1474","230.1","FOX LAKE 1.6 E, IL US","       149","N","        89","N","        14","N","        12","N","   178"," ,N,0110, ","  58.4"," ,N,0620, ","   1133.0"," ,N","     1105"," ,N"
"US1ILLK0049","2010","42.3954","-88.1474","230.1","FOX LAKE 1.6 E, IL US","       132","N","        66","N","         7","N","","","","","  58.4"," ,N,0724, ","    898.1"," ,N","",""
