"STATION","DATE","LATITUDE","LONGITUDE","ELEVATION","NAME","DP01","DP01_ATTRIBUTES","DP10","DP10_ATTRIBUTES","DP1X","DP1X_ATTRIBUTES","DSND","DSND_ATTRIBUTES","DSNW","DSNW_ATTRIBUTES","EMSD","EMSD_ATTRIBUTES","EMSN","EMSN_ATTRIBUTES","EMXP","EMXP_ATTRIBUTES","PRCP","PRCP_ATTRIBUTES","SNOW","SNOW_ATTRIBUTES"
"US1ILDW0007","2018","40.14727","-88.967827","224.9","CLINTON 0.4 WSW, IL US","       122","N","        87","N","        10","N","","","","","","","","","  62.0"," ,N,0730, ","   1168.5"," ,N","",""
"US1ILDW0007","2019","40.14727","-88.967827","224.9","CLINTON 0.4 WSW, IL US","       142","N","        91","N","        12","N","       36","","        11","N","   229"," ,N,0113, ","   152"," ,N,0112, ","  84.6"," ,N,0501, ","   1219.2"," ,N","      689"," ,N"
