"STATION","DATE","LATITUDE","LONGITUDE","ELEVATION","NAME","DP01","DP01_ATTRIBUTES","DP10","DP10_ATTRIBUTES","DP1X","DP1X_ATTRIBUTES","EMXP","EMXP_ATTRIBUTES","PRCP","PRCP_ATTRIBUTES"
"US1KSSA0007","2010","38.74486","-97.723469","399.3","SMOLAN 2.2 WNW, KS US","        82","N","        47","N","        12","N","  65.0"," ,N,1112, ","    736.0"," ,N"
"US1KSSA0007","2011","38.74486","-97.723469","399.3","SMOLAN 2.2 WNW, KS US","        83","N","        49","N","         6","N","  43.2"," ,N,0525, ","    649.0"," ,N"
"US1KSSA0007","2012","38.74486","-97.723469","399.3","SMOLAN 2.2 WNW, KS US","        64","N","        35","N","         6","N","  43.9"," ,N,0203, ","    502.3"," ,N"
"US1KSSA0007","2013","38.74486","-97.723469","399.3","SMOLAN 2.2 WNW, KS US","        93","N","        54","N","        10","N","  81.3"," ,N,0530, ","    988.9"," ,N"
"US1KSSA0007","2014","38.74486","-97.723469","399.3","SMOLAN 2.2 WNW, KS US","        94","N","        57","N","         8","N","  78.0"," ,N,0610, ","    770.8"," ,N"
"US1KSSA0007","2015","38.74486","-97.723469","399.3","SMOLAN 2.2 WNW, KS US","        96","N","        50","N","        11","N","  52.1"," ,N,1213, ","    804.2"," ,N"
"US1KSSA0007","2016","38.74486","-97.723469","399.3","SMOLAN 2.2 WNW, KS US","        87","N","        58","N","         4","N"," 109.5"," ,N,0831, ","    841.5"," ,N"
"US1KSSA0007","2017","38.74486","-97.723469","399.3","SMOLAN 2.2 WNW, KS US","        89","N","        52","N","         8","N","  58.7"," ,N,1005, ","    725.3"," ,N"
