"STATION","DATE","LATITUDE","LONGITUDE","ELEVATION","NAME","DP01","DP01_ATTRIBUTES","DP10","DP10_ATTRIBUTES","DP1X","DP1X_ATTRIBUTES","EMXP","EMXP_ATTRIBUTES","PRCP","PRCP_ATTRIBUTES"
"US1KSSG0124","2017","37.696095","-97.457821","408.7","WICHITA 6.3 W, KS US","        78","N","        49","N","        15","N","  66.0"," ,N,0329, ","    932.2"," ,N"
"US1KSSG0124","2018","37.696095","-97.457821","408.7","WICHITA 6.3 W, KS US","        96","N","        57","N","         9","N","  67.8"," ,N,1009, ","    911.4"," ,N"
"US1KSSG0124","2019","37.696095","-97.457821","408.7","WICHITA 6.3 W, KS US","       110","N","        70","N","        15","N","  86.6"," ,N,0521, ","   1140.6"," ,N"
