"STATION","DATE","LATITUDE","LONGITUDE","ELEVATION","NAME","DP01","DP01_ATTRIBUTES","DP10","DP10_ATTRIBUTES","DP1X","DP1X_ATTRIBUTES","EMXP","EMXP_ATTRIBUTES","PRCP","PRCP_ATTRIBUTES"
"US1MTLK0011","2016","47.90258333","-114.2078","895.5","ROLLINS 0.5 WSW, MT US","       145","N","        57","N","         0","N","  20.3"," ,N,1010, ","    453.0"," ,N"
"US1MTLK0011","2017","47.90258333","-114.2078","895.5","ROLLINS 0.5 WSW, MT US","       139","N","        59","N","         0","N","  17.8"," ,N,1230, ","    439.8"," ,N"
"US1MTLK0011","2018","47.90258333","-114.2078","895.5","ROLLINS 0.5 WSW, MT US","       116","N","        39","N","         0","N","  18.5"," ,N,0218, ","    329.3"," ,N"
