"STATION","DATE","LATITUDE","LONGITUDE","ELEVATION","NAME","DP01","DP01_ATTRIBUTES","DP10","DP10_ATTRIBUTES","DP1X","DP1X_ATTRIBUTES","EMXP","EMXP_ATTRIBUTES","PRCP","PRCP_ATTRIBUTES"
"US1MSRN0029","2012","32.2685","-89.970116667","118.3","BRANDON 2.1 ESE, MS US","       106","N","        77","N","        29","N"," 100.6"," ,N,0322, ","   1712.4"," ,N"
"US1MSRN0029","2013","32.2685","-89.970116667","118.3","BRANDON 2.1 ESE, MS US","       123","N","        81","N","        20","N"," 121.7"," ,N,1126, ","   1676.2"," ,N"
"US1MSRN0029","2014","32.2685","-89.970116667","118.3","BRANDON 2.1 ESE, MS US","       101","N","        71","N","        25","N"," 103.9"," ,N,0407, ","   1570.5"," ,N"
"US1MSRN0029","2015","32.2685","-89.970116667","118.3","BRANDON 2.1 ESE, MS US","       111","N","        73","N","        19","N"," 112.5"," ,N,1026, ","   1539.8"," ,N"
"US1MSRN0029","2016","32.2685","-89.970116667","118.3","BRANDON 2.1 ESE, MS US","       115","N","        69","N","        14","N"," 129.3"," ,N,0203, ","   1465.0"," ,N"
"US1MSRN0029","2017","32.2685","-89.970116667","118.3","BRANDON 2.1 ESE, MS US","       126","N","        82","N","        19","N"," 158.0"," ,N,0403, ","   1693.3"," ,N"
