"STATION","DATE","LATITUDE","LONGITUDE","ELEVATION","NAME","DP01","DP01_ATTRIBUTES","DP10","DP10_ATTRIBUTES","DP1X","DP1X_ATTRIBUTES","DSNW","DSNW_ATTRIBUTES","EMSN","EMSN_ATTRIBUTES","EMXP","EMXP_ATTRIBUTES","PRCP","PRCP_ATTRIBUTES","SNOW","SNOW_ATTRIBUTES"
"US1MOTX0006","2007","37.256723","-91.709909","395.0","SUMMERSVILLE 6.1 NNW, MO US","       114","N","        66","N","         7","N","         2","N","    28"," ,N,0201, ","  99.3"," ,N,0701, ","    971.2"," ,N","       74"," ,N"
"US1MOTX0006","2008","37.256723","-91.709909","395.0","SUMMERSVILLE 6.1 NNW, MO US","       112","N","        75","N","        14","N","","","",""," 119.9"," ,N,0319, ","   1508.8"," ,N","",""
