"STATION","DATE","LATITUDE","LONGITUDE","ELEVATION","NAME","DP01","DP01_ATTRIBUTES","DP10","DP10_ATTRIBUTES","DP1X","DP1X_ATTRIBUTES","EMXP","EMXP_ATTRIBUTES","PRCP","PRCP_ATTRIBUTES"
"US1MDWH0003","2013","39.642307","-77.701839","160.0","HAGERSTOWN 1.0 ENE, MD US","       127","N","        77","N","        10","N","  87.6"," ,N,1011, ","   1057.7"," ,N"
"US1MDWH0003","2014","39.642307","-77.701839","160.0","HAGERSTOWN 1.0 ENE, MD US","       129","N","        88","N","         9","N","  96.5"," ,N,0516, ","   1227.1"," ,N"
"US1MDWH0003","2015","39.642307","-77.701839","160.0","HAGERSTOWN 1.0 ENE, MD US","       134","N","        83","N","         5","N","  69.9"," ,N,0821, ","    961.6"," ,N"
"US1MDWH0003","2016","39.642307","-77.701839","160.0","HAGERSTOWN 1.0 ENE, MD US","       131","N","        71","N","         5","N","  51.6"," ,N,0731, ","    887.4"," ,N"
"US1MDWH0003","2017","39.642307","-77.701839","160.0","HAGERSTOWN 1.0 ENE, MD US","       137","N","        79","N","         8","N","  66.3"," ,N,1030, ","   1078.2"," ,N"
"US1MDWH0003","2018","39.642307","-77.701839","160.0","HAGERSTOWN 1.0 ENE, MD US","       161","N","       106","N","        16","N","  71.9"," ,N,0722, ","   1694.0"," ,N"
"US1MDWH0003","2019","39.642307","-77.701839","160.0","HAGERSTOWN 1.0 ENE, MD US","       135","N","        84","N","        10","N","  77.5"," ,N,0708, ","   1249.9"," ,N"
