"STATION","DATE","LATITUDE","LONGITUDE","ELEVATION","NAME","DP01","DP01_ATTRIBUTES","DP10","DP10_ATTRIBUTES","DP1X","DP1X_ATTRIBUTES","EMXP","EMXP_ATTRIBUTES","PRCP","PRCP_ATTRIBUTES"
"US1MNMR0013","2018","46.067857","-94.247899","367.9","LITTLE FALLS 8.0 NE, MN US","       134","N","        57","N","         3","N","  44.2"," ,N,0617, ","    691.5"," ,N"
"US1MNMR0013","2019","46.067857","-94.247899","367.9","LITTLE FALLS 8.0 NE, MN US","       148","N","        76","N","        12","N"," 105.4"," ,N,0715, ","   1153.5"," ,N"
