"STATION","DATE","LATITUDE","LONGITUDE","ELEVATION","NAME","DP01","DP01_ATTRIBUTES","DP10","DP10_ATTRIBUTES","DP1X","DP1X_ATTRIBUTES","EMXP","EMXP_ATTRIBUTES","PRCP","PRCP_ATTRIBUTES"
"US1MNSE0002","2010","44.0917","-93.2138","353.3","OWATONNA 0.8 E, MN US","","","","","","","","","    985.8"," ,N"
"US1MNSE0002","2012","44.0917","-93.2138","353.3","OWATONNA 0.8 E, MN US","       111","N","        61","N","         9","N"," 106.2"," ,N,0615, ","    817.2"," ,N"
"US1MNSE0002","2014","44.0917","-93.2138","353.3","OWATONNA 0.8 E, MN US","       138","N","        73","N","         9","N","  73.2"," ,N,0617, ","    982.2"," ,N"
"US1MNSE0002","2015","44.0917","-93.2138","353.3","OWATONNA 0.8 E, MN US","       121","N","        76","N","         8","N","  61.0"," ,N,1112, ","   1001.1"," ,N"
"US1MNSE0002","2016","44.0917","-93.2138","353.3","OWATONNA 0.8 E, MN US","       125","N","        74","N","        12","N"," 111.3"," ,N,0811, ","   1310.0"," ,N"
"US1MNSE0002","2017","44.0917","-93.2138","353.3","OWATONNA 0.8 E, MN US","","","","","","","","","    878.2"," ,N"
"US1MNSE0002","2018","44.0917","-93.2138","353.3","OWATONNA 0.8 E, MN US","       124","N","        69","N","         8","N"," 107.2"," ,N,0905, ","   1035.1"," ,N"
