"STATION","DATE","LATITUDE","LONGITUDE","ELEVATION","NAME","DP01","DP01_ATTRIBUTES","DP10","DP10_ATTRIBUTES","DP1X","DP1X_ATTRIBUTES","EMXP","EMXP_ATTRIBUTES","PRCP","PRCP_ATTRIBUTES"
"US1MIOK0085","2016","42.5543327331543","-83.1391754150391","203.3","TROY 1.8 S, MI US","       117","N","        65","N","         6","N","  52.1"," ,N,0816, ","    838.0"," ,N"
"US1MIOK0085","2017","42.5543327331543","-83.1391754150391","203.3","TROY 1.8 S, MI US","       134","N","        79","N","         8","N","  53.8"," ,N,0829, ","    947.5"," ,N"
"US1MIOK0085","2018","42.5543327331543","-83.1391754150391","203.3","TROY 1.8 S, MI US","       141","N","        82","N","         9","N","  44.5"," ,N,1002, ","    894.9"," ,N"
"US1MIOK0085","2019","42.5543327331543","-83.1391754150391","203.3","TROY 1.8 S, MI US","       141","N","        85","N","         7","N","  50.0"," ,N,0705, ","   1013.7"," ,N"
