"STATION","DATE","LATITUDE","LONGITUDE","ELEVATION","NAME","DP01","DP01_ATTRIBUTES","DP10","DP10_ATTRIBUTES","DP1X","DP1X_ATTRIBUTES","EMXP","EMXP_ATTRIBUTES","PRCP","PRCP_ATTRIBUTES"
"US1MTFH0004","2011","48.410607","-114.329282","928.1","WHITEFISH 0.8 ESE, MT US","","","","","","","","","    563.4"," ,N"
"US1MTFH0004","2013","48.410607","-114.329282","928.1","WHITEFISH 0.8 ESE, MT US","       121","N","        53","N","         3","N","  37.8"," ,N,0523, ","    512.8"," ,N"
"US1MTFH0004","2015","48.410607","-114.329282","928.1","WHITEFISH 0.8 ESE, MT US","       105","N","        50","N","         0","N","  20.3"," ,N,0531, ","    400.5"," ,N"
"US1MTFH0004","2016","48.410607","-114.329282","928.1","WHITEFISH 0.8 ESE, MT US","       148","N","        80","N","         3","N","  37.6"," ,N,0524, ","    716.1"," ,N"
"US1MTFH0004","2019","48.410607","-114.329282","928.1","WHITEFISH 0.8 ESE, MT US","","","","","","","","","    497.0"," ,N"
