"STATION","DATE","LATITUDE","LONGITUDE","ELEVATION","NAME","DP01","DP01_ATTRIBUTES","DP10","DP10_ATTRIBUTES","DP1X","DP1X_ATTRIBUTES","EMXP","EMXP_ATTRIBUTES","PRCP","PRCP_ATTRIBUTES"
"US1MOCS0012","2012","38.617725","-94.184289","268.5","GARDEN CITY 3.9 N, MO US","        65","N","        39","N","         9","N","  81.0"," ,N,0901, ","    657.8"," ,N"
"US1MOCS0012","2014","38.617725","-94.184289","268.5","GARDEN CITY 3.9 N, MO US","        86","N","        57","N","        13","N"," 140.0"," ,N,0403, ","   1239.0"," ,N"
