"STATION","DATE","LATITUDE","LONGITUDE","ELEVATION","NAME","DP01","DP01_ATTRIBUTES","DP10","DP10_ATTRIBUTES","DP1X","DP1X_ATTRIBUTES","EMXP","EMXP_ATTRIBUTES","PRCP","PRCP_ATTRIBUTES"
"US1NVCK0034","2018","36.006546","-114.973375","684.3","HENDERSON 2.5 SE, NV US","        26","N","        14","N","         1","N","  27.7"," ,N,0109, ","    141.3"," ,N"
"US1NVCK0034","2019","36.006546","-114.973375","684.3","HENDERSON 2.5 SE, NV US","        49","N","        22","N","         1","N","  43.2"," ,N,1120, ","    225.6"," ,N"
