"STATION","DATE","LATITUDE","LONGITUDE","ELEVATION","NAME","DP01","DP01_ATTRIBUTES","DP10","DP10_ATTRIBUTES","DP1X","DP1X_ATTRIBUTES","EMXP","EMXP_ATTRIBUTES","PRCP","PRCP_ATTRIBUTES"
"US1NYER0098","2015","43.052068","-78.764317","176.8","AMHERST 5.4 NNE, NY US","       164","N","        76","N","        11","N"," 148.8"," ,N,0815, ","   1089.6"," ,N"
"US1NYER0098","2018","43.052068","-78.764317","176.8","AMHERST 5.4 NNE, NY US","       179","N","       105","N","         5","N","  53.6"," ,N,0818, ","   1021.6"," ,N"
