"STATION","DATE","LATITUDE","LONGITUDE","ELEVATION","NAME","DP01","DP01_ATTRIBUTES","DP10","DP10_ATTRIBUTES","DP1X","DP1X_ATTRIBUTES","EMXP","EMXP_ATTRIBUTES","PRCP","PRCP_ATTRIBUTES"
"US1NCDV0009","2017","35.9957478940487","-80.6641712039709","278.9","SHEFFIELD 1.9 NE, NC US","       110","N","        76","N","        16","N","  96.8"," ,N,0424, ","   1311.1"," ,N"
"US1NCDV0009","2018","35.9957478940487","-80.6641712039709","278.9","SHEFFIELD 1.9 NE, NC US","       130","N","        93","N","        19","N"," 100.8"," ,N,1012, ","   1888.8"," ,N"
"US1NCDV0009","2019","35.9957478940487","-80.6641712039709","278.9","SHEFFIELD 1.9 NE, NC US","       115","N","        86","N","        11","N","  63.2"," ,N,1031, ","   1292.3"," ,N"
