"STATION","DATE","LATITUDE","LONGITUDE","ELEVATION","NAME","DP01","DP01_ATTRIBUTES","DP10","DP10_ATTRIBUTES","DP1X","DP1X_ATTRIBUTES","EMXP","EMXP_ATTRIBUTES","PRCP","PRCP_ATTRIBUTES"
"US1NMCR0010","2014","34.8648219","-103.2107059","1392.3","BROADVIEW 2.7 N, NM US","        54","N","        27","N","         4","N","  46.2"," ,N,0811, ","    404.9"," ,N"
"US1NMCR0010","2015","34.8648219","-103.2107059","1392.3","BROADVIEW 2.7 N, NM US","        81","N","        53","N","        14","N","  60.2"," ,N,0731, ","    950.9"," ,N"
"US1NMCR0010","2016","34.8648219","-103.2107059","1392.3","BROADVIEW 2.7 N, NM US","        63","N","        32","N","         1","N","  56.6"," ,N,0627, ","    365.1"," ,N"
