"STATION","DATE","LATITUDE","LONGITUDE","ELEVATION","NAME","DP01","DP01_ATTRIBUTES","DP10","DP10_ATTRIBUTES","DP1X","DP1X_ATTRIBUTES","EMXP","EMXP_ATTRIBUTES","PRCP","PRCP_ATTRIBUTES"
"US1NCBF0029","2018","35.5428","-77.0587","1.2","WASHINGTON 1.0 SSW, NC US","","","","","","","","","   1533.4"," ,N"
"US1NCBF0029","2019","35.5428","-77.0587","1.2","WASHINGTON 1.0 SSW, NC US","       130","N","        79","N","        10","N"," 132.1"," ,N,0906, ","   1101.4"," ,N"
