"STATION","DATE","LATITUDE","LONGITUDE","ELEVATION","NAME","DP01","DP01_ATTRIBUTES","DP10","DP10_ATTRIBUTES","DP1X","DP1X_ATTRIBUTES","EMXP","EMXP_ATTRIBUTES","PRCP","PRCP_ATTRIBUTES"
"US1NCCM0019","2010","35.019543","-78.712689","39.0","STEDMAN 1.0 NW, NC US","        99","N","        65","N","        14","N"," 105.4"," ,N,0927, ","   1093.9"," ,N"
"US1NCCM0019","2011","35.019543","-78.712689","39.0","STEDMAN 1.0 NW, NC US","       112","N","        73","N","         6","N","  69.3"," ,N,0622, ","    959.3"," ,N"
"US1NCCM0019","2012","35.019543","-78.712689","39.0","STEDMAN 1.0 NW, NC US","       131","N","        87","N","        14","N","  61.0"," ,N,0813, ","   1315.9"," ,N"
"US1NCCM0019","2013","35.019543","-78.712689","39.0","STEDMAN 1.0 NW, NC US","       133","N","        81","N","        13","N","  80.0"," ,N,0607, ","   1195.7"," ,N"
"US1NCCM0019","2014","35.019543","-78.712689","39.0","STEDMAN 1.0 NW, NC US","       110","N","        75","N","        17","N","  69.1"," ,N,0516, ","   1289.9"," ,N"
"US1NCCM0019","2015","35.019543","-78.712689","39.0","STEDMAN 1.0 NW, NC US","       131","N","        90","N","        19","N","  80.5"," ,N,0113, ","   1620.1"," ,N"
"US1NCCM0019","2016","35.019543","-78.712689","39.0","STEDMAN 1.0 NW, NC US","       121","N","        84","N","        20","N"," 338.6"," ,N,1009, ","   1815.5"," ,N"
