"STATION","DATE","LATITUDE","LONGITUDE","ELEVATION","NAME","DP01","DP01_ATTRIBUTES","DP10","DP10_ATTRIBUTES","DP1X","DP1X_ATTRIBUTES","EMXP","EMXP_ATTRIBUTES","PRCP","PRCP_ATTRIBUTES"
"US1NCGS0009","2011","35.249","-81.0335","205.4","BELMONT 0.4 E, NC US","       107","N","        70","N","        12","N","  77.2"," ,N,0517, ","   1154.6"," ,N"
"US1NCGS0009","2012","35.249","-81.0335","205.4","BELMONT 0.4 E, NC US","       113","N","        60","N","         6","N","  65.0"," ,N,0509, ","    836.2"," ,N"
"US1NCGS0009","2013","35.249","-81.0335","205.4","BELMONT 0.4 E, NC US","       126","N","        87","N","        13","N","  76.7"," ,N,0922, ","   1440.9"," ,N"
"US1NCGS0009","2014","35.249","-81.0335","205.4","BELMONT 0.4 E, NC US","       120","N","        77","N","        16","N","  75.2"," ,N,0801, ","   1281.4"," ,N"
"US1NCGS0009","2018","35.249","-81.0335","205.4","BELMONT 0.4 E, NC US","       139","N","        95","N","        18","N","  76.5"," ,N,0917, ","   1542.7"," ,N"
"US1NCGS0009","2019","35.249","-81.0335","205.4","BELMONT 0.4 E, NC US","       117","N","        75","N","        15","N","  61.5"," ,N,0414, ","   1289.7"," ,N"
