"STATION","DATE","LATITUDE","LONGITUDE","ELEVATION","NAME","DP01","DP01_ATTRIBUTES","DP10","DP10_ATTRIBUTES","DP1X","DP1X_ATTRIBUTES","EMXP","EMXP_ATTRIBUTES","PRCP","PRCP_ATTRIBUTES"
"US1NMGR0064","2017","32.9677","-108.0397","1972.1","MIMBRES 8.4 NNW, NM US","        71","N","        35","N","         4","N","  48.5"," ,N,0801, ","    451.4"," ,N"
"US1NMGR0064","2018","32.9677","-108.0397","1972.1","MIMBRES 8.4 NNW, NM US","        71","N","        46","N","         4","N","  43.7"," ,N,0802, ","    462.8"," ,N"
"US1NMGR0064","2019","32.9677","-108.0397","1972.1","MIMBRES 8.4 NNW, NM US","        89","N","        55","N","         4","N","  64.3"," ,N,0915, ","    628.4"," ,N"
