"STATION","DATE","LATITUDE","LONGITUDE","ELEVATION","NAME","DP01","DP01_ATTRIBUTES","DP10","DP10_ATTRIBUTES","DP1X","DP1X_ATTRIBUTES","EMXP","EMXP_ATTRIBUTES","PRCP","PRCP_ATTRIBUTES"
"US1OKCN0034","2018","35.4706202","-98.1821128","409.7","CALUMET 9.6 SSW, OK US","        63","N","        43","N","        11","N","  78.5"," ,N,1008, ","    819.5"," ,N"
"US1OKCN0034","2019","35.4706202","-98.1821128","409.7","CALUMET 9.6 SSW, OK US","        88","N","        61","N","        10","N"," 137.4"," ,N,0521, ","   1051.4"," ,N"
