"STATION","DATE","LATITUDE","LONGITUDE","ELEVATION","NAME","DP01","DP01_ATTRIBUTES","DP10","DP10_ATTRIBUTES","DP1X","DP1X_ATTRIBUTES","EMXP","EMXP_ATTRIBUTES","PRCP","PRCP_ATTRIBUTES"
"US1ORJC0085","2016","42.492582","-123.186792","353.3","ROGUE RIVER 4.1 NNW, OR US","       154","N","        84","N","        13","N","  90.2"," ,N,1014, ","   1324.8"," ,N"
"US1ORJC0085","2017","42.492582","-123.186792","353.3","ROGUE RIVER 4.1 NNW, OR US","       141","N","        94","N","         8","N","  61.0"," ,N,0110, ","   1207.4"," ,N"
"US1ORJC0085","2018","42.492582","-123.186792","353.3","ROGUE RIVER 4.1 NNW, OR US","       113","N","        67","N","         3","N","  38.9"," ,N,0525, ","    723.1"," ,N"
"US1ORJC0085","2019","42.492582","-123.186792","353.3","ROGUE RIVER 4.1 NNW, OR US","       120","N","        78","N","         9","N","  74.9"," ,N,0408, ","    994.1"," ,N"
