"STATION","DATE","LATITUDE","LONGITUDE","ELEVATION","NAME","DP01","DP01_ATTRIBUTES","DP10","DP10_ATTRIBUTES","DP1X","DP1X_ATTRIBUTES","EMXP","EMXP_ATTRIBUTES","PRCP","PRCP_ATTRIBUTES"
"US1ORCY0007","2011","42.502933","-124.36583","100.9","GOLD BEACH 4.8 NE, OR US","       143","N","        95","N","        25","N","  98.0"," ,N,1230, ","   1954.0"," ,N"
"US1ORCY0007","2012","42.502933","-124.36583","100.9","GOLD BEACH 4.8 NE, OR US","","","","","","","","","   3025.9"," ,N"
