"STATION","DATE","LATITUDE","LONGITUDE","ELEVATION","NAME","DP01","DP01_ATTRIBUTES","DP10","DP10_ATTRIBUTES","DP1X","DP1X_ATTRIBUTES","EMXP","EMXP_ATTRIBUTES","PRCP","PRCP_ATTRIBUTES"
"US1OKTN0005","2017","34.3921508789063","-98.6890029907227","345.6","CHATTANOOGA 2.9 SW, OK US","        60","N","        48","N","        16","N"," 154.9"," ,N,0927, ","   1137.7"," ,N"
"US1OKTN0005","2019","34.3921508789063","-98.6890029907227","345.6","CHATTANOOGA 2.9 SW, OK US","        64","N","        46","N","         6","N","  76.2"," ,N,0521, ","    632.9"," ,N"
