"STATION","DATE","LATITUDE","LONGITUDE","ELEVATION","NAME","DP01","DP01_ATTRIBUTES","DP10","DP10_ATTRIBUTES","DP1X","DP1X_ATTRIBUTES","EMXP","EMXP_ATTRIBUTES","PRCP","PRCP_ATTRIBUTES"
"US1OKOK0065","2016","35.590377","-97.443874","353.0","OKLAHOMA CITY 9.4 NNE, OK US","        71","N","        32","N","         8","N","  57.7"," ,N,0901, ","    634.1"," ,N"
"US1OKOK0065","2017","35.590377","-97.443874","353.0","OKLAHOMA CITY 9.4 NNE, OK US","        72","N","        45","N","        14","N","  64.8"," ,N,0927, ","    890.0"," ,N"
