"STATION","DATE","LATITUDE","LONGITUDE","ELEVATION","NAME","DP01","DP01_ATTRIBUTES","DP10","DP10_ATTRIBUTES","DP1X","DP1X_ATTRIBUTES","EMXP","EMXP_ATTRIBUTES","PRCP","PRCP_ATTRIBUTES"
"US1OKMC0013","2018","35.298094","-97.631392","402.6","NEWCASTLE 3.9 NNW, OK US","        81","N","        59","N","        16","N","  84.8"," ,N,0922, ","   1137.5"," ,N"
"US1OKMC0013","2019","35.298094","-97.631392","402.6","NEWCASTLE 3.9 NNW, OK US","        87","N","        68","N","        16","N","  61.0"," ,N,0521, ","   1201.1"," ,N"
