"STATION","DATE","LATITUDE","LONGITUDE","ELEVATION","NAME","DP01","DP01_ATTRIBUTES","DP10","DP10_ATTRIBUTES","DP1X","DP1X_ATTRIBUTES","EMXP","EMXP_ATTRIBUTES","PRCP","PRCP_ATTRIBUTES"
"US1PAMT0094","2017","40.2126350402832","-75.3210906982422","99.1","LANSDALE 2.9 SW, PA US","       124","N","        74","N","         6","N","  64.0"," ,N,1030, ","   1008.3"," ,N"
"US1PAMT0094","2019","40.2126350402832","-75.3210906982422","99.1","LANSDALE 2.9 SW, PA US","       135","N","        93","N","         9","N","  48.3"," ,N,0712, ","   1304.8"," ,N"
