"STATION","DATE","LATITUDE","LONGITUDE","ELEVATION","NAME","DP01","DP01_ATTRIBUTES","DP10","DP10_ATTRIBUTES","DP1X","DP1X_ATTRIBUTES","EMXP","EMXP_ATTRIBUTES","PRCP","PRCP_ATTRIBUTES"
"US1SDMH0091","2018","43.705743","-96.531771","469.1","GARRETSON 1.7 WSW, SD US","       106","N","        70","N","         8","N"," 123.7"," ,N,0621, ","   1038.9"," ,N"
"US1SDMH0091","2019","43.705743","-96.531771","469.1","GARRETSON 1.7 WSW, SD US","       133","N","        79","N","         8","N","  67.3"," ,N,0912, ","   1046.5"," ,N"
