"STATION","DATE","LATITUDE","LONGITUDE","ELEVATION","NAME","DP01","DP01_ATTRIBUTES","DP10","DP10_ATTRIBUTES","DP1X","DP1X_ATTRIBUTES","EMXP","EMXP_ATTRIBUTES","PRCP","PRCP_ATTRIBUTES"
"US1TXHRR209","2015","29.797255","-95.374054","15.5","HOUSTON 2.1 NNE, TX US","       123","N","        74","N","        22","N"," 232.4"," ,N,1025, ","   1978.0"," ,N"
"US1TXHRR209","2016","29.797255","-95.374054","15.5","HOUSTON 2.1 NNE, TX US","       120","N","        76","N","        20","N"," 108.7"," ,N,0418, ","   1619.5"," ,N"
"US1TXHRR209","2017","29.797255","-95.374054","15.5","HOUSTON 2.1 NNE, TX US","       107","N","        72","N","        23","N"," 284.5"," ,N,0827, ","   2246.2"," ,N"
"US1TXHRR209","2018","29.797255","-95.374054","15.5","HOUSTON 2.1 NNE, TX US","       133","N","        76","N","        18","N"," 128.5"," ,N,0705, ","   1456.2"," ,N"
"US1TXHRR209","2019","29.797255","-95.374054","15.5","HOUSTON 2.1 NNE, TX US","       115","N","        73","N","        15","N"," 141.0"," ,N,0920, ","   1308.0"," ,N"
