"STATION","DATE","LATITUDE","LONGITUDE","ELEVATION","NAME","DP01","DP01_ATTRIBUTES","DP10","DP10_ATTRIBUTES","DP1X","DP1X_ATTRIBUTES","EMXP","EMXP_ATTRIBUTES","PRCP","PRCP_ATTRIBUTES"
"US1TXLE0012","2013","30.3798599243164","-96.9875793457031","118.3","LEXINGTON 2.7 SSE, TX US","        90","N","        56","N","         9","N","  82.8"," ,N,1031, ","    940.2"," ,N"
"US1TXLE0012","2015","30.3798599243164","-96.9875793457031","118.3","LEXINGTON 2.7 SSE, TX US","       105","N","        69","N","        25","N"," 195.8"," ,N,1025, ","   1727.1"," ,N"
"US1TXLE0012","2017","30.3798599243164","-96.9875793457031","118.3","LEXINGTON 2.7 SSE, TX US","        68","N","        43","N","        12","N"," 203.7"," ,N,0827, ","   1165.8"," ,N"
