"STATION","DATE","LATITUDE","LONGITUDE","ELEVATION","NAME","DP01","DP01_ATTRIBUTES","DP10","DP10_ATTRIBUTES","DP1X","DP1X_ATTRIBUTES","EMXP","EMXP_ATTRIBUTES","PRCP","PRCP_ATTRIBUTES"
"US1TXKS0009","2011","29.1363667","-97.8102833","103.0","GILLETT 1.6 WNW, TX US","        39","N","        22","N","         5","N","  63.8"," ,N,1009, ","    405.1"," ,N"
"US1TXKS0009","2012","29.1363667","-97.8102833","103.0","GILLETT 1.6 WNW, TX US","        51","N","        34","N","        10","N","  59.2"," ,N,0511, ","    580.1"," ,N"
"US1TXKS0009","2013","29.1363667","-97.8102833","103.0","GILLETT 1.6 WNW, TX US","        80","N","        55","N","         9","N","  76.2"," ,N,0109, ","    788.3"," ,N"
"US1TXKS0009","2014","29.1363667","-97.8102833","103.0","GILLETT 1.6 WNW, TX US","        65","N","        44","N","         9","N","  83.8"," ,N,0527, ","    688.2"," ,N"
"US1TXKS0009","2015","29.1363667","-97.8102833","103.0","GILLETT 1.6 WNW, TX US","        91","N","        59","N","        14","N"," 161.3"," ,N,1025, ","   1180.8"," ,N"
"US1TXKS0009","2016","29.1363667","-97.8102833","103.0","GILLETT 1.6 WNW, TX US","        71","N","        52","N","        14","N"," 115.8"," ,N,0821, ","   1118.8"," ,N"
"US1TXKS0009","2017","29.1363667","-97.8102833","103.0","GILLETT 1.6 WNW, TX US","        58","N","        39","N","        11","N","  84.8"," ,N,0827, ","    864.0"," ,N"
