"STATION","DATE","LATITUDE","LONGITUDE","ELEVATION","NAME","DP01","DP01_ATTRIBUTES","DP10","DP10_ATTRIBUTES","DP1X","DP1X_ATTRIBUTES","EMXP","EMXP_ATTRIBUTES","PRCP","PRCP_ATTRIBUTES"
"US1TXCML147","2016","29.678047","-98.32866","296.9","GARDEN RIDGE 3.7 NW, TX US","        85","N","        49","N","        16","N"," 103.1"," ,N,0926, ","   1236.4"," ,N"
"US1TXCML147","2019","29.678047","-98.32866","296.9","GARDEN RIDGE 3.7 NW, TX US","","","","","","","","","    716.0"," ,N"
