"STATION","DATE","LATITUDE","LONGITUDE","ELEVATION","NAME","DP01","DP01_ATTRIBUTES","DP10","DP10_ATTRIBUTES","DP1X","DP1X_ATTRIBUTES","EMXP","EMXP_ATTRIBUTES","PRCP","PRCP_ATTRIBUTES"
"US1TXWO0005","2016","29.249549","-98.195823","177.1","FLORESVILLE 8.1 NNW, TX US","       115","N","        55","N","        15","N"," 123.4"," ,N,0821, ","   1372.9"," ,N"
"US1TXWO0005","2017","29.249549","-98.195823","177.1","FLORESVILLE 8.1 NNW, TX US","       110","N","        47","N","        11","N","  66.8"," ,N,0827, ","    797.0"," ,N"
"US1TXWO0005","2018","29.249549","-98.195823","177.1","FLORESVILLE 8.1 NNW, TX US","       127","N","        51","N","         8","N","  91.2"," ,N,0909, ","    912.8"," ,N"
"US1TXWO0005","2019","29.249549","-98.195823","177.1","FLORESVILLE 8.1 NNW, TX US","       116","N","        42","N","         8","N","  51.1"," ,N,0425, ","    619.4"," ,N"
