"STATION","DATE","LATITUDE","LONGITUDE","ELEVATION","NAME","DP01","DP01_ATTRIBUTES","DP10","DP10_ATTRIBUTES","DP1X","DP1X_ATTRIBUTES","EMXP","EMXP_ATTRIBUTES","PRCP","PRCP_ATTRIBUTES"
"US1TNGN0004","2009","36.138723","-83.074501","363.9","MOSHEIM 7.5 WSW, TN US","       148","N","        87","N","         8","N","  76.7"," ,N,1111, ","   1267.1"," ,N"
"US1TNGN0004","2011","36.138723","-83.074501","363.9","MOSHEIM 7.5 WSW, TN US","","","","","","","","","   1138.2"," ,N"
"US1TNGN0004","2012","36.138723","-83.074501","363.9","MOSHEIM 7.5 WSW, TN US","","","","","","","","","   1135.4"," ,N"
"US1TNGN0004","2013","36.138723","-83.074501","363.9","MOSHEIM 7.5 WSW, TN US","       136","N","        91","N","        17","N","  74.4"," ,N,0115, ","   1474.2"," ,N"
"US1TNGN0004","2015","36.138723","-83.074501","363.9","MOSHEIM 7.5 WSW, TN US","       138","N","        85","N","        12","N","  47.8"," ,N,0930, ","   1308.8"," ,N"
"US1TNGN0004","2016","36.138723","-83.074501","363.9","MOSHEIM 7.5 WSW, TN US","       104","N","        77","N","         4","N","  30.2"," ,N,0428, ","    998.2"," ,N"
"US1TNGN0004","2017","36.138723","-83.074501","363.9","MOSHEIM 7.5 WSW, TN US","       119","N","        80","N","         9","N","  51.1"," ,N,0424, ","   1079.2"," ,N"
"US1TNGN0004","2018","36.138723","-83.074501","363.9","MOSHEIM 7.5 WSW, TN US","","","","","","","","","   1380.2"," ,N"
