"STATION","DATE","LATITUDE","LONGITUDE","ELEVATION","NAME","DP01","DP01_ATTRIBUTES","DP10","DP10_ATTRIBUTES","DP1X","DP1X_ATTRIBUTES","EMXP","EMXP_ATTRIBUTES","PRCP","PRCP_ATTRIBUTES"
"US1TXZV0009","2009","28.8537","-99.9385","213.1","SWITCHES, TX US","        21","N","        21","N","         3","N","  35.6"," ,N,0913, ","    269.8"," ,N"
"US1TXZV0009","2010","28.8537","-99.9385","213.1","SWITCHES, TX US","","","","","","","","","    378.5"," ,N"
"US1TXZV0009","2014","28.8537","-99.9385","213.1","SWITCHES, TX US","        10","N","        10","N","         0","N","  22.9"," ,N,0712, ","    216.0"," ,N"
