"STATION","DATE","LATITUDE","LONGITUDE","ELEVATION","NAME","DP01","DP01_ATTRIBUTES","DP10","DP10_ATTRIBUTES","DP1X","DP1X_ATTRIBUTES","EMXP","EMXP_ATTRIBUTES","PRCP","PRCP_ATTRIBUTES"
"US1UTUN0011","2015","40.396","-109.463","1564.2","NAPLES 2.8 SSE, UT US","        64","N","        24","N","         0","N","  20.6"," ,N,0506, ","    251.8"," ,N"
"US1UTUN0011","2016","40.396","-109.463","1564.2","NAPLES 2.8 SSE, UT US","        60","N","        25","N","         2","N","  70.4"," ,N,0923, ","    324.1"," ,N"
"US1UTUN0011","2017","40.396","-109.463","1564.2","NAPLES 2.8 SSE, UT US","        55","N","        17","N","         0","N","  20.1"," ,N,0915, ","    176.4"," ,N"
"US1UTUN0011","2018","40.396","-109.463","1564.2","NAPLES 2.8 SSE, UT US","        38","N","        15","N","         0","N","  24.1"," ,N,0823, ","    127.0"," ,N"
"US1UTUN0011","2019","40.396","-109.463","1564.2","NAPLES 2.8 SSE, UT US","        61","N","        32","N","         0","N","  19.8"," ,N,0524, ","    242.3"," ,N"
