"STATION","DATE","LATITUDE","LONGITUDE","ELEVATION","NAME","DP01","DP01_ATTRIBUTES","DP10","DP10_ATTRIBUTES","DP1X","DP1X_ATTRIBUTES","EMXP","EMXP_ATTRIBUTES","PRCP","PRCP_ATTRIBUTES"
"US1VARCC002","2011","37.576842","-77.51411","69.2","RICHMOND 3.8 NW, VA US","       116","N","        69","N","        14","N","  94.5"," ,N,0828, ","   1180.2"," ,N"
"US1VARCC002","2012","37.576842","-77.51411","69.2","RICHMOND 3.8 NW, VA US","       123","N","        79","N","         6","N","  46.7"," ,N,1030, ","    846.6"," ,N"
"US1VARCC002","2013","37.576842","-77.51411","69.2","RICHMOND 3.8 NW, VA US","       120","N","        96","N","        15","N","  57.2"," ,N,1127, ","   1373.0"," ,N"
