"STATION","DATE","LATITUDE","LONGITUDE","ELEVATION","NAME","DP01","DP01_ATTRIBUTES","DP10","DP10_ATTRIBUTES","DP1X","DP1X_ATTRIBUTES","EMXP","EMXP_ATTRIBUTES","PRCP","PRCP_ATTRIBUTES"
"US1VAMN0009","2012","37.224713","-80.518728","575.5","BLACKSBURG 5.0 W, VA US","","","","","","","","","    929.3"," ,N"
"US1VAMN0009","2013","37.224713","-80.518728","575.5","BLACKSBURG 5.0 W, VA US","","","","","","","","","   1309.3"," ,N"
"US1VAMN0009","2017","37.224713","-80.518728","575.5","BLACKSBURG 5.0 W, VA US","","","","","","","","","    950.8"," ,N"
"US1VAMN0009","2019","37.224713","-80.518728","575.5","BLACKSBURG 5.0 W, VA US","       137","N","        84","N","         5","N","  48.3"," ,N,1020, ","   1003.7"," ,N"
