"STATION","DATE","LATITUDE","LONGITUDE","ELEVATION","NAME","DP01","DP01_ATTRIBUTES","DP10","DP10_ATTRIBUTES","DP1X","DP1X_ATTRIBUTES","EMXP","EMXP_ATTRIBUTES","PRCP","PRCP_ATTRIBUTES"
"US1VAJC0013","2011","37.34807","-76.771963","31.7","WILLIAMSBURG 6.5 NNW, VA US","       128","N","        73","N","        11","N"," 234.2"," ,N,0828, ","   1367.4"," ,N"
"US1VAJC0013","2012","37.34807","-76.771963","31.7","WILLIAMSBURG 6.5 NNW, VA US","       141","N","        80","N","         8","N","  66.8"," ,N,1030, ","   1149.1"," ,N"
