"STATION","DATE","LATITUDE","LONGITUDE","ELEVATION","NAME","DP01","DP01_ATTRIBUTES","DP10","DP10_ATTRIBUTES","DP1X","DP1X_ATTRIBUTES","EMXP","EMXP_ATTRIBUTES","PRCP","PRCP_ATTRIBUTES"
"US1WYSW0026","2014","41.501276","-109.46064","1902.3","GREEN RIVER 1.1 SSE, WY US","       103","N","        29","N","         2","N","  30.7"," ,N,0730, ","    287.9"," ,N"
"US1WYSW0026","2017","41.501276","-109.46064","1902.3","GREEN RIVER 1.1 SSE, WY US","        89","N","        38","N","         0","N","  19.8"," ,N,0721, ","    346.0"," ,N"
"US1WYSW0026","2019","41.501276","-109.46064","1902.3","GREEN RIVER 1.1 SSE, WY US","        93","N","        38","N","         0","N","  17.5"," ,N,0521, ","    309.9"," ,N"
