"STATION","DATE","LATITUDE","LONGITUDE","ELEVATION","NAME","DP01","DP01_ATTRIBUTES","DP10","DP10_ATTRIBUTES","DP1X","DP1X_ATTRIBUTES","EMXP","EMXP_ATTRIBUTES","PRCP","PRCP_ATTRIBUTES"
"US1WAWW0009","2013","46.004107","-118.472423","205.1","LOWDEN 6.5 ESE, WA US","        87","N","        32","N","         0","N","  13.2"," ,N,0620, ","    229.0"," ,N"
"US1WAWW0009","2016","46.004107","-118.472423","205.1","LOWDEN 6.5 ESE, WA US","","","","","","","","","    371.5"," ,N"
"US1WAWW0009","2017","46.004107","-118.472423","205.1","LOWDEN 6.5 ESE, WA US","","","","","","","","","    404.3"," ,N"
"US1WAWW0009","2018","46.004107","-118.472423","205.1","LOWDEN 6.5 ESE, WA US","        89","N","        38","N","         0","N","  21.3"," ,N,0509, ","    303.7"," ,N"
