"STATION","DATE","LATITUDE","LONGITUDE","ELEVATION","NAME","DP01","DP01_ATTRIBUTES","DP10","DP10_ATTRIBUTES","DP1X","DP1X_ATTRIBUTES","EMXP","EMXP_ATTRIBUTES","PRCP","PRCP_ATTRIBUTES"
"US1WYAB0131","2016","41.2893871217966","-105.632511600852","2184.5","LARAMIE 3.0 WSW, WY US","        88","N","        34","N","         1","N","  31.8"," ,N,0508, ","    336.4"," ,N"
"US1WYAB0131","2017","41.2893871217966","-105.632511600852","2184.5","LARAMIE 3.0 WSW, WY US","       101","N","        39","N","         0","N","  21.8"," ,N,0518, ","    312.4"," ,N"
"US1WYAB0131","2018","41.2893871217966","-105.632511600852","2184.5","LARAMIE 3.0 WSW, WY US","        85","N","        35","N","         0","N","  23.1"," ,N,0316, ","    266.3"," ,N"
