"STATION","DATE","LATITUDE","LONGITUDE","ELEVATION","NAME","DP01","DP01_ATTRIBUTES","DP10","DP10_ATTRIBUTES","DP1X","DP1X_ATTRIBUTES","EMXP","EMXP_ATTRIBUTES","PRCP","PRCP_ATTRIBUTES"
"US1WYCR0011","2011","41.44927","-106.807299","2078.1","SARATOGA 0.3 ESE USDA SERVICE CENTER, WY US","        57","N","        30","N","         0","N","  16.0"," ,N,1026, ","    186.8"," ,N"
"US1WYCR0011","2017","41.44927","-106.807299","2078.1","SARATOGA 0.3 ESE USDA SERVICE CENTER, WY US","","","","","","","","","    201.4"," ,N"
