"STATION","DATE","LATITUDE","LONGITUDE","ELEVATION","NAME","CDSD","CDSD_ATTRIBUTES","CLDD","CLDD_ATTRIBUTES","DP01","DP01_ATTRIBUTES","DP10","DP10_ATTRIBUTES","DP1X","DP1X_ATTRIBUTES","DSND","DSND_ATTRIBUTES","DSNW","DSNW_ATTRIBUTES","DT00","DT00_ATTRIBUTES","DT32","DT32_ATTRIBUTES","DX32","DX32_ATTRIBUTES","DX70","DX70_ATTRIBUTES","DX90","DX90_ATTRIBUTES","DYFG","DYFG_ATTRIBUTES","DYTS","DYTS_ATTRIBUTES","EMNT","EMNT_ATTRIBUTES","EMSD","EMSD_ATTRIBUTES","EMSN","EMSN_ATTRIBUTES","EMXP","EMXP_ATTRIBUTES","EMXT","EMXT_ATTRIBUTES","FZF0","FZF0_ATTRIBUTES","FZF1","FZF1_ATTRIBUTES","FZF2","FZF2_ATTRIBUTES","FZF3","FZF3_ATTRIBUTES","FZF4","FZF4_ATTRIBUTES","FZF5","FZF5_ATTRIBUTES","FZF6","FZF6_ATTRIBUTES","FZF7","FZF7_ATTRIBUTES","FZF8","FZF8_ATTRIBUTES","FZF9","FZF9_ATTRIBUTES","HDSD","HDSD_ATTRIBUTES","HTDD","HTDD_ATTRIBUTES","PRCP","PRCP_ATTRIBUTES","SNOW","SNOW_ATTRIBUTES","TAVG","TAVG_ATTRIBUTES","TMAX","TMAX_ATTRIBUTES","TMIN","TMIN_ATTRIBUTES"
"USC00113455","1940","40.8821","-91.0234","164.0","GLADSTONE DAM 18, IL US","    590.5","","     590.5","6","","","","","","","","","","","        14","6","       131","6","        43","6","       161","6","        30","6","","","","","  -25.6","6,0118, ","","","","","","","   39.4","6,0725, ","-4.4","6,1107","-4.4","6,1107","-4.4","6,1107","-9.4","6,1112","-9.4","6,1112","0.0","6,0414","-4.4","6,0412","-4.4","6,0412","-11.1","6,0325","-11.1","6,0325","","","","","","","","","     10.31","6","     15.73","6","      4.89","6"
"USC00113455","1941","40.8821","-91.0234","164.0","GLADSTONE DAM 18, IL US","    594.7","","     594.7","6","       115","6","        72","6","        11","6","","","","","         0","6","       120","6","        30","6","       164","6","        22","6","","","","","  -17.2","6,0218, ","","","","","  78.7"," ,6,1003, ","   36.7","6,0801, ","-3.9","6,1028","-3.9","6,1028","-5.0","6,1111","-7.2","6,1123","-12.2","6,1124","-3.9","6,0329","-3.9","6,0329","-4.4","6,0325","-13.3","6,0318","-13.3","6,0318","    3120.9","9","    3120.9","6","   1089.4"," ,6","","","     11.54","6","     16.59","6","      6.48","6"
"USC00113455","1942","40.8821","-91.0234","164.0","GLADSTONE DAM 18, IL US","","","","","       110","6","        65","6","         8","6","","","","","         9","6","       134","6","","","","","","","","","","","  -24.4","6,0107, ","","","","","  50.3"," ,6,1227, ","","","-0.6","6,0926","-2.8","6,1023","-4.4","6,1024","-7.8","6,1026","-9.4","6,1126","-1.7","6,0411","-2.2","6,0401","-4.4","6,0329","-7.2","6,0301","-16.1","6,0220","    2924.5","5","    2924.5","6","    811.5"," ,6","","","","","","","      5.19","6"
"USC00113455","1943","40.8821","-91.0234","164.0","GLADSTONE DAM 18, IL US","","","","","       105","6","        75","6","         5","6","","","","","        13","6","       132","6","        34","6","       135","6","        23","6","","","","","  -26.1","6,0119, ","","","","","  63.5"," ,6,0803, ","   35.0","6,0824, ","-1.7","6,1017","-2.2","6,1028","-8.9","6,1111","-8.9","6,1111","-8.9","6,1111","-3.3","6,0415","-3.3","6,0415","-6.7","6,0322","-6.7","6,0322","-8.9","6,0320","","","","","    767.9"," ,6","","","     10.05","6","     15.68","6","      4.42","6"
"USC00113455","1944","40.8821","-91.0234","164.0","GLADSTONE DAM 18, IL US","    629.4","","     629.4","6","       115","6","        78","6","         8","6","","","         6","6","         5","6","       125","6","        28","6","       154","6","        26","6","","","","","  -21.1","6,1226, ","","","   178"," ,6,0211, ","  88.9"," ,6,0816, ","   36.1","6,0810, ","-1.1","6,1012","-2.2","6,1124","-4.4","6,1129","-9.4","6,1130","-9.4","6,1130","0.0","6,0505","-3.3","6,0405","-5.6","6,0330","-6.7","6,0320","-10.6","6,0310","","","","","   1043.7"," ,6","      683"," ,6","     10.87","6","     16.20","6","      5.54","6"
"USC00113455","1945","40.8821","-91.0234","164.0","GLADSTONE DAM 18, IL US","    458.7","","     458.7","6","       119","6","        73","6","         8","6","","","        13","6","        14","6","       116","6","        49","6","       141","6","        21","6","","","","","  -23.3","6,0109,+","","","   122"," ,6,0122, ","  63.8"," ,6,0515, ","   37.2","6,0724, ","-0.6","6,1009","-2.2","6,1103","-9.4","6,1104","-9.4","6,1104","-9.4","6,1104","0.0","6,0419","-5.0","6,0322","-5.0","6,0322","-7.2","6,0308","-9.4","6,0307","    3190.5","5","    3190.5","6","    947.8"," ,6","      643"," ,6","      9.94","6","     15.31","6","      4.56","6"
"USC00113455","1946","40.8821","-91.0234","164.0","GLADSTONE DAM 18, IL US","    446.9","","     446.9","6","        99","6","        62","6","         9","6","","","         5","6","         5","6","       107","6","        18","6","       159","6","        14","6","","","","","  -20.6","6,1231,+","","","   114"," ,6,0214, "," 103.4"," ,6,0612, ","   35.0","6,0718,+","0.0","6,1107","-3.9","6,1112","-5.6","6,1120","-9.4","6,1122","-9.4","6,1122","0.0","6,0427","-6.7","6,0311","-6.7","6,0311","-6.7","6,0311","-10.6","6,0310","    3086.6","6","    3086.6","6","   1023.9"," ,6","      408"," ,6","     11.66","6","     17.63","6","      5.70","6"
"USC00113455","1947","40.8821","-91.0234","164.0","GLADSTONE DAM 18, IL US","    609.6","","     609.6","6","       115","6","        70","6","        13","6","","","         6","6","         9","6","       140","6","        38","6","       147","6","        39","6","","","","","  -26.1","6,0106,+","","","    64"," ,6,1210,+"," 100.3"," ,6,0921, ","   38.3","6,0824, ","-0.6","6,1107","-4.4","6,1108","-4.4","6,1108","-9.4","6,1111","-9.4","6,1111","0.0","6,0421","-7.2","6,0330","-7.2","6,0330","-7.2","6,0330","-10.6","6,0306","    3421.9","9","    3421.9","6","   1066.0"," ,6","      337"," ,6","     10.09","6","     15.85","6","      4.33","6"
"USC00113455","1948","40.8821","-91.0234","164.0","GLADSTONE DAM 18, IL US","","","","","       105","0","        68","0","         7","0","","","         8","0","","","","","","","","","","","        11"," ","        11"," ","","","","","   114"," ,0,0302, "," 140.2"," ,0,0705, ","","","","","","","","","","","","","","","","","","","","","","","","","","","    909.1"," ,0","      507"," ,0","","","","","",""
"USC00113455","1949","40.8821","-91.0234","164.0","GLADSTONE DAM 18, IL US","","","","","       104","0","        61","0","         6","0","       27","","         5","0","","","","","","","","","","","        12"," ","        15"," ","","","   203"," ,0,0119, ","   203"," ,0,0119, ","  36.6"," ,0,0614, ","","","","","","","","","","","","","","","","","","","","","","","","","","","    709.2"," ,0","      450"," ,0","","","","","",""
"USC00113455","1950","40.8821","-91.0234","164.0","GLADSTONE DAM 18, IL US","","","","","       110","0","        65","0","         8","0","       44","","","","","","","","","","","","","","        30"," ","        17"," ","","","   229"," ,0,0226, ","","","  88.6"," ,0,0425, ","","","","","","","","","","","","","","","","","","","","","","","","","","","    941.7"," ,0","","","","","","","",""
"USC00113455","1951","40.8821","-91.0234","164.0","GLADSTONE DAM 18, IL US","","","","","       132","0","        87","0","         6","0","       63","","        21","0","","","","","","","","","","","        79"," ","        22"," ","","","   381"," ,0,0315,+","   163"," ,0,0311, ","  50.8"," ,0,0329, ","","","","","","","","","","","","","","","","","","","","","","","","","","","    969.7"," ,0","     1289"," ,0","","","","","",""
"USC00113455","1952","40.8821","-91.0234","164.0","GLADSTONE DAM 18, IL US","","","","","        99","0","        64","0","         7","0","       35","","        12","0","","","","","","","","","","","        44"," ","        37"," ","","","   203"," ,0,0304, ","   203"," ,0,0304, ","  64.3"," ,0,0815, ","","","","","","","","","","","","","","","","","","","","","","","","","","","    810.6"," ,0","      661"," ,0","","","","","",""
"USC00113455","1953","40.8821","-91.0234","164.0","GLADSTONE DAM 18, IL US","","","","","       108","0","        60","0","         4","0","       38","","        10","0","","","","","","","","","","","        49"," ","        32"," ","","","   127"," ,0,0120, ","    76"," ,0,0304, ","  30.0"," ,0,1004, ","","","","","","","","","","","","","","","","","","","","","","","","","","","    576.3"," ,0","      527"," ,0","","","","","",""
"USC00113455","1954","40.8821","-91.0234","164.0","GLADSTONE DAM 18, IL US","","","","","","","","","","","","","","","","","","","","","","","","","        38"," ","        34"," ","","","","","","","","","","","","","","","","","","","","","","","","","","","","","","","","","","","","","","","","","","","",""
"USC00113455","1955","40.8821","-91.0234","164.0","GLADSTONE DAM 18, IL US","","","","","        98","0","        60","0","         9","0","       33","","","","","","","","","","","","","","        36"," ","        33"," ","","","   178"," ,0,0129,+","","","  50.8"," ,0,0830, ","","","","","","","","","","","","","","","","","","","","","","","","","","","    853.5"," ,0","","","","","","","",""
"USC00113455","1956","40.8821","-91.0234","164.0","GLADSTONE DAM 18, IL US","","","","","       106","0","        50","0","         5","0","","","        11","0","","","","","","","","","","","        39"," ","        38"," ","","","","","   114"," ,0,0209, ","  74.9"," ,0,0708, ","","","","","","","","","","","","","","","","","","","","","","","","","","","    632.9"," ,0","      533"," ,0","","","","","",""
"USC00113455","1957","40.8821","-91.0234","164.0","GLADSTONE DAM 18, IL US","","","","","       114","0","        62","0","         7","0","       32","","         6","0","","","","","","","","","","","        65"," ","        25"," ","","","   203"," ,0,0118,+","   152"," ,0,0110, ","  69.1"," ,0,0723, ","","","","","","","","","","","","","","","","","","","","","","","","","","","    910.2"," ,0","      455"," ,0","","","","","",""
"USC00113455","1958","40.8821","-91.0234","164.0","GLADSTONE DAM 18, IL US","","","","","        83","0","        52","0","         9","0","       60","","         8","0","","","","","","","","","","","        51"," ","        38"," ","","","   330"," ,0,0126, ","   152"," ,0,0126, ","  63.2"," ,0,0601, ","","","","","","","","","","","","","","","","","","","","","","","","","","","    785.3"," ,0","      635"," ,0","","","","","",""
"USC00113455","1959","40.8821","-91.0234","164.0","GLADSTONE DAM 18, IL US","","","","","       119","0","        76","0","        12","0","       49","","        15","0","","","","","","","","","","","        44"," ","        35"," ","","","   152"," ,0,0204,+","   127"," ,0,0121, ","  67.8"," ,0,1005, ","","","","","","","","","","","","","","","","","","","","","","","","","","","   1020.1"," ,0","      810"," ,0","","","","","",""
"USC00113455","1960","40.8821","-91.0234","164.0","GLADSTONE DAM 18, IL US","","","","","       106","0","        66","0","         4","0","       70","","        19","0","","","","","","","","","","","        42"," ","        33"," ","","","   559"," ,0,0316, ","   203"," ,0,0316, ","  45.5"," ,0,1031, ","","","","","","","","","","","","","","","","","","","","","","","","","","","    802.9"," ,0","     1269"," ,0","","","","","",""
"USC00113455","1961","40.8821","-91.0234","164.0","GLADSTONE DAM 18, IL US","","","","","       103","0","        65","0","         9","0","       39","","        11","0","","","","","","","","","","","        34"," ","        31"," ","","","   203"," ,0,0203, ","   203"," ,0,0203, "," 105.4"," ,0,0914, ","","","","","","","","","","","","","","","","","","","","","","","","","","","    950.6"," ,0","      659"," ,0","","","","","",""
"USC00113455","1962","40.8821","-91.0234","164.0","GLADSTONE DAM 18, IL US","","","","","        97","0","        57","0","         5","0","       58","","        12","0","","","","","","","","","","","        35"," ","        30"," ","","","   229"," ,0,0120,+","   152"," ,0,0218, ","  63.5"," ,0,1020, ","","","","","","","","","","","","","","","","","","","","","","","","","","","    712.3"," ,0","      774"," ,0","","","","","",""
"USC00113455","1963","40.8821","-91.0234","164.0","GLADSTONE DAM 18, IL US","","","","","        96","0","        56","0","         5","0","       66","","        12","0","","","","","","","","","","","        15"," ","        22"," ","","","   279"," ,0,0129,+","    76"," ,0,1218,+","  68.3"," ,0,0806, ","","","","","","","","","","","","","","","","","","","","","","","","","","","    674.1"," ,0","      571"," ,0","","","","","",""
"USC00113455","1964","40.8821","-91.0234","164.0","GLADSTONE DAM 18, IL US","","","","","        91","0","        54","0","         5","0","       32","","        13","0","","","","","","","","","","","","","        24"," ","","","   152"," ,0,1207,+","   102"," ,0,0112, ","  52.1"," ,0,0927,+","","","","","","","","","","","","","","","","","","","","","","","","","","","    734.9"," ,0","      633"," ,0","","","","","",""
"USC00113455","1965","40.8821","-91.0234","164.0","GLADSTONE DAM 18, IL US","","","","","       117","0","        77","0","        11","0","       42","","        13","0","","","","","","","","","","","","","        23"," ","","","   178"," ,0,0305, ","   102"," ,0,0304,+","  96.5"," ,0,0826, ","","","","","","","","","","","","","","","","","","","","","","","","","","","   1096.2"," ,0","      794"," ,0","","","","","",""
"USC00113455","1966","40.8821","-91.0234","164.0","GLADSTONE DAM 18, IL US","","","","","        83","0","        57","0","         4","0","","","","","","","","","","","","","","","","","        20"," ","","","","","","","  54.1"," ,0,1013, ","","","","","","","","","","","","","","","","","","","","","","","","","","","    698.2"," ,0","","","","","","","",""
"USC00113455","1967","40.8821","-91.0234","164.0","GLADSTONE DAM 18, IL US","","","","","       106","0","        71","0","        10","0","       31","","         5","0","","","","","","","","","","","","","        28"," ","","","   356"," ,0,0127, ","   203"," ,0,0126, ","  52.1"," ,0,0401, ","","","","","","","","","","","","","","","","","","","","","","","","","","","    998.4"," ,0","      526"," ,0","","","","","",""
"USC00113455","1968","40.8821","-91.0234","164.0","GLADSTONE DAM 18, IL US","","","","","","","","","","","       29","","","","","","","","","","","","","","","","         6"," ","","","   178"," ,0,0115,+","","","","","","","","","","","","","","","","","","","","","","","","","","","","","","","","","","","","","","","",""
"USC00113455","1969","40.8821","-91.0234","164.0","GLADSTONE DAM 18, IL US","","","","","        96","0","        64","0","         7","0","       52","","        12","0","","","","","","","","","","","","","        10"," ","","","   127"," ,0,1225,+","   127"," ,0,1207, ","  71.9"," ,0,1013, ","","","","","","","","","","","","","","","","","","","","","","","","","","","    876.9"," ,0","      620"," ,0","","","","","",""
"USC00113455","1970","40.8821","-91.0234","164.0","GLADSTONE DAM 18, IL US","","","","","        95","0","        60","0","        11","0","       35","","         7","0","","","","","","","","","","","","","        12"," ","","","   152"," ,0,0124,+","    76"," ,0,0123, ","  87.1"," ,0,0805, ","","","","","","","","","","","","","","","","","","","","","","","","","","","    996.2"," ,0","      291"," ,0","","","","","",""
"USC00113455","1971","40.8821","-91.0234","164.0","GLADSTONE DAM 18, IL US","","","","","        75","0","        52","0","         6","0","       31","","         5","0","","","","","","","","","","","","","        11"," ","","","   152"," ,0,0108,+","   102"," ,0,0310,+","  55.9"," ,0,0905, ","","","","","","","","","","","","","","","","","","","","","","","","","","","    659.2"," ,0","      356"," ,0","","","","","",""
"USC00113455","1972","40.8821","-91.0234","164.0","GLADSTONE DAM 18, IL US","","","","","       112","0","        68","0","         7","0","       61","","        13","0","","","","","","","","","","","","","        10"," ","","","   229"," ,0,0212,+","   152"," ,0,1212,+","  49.3"," ,0,0615, ","","","","","","","","","","","","","","","","","","","","","","","","","","","    831.3"," ,0","      836"," ,0","","","","","",""
"USC00113455","1973","40.8821","-91.0234","164.0","GLADSTONE DAM 18, IL US","","","","","       113","0","        82","0","        14","0","","","","","","","","","","","","","","","","","        22"," ","","","","","","","  72.4"," ,0,0421, ","","","","","","","","","","","","","","","","","","","","","","","","","","","   1171.1"," ,0","","","","","","","",""
"USC00113455","1974","40.8821","-91.0234","164.0","GLADSTONE DAM 18, IL US","","","","","       109","0","        82","0","        11","0","","","","","","","","","","","","","","","","","        12"," ","","","","","","","  46.2"," ,0,0722, ","","","","","","","","","","","","","","","","","","","","","","","","","","","   1088.5"," ,0","","","","","","","",""
"USC00113455","1975","40.8821","-91.0234","164.0","GLADSTONE DAM 18, IL US","","","","","       100","0","        67","0","         9","0","","","","","","","","","","","","","","","","","        15"," ","","","","","","","  55.4"," ,0,0723, ","","","","","","","","","","","","","","","","","","","","","","","","","","","    856.2"," ,0","","","","","","","",""
"USC00113455","1976","40.8821","-91.0234","164.0","GLADSTONE DAM 18, IL US","","","","","        74","0","        47","0","        10","0","       17","","","","","","","","","","","","","","","","        10"," ","","","    76"," ,0,0114, ","","","  78.7"," ,0,0424, ","","","","","","","","","","","","","","","","","","","","","","","","","","","    780.3"," ,0","","","","","","","",""
"USC00113455","1977","40.8821","-91.0234","164.0","GLADSTONE DAM 18, IL US","","","","","       104","0","        72","0","        11","0","       57","","","","","","","","","","","","","","","","         8"," ","","","   356"," ,0,1212,+","","","  45.0"," ,0,1102, ","","","","","","","","","","","","","","","","","","","","","","","","","","","    880.0"," ,0","","","","","","","",""
"USC00113455","1978","40.8821","-91.0234","164.0","GLADSTONE DAM 18, IL US","","","","","       113","0","        68","0","         8","0","","","","","","","","","","","","","","","","","         9"," ","","","","","","","  45.7"," ,0,0615, ","","","","","","","","","","","","","","","","","","","","","","","","","","","    854.4"," ,0","","","","","","","",""
"USC00113455","1979","40.8821","-91.0234","164.0","GLADSTONE DAM 18, IL US","","","","","        91","0","        57","0","         9","0","","","         7","0","","","","","","","","","","","","","        12"," ","","","","","   203"," ,0,0101, ","  40.1"," ,0,0823,+","","","","","","","","","","","","","","","","","","","","","","","","","","","    779.8"," ,0","      545"," ,0","","","","","",""
"USC00113455","1980","40.8821","-91.0234","164.0","GLADSTONE DAM 18, IL US","","","","","        85","0","        62","0","        16","0","       27","","","","","","","","","","","","","","","","        26"," ","","","   178"," ,0,0217,+","","","  80.8"," ,0,0901, ","","","","","","","","","","","","","","","","","","","","","","","","","","","   1248.7"," ,0","","","","","","","",""
"USC00113455","1981","40.8821","-91.0234","164.0","GLADSTONE DAM 18, IL US","","","","","        96","0","        70","0","        15","0","","","","","","","","","","","","","","","","","        19"," ","","","","","","","  54.9"," ,0,0815, ","","","","","","","","","","","","","","","","","","","","","","","","","","","   1110.4"," ,0","","","","","","","",""
"USC00113455","1982","40.8821","-91.0234","164.0","GLADSTONE DAM 18, IL US","","","","","","","","","","","","","","","","","","","","","","","","","        32"," ","        22"," ","","","","","","","","","","","","","","","","","","","","","","","","","","","","","","","","","","","","","","","","","","","",""
"USC00113455","1983","40.8821","-91.0234","164.0","GLADSTONE DAM 18, IL US","","","","","       113","0","        72","0","         8","0","       40","","","","","","","","","","","","","","        18"," ","         7"," ","","","   203"," ,0,1231,+","","","  78.0"," ,0,0919, ","","","","","","","","","","","","","","","","","","","","","","","","","","","    835.7"," ,0","","","","","","","",""
"USC00113455","1984","40.8821","-91.0234","164.0","GLADSTONE DAM 18, IL US","","","","","       120","0","        73","0","        12","0","","","","","","","","","","","","","","","        33"," ","        17"," ","","","","","","","  81.8"," ,0,1101, ","","","","","","","","","","","","","","","","","","","","","","","","","","","   1028.7"," ,0","","","","","","","",""
"USC00113455","1985","40.8821","-91.0234","164.0","GLADSTONE DAM 18, IL US","","","","","       131","0","        78","0","        11","0","       68","","        11","0","","","","","","","","","","","        21"," ","         9"," ","","","   305"," ,0,0216,+","   203"," ,0,0101, ","  62.7"," ,0,0304, ","","","","","","","","","","","","","","","","","","","","","","","","","","","    979.0"," ,0","      735"," ,0","","","","","",""
"USC00113455","1986","40.8821","-91.0234","164.0","GLADSTONE DAM 18, IL US","","","","","","","","","","","","","","","","","","","","","","","","","        11"," ","         1"," ","","","","","","","","","","","","","","","","","","","","","","","","","","","","","","","","","","","","","","","","","","","",""
"USC00113455","1988","40.8821","-91.0234","164.0","GLADSTONE DAM 18, IL US","","","","","        68","0","        45","0","         4","0","","","","","","","","","","","","","","","         7"," ","         6"," ","","","","","","","  68.3"," ,0,0823, ","","","","","","","","","","","","","","","","","","","","","","","","","","","    586.6"," ,0","","","","","","","",""
"USC00113455","1989","40.8821","-91.0234","164.0","GLADSTONE DAM 18, IL US","","","","","        73","0","        55","0","         5","0","","","","","","","","","","","","","","","        16"," ","         9"," ","","","","","","","  68.3"," ,0,0612, ","","","","","","","","","","","","","","","","","","","","","","","","","","","    634.6"," ,0","","","","","","","",""
"USC00113455","1990","40.8821","-91.0234","164.0","GLADSTONE DAM 18, IL US","","","","","","","","","","","","","","","","","","","","","","","","","        16"," ","         6"," ","","","","","","","","","","","","","","","","","","","","","","","","","","","","","","","","","","","","","","","","","","","",""
"USC00113455","1991","40.8821","-91.0234","164.0","GLADSTONE DAM 18, IL US","    699.1","","     699.1","0","        97","0","        66","0","         8","0","       34","","","","         7","0","       126","0","        45","0","       158","0","        29","0","        13"," ","         6"," ","  -19.4","0,0122, ","   152"," ,0,0107,+","","","  46.7"," ,0,0910, ","   37.8","0,0803, ","-1.1","0,0921","-6.1","0,1102","-6.1","0,1102","-10.6","0,1103","-10.6","0,1103","-3.3","0,0331","-3.3","0,0331","-4.4","0,0311","-8.3","0,0227","-9.4","0,0226","","","","","    762.8"," ,0","","","     11.20","0","     16.47","0","      5.93","0"
"USC00113455","1992","40.8821","-91.0234","164.0","GLADSTONE DAM 18, IL US","    339.1","","     339.1","0","        95","0","        56","0","        12","0","","","         1","0","         2","0","       111","0","        29","0","       143","0","         2","0","         9"," ","         3"," ","  -18.9","0,0117,+","","","    51"," ,0,0115, ","  50.5"," ,0,0910, ","   33.3","0,0810, ","-1.7","0,1017","-2.2","0,1018","-4.4","0,1115","-11.1","0,1205","-11.1","0,1205","0.0","0,0406","-2.2","0,0403","-8.3","0,0316","-8.3","0,0316","-8.9","0,0311","    3168.3","3","    3168.3","0","    865.0"," ,0","       64"," ,0","     10.32","0","     15.35","0","      5.29","0"
"USC00113455","1993","40.8821","-91.0234","164.0","GLADSTONE DAM 18, IL US","","","","","","","","","","","","","","","","","","","","","","","","","         4"," ","         1"," ","","","","","","","","","","","","","","","","","","","","","","","","","","","","","","","","","","","","","","","","","","","",""
"USC00113455","1994","40.8821","-91.0234","164.0","GLADSTONE DAM 18, IL US","    473.7","","     473.7","0","        92","0","        67","0","         3","0","","","         8","0","        17","0","       111","0","        45","0","       154","0","        17","0","         8"," ","         3"," ","  -28.9","0,0119, ","","","    94"," ,0,0114, ","  38.6"," ,0,1207, ","   35.0","0,0620, ","-0.6","0,1116","-2.2","0,1120","-5.0","0,1201","-13.9","0,1211","-13.9","0,1211","-1.7","0,0408","-2.8","0,0401","-6.7","0,0303","-6.7","0,0303","-12.8","0,0228","    3512.6","6","    3512.6","0","    704.2"," ,0","      547"," ,0","     10.42","0","     15.70","0","      5.14","0"
"USC00113455","1995","40.8821","-91.0234","164.0","GLADSTONE DAM 18, IL US","","","","","        91","0","        64","0","        10","0","","","         7","0","","","","","        52","0","       150","0","        27","0","        15"," ","         3"," ","","","","","   203"," ,0,0120, ","  38.4"," ,0,0705, ","   37.8","0,0714, ","","","","","","","","","","","","","","","","","","","","","    3168.3","3","    3168.3"," ","    847.9"," ,0","      501"," ,0","","","     15.33","0","",""
"USC00113455","1996","40.8821","-91.0234","164.0","GLADSTONE DAM 18, IL US","    502.3","","     502.3","0","        89","0","        53","0","         7","0","","","         3","0","        16","0","       141","0","        53","0","       137","0","        13","0","        27"," ","","","  -32.2","0,0204, ","","","    76"," ,0,0112, ","  63.5"," ,0,0527, ","   34.4","0,0719, ","0.0","0,1020","-2.2","0,1101","-5.0","0,1102","-6.7","0,1112","-11.1","0,1126","0.0","0,0415","-3.3","0,0410","-8.3","0,0328","-8.3","0,0328","-12.2","0,0310","","","","","    733.3"," ,0","      145"," ,0","      9.25","0","     14.41","0","      4.09","0"
"USC00113455","1997","40.8821","-91.0234","164.0","GLADSTONE DAM 18, IL US","    480.3","","     480.3","0","       104","0","        68","0","        10","0","","","         6","0","        13","0","       132","0","        45","0","       140","0","        20","0","         9"," ","","","  -23.3","0,0129,+","","","   127"," ,0,0127,+","  50.8"," ,0,0221, ","   35.6","0,0727,+","-0.6","0,1022","-2.8","0,1027","-6.1","0,1112","-6.7","0,1116","-9.4","0,1227","-0.6","0,0418","-2.2","0,0414","-6.1","0,0410","-7.8","0,0317","-11.1","0,0316","    3555.2","2","    3555.2","0","    869.3"," ,0","      546"," ,0","     10.11","0","     15.18","0","      5.04","0"
"USC00113455","1998","40.8821","-91.0234","164.0","GLADSTONE DAM 18, IL US","    615.4","","     615.4","0","       119","0","        83","0","        15","0","","","","","         1","0","        92","0","        28","0","       154","0","        13","0","         7"," ","         1"," ","  -20.0","0,1231, ","","","","","  64.0"," ,0,1018, ","   35.0","0,0721, ","-0.6","0,1105","-2.2","0,1107","-4.4","0,1122","-8.3","0,1221","-14.4","0,1222","-1.1","0,0325","-2.2","0,0318","-7.8","0,0315","-7.8","0,0315","-15.6","0,0313","    2863.9","9","    2863.9","0","   1230.5"," ,0","","","     12.30","0","     17.02","0","      7.57","0"
"USC00113455","1999","40.8821","-91.0234","164.0","GLADSTONE DAM 18, IL US","    524.8","","     524.8","0","       100","0","        56","0","         5","0","","","         7","0","         7","0","       114","0","        30","0","       160","0","        22","0","         7"," ","         1"," ","  -30.0","0,0106, ","","","   191"," ,0,0102, ","  49.8"," ,0,0928, ","   36.1","0,0730, ","0.0","0,1018","-2.2","0,1025","-7.2","0,1130","-7.2","0,1130","-8.9","0,1217","-1.7","0,0328","-3.9","0,0327","-5.0","0,0314","-8.3","0,0308","-8.9","0,0307","    2910.3","3","    2910.3","0","    761.1"," ,0","      596"," ,0","     11.33","0","     16.73","0","      5.92","0"
"USC00113455","2000","40.8821","-91.0234","164.0","GLADSTONE DAM 18, IL US","    538.9","","     538.9","0","       108","0","        68","0","         5","0","","","         6","0","        16","0","       128","0","        49","0","       164","0","        12","0","         6"," ","","","  -26.1","0,1226, ","","","   102"," ,0,1229,+","  46.7"," ,0,0625, ","   36.7","0,0903, ","-1.1","0,1007","-4.4","0,1115","-4.4","0,1115","-7.2","0,1118","-11.1","0,1121","-0.6","0,0413","-3.9","0,0409","-6.1","0,0221","-7.8","0,0220","-8.9","0,0209","    2887.9","9","    2887.9","0","    843.6"," ,0","      446"," ,0","     10.64","0","     15.96","0","      5.31","0"
"USC00113455","2001","40.8821","-91.0234","164.0","GLADSTONE DAM 18, IL US","    543.1","","     543.1","0","       124","0","        80","0","        10","0","","","         0","0","         6","0","       110","0","        39","0","       158","0","        20","0","         5"," ","","","  -23.3","0,0102, ","","","     0","T,0,0302, ","  50.3"," ,0,0406, ","   35.0","0,0810,+","-1.1","0,1017","-2.2","0,1109","-5.0","0,1210","-8.3","0,1224","-10.0","0,1225","0.0","0,0418","-10.0","0,0328","-10.0","0,0328","-10.0","0,0328","-10.0","0,0328","    3578.0","0","    3578.0","0","   1082.1"," ,0","        0","T,0","     11.15","0","     16.44","0","      5.87","0"
"USC00113455","2002","40.8821","-91.0234","164.0","GLADSTONE DAM 18, IL US","    674.8","","     674.8","0","        85","0","        55","0","         9","0","       21","","         3","0","         2","0","       136","0","        22","0","       148","0","        36","0","         2"," ","         1"," ","  -18.3","0,0305, ","   203"," ,0,0131, ","   104"," ,0,0303, ","  88.9"," ,0,0719, ","   35.6","0,0709, ","-0.6","0,1020","-3.9","0,1101","-4.4","0,1102","-6.7","0,1125","-8.9","0,1128","-1.7","0,0408","-3.3","0,0406","-5.0","0,0405","-9.4","0,0323","-9.4","0,0323","    2966.6","6","    2966.6","0","    904.7"," ,0","      218"," ,0","     11.17","0","     16.77","0","      5.57","0"
"USC00113455","2003","40.8821","-91.0234","164.0","GLADSTONE DAM 18, IL US","    518.0","","     518.0","0","        95","0","        55","0","        10","0","","","         2","0","         7","0","       123","0","        42","0","       159","0","        25","0","         5"," ","","","  -20.0","0,0124, ","","","   127"," ,0,0305, ","  70.1"," ,0,1210, ","   37.2","0,0827,+","-1.1","0,1002","-3.3","0,1107","-5.0","0,1108","-7.2","0,1129","-10.6","0,1211","-1.7","0,0411","-2.2","0,0410","-8.3","0,0312","-8.3","0,0312","-12.8","0,0311","    3416.8","8","    3416.8","0","    851.6"," ,0","      184"," ,0","     10.33","0","     16.04","0","      4.62","0"
"USC00113455","2004","40.8821","-91.0234","164.0","GLADSTONE DAM 18, IL US","    448.3","","     448.3","0","       109","0","        69","0","         6","0","","","","","        11","0","       111","0","        35","0","       159","0","         7","0","","","","","  -22.2","0,0131, ","","","","","  51.6"," ,0,1023, ","   34.4","0,0728, ","-1.7","0,1112","-2.2","0,1114","-7.2","0,1125","-7.2","0,1125","-10.0","0,1214","0.0","0,0414","-5.0","0,0322","-5.0","0,0322","-7.8","0,0313","-9.4","0,0219","    3112.4","4","    3112.4","0","    859.4"," ,0","","","     10.82","0","     16.21","0","      5.42","0"
"USC00113455","2005","40.8821","-91.0234","164.0","GLADSTONE DAM 18, IL US","    687.6","","     687.6","0","        91","0","        55","0","         3","0","","","","","         6","0","       122","0","        43","0","       169","0","        34","0","         7"," ","","","  -20.0","0,1210, ","","","","","  42.7"," ,0,0513, ","   38.3","0,0725, ","-1.7","0,1116","-9.4","0,1117","-9.4","0,1117","-9.4","0,1117","-9.4","0,1117","0.0","0,0505","-2.2","0,0321","-7.2","0,0316","-7.2","0,0316","-8.9","0,0219","    3073.3","3","    3073.3","0","    656.7"," ,0","","","     11.51","0","     16.93","0","      6.09","0"
"USC00113455","2006","40.8821","-91.0234","164.0","GLADSTONE DAM 18, IL US","    614.4","","     614.4","0","        96","0","        59","0","         5","0","","","         0","0","         2","0","       110","0","        17","0","       160","0","        32","0","         3"," ","         3"," ","  -21.1","0,0219, ","","","     0","T,0,0325,+","  53.8"," ,0,1130, ","   36.7","0,0803,+","0.0","0,1020","-2.2","0,1023","-6.7","0,1103","-6.7","0,1103","-12.8","0,1202","0.0","0,0409","-3.3","0,0328","-5.6","0,0324","-9.4","0,0227","-9.4","0,0227","    2936.7","7","    2936.7","0","    676.4"," ,0","        0","T,0","     11.79","0","     17.25","0","      6.34","0"
"USC00113455","2007","40.8821","-91.0234","164.0","GLADSTONE DAM 18, IL US","    689.4","","     689.4","0","       105","0","        63","0","        10","0","","","         3","0","         7","0","       131","0","        47","0","       171","0","        26","0","         3"," ","         4"," ","  -21.7","0,0216, ","","","    51"," ,0,1223, ","  53.6"," ,0,0623, ","   35.0","0,0816,+","0.0","0,1103","-3.3","0,1107","-5.0","0,1108","-8.3","0,1203","-10.6","0,1206","0.0","0,0416","-2.8","0,0409","-7.2","0,0408","-7.2","0,0408","-11.1","0,0305","    3165.0","0","    3165.0","0","    921.2"," ,0","      101"," ,0","     11.33","0","     16.92","0","      5.73","0"
"USC00113455","2008","40.8821","-91.0234","164.0","GLADSTONE DAM 18, IL US","","","","","       114","0","        80","0","        13","0","","","","","","","","","","","","","","","         4"," ","         2"," ","","","","","","","  69.1"," ,0,0914, ","","","","","","","","","","","","","","","","","","","","","","","","","","","   1157.6"," ,0","","","","","","","",""
"USC00113455","2009","40.8821","-91.0234","164.0","GLADSTONE DAM 18, IL US","    378.6","","     378.6","0","       118","0","        82","0","        17","0","","","         6","0","         4","0","       108","0","        48","0","       141","0","         7","0","         8"," ","         9"," ","  -32.2","0,0116, ","","","   102"," ,0,1208,+","  81.8"," ,0,0516, ","   34.4","0,0624, ","0.0","0,1010","-2.8","0,1127","-5.6","0,1204","-7.2","0,1205","-16.1","0,1210","-0.6","0,0409","-2.8","0,0315","-5.0","0,0314","-11.1","0,0312","-11.1","0,0312","","","","","   1414.8"," ,0","      356"," ,0","     10.10","0","     15.18","0","      5.02","0"
"USC00113455","2010","40.8821","-91.0234","164.0","GLADSTONE DAM 18, IL US","    688.9","","     688.9","0","       118","0","        79","0","        16","0","","","","","        11","0","       111","0","        65","0","       169","0","        21","0","         5"," ","         1"," ","  -23.3","0,0111,+","","","",""," 113.0"," ,0,0513, ","   34.4","0,0729,+","-1.7","0,1030","-2.8","0,1106","-6.1","0,1126","-7.2","0,1202","-10.0","0,1206","-2.8","0,0327","-2.8","0,0327","-4.4","0,0307","-7.2","0,0304","-8.9","0,0301","    3260.4","4","    3260.4","0","   1267.2"," ,0","","","     11.00","0","     16.20","0","      5.79","0"
"USC00113455","2011","40.8821","-91.0234","164.0","GLADSTONE DAM 18, IL US","    672.0","","     672.0","K","","","","","","","","","","","         9","K","       112","K","        43","K","       147","K","        29","K","         2"," ","         1"," ","  -23.9","K,0211, ","","","","","","","   37.8","K,0803,+","0.0","K,1028","-2.2","K,1111","-5.0","K,1130","-10.0","K,1207","-10.0","K,1207","0.0","K,0331","-3.3","K,0329","-4.4","K,0328","-6.7","K,0213","-9.4","K,0212","    3408.0","0","    3408.0","K","","","","","     11.05","K","     16.21","K","      5.90","K"
"USC00113455","2012","40.8821","-91.0234","164.0","GLADSTONE DAM 18, IL US","    699.9","","     699.9","7","        94","7","        57","7","         5","7","","","","","         0","7","       100","7","        23","7","       176","7","        44","7","","","","","  -15.6","7,0119, ","","","","","  69.6"," ,7,0902, ","   39.4","7,0724, ","0.0","7,1028","-3.3","7,1112","-4.4","7,1114","-6.7","7,1124","-9.4","7,1128","-1.1","7,0311","-8.9","7,0306","-8.9","7,0306","-8.9","7,0306","-8.9","7,0306","    2665.2","2","    2665.2","7","    696.6"," ,7","","","     12.65","7","     18.48","7","      6.82","7"
"USC00113455","2013","40.8821","-91.0234","164.0","GLADSTONE DAM 18, IL US","    620.4","","     620.4","7","        88","7","        60","7","        10","7","       40","","         7","7","         5","7","       139","7","        48","7","       153","7","        21","7","","","","","  -22.8","7,1225,+","   178"," ,7,0306,+","   127"," ,7,1213, ","  71.1"," ,7,0418, ","   37.2","7,0910, ","-2.8","7,1025","-2.8","7,1025","-7.2","7,1112","-7.2","7,1112","-11.7","7,1124","-0.6","7,0421","-2.2","7,0404","-4.4","7,0403","-10.0","7,0322","-10.0","7,0322","    3381.1","1","    3381.1","7","    968.9"," ,7","      549"," ,7","     10.12","7","     15.38","7","      4.85","7"
"USC00113455","2014","40.8821","-91.0234","164.0","GLADSTONE DAM 18, IL US","    396.1","","     396.1","7","       106","7","        63","7","        12","7","       59","","        16","7","        25","7","       142","7","        72","7","       139","7","         3","7","","","","","  -27.2","7,0211,+","   406"," ,7,0209,+","   203"," ,7,0205, ","  66.5"," ,7,0910, ","   33.3","7,0826,+","0.0","7,1031","-3.3","7,1101","-6.1","7,1112","-6.7","7,1113","-10.6","7,1114","0.0","7,0416","-2.2","7,0415","-6.1","7,0327","-7.8","7,0326","-8.9","7,0317","    3918.1","1","    3918.1","7","   1001.9"," ,7","     1119"," ,7","      8.49","7","     13.70","7","      3.28","7"
"USC00113455","2015","40.8821","-91.0234","164.0","GLADSTONE DAM 18, IL US","    494.0","","     494.0","7","       110","7","        71","7","        11","7","       27","","         9","7","        15","7","       118","7","        42","7","       153","7","         9","7","","","","","  -24.4","7,0108, ","   152"," ,7,0206,+","   104"," ,7,0201, ","  72.1"," ,7,0717, ","   33.9","7,0907, ","0.0","7,1018","-2.2","7,1108","-11.1","7,1122","-11.1","7,1122","-11.1","7,1122","-1.1","7,0411","-2.8","7,0405","-4.4","7,0404","-15.0","7,0307","-15.0","7,0307","    3693.2","2","    3693.2","7","   1168.2"," ,7","      514"," ,7","     10.44","7","     15.65","7","      5.23","7"
"USC00113455","2016","40.8821","-91.0234","164.0","GLADSTONE DAM 18, IL US","    710.6","","     710.6","7","        97","7","        61","7","        11","7","       14","","         4","7","         7","7","       108","7","        39","7","       159","7","        24","7","","","","","  -22.8","7,1219,+","    76"," ,7,1205,+","    89"," ,7,1205, ","  77.5"," ,7,0720, ","   35.6","7,0616, ","-0.6","7,1119","-4.4","7,1120","-4.4","7,1120","-8.9","7,1208","-8.9","7,1208","0.0","7,0413","-2.8","7,0411","-8.3","7,0303","-8.3","7,0303","-9.4","7,0302","    2983.3","3","    2983.3","7","   1028.2"," ,7","      294"," ,7","     12.10","7","     17.02","7","      7.18","7"
"USC00113455","2017","40.8821","-91.0234","164.0","GLADSTONE DAM 18, IL US","    607.4","","     607.4","7","       102","7","        69","7","         6","7","       10","","         5","7","         3","7","       109","7","        21","7","       180","7","        24","7","","","","","  -21.7","7,1231, ","   102"," ,7,1231,+","    76"," ,7,1230, ","  69.1"," ,7,1015, ","   36.1","7,0721, ","-3.3","7,1029","-3.3","7,1029","-6.7","7,1110","-6.7","7,1110","-12.2","7,1225","-1.1","7,0323","-2.8","7,0317","-8.3","7,0316","-8.3","7,0316","-9.4","7,0315","    2636.1","1","    2636.1","7","    798.2"," ,7","      261"," ,7","     12.18","7","     17.62","7","      6.73","7"
"USC00113455","2018","40.8821","-91.0234","164.0","GLADSTONE DAM 18, IL US","    758.5","","     758.5","7","       106","7","        70","7","         7","7","       34","","         9","7","        15","7","       141","7","        44","7","       158","7","        37","7","","","","","  -27.2","7,0103,+","   178"," ,7,1129,+","   102"," ,7,0206, ","  53.3"," ,7,0829, ","   36.7","7,0529, ","-0.6","7,1021","-8.3","7,1110","-8.3","7,1110","-8.3","7,1110","-8.9","7,1111","-0.6","7,0429","-2.2","7,0417","-7.2","7,0409","-7.2","7,0409","-18.9","7,0213","    3346.8","8","    3346.8","7","    909.5"," ,7","      502"," ,7","     10.69","7","     15.92","7","      5.45","7"
"USC00113455","2019","40.8821","-91.0234","164.0","GLADSTONE DAM 18, IL US","    632.8","","     632.8","7","       108","7","        83","7","        13","7","       37","","        11","7","         8","7","       127","7","        48","7","       149","7","        20","7","","","","","  -29.4","7,0131, ","   305"," ,7,0121,+","   178"," ,7,0119, ","  74.9"," ,7,0928, ","   35.0","7,0721,+","-1.7","7,1031","-3.3","7,1101","-6.7","7,1108","-6.7","7,1108","-13.9","7,1112","-2.8","7,0401","-2.8","7,0401","-6.1","7,0308","-10.6","7,0307","-10.6","7,0307","    3494.7","7","    3494.7","7","   1186.0"," ,7","      695"," ,7","     10.51","7","     15.37","7","      5.65","7"
"USC00113455","2020","40.8821","-91.0234","164.0","GLADSTONE DAM 18, IL US","","","","","","","","","","","","","","","","","","","","","","","","","","","","","","","","","","","","","","","","","","","","","","","","","","","","","","","","","","","    3154.1","1","    3154.1","H","","","","","","","","","",""
