"STATION","DATE","LATITUDE","LONGITUDE","ELEVATION","NAME","CDSD","CDSD_ATTRIBUTES","CLDD","CLDD_ATTRIBUTES","DP01","DP01_ATTRIBUTES","DP10","DP10_ATTRIBUTES","DP1X","DP1X_ATTRIBUTES","DT00","DT00_ATTRIBUTES","DT32","DT32_ATTRIBUTES","DX32","DX32_ATTRIBUTES","DX70","DX70_ATTRIBUTES","DX90","DX90_ATTRIBUTES","EMNT","EMNT_ATTRIBUTES","EMXP","EMXP_ATTRIBUTES","EMXT","EMXT_ATTRIBUTES","FZF0","FZF0_ATTRIBUTES","FZF1","FZF1_ATTRIBUTES","FZF2","FZF2_ATTRIBUTES","FZF3","FZF3_ATTRIBUTES","FZF4","FZF4_ATTRIBUTES","FZF5","FZF5_ATTRIBUTES","FZF6","FZF6_ATTRIBUTES","FZF7","FZF7_ATTRIBUTES","FZF8","FZF8_ATTRIBUTES","FZF9","FZF9_ATTRIBUTES","HDSD","HDSD_ATTRIBUTES","HTDD","HTDD_ATTRIBUTES","PRCP","PRCP_ATTRIBUTES","TAVG","TAVG_ATTRIBUTES","TMAX","TMAX_ATTRIBUTES","TMIN","TMIN_ATTRIBUTES"
"USC00278856","2017","43.03361","-72.43278","184.1","WALPOLE 2 S NEPP, NH US","    223.3","","     223.3","7","       142","7","        82","7","        13","7","         8","7","       150","7","        46","7","       131","7","         2","7","  -24.4","7,1230, ","  74.9"," ,7,0620, ","   32.8","7,0613,+","-2.2","7,1017","-2.2","7,1017","-5.0","7,1109","-8.3","7,1111","-8.9","7,1128","-0.6","7,0505","-2.8","7,0415","-5.6","7,0327","-9.4","7,0324","-9.4","7,0324","","","","","   1288.3"," ,7","      8.34","7","     13.96","7","      2.73","7"
"USC00278856","2018","43.03361","-72.43278","184.1","WALPOLE 2 S NEPP, NH US","    333.2","","     333.2","7","       156","7","       104","7","        13","7","         8","7","       166","7","        36","7","       129","7","        14","7","  -26.7","7,0102, ","  61.0"," ,7,0729, ","   35.6","7,0702, ","0.0","7,1014","-2.2","7,1019","-4.4","7,1022","-8.9","7,1115","-8.9","7,1115","0.0","7,0425","-2.2","7,0423","-4.4","7,0415","-7.2","7,0406","-13.3","7,0321","    3890.1","1","    3890.1","7","   1412.4"," ,7","      8.16","7","     13.58","7","      2.74","7"
"USC00278856","2020","43.03361","-72.43278","184.1","WALPOLE 2 S NEPP, NH US","","","","","","","","","","","","","","","","","","","","","","","","","","","","","","","","","","","","","","","","","","","","","","","    3929.2","2","    3929.2","7","","","","","","","",""
