"STATION","DATE","LATITUDE","LONGITUDE","ELEVATION","NAME","CDSD","CDSD_ATTRIBUTES","CLDD","CLDD_ATTRIBUTES","DP01","DP01_ATTRIBUTES","DP10","DP10_ATTRIBUTES","DP1X","DP1X_ATTRIBUTES","DSNW","DSNW_ATTRIBUTES","DT00","DT00_ATTRIBUTES","DT32","DT32_ATTRIBUTES","DX32","DX32_ATTRIBUTES","DX70","DX70_ATTRIBUTES","DX90","DX90_ATTRIBUTES","DYFG","DYFG_ATTRIBUTES","EMNT","EMNT_ATTRIBUTES","EMSN","EMSN_ATTRIBUTES","EMXP","EMXP_ATTRIBUTES","EMXT","EMXT_ATTRIBUTES","FZF0","FZF0_ATTRIBUTES","FZF1","FZF1_ATTRIBUTES","FZF2","FZF2_ATTRIBUTES","FZF3","FZF3_ATTRIBUTES","FZF4","FZF4_ATTRIBUTES","FZF5","FZF5_ATTRIBUTES","FZF6","FZF6_ATTRIBUTES","FZF7","FZF7_ATTRIBUTES","FZF8","FZF8_ATTRIBUTES","FZF9","FZF9_ATTRIBUTES","HDSD","HDSD_ATTRIBUTES","HTDD","HTDD_ATTRIBUTES","PRCP","PRCP_ATTRIBUTES","SNOW","SNOW_ATTRIBUTES","TAVG","TAVG_ATTRIBUTES","TMAX","TMAX_ATTRIBUTES","TMIN","TMIN_ATTRIBUTES"
"USC00303938","1910","42.633333","-76.2","342.9","HOMER, NY US","    159.5","","     159.5","6","       154","6","        92","6","         0","6","","","        22","6","       157","6","        60","6","       116","6","         3","6","","","  -26.7","6,0225, ","","","  23.6"," ,6,0713, ","   33.9","6,0709, ","0.0","6,1011","-4.4","6,1013","-4.4","6,1013","-7.8","6,1120","-11.1","6,1121","-0.6","6,0604","-2.8","6,0516","-6.1","6,0413","-10.0","6,0318","-10.0","6,0318","","","","","    876.4"," ,6","","","      7.01","6","     12.67","6","      1.34","6"
"USC00303938","1911","42.633333","-76.2","342.9","HOMER, NY US","    236.1","","     236.1","6","       144","6","        97","6","         4","6","        16","6","         9","6","       167","6","        49","6","       123","6","        12","6","         1"," ","  -23.9","6,0307, ","   127"," ,6,0215, ","  36.1"," ,6,0828, ","   36.7","6,0705, ","-1.7","6,0914","-2.2","6,1003","-5.6","6,1029","-8.3","6,1113","-10.0","6,1117","0.0","6,0514","-3.9","6,0505","-5.0","6,0504","-6.7","6,0404","-8.9","6,0403","    4240.6","6","    4240.6","6","    924.2"," ,6","     1043"," ,6","      7.67","6","     13.24","6","      2.10","6"
