"STATION","DATE","LATITUDE","LONGITUDE","ELEVATION","NAME","CDSD","CDSD_ATTRIBUTES","CLDD","CLDD_ATTRIBUTES","DP01","DP01_ATTRIBUTES","DP10","DP10_ATTRIBUTES","DP1X","DP1X_ATTRIBUTES","DSND","DSND_ATTRIBUTES","DSNW","DSNW_ATTRIBUTES","DT00","DT00_ATTRIBUTES","DT32","DT32_ATTRIBUTES","DX32","DX32_ATTRIBUTES","DX70","DX70_ATTRIBUTES","DX90","DX90_ATTRIBUTES","DYFG","DYFG_ATTRIBUTES","DYTS","DYTS_ATTRIBUTES","EMNT","EMNT_ATTRIBUTES","EMSD","EMSD_ATTRIBUTES","EMSN","EMSN_ATTRIBUTES","EMXP","EMXP_ATTRIBUTES","EMXT","EMXT_ATTRIBUTES","FZF0","FZF0_ATTRIBUTES","FZF1","FZF1_ATTRIBUTES","FZF2","FZF2_ATTRIBUTES","FZF3","FZF3_ATTRIBUTES","FZF4","FZF4_ATTRIBUTES","FZF5","FZF5_ATTRIBUTES","FZF6","FZF6_ATTRIBUTES","FZF7","FZF7_ATTRIBUTES","FZF8","FZF8_ATTRIBUTES","FZF9","FZF9_ATTRIBUTES","HDSD","HDSD_ATTRIBUTES","HTDD","HTDD_ATTRIBUTES","PRCP","PRCP_ATTRIBUTES","SNOW","SNOW_ATTRIBUTES","TAVG","TAVG_ATTRIBUTES","TMAX","TMAX_ATTRIBUTES","TMIN","TMIN_ATTRIBUTES"
"USC00166657","1892","29.98861","-91.78389","7.6","NEW IBERIA, LA US","","","","","","","","","","","","","","","","","","","","","","","","","         2"," ","","","","","","","","","","","","","","","","","","","","","","","","","","","","","","","","","","","","","","","","","","","","","",""
"USC00166657","1893","29.98861","-91.78389","7.6","NEW IBERIA, LA US","","","","","","","","","","","","","","","","","","","","","","","","","         3"," ","         2"," ","","","","","","","","","","","","","","","","","","","","","","","","","","","","","","","","","","","","","","","","","","","",""
"USC00166657","1894","29.98861","-91.78389","7.6","NEW IBERIA, LA US","","","","","","","","","","","","","","","","","","","","","","","","","         3"," ","","","","","","","","","","","","","","","","","","","","","","","","","","","","","","","","","","","","","","","","","","","","","",""
"USC00166657","1899","29.98861","-91.78389","7.6","NEW IBERIA, LA US","","","","","        84","6","        79","6","        25","6","","","","","","","","","","","","","","","","","","","","","","","",""," 110.5"," ,6,0605, ","","","","","","","","","","","","","","","","","","","","","","","","","","","   1484.0"," ,6","","","","","","","",""
"USC00166657","1900","29.98861","-91.78389","7.6","NEW IBERIA, LA US","","","","","       103","6","        94","6","        29","6","","","","","","","","","","","","","","","","","","","","","","","",""," 165.1"," ,6,0806, ","","","","","","","","","","","","","","","","","","","","","","","","","","","   1939.9"," ,6","","","","","","","",""
"USC00166657","1901","29.98861","-91.78389","7.6","NEW IBERIA, LA US","","","","","        75","6","        72","6","        23","6","","","         0","6","","","","","","","","","","","","","","","","","","","     0","T,6,1229,+"," 152.4"," ,6,0417, ","","","","","","","","","","","","","","","","","","","","","","","","","","","   1555.2"," ,6","        0","T,6","","","","","",""
"USC00166657","1902","29.98861","-91.78389","7.6","NEW IBERIA, LA US","","","","","        70","6","        70","6","        17","6","","","","","","","","","","","","","","","","","","","","","","","","","  96.5"," ,6,0806, ","","","","","","","","","","","","","","","","","","","","","","","","","","","   1275.2"," ,6","","","","","","","",""
"USC00166657","1903","29.98861","-91.78389","7.6","NEW IBERIA, LA US","","","","","","","","","","","","","","","","","","","","","","","","","         1"," ","","","","","","","","","","","","","","","","","","","","","","","","","","","","","","","","","","","","","","","","","","","","","",""
"USC00166657","1904","29.98861","-91.78389","7.6","NEW IBERIA, LA US","","","","","        80","6","        75","6","        12","6","","","         0","6","","","","","","","","","","","","","","","","","","","     0"," ,6,1231,+","  69.9"," ,6,0425, ","","","","","","","","","","","","","","","","","","","","","","","","","","","   1059.3"," ,6","        0"," ,6","","","","","",""
"USC00166657","1905","29.98861","-91.78389","7.6","NEW IBERIA, LA US","","","","","       101","6","        92","6","        33","6","","","         0","6","","","","","","","","","","","","","","","","","","","     0","T,6,0213, ","  86.4"," ,6,0808, ","","","","","","","","","","","","","","","","","","","","","","","","","","","   2072.9"," ,6","        0","T,6","","","","","",""
"USC00166657","1907","29.98861","-91.78389","7.6","NEW IBERIA, LA US","","","","","       103","6","        93","6","        19","6","","","         0","6","","","","","","","","","","","","","","","","","","","     0"," ,6,1231,+","  92.7"," ,6,0508, ","","","","","","","","","","","","","","","","","","","","","","","","","","","   1511.7"," ,6","        0"," ,6","","","","","",""
"USC00166657","1908","29.98861","-91.78389","7.6","NEW IBERIA, LA US","","","","","       113","6","        96","6","        16","6","","","         0","6","","","","","","","","","","","","","","","","","","","     0"," ,6,1231,+"," 174.0"," ,6,0730, ","","","","","","","","","","","","","","","","","","","","","","","","","","","   1554.8"," ,6","        0"," ,6","","","","","",""
"USC00166657","1909","29.98861","-91.78389","7.6","NEW IBERIA, LA US","","","","","        92","6","        85","6","        22","6","","","         0","6","","","","","","","","","","","","","","","","","","","     0","T,6,0215, "," 165.1"," ,6,0920, ","","","","","","","","","","","","","","","","","","","","","","","","","","","   1592.4"," ,6","        0","T,6","","","","","",""
"USC00166657","1910","29.98861","-91.78389","7.6","NEW IBERIA, LA US","","","","","        96","6","        84","6","        20","6","","","         0","6","","","","","","","","","","","","","","","","","","","     0"," ,6,1231,+","  66.0"," ,6,1222,+","","","","","","","","","","","","","","","","","","","","","","","","","","","   1326.5"," ,6","        0"," ,6","","","","","",""
"USC00166657","1911","29.98861","-91.78389","7.6","NEW IBERIA, LA US","","","","","       109","6","        92","6","        19","6","","","","","","","","","","","","","","","","","","","","","","","",""," 157.5"," ,6,0622, ","","","","","","","","","","","","","","","","","","","","","","","","","","","   1564.4"," ,6","","","","","","","",""
"USC00166657","1912","29.98861","-91.78389","7.6","NEW IBERIA, LA US","","","","","       115","6","       102","6","        27","6","","","","","","","","","","","","","","","","","","","","","","","",""," 152.4"," ,6,0613, ","","","","","","","","","","","","","","","","","","","","","","","","","","","   1804.1"," ,6","","","","","","","",""
"USC00166657","1913","29.98861","-91.78389","7.6","NEW IBERIA, LA US","   1400.0","","    1400.0","6","       101","6","        91","6","        23","6","","","","","         0","6","         4","6","         0","6","       278","6","        52","6","","","","","   -1.1","6,0214, ","","","",""," 195.6"," ,6,0927, ","   35.0","6,0720,+","-0.6","6,1209","","","","","","","","","0.0","6,0316","","","","","","","","","     703.6","6","     703.6","6","   1999.4"," ,6","","","     20.20","6","     24.99","6","     15.40","6"
"USC00166657","1914","29.98861","-91.78389","7.6","NEW IBERIA, LA US","   1471.7","","    1471.7","6","       103","6","        83","6","        20","6","","","         1","6","         0","6","        15","6","         0","6","       263","6","        71","6","","","","","   -3.9","6,1214, ","","","    89"," ,6,0225, "," 179.1"," ,6,0714, ","   37.2","6,0619, ","0.0","6,1118","-3.9","6,1214","","","","","","","-1.7","6,0226","-3.3","6,0225","","","","","","","     853.5","5","     853.5","6","   1603.9"," ,6","       89"," ,6","     19.82","6","     24.79","6","     14.84","6"
"USC00166657","1915","29.98861","-91.78389","7.6","NEW IBERIA, LA US","   1553.1","","    1553.1","6","        91","6","        77","6","        16","6","","","         0","6","         0","6","        12","6","         0","6","       253","6","        76","6","","","","","   -2.8","6,0125, ","","","     0"," ,6,1231,+","  99.1"," ,6,0705,+","   35.6","6,0803,+","0.0","6,1130","","","","","","","","","0.0","6,0324","-2.8","6,0125","","","","","","","     981.9","9","     981.9","6","   1449.2"," ,6","        0"," ,6","     20.15","6","     25.32","6","     14.97","6"
"USC00166657","1916","29.98861","-91.78389","7.6","NEW IBERIA, LA US","   1478.5","","    1478.5","6","        94","6","        82","6","        19","6","","","         0","6","         0","6","        20","6","         0","6","       287","6","        75","6","","","","","   -4.4","6,1222, ","","","     0"," ,6,1231,+"," 106.7"," ,6,0416, ","   35.6","6,0715, ","-2.2","6,1115","-2.2","6,1115","-4.4","6,1222","","","","","-0.6","6,0215","-2.8","6,0203","","","","","","","     646.8","8","     646.8","6","   1441.4"," ,6","        0"," ,6","     20.61","6","     26.05","6","     15.17","6"
"USC00166657","1917","29.98861","-91.78389","7.6","NEW IBERIA, LA US","   1342.3","","    1342.3","6","        97","6","        77","6","        16","6","","","","","         0","6","        15","6","         0","6","       274","6","        60","6","","","","","   -8.9","6,1230, ","","","",""," 104.1"," ,6,0803, ","   36.1","6,0710, ","-0.6","6,1031","-5.6","6,1209","-5.6","6,1209","-8.9","6,1230","-8.9","6,1230","-1.7","6,0305","-3.3","6,0206","-5.0","6,0205","","","","","     705.5","5","     705.5","6","   1176.7"," ,6","","","     19.63","6","     25.05","6","     14.22","6"
"USC00166657","1918","29.98861","-91.78389","7.6","NEW IBERIA, LA US","   1516.6","","    1516.6","6","       112","6","        96","6","        15","6","","","","","         0","6","        22","6","         1","6","       277","6","        70","6","","","","","  -11.1","6,0112, ","","","","","  57.2"," ,6,0806,+","   36.1","6,0618, ","-2.2","6,1226","-2.2","6,1226","","","","","","","0.0","6,0205","-3.9","6,0123","-7.8","6,0113","-7.8","6,0113","-11.1","6,0112","     924.3","3","     924.3","6","   1319.4"," ,6","","","     20.35","6","     25.52","6","     15.18","6"
"USC00166657","1919","29.98861","-91.78389","7.6","NEW IBERIA, LA US","   1474.2","","    1474.2","6","       137","6","       116","6","        27","6","","","","","         0","6","        11","6","         0","6","       269","6","        50","6","","","","","   -6.1","6,0104, ","","","",""," 146.8"," ,6,1005, ","   35.0","6,0714, ","-1.1","6,1214","","","","","","","","","0.0","6,0112","-2.8","6,0106","-6.1","6,0104","","","","","     808.4","4","     808.4","6","   1895.1"," ,6","","","     20.29","6","     25.21","6","     15.37","6"
"USC00166657","1920","29.98861","-91.78389","7.6","NEW IBERIA, LA US","   1465.1","","    1465.1","6","       131","6","       108","6","        23","6","","","","","         0","6","        13","6","         0","6","       255","6","        43","6","","","","","   -2.2","6,1117, ","","","",""," 180.3"," ,6,0703, ","   33.9","6,0916,+","-1.1","6,1113","-2.2","6,1117","","","","","","","0.0","6,0307","","","","","","","","","     725.0","0","     725.0","6","   1809.5"," ,6","","","     19.83","6","     24.79","6","     14.87","6"
"USC00166657","1921","29.98861","-91.78389","7.6","NEW IBERIA, LA US","   1574.7","","    1574.7","6","        74","6","        64","6","        10","6","","","","","         0","6","         0","6","         0","6","       311","6","        80","6","         8"," ","","","    0.6","6,0220, ","","","","","  71.1"," ,6,1113, ","   35.6","6,0821, ","","","","","","","","","","","","","","","","","","","","","     701.2","2","     701.2","6","    957.7"," ,6","","","     21.33","6","     26.56","6","     16.10","6"
"USC00166657","1922","29.98861","-91.78389","7.6","NEW IBERIA, LA US","   1557.4","","    1557.4","6","       123","6","        97","6","        20","6","","","","","         0","6","         5","6","         0","6","       297","6","        52","6","        22"," ","         4"," ","   -0.6","6,0304,+","","","","","  88.9"," ,6,1113, ","   34.4","6,0615, ","","","","","","","","","","","-0.6","6,0304","","","","","","","","","     529.0","0","     529.0","6","   1711.7"," ,6","","","     21.11","6","     25.84","6","     16.37","6"
"USC00166657","1923","29.98861","-91.78389","7.6","NEW IBERIA, LA US","","","","","       126","6","       105","6","        21","6","","","","","","","","","         0","6","       278","6","        28","6","         9"," ","         1"," ","","","","","",""," 111.8"," ,6,0609, ","   34.4","6,0627, ","","","","","","","","","","","","","","","","","","","","","     561.7","7","     561.7","6","   1785.1"," ,6","","","","","     24.98","6","",""
"USC00166657","1924","29.98861","-91.78389","7.6","NEW IBERIA, LA US","   1562.7","","    1562.7","6","        75","6","        67","6","        13","6","","","","","         0","6","        15","6","         0","6","       262","6","        91","6","        47"," ","         1"," ","   -7.8","6,0106, ","","","","","  63.5"," ,6,0116, ","   36.1","6,0724, ","0.0","6,1220","-2.8","6,1221","","","","","","","-2.2","6,0206","-2.2","6,0206","-5.6","6,0107","-7.8","6,0106","","","","","","","   1025.4"," ,6","","","     20.16","6","     25.30","6","     15.02","6"
"USC00166657","1925","29.98861","-91.78389","7.6","NEW IBERIA, LA US","   1608.5","","    1608.5","6","       107","6","        87","6","        19","6","","","","","         0","6","         7","6","         0","6","       278","6","        76","6","","","","","   -5.6","6,1228, ","","","","","  66.5"," ,6,0608, ","   36.1","6,0809, ","-2.2","6,1223","-2.2","6,1223","-5.6","6,1228","","","","","-0.6","6,0128","","","","","","","","","     594.4","4","     594.4","6","   1405.2"," ,6","","","     20.87","6","     25.97","6","     15.77","6"
"USC00166657","1926","29.98861","-91.78389","7.6","NEW IBERIA, LA US","   1428.3","","    1428.3","6","       112","6","        90","6","        20","6","","","","","         0","6","         5","6","         0","6","       263","6","        65","6","","","","","   -1.1","6,1216, ","","","",""," 106.2"," ,6,0826, ","   36.1","6,0706, ","-1.1","6,1216","","","","","","","","","-0.6","6,0126","","","","","","","","","     866.4","4","     866.4","6","   1819.1"," ,6","","","     20.33","6","     25.29","6","     15.36","6"
"USC00166657","1927","29.98861","-91.78389","7.6","NEW IBERIA, LA US","","","","","        83","6","        68","6","        15","6","","","","","         0","6","         8","6","         0","6","       301","6","        68","6","","","","","   -3.3","6,1209,+","","","",""," 149.9"," ,6,1116, ","   37.2","6,0717,+","0.0","6,1203","-2.2","6,1208","","","","","","","-3.3","6,0116","-3.3","6,0116","","","","","","","","","","","   1433.7"," ,6","","","     21.77","6","     26.56","6","     16.99","6"
"USC00166657","1928","29.98861","-91.78389","7.6","NEW IBERIA, LA US","   1462.4","","    1462.4","6","       103","6","        78","6","        18","6","","","","","         0","6","        11","6","         1","6","       269","6","        66","6","","","","","   -6.7","6,0103,+","","","",""," 158.8"," ,6,0603, ","   35.0","6,0704,+","0.0","6,1126","-2.2","6,1209","","","","","","","-1.1","6,0219","-2.8","6,0105","-4.4","6,0104","-6.7","6,0103","","","     707.3","3","     707.3","6","   1576.9"," ,6","","","     20.17","6","     25.19","6","     15.16","6"
"USC00166657","1947","29.98861","-91.78389","7.6","NEW IBERIA, LA US","","","","","","","","","","","","","","","","","","","","","","","","","         9"," ","         8"," ","","","","","","","","","","","","","","","","","","","","","","","","","","","","","","","","","","","","","","","","","","","",""
"USC00166657","1948","29.98861","-91.78389","7.6","NEW IBERIA, LA US","   1626.1","","    1626.1","0","        93","0","        81","0","        19","0","        0","","         0","0","         0","0","        19","0","         0","0","       292","0","       109","0","        26"," ","        37"," ","   -8.3","0,0124, ","     0"," ,0,1231,+","     0","T,0,0124,+","  70.1"," ,0,0305, ","   38.3","0,0731, ","0.0","0,1226","-2.2","0,1231","","","","","","","0.0","0,0313","-2.2","0,0201","-8.3","0,0124","-8.3","0,0124","","","","","","","   1438.6"," ,0","        0","T,0","     20.57","0","     26.64","0","     14.50","0"
"USC00166657","1949","29.98861","-91.78389","7.6","NEW IBERIA, LA US","   1519.9","","    1519.9","0","       109","0","        95","0","        18","0","        1","","         0","0","         0","0","         9","0","         2","0","       306","0","        80","0","        20"," ","        50"," ","   -5.0","0,0131, ","    51"," ,0,0130, ","     0"," ,0,1231,+","  82.8"," ,0,0724, ","   36.7","0,0711, ","-1.1","0,1122","-2.2","0,1216","","","","","","","-2.2","0,0201","-2.2","0,0201","-5.0","0,0131","","","","","     588.1","1","     588.1","0","   1563.1"," ,0","       53"," ,0","     20.87","0","     26.26","0","     15.48","0"
"USC00166657","1950","29.98861","-91.78389","7.6","NEW IBERIA, LA US","   1442.2","","    1442.2","0","       106","0","        94","0","        17","0","        0","","         0","0","         0","0","        11","0","         0","0","       303","0","        64","0","        10"," ","        72"," ","   -6.7","0,1207, ","     0"," ,0,1231,+","     0","T,0,0425, "," 129.5"," ,0,1205, ","   36.1","0,0628, ","-1.1","0,1105","-3.9","0,1125","-6.7","0,1207","-6.7","0,1207","","","0.0","0,0215","","","","","","","","","     528.7","7","     528.7","0","   1585.0"," ,0","        0","T,0","     20.51","0","     26.24","0","     14.77","0"
"USC00166657","1951","29.98861","-91.78389","7.6","NEW IBERIA, LA US","   1564.5","","    1564.5","0","        85","0","        74","0","        20","0","        0","","         0","0","         0","0","        20","0","         1","0","       296","0","        87","0","","","        66"," ","   -9.4","0,0202, ","     0"," ,0,1231,+","    10"," ,0,0201, ","  55.9"," ,0,0328, ","   37.2","0,0815,+","-1.1","0,1103","-3.3","0,1118","","","","","","","0.0","0,0314","-2.2","0,0204","-8.3","0,0203","-8.3","0,0203","-9.4","0,0202","     817.4","4","     817.4","0","   1257.9"," ,0","       10"," ,0","     20.46","0","     26.42","0","     14.50","0"
"USC00166657","1952","29.98861","-91.78389","7.6","NEW IBERIA, LA US","   1332.1","","    1332.1","0","        97","0","        76","0","        19","0","        0","","         0","0","         0","0","        10","0","         0","0","       287","0","        97","0","        11"," ","        19"," ","   -4.4","0,1216, ","     0"," ,0,1231,+","     0","T,0,0215, "," 109.7"," ,0,0519, ","   36.1","0,0627, ","-1.1","0,1029","-2.2","0,1121","-4.4","0,1216","","","","","","","","","","","","","","","     600.3","3","     600.3","0","   1480.5"," ,0","        0","T,0","     20.00","0","     26.41","0","     13.58","0"
"USC00166657","1953","29.98861","-91.78389","7.6","NEW IBERIA, LA US","","","","","       109","0","        74","0","        19","0","        0","","         0","0","","","","","","","","","","","         8"," ","        22"," ","","","     0"," ,0,1231,+","     0","T,0,1226,+"," 122.4"," ,0,0822, ","","","","","","","","","","","","","","","","","","","","","","","","","","","   1560.4"," ,0","        0","T,0","","","","","",""
"USC00166657","1954","29.98861","-91.78389","7.6","NEW IBERIA, LA US","","","","","        76","0","        62","0","        13","0","        0","","         0","0","","","","","","","","","","","","","        12"," ","","","     0"," ,0,1231,+","     0","T,0,0305, "," 203.2"," ,0,0729, ","","","","","","","","","","","","","","","","","","","","","","","","","","","   1234.7"," ,0","        0","T,0","","","","","",""
"USC00166657","1955","29.98861","-91.78389","7.6","NEW IBERIA, LA US","","","","","","","","","","","        0","","         0","0","","","","","","","","","","","         9"," ","        11"," ","","","     0"," ,0,1231,+","     0"," ,0,1231,+","","","","","","","","","","","","","","","","","","","","","","","","","","","","","","","        0"," ,0","","","","","",""
"USC00166657","1956","29.98861","-91.78389","7.6","NEW IBERIA, LA US","","","","","        71","0","        61","0","        22","0","        0","","         0","0","","","","","","","","","","","         2"," ","         8"," ","","","     0"," ,0,1231,+","     0"," ,0,1231,+"," 102.9"," ,0,1219, ","","","","","","","","","","","","","","","","","","","","","","","","","","","   1272.0"," ,0","        0"," ,0","","","","","",""
"USC00166657","1957","29.98861","-91.78389","7.6","NEW IBERIA, LA US","   1464.0","","    1464.0","0","       109","0","        82","0","        17","0","        0","","         0","0","         0","0","        11","0","         0","0","       285","0","        89","0","         6"," ","         8"," ","   -6.1","0,1212, ","     0"," ,0,1231,+","     0"," ,0,1231,+"," 115.6"," ,0,0318, ","   35.6","0,0818,+","-1.1","0,1201","-6.1","0,1212","-6.1","0,1212","","","","","-1.1","0,0308","-2.2","0,0119","-4.4","0,0118","","","","","     552.0","0","     552.0","0","   1523.0"," ,0","        0"," ,0","     20.54","0","     25.97","0","     15.11","0"
"USC00166657","1958","29.98861","-91.78389","7.6","NEW IBERIA, LA US","   1403.2","","    1403.2","0","       113","0","        75","0","        15","0","        0","","         1","0","         0","0","        25","0","         1","0","       253","0","        83","0","         5"," ","         3"," ","   -6.1","0,0213, ","     0"," ,0,1231,+","    46"," ,0,0212, ","  51.8"," ,0,0428,+","   35.6","0,0731, ","-1.7","0,1129","-3.3","0,1214","-4.4","0,1215","","","","","0.0","0,0219","-5.0","0,0214","-5.0","0,0214","","","","","    1098.9","9","    1098.9","0","   1292.0"," ,0","       66"," ,0","     19.05","0","     24.44","0","     13.65","0"
"USC00166657","1959","29.98861","-91.78389","7.6","NEW IBERIA, LA US","   1443.2","","    1443.2","0","       120","0","        86","0","        18","0","        0","","         0","0","         0","0","        16","0","         0","0","       254","0","        79","0","","","","","   -5.0","0,0111, ","     0"," ,0,1231,+","     0"," ,0,1231,+","  81.3"," ,0,0512, ","   35.6","0,0810,+","-1.7","0,1107","-3.9","0,1118","","","","","","","-3.3","0,0123","-3.3","0,0123","-5.0","0,0111","","","","","     976.5","5","     976.5","0","   1391.0"," ,0","        0"," ,0","     19.56","0","     25.06","0","     14.07","0"
"USC00166657","1960","29.98861","-91.78389","7.6","NEW IBERIA, LA US","","","","","       103","0","        67","0","        13","0","        1","","         1","0","","","","","","","","","","","        10"," ","         3"," ","","","    76"," ,0,0213, ","    76"," ,0,0213, ","  64.3"," ,0,0430, ","","","","","","","","","","","","","","","","","","","","","","","","","","","   1085.5"," ,0","       76"," ,0","","","","","",""
"USC00166657","1961","29.98861","-91.78389","7.6","NEW IBERIA, LA US","","","","","","","","","","","        0","","         0","0","","","","","","","","","","","         6"," ","","","","","     0"," ,0,1231,+","     0"," ,0,1231,+","","","","","","","","","","","","","","","","","","","","","","","","","","","","","","","        0"," ,0","","","","","",""
"USC00166657","1962","29.98861","-91.78389","7.6","NEW IBERIA, LA US","","","","","        87","0","        65","0","        16","0","        0","","         0","0","","","","","","","","","","","         7"," ","         4"," ","","","     0"," ,0,1231,+","     0","T,0,0109, "," 108.0"," ,0,0428, ","","","","","","","","","","","","","","","","","","","","","","","","","","","   1104.3"," ,0","        0","T,0","","","","","",""
"USC00166657","1963","29.98861","-91.78389","7.6","NEW IBERIA, LA US","   1545.7","","    1545.7","0","        85","0","        56","0","        12","0","        0","","         0","0","         0","0","        26","0","         2","0","       268","0","       102","0","         2"," ","         3"," ","   -8.9","0,0124, ","     0"," ,0,1231,+","     0","T,0,1223,+"," 114.3"," ,0,0917, ","   36.1","0,0904,+","0.0","0,1114","-2.8","0,1215","-4.4","0,1223","-6.7","0,1224","","","-2.2","0,0222","-2.2","0,0222","-5.6","0,0125","-8.9","0,0124","-8.9","0,0124","","","","","   1012.2"," ,0","        0","T,0","     20.09","0","     26.05","0","     14.13","0"
"USC00166657","1964","29.98861","-91.78389","7.6","NEW IBERIA, LA US","","","","","       114","0","        84","0","        17","0","        0","","         0","0","","","","","","","","","","","","","         3"," ","","","     0"," ,0,1231,+","     0","T,0,0113, ","  87.9"," ,0,0703, ","","","","","","","","","","","","","","","","","","","","","","","     936.6","6","     936.6","0","   1704.9"," ,0","        0","T,0","","","","","",""
"USC00166657","1965","29.98861","-91.78389","7.6","NEW IBERIA, LA US","   1499.5","","    1499.5","0","       112","0","        74","0","        12","0","        0","","         0","0","         0","0","        13","0","         0","0","       287","0","        90","0","","","         2"," ","   -5.0","0,0117, ","     0"," ,0,1231,+","     0"," ,0,1231,+"," 129.0"," ,0,0301, ","   35.0","0,0913,+","-0.6","0,1208","","","","","","","","","-2.8","0,0320","-2.8","0,0320","-5.0","0,0117","","","","","","","","","   1194.0"," ,0","        0"," ,0","     20.66","0","     26.25","0","     15.07","0"
"USC00166657","1966","29.98861","-91.78389","7.6","NEW IBERIA, LA US","","","","","       128","0","        86","0","        19","0","        0","","         0","0","","","","","","","","","","","","","         5"," ","","","     0"," ,0,1231,+","     0"," ,0,1231,+"," 182.6"," ,0,0421, ","","","","","","","","","","","","","","","","","","","","","","","","","","","   1935.9"," ,0","        0"," ,0","","","","","",""
"USC00166657","1967","29.98861","-91.78389","7.6","NEW IBERIA, LA US","   1353.0","","    1353.0","0","       100","0","        65","0","        15","0","        0","","         0","0","         0","0","        13","0","         0","0","       280","0","        48","0","","","","","   -3.3","0,0208, ","     0"," ,0,1231,+","     0"," ,0,1231,+","  76.5"," ,0,0826, ","   36.1","0,0804, ","-1.1","0,1223","-2.2","0,1224","","","","","","","-0.6","0,0225","-2.8","0,0209","","","","","","","     740.9","9","     740.9","0","   1318.9"," ,0","        0"," ,0","     20.11","0","     25.73","0","     14.48","0"
"USC00166657","1968","29.98861","-91.78389","7.6","NEW IBERIA, LA US","","","","","       117","0","        73","0","        17","0","        0","","         0","0","","","","","","","","","","","","","","","","","     0"," ,0,1231,+","     0","T,0,0322,+","  58.9"," ,0,0718, ","","","","","","","","","","","","","","","","","","","","","","","     906.8","8","     906.8","0","   1367.8"," ,0","        0","T,0","","","","","",""
"USC00166657","1969","29.98861","-91.78389","7.6","NEW IBERIA, LA US","   1330.3","","    1330.3","0","       108","0","        75","0","        20","0","        0","","         0","0","         0","0","        17","0","         0","0","       262","0","        77","0","","","","","   -5.6","0,0105, ","     0"," ,0,1231,+","     0"," ,0,1231,+","  59.2"," ,0,0405, ","   36.7","0,0703, ","-3.9","0,1115","-3.9","0,1115","","","","","","","-1.7","0,0310","-2.8","0,0106","-5.6","0,0105","","","","","","","","","   1472.2"," ,0","        0"," ,0","     19.61","0","     25.43","0","     13.79","0"
"USC00166657","1970","29.98861","-91.78389","7.6","NEW IBERIA, LA US","","","","","       102","0","        71","0","        16","0","        0","","         0","0","","","","","","","","","","","","","        18"," ","","","     0"," ,0,1231,+","     0"," ,0,1231,+","  73.7"," ,0,1028, ","","","","","","","","","","","","","","","","","","","","","","","","","","","   1290.1"," ,0","        0"," ,0","","","","","",""
"USC00166657","1971","29.98861","-91.78389","7.6","NEW IBERIA, LA US","   1423.1","","    1423.1","0","       100","0","        77","0","        18","0","        0","","         0","0","         0","0","        14","0","         0","0","       295","0","        58","0","","","        42"," ","   -3.9","0,0210, ","     0"," ,0,1231,+","     0","T,0,0108, "," 187.2"," ,0,1206, ","   36.7","0,0813, ","","","","","","","","","","","-1.1","0,0304","-3.9","0,0210","","","","","","","     844.3","3","     844.3","0","   1718.1"," ,0","        0","T,0","     20.17","0","     25.64","0","     14.71","0"
"USC00166657","1972","29.98861","-91.78389","7.6","NEW IBERIA, LA US","   1511.5","","    1511.5","0","       103","0","        77","0","        24","0","        0","","         0","0","         0","0","        16","0","         0","0","       294","0","        95","0","","","        12"," ","   -4.4","0,0116, ","     0"," ,0,1231,+","     0"," ,0,1231,+","  91.4"," ,0,0508, ","   37.2","0,0609, ","-2.2","0,1201","-2.2","0,1201","","","","","","","0.0","0,0208","-3.3","0,0117","-4.4","0,0116","","","","","     597.3","3","     597.3","0","   1609.6"," ,0","        0"," ,0","     20.30","0","     25.74","0","     14.85","0"
"USC00166657","1973","29.98861","-91.78389","7.6","NEW IBERIA, LA US","","","","","","","","","","","","","","","","","","","","","","","","","","","        12"," ","","","","","","","","","","","","","","","","","","","","","","","","","","","","","","","     973.5","5","     973.5","0","","","","","","","","","",""
"USC00166657","1974","29.98861","-91.78389","7.6","NEW IBERIA, LA US","","","","","","","","","","","","","","","","","","","","","","","","","","","         6"," ","","","","","","","","","","","","","","","","","","","","","","","","","","","","","","","","","","","","","","","","","","","",""
"USC00166657","1975","29.98861","-91.78389","7.6","NEW IBERIA, LA US","","","","","","","","","","","        0","","         0","0","","","","","","","","","","","","","        35"," ","","","     0"," ,0,1231,+","     0"," ,0,1231,+","","","","","","","","","","","","","","","","","","","","","","","","","","","","","","","        0"," ,0","","","","","",""
"USC00166657","1976","29.98861","-91.78389","7.6","NEW IBERIA, LA US","","","","","        73","0","        58","0","        11","0","        0","","         0","0","","","","","","","","","","","","","        34"," ","","","     0"," ,0,1231,+","     0","T,0,1129, ","  85.3"," ,0,0325, ","","","","","","","","","","","","","","","","","","","","","","","","","","","   1021.4"," ,0","        0","T,0","","","","","",""
"USC00166657","1977","29.98861","-91.78389","7.6","NEW IBERIA, LA US","   1540.0","","    1540.0","0","       117","0","        84","0","        18","0","        0","","         0","0","         0","0","        24","0","         0","0","       273","0","        85","0","","","        13"," ","   -7.2","0,0119,+","     0"," ,0,1231,+","     0","T,0,0131, "," 117.1"," ,0,0421, ","   35.6","0,0708,+","-0.6","0,1210","-2.8","0,1222","","","","","","","0.0","0,0217","-2.8","0,0201","-6.7","0,0120","-6.7","0,0120","","","","","","","   1658.8"," ,0","        0","T,0","     19.93","0","     25.36","0","     14.50","0"
"USC00166657","1978","29.98861","-91.78389","7.6","NEW IBERIA, LA US","   1556.4","","    1556.4","0","       109","0","        79","0","        17","0","        0","","         0","0","         0","0","        39","0","         0","0","       268","0","        84","0","","","        17"," ","   -5.0","0,0222, ","     0"," ,0,1231,+","     0"," ,0,1231,+"," 286.0"," ,0,0607, ","   35.6","0,0823,+","0.0","0,1205","-2.2","0,1210","","","","","","","-1.1","0,0305","-5.0","0,0222","-5.0","0,0222","","","","","    1143.7","7","    1143.7","0","   1834.0"," ,0","        0"," ,0","     19.47","0","     24.91","0","     14.03","0"
"USC00166657","1979","29.98861","-91.78389","7.6","NEW IBERIA, LA US","   1418.0","","    1418.0","0","        93","0","        71","0","        29","0","        0","","         0","0","         0","0","        25","0","         0","0","       265","0","        62","0","","","","","   -7.2","0,0103, ","     0"," ,0,1231,+","     0"," ,0,1231,+"," 121.9"," ,0,0422, ","   36.1","0,0705, ","-2.8","0,1130","-2.8","0,1130","-4.4","0,1218","","","","","-2.2","0,0211","-2.2","0,0211","-5.0","0,0116","-6.7","0,0110","","","     922.5","5","     922.5","0","   1859.2"," ,0","        0"," ,0","     19.29","0","     24.61","0","     13.97","0"
"USC00166657","1980","29.98861","-91.78389","7.6","NEW IBERIA, LA US","","","","","        95","0","        73","0","        16","0","        0","","         0","0","","","","","         0","0","       275","0","       108","0","","","","","","","     0"," ,0,1231,+","     0"," ,0,1231,+"," 113.5"," ,0,1019, ","   38.3","0,0703, ","","","","","","","","","","","","","","","","","","","","","     893.6","6","     893.6","0","   1504.4"," ,0","        0"," ,0","","","     25.89","0","",""
"USC00166657","1981","29.98861","-91.78389","7.6","NEW IBERIA, LA US","   1528.7","","    1528.7","0","        95","0","        74","0","        18","0","        0","","         0","0","         0","0","        20","0","         0","0","       275","0","        98","0","","","        10"," ","   -6.1","0,0113, ","     0"," ,0,1231,+","     0"," ,0,1231,+","  62.2"," ,0,0611, ","   37.2","0,0802,+","0.0","0,1121","-3.9","0,1219","","","","","","","-4.4","0,0213","-4.4","0,0213","-4.4","0,0213","","","","","","","","","   1246.4"," ,0","        0"," ,0","     19.86","0","     25.67","0","     14.05","0"
"USC00166657","1982","29.98861","-91.78389","7.6","NEW IBERIA, LA US","   1550.1","","    1550.1","0","       112","0","        95","0","        25","0","        0","","         0","0","         0","0","        15","0","         0","0","       283","0","        98","0","        11"," ","         4"," ","  -11.7","0,0111, ","     0","T,0,0114,+","     0","T,0,0114,+"," 127.0"," ,0,1227, ","   35.6","0,0611, ","-1.1","0,1213","","","","","","","","","-1.7","0,0211","-5.6","0,0117","-5.6","0,0117","-9.4","0,0112","-9.4","0,0112","     846.9","9","     846.9","0","   1694.3"," ,0","        0","T,0","     20.29","0","     25.73","0","     14.84","0"
"USC00166657","1983","29.98861","-91.78389","7.6","NEW IBERIA, LA US","   1377.4","","    1377.4","0","       104","0","        89","0","        25","0","        0","","         0","0","         0","0","        15","0","         1","0","       262","0","        67","0","         2"," ","        12"," ","  -11.1","0,1225, ","     0"," ,0,1231,+","     0"," ,0,1231,+"," 105.7"," ,0,0803, ","   36.1","0,0530, ","0.0","0,1125","-10.6","0,1224","-10.6","0,1224","-10.6","0,1224","-10.6","0,1224","0.0","0,0311","","","","","","","","","     891.3","3","     891.3","0","   1878.6"," ,0","        0"," ,0","     19.35","0","     24.83","0","     13.86","0"
"USC00166657","1984","29.98861","-91.78389","7.6","NEW IBERIA, LA US","   1465.0","","    1465.0","0","       110","0","        79","0","        21","0","        0","","         0","0","         0","0","        17","0","         0","0","       288","0","        65","0","         2"," ","         1"," ","   -5.6","0,0122, ","     0"," ,0,1231,+","     0"," ,0,1231,+"," 201.9"," ,0,1023, ","   36.1","0,0819, ","-1.7","0,1206","-5.0","0,1207","-5.0","0,1207","","","","","0.0","0,0307","-2.2","0,0301","-5.6","0,0122","","","","","     954.6","6","     954.6","0","   1819.7"," ,0","        0"," ,0","     20.15","0","     25.55","0","     14.75","0"
"USC00166657","1985","29.98861","-91.78389","7.6","NEW IBERIA, LA US","   1588.7","","    1588.7","0","       106","0","        78","0","        18","0","        0","","         0","0","         0","0","        24","0","         1","0","       276","0","        77","0","","","","","   -8.3","0,0121,+","     0"," ,0,1231,+","     0","T,0,0103, ","  99.1"," ,0,1022, ","   37.2","0,0802, ","-1.7","0,1214","-2.2","0,1215","-4.4","0,1225","","","","","-0.6","0,0215","-4.4","0,0203","-4.4","0,0203","-8.3","0,0121","","","     782.7","7","     782.7","0","   1322.5"," ,0","        0","T,0","     20.18","0","     25.47","0","     14.89","0"
"USC00166657","1986","29.98861","-91.78389","7.6","NEW IBERIA, LA US","   1552.3","","    1552.3","0","       100","0","        72","0","        21","0","        0","","         0","0","         0","0","         9","0","         0","0","       282","0","        81","0","         1"," ","","","   -3.3","0,0212, ","     0"," ,0,1231,+","     0"," ,0,1231,+"," 123.7"," ,0,0703, ","   36.7","0,0730, ","","","","","","","","","","","0.0","0,0322","-3.3","0,0212","","","","","","","     754.0","0","     754.0","0","   1559.4"," ,0","        0"," ,0","     20.52","0","     25.59","0","     15.45","0"
"USC00166657","1987","29.98861","-91.78389","7.6","NEW IBERIA, LA US","   1421.0","","    1421.0","0","       112","0","        82","0","        22","0","        0","","         0","0","         0","0","         9","0","         0","0","       273","0","        74","0","","","","","   -3.3","0,0123, ","     0"," ,0,1231,+","     0"," ,0,1231,+","  59.9"," ,0,1116, ","   35.6","0,0728, ","0.0","0,1217","","","","","","","","","-0.6","0,0331","-3.3","0,0123","","","","","","","     893.1","1","     893.1","0","   1569.5"," ,0","        0"," ,0","     19.80","0","     25.25","0","     14.34","0"
"USC00166657","1988","29.98861","-91.78389","7.6","NEW IBERIA, LA US","   1333.2","","    1333.2","0","       105","0","        79","0","        22","0","        0","","         0","0","         0","0","        20","0","         0","0","       276","0","        58","0","","","         1"," ","   -3.9","0,0126, ","     0","T,0,0207,+","     0","T,0,0207,+","  94.5"," ,0,0218, ","   35.6","0,0628, ","-1.1","0,1213","","","","","","","","","-0.6","0,0315","-2.8","0,0212","","","","","","","     885.7","7","     885.7","0","   1547.3"," ,0","        0","T,0","     19.57","0","     24.96","0","     14.19","0"
"USC00166657","1989","29.98861","-91.78389","7.6","NEW IBERIA, LA US","   1377.0","","    1377.0","0","       112","0","        80","0","        28","0","        0","","         0","0","         0","0","        21","0","         2","0","       269","0","        44","0","","","","","  -12.8","0,1223, ","     0","T,0,1223,+","    13"," ,0,1222, ","  80.0"," ,0,0828, ","   35.0","0,0902, ","0.0","0,1020","-2.8","0,1213","-5.0","0,1216","-10.0","0,1222","-10.0","0,1222","-2.8","0,0306","-2.8","0,0306","","","","","","","     744.5","5","     744.5","0","   1813.0"," ,0","       13"," ,0","     19.51","0","     24.48","0","     14.53","0"
"USC00166657","1990","29.98861","-91.78389","7.6","NEW IBERIA, LA US","","","","","","","","","","","        0","","         0","0","","","","","","","","","","","","","","","","","     0"," ,0,1231,+","     0"," ,0,1231,+","","","","","","","","","","","","","","","","","","","","","","","","","     813.6","6","     813.6","0","   1137.3"," ,0","        0"," ,0","","","","","",""
"USC00166657","1991","29.98861","-91.78389","7.6","NEW IBERIA, LA US","","","","","       127","0","        93","0","        27","0","        0","","         0","0","","","","","","","","","","","","","","","","","     0"," ,0,1231,+","     0"," ,0,1231,+"," 116.8"," ,0,0508, ","","","","","","","","","","","","","","","","","","","","","","","","","","","   2022.2"," ,0","        0"," ,0","","","","","",""
"USC00166657","1992","29.98861","-91.78389","7.6","NEW IBERIA, LA US","   1231.4","","    1231.4","0","       125","0","        91","0","        26","0","        0","","         0","0","         0","0","         5","0","         0","0","       268","0","        52","0","","","         2"," ","   -2.2","0,0119, ","     0"," ,0,1231,+","     0"," ,0,1231,+"," 132.1"," ,0,0826, ","   34.4","0,0807,+","-1.1","0,1129","","","","","","","","","-0.6","0,0121","-2.2","0,0119","","","","","","","     752.7","7","     752.7","0","   2048.6"," ,0","        0"," ,0","     19.85","0","     24.92","0","     14.79","0"
"USC00166657","1993","29.98861","-91.78389","7.6","NEW IBERIA, LA US","   1353.3","","    1353.3","0","       105","0","        79","0","        26","0","        0","","         0","0","         0","0","        12","0","         0","0","       245","0","        77","0","","","","","   -2.8","0,0314, ","     0"," ,0,1231,+","     0"," ,0,1231,+"," 145.3"," ,0,1030, ","   36.7","0,0911, ","0.0","0,1031","","","","","","","","","-1.1","0,0315","-2.8","0,0314","","","","","","","     820.0","0","     820.0","0","   2077.7"," ,0","        0"," ,0","     19.40","0","     24.68","0","     14.11","0"
"USC00166657","1994","29.98861","-91.78389","7.6","NEW IBERIA, LA US","   1507.0","","    1507.0","0","","","","","","","        0","","         0","0","         0","0","        11","0","         0","0","       269","0","        78","0","","","","","   -3.9","0,0227, ","     0"," ,0,1231,+","     0"," ,0,1231,+","","","   35.6","0,0815, ","","","","","","","","","","","0.0","0,0310","-3.9","0,0227","","","","","","","     999.4","4","     999.4","0","","","        0"," ,0","     20.59","0","     25.78","0","     15.40","0"
"USC00166657","1995","29.98861","-91.78389","7.6","NEW IBERIA, LA US","","","","","        85","0","        63","0","        22","0","        0","","         0","0","","","","","","","","","","","","","","","","","     0"," ,0,1231,+","     0"," ,0,1231,+"," 128.8"," ,0,1218, ","","","","","","","","","","","","","","","","","","","","","","","     613.8","8","     613.8","0","   1559.0"," ,0","        0"," ,0","","","","","",""
"USC00166657","1996","29.98861","-91.78389","7.6","NEW IBERIA, LA US","","","","","        94","0","        69","0","        11","0","        0","","         0","0","","","","","         1","0","       283","0","        66","0","","","","","","","     0"," ,0,1231,+","     0"," ,0,1231,+"," 113.0"," ,0,1026, ","   35.6","0,0725,+","","","","","","","","","","","","","","","","","","","","","","","","","   1319.1"," ,0","        0"," ,0","","","     25.66","0","",""
"USC00166657","1997","29.98861","-91.78389","7.6","NEW IBERIA, LA US","","","","","       146","0","        76","0","        20","0","        0","","         0","0","         0","0","        12","0","","","","","","","","","","","   -3.9","0,0118, ","     0"," ,0,1231,+","     0"," ,0,1231,+"," 103.1"," ,0,0618, ","","","-0.6","0,1117","-2.2","0,1215","","","","","","","-2.8","0,0119","-2.8","0,0119","","","","","","","","","","","   1416.3"," ,0","        0"," ,0","","","","","     15.07","0"
"USC00166657","1998","29.98861","-91.78389","7.6","NEW IBERIA, LA US","   1706.2","","    1706.2","0","        97","0","        59","0","        17","0","","","         0","0","         0","0","         0","0","         0","0","       273","0","       106","0","","","","","    0.6","0,1226,+","","","     0"," ,0,1231,+"," 102.6"," ,0,0317, ","   37.2","0,0829,+","","","","","","","","","","","","","","","","","","","","","     798.7","7","     798.7","0","   1336.3"," ,0","        0"," ,0","     21.27","0","     26.69","0","     15.84","0"
"USC00166657","1999","29.98861","-91.78389","7.6","NEW IBERIA, LA US","","","","","       108","0","        59","0","        15","0","        0","","         0","0","","","","","         0","0","       304","0","        85","0","","","","","","","     0"," ,0,1231,+","     0"," ,0,1231,+","  69.1"," ,0,0513, ","   37.2","0,0815, ","","","","","","","","","","","","","","","","","","","","","     516.4","4","     516.4","0","   1098.5"," ,0","        0"," ,0","","","     26.78","0","",""
"USC00166657","2000","29.98861","-91.78389","7.6","NEW IBERIA, LA US","   1639.5","","    1639.5","0","       103","0","        61","0","        12","0","        0","","         0","0","         0","0","        13","0","         0","0","       281","0","       101","0","","","","","   -3.3","0,1231,+","     0"," ,0,1231,+","     0"," ,0,1231,+","  80.8"," ,0,1109, ","   39.4","0,0904,+","-1.1","0,1122","-3.3","0,1220","","","","","","","-0.6","0,0127","","","","","","","","","","","","","   1086.5"," ,0","        0"," ,0","     20.66","0","     26.55","0","     14.77","0"
"USC00166657","2001","29.98861","-91.78389","7.6","NEW IBERIA, LA US","","","","","       117","0","        85","0","        23","0","        0","","         0","0","","","","","","","","","","","","","","","","","     0"," ,0,1231,+","     0"," ,0,1231,+"," 160.0"," ,0,0721, ","","","","","","","","","","","","","","","","","","","","","","","","","","","   1888.3"," ,0","        0"," ,0","","","","","",""
"USC00166657","2002","29.98861","-91.78389","7.6","NEW IBERIA, LA US","","","","","       137","0","        81","0","        21","0","        0","","         0","0","","","","","         0","0","       266","0","        83","0","","","","","","","     0"," ,0,1231,+","     0"," ,0,1231,+"," 123.7"," ,0,0409, ","   36.1","0,0803, ","","","","","","","","","","","","","","","","","","","","","","","","","   1588.5"," ,0","        0"," ,0","","","     25.92","0","",""
"USC00166657","2003","29.98861","-91.78389","7.6","NEW IBERIA, LA US","","","","","       132","0","        78","0","        20","0","","","         0","0","","","","","","","","","","","","","","","","","","","     0"," ,0,1231,+"," 113.0"," ,0,0408, ","","","","","","","","","","","","","","","","","","","","","","","","","","","   1461.5"," ,0","        0"," ,0","","","","","",""
"USC00166657","2004","29.98861","-91.78389","7.6","NEW IBERIA, LA US","","","","","       130","0","        83","0","        23","0","        0","","         0","0","","","","","         0","0","       287","0","        89","0","","","","","","","     0"," ,0,1231,+","     0"," ,0,1231,+"," 146.1"," ,0,1009, ","   37.8","0,0918, ","","","","","","","","","","","","","","","","","","","","","","","","","   1711.3"," ,0","        0"," ,0","","","     26.44","0","",""
"USC00166657","2005","29.98861","-91.78389","7.6","NEW IBERIA, LA US","   1713.3","","    1713.3","0","       102","0","        60","0","        11","0","        0","","         0","0","         0","0","         6","0","         0","0","       285","0","       125","0","","","         2"," ","   -2.2","0,0124, ","     0"," ,0,1231,+","     0"," ,0,1231,+","  79.0"," ,0,0214, ","   37.8","0,0921,+","-1.1","0,1226","","","","","","","","","-1.7","0,0125","-2.2","0,0124","","","","","","","     613.1","1","     613.1","0","   1269.3"," ,0","        0"," ,0","     21.37","0","     27.07","0","     15.68","0"
