"STATION","DATE","LATITUDE","LONGITUDE","ELEVATION","NAME","DSND","DSND_ATTRIBUTES","DSNW","DSNW_ATTRIBUTES","DYFG","DYFG_ATTRIBUTES","DYTS","DYTS_ATTRIBUTES","EMSD","EMSD_ATTRIBUTES","EMSN","EMSN_ATTRIBUTES","SNOW","SNOW_ATTRIBUTES"
"USC00033740","2014","36.2705","-92.1921","165.2","JORDAN 3 NNW, AR US","","","","","         8"," ","         9"," ","","","","","",""
"USC00033740","2015","36.2705","-92.1921","165.2","JORDAN 3 NNW, AR US","","","         3","7","         8"," ","        18"," ","","","   127"," ,7,0305, ","      209"," ,7"
"USC00033740","2016","36.2705","-92.1921","165.2","JORDAN 3 NNW, AR US","","","","","         6"," ","         3"," ","","","","","",""
"USC00033740","2017","36.2705","-92.1921","165.2","JORDAN 3 NNW, AR US","","","","","         3"," ","         6"," ","","","","","",""
"USC00033740","2018","36.2705","-92.1921","165.2","JORDAN 3 NNW, AR US","        2","","         1","7","","","","","    76"," ,7,0116, ","    76"," ,7,0116, ","      112"," ,7"
"USC00033740","2019","36.2705","-92.1921","165.2","JORDAN 3 NNW, AR US","        0","","         0","7","","","         2"," ","     0","T,7,0120, ","     5"," ,7,0120, ","        5"," ,7"
"USC00033740","2020","36.2705","-92.1921","165.2","JORDAN 3 NNW, AR US","","","","","","","         1"," ","","","","","",""
