"STATION","DATE","LATITUDE","LONGITUDE","ELEVATION","NAME","CDSD","CDSD_ATTRIBUTES","CLDD","CLDD_ATTRIBUTES","DP01","DP01_ATTRIBUTES","DP10","DP10_ATTRIBUTES","DP1X","DP1X_ATTRIBUTES","DSND","DSND_ATTRIBUTES","DSNW","DSNW_ATTRIBUTES","DT00","DT00_ATTRIBUTES","DT32","DT32_ATTRIBUTES","DX32","DX32_ATTRIBUTES","DX70","DX70_ATTRIBUTES","DX90","DX90_ATTRIBUTES","DYFG","DYFG_ATTRIBUTES","DYTS","DYTS_ATTRIBUTES","EMNT","EMNT_ATTRIBUTES","EMSD","EMSD_ATTRIBUTES","EMSN","EMSN_ATTRIBUTES","EMXP","EMXP_ATTRIBUTES","EMXT","EMXT_ATTRIBUTES","FZF0","FZF0_ATTRIBUTES","FZF1","FZF1_ATTRIBUTES","FZF2","FZF2_ATTRIBUTES","FZF3","FZF3_ATTRIBUTES","FZF4","FZF4_ATTRIBUTES","FZF5","FZF5_ATTRIBUTES","FZF6","FZF6_ATTRIBUTES","FZF7","FZF7_ATTRIBUTES","FZF8","FZF8_ATTRIBUTES","FZF9","FZF9_ATTRIBUTES","HDSD","HDSD_ATTRIBUTES","HTDD","HTDD_ATTRIBUTES","PRCP","PRCP_ATTRIBUTES","SNOW","SNOW_ATTRIBUTES","TAVG","TAVG_ATTRIBUTES","TMAX","TMAX_ATTRIBUTES","TMIN","TMIN_ATTRIBUTES"
"USC00242634","1925","46.58333","-111.91667","1189.0","EAST HELENA, MT US","    201.7","","     201.7","6","","","","","","","","","","","         4","6","       162","6","        28","6","       105","6","        17","6","","","","","  -20.0","6,0115, ","","","","","","","   37.8","6,0715, ","0.0","6,0919","-3.3","6,0920","-4.4","6,1001","-9.4","6,1007","-9.4","6,1007","-2.8","6,0510","-2.8","6,0510","-4.4","6,0327","-15.0","6,0315","-15.0","6,0315","","","","","","","","","      7.70","6","     13.77","6","      1.63","6"
"USC00242634","1926","46.58333","-111.91667","1189.0","EAST HELENA, MT US","    150.1","","     150.1","6","","","","","","","","","","","         5","6","       161","6","        40","6","       109","6","        17","6","","","","","  -30.0","6,1214, ","","","","","","","   36.1","6,0825, ","-0.6","6,0919","-5.6","6,0923","-5.6","6,0923","-13.9","6,0924","-13.9","6,0924","0.0","6,0508","-3.9","6,0424","-7.8","6,0407","-7.8","6,0407","-10.0","6,0403","    3992.3","3","    3992.3","6","","","","","      7.62","6","     14.05","6","      1.20","6"
"USC00242634","1927","46.58333","-111.91667","1189.0","EAST HELENA, MT US","    106.6","","     106.6","6","","","","","","","","","","","        30","6","       172","6","        61","6","       105","6","         6","6","","","","","  -38.9","6,0121, ","","","","","","","   33.9","6,0720, ","-1.7","6,1005","-2.8","6,1030","-5.0","6,1108","-7.2","6,1110","-11.7","6,1111","0.0","6,0529","-2.2","6,0510","-6.1","6,0503","-7.2","6,0421","-17.8","6,0420","    4417.5","5","    4417.5","6","","","","","      5.55","6","     11.61","6","     -0.51","6"
"USC00242634","1928","46.58333","-111.91667","1189.0","EAST HELENA, MT US","    118.2","","     118.2","6","","","","","","","","","","","        22","6","       182","6","        53","6","       109","6","        12","6","","","","","  -35.0","6,0101, ","","","","","","","   38.3","6,0811, ","-3.3","6,1004","-3.3","6,1004","-5.0","6,1012","-8.9","6,1013","-8.9","6,1013","-1.1","6,0504","-2.8","6,0503","-6.1","6,0415","-11.7","6,0413","-11.7","6,0413","    4532.8","8","    4532.8","6","","","","","      6.28","6","     13.13","6","     -0.57","6"
"USC00242634","1929","46.58333","-111.91667","1189.0","EAST HELENA, MT US","    270.9","","     270.9","6","","","","","","","","","","","        33","6","       188","6","        60","6","       110","6","        34","6","","","","","  -38.9","6,0128, ","","","","","","","   39.4","6,0725, ","-1.7","6,0904","-2.8","6,0907","-6.1","6,1023","-7.2","6,1024","-11.1","6,1103","0.0","6,0518","-3.3","6,0515","-5.0","6,0426","-6.7","6,0425","-13.3","6,0410","    4738.9","9","    4738.9","6","","","","","      5.30","6","     12.35","6","     -1.75","6"
"USC00242634","1930","46.58333","-111.91667","1189.0","EAST HELENA, MT US","    229.2","","     229.2","6","","","","","","","","","","","        25","6","       167","6","        51","6","       120","6","        23","6","","","","","  -39.4","6,0117, ","","","","","","","   37.2","6,0809, ","-1.7","6,0901","-2.2","6,1014","-8.3","6,1015","-8.3","6,1015","-10.0","6,1016","-0.6","6,0523","-2.8","6,0405","-4.4","6,0401","-12.2","6,0331","-12.2","6,0331","    4440.6","6","    4440.6","6","","","","","      6.49","6","     13.11","6","     -0.12","6"
"USC00242634","1931","46.58333","-111.91667","1189.0","EAST HELENA, MT US","    268.0","","     268.0","6","        67","6","        19","6","         0","6","","","","","        17","6","       173","6","        34","6","       119","6","        27","6","","","","","  -25.0","6,1201,+","","","","","  15.2"," ,6,0526, ","   40.0","6,0722, ","-1.1","6,0923","-5.0","6,1008","-5.0","6,1008","-7.2","6,1113","-14.4","6,1116","-1.7","6,0521","-2.8","6,0510","-7.2","6,0424","-7.2","6,0424","-9.4","6,0423","    3845.2","2","    3845.2","6","    155.2"," ,6","","","      7.53","6","     14.62","6","      0.43","6"
"USC00242634","1932","46.58333","-111.91667","1189.0","EAST HELENA, MT US","    211.6","","     211.6","6","","","","","","","","","","","        35","6","       155","6","        52","6","       123","6","        21","6","","","","","  -37.2","6,1209, ","","","","","","","   36.7","6,0717, ","0.0","6,0921","-2.8","6,0922","-6.1","6,1004","-10.0","6,1009","-10.0","6,1009","-1.7","6,0430","-2.2","6,0426","-4.4","6,0409","-8.3","6,0329","-11.1","6,0314","    4449.4","4","    4449.4","6","","","","","      6.55","6","     13.32","6","     -0.22","6"
"USC00242634","1933","46.58333","-111.91667","1189.0","EAST HELENA, MT US","    298.5","","     298.5","6","        77","6","        28","6","         1","6","","","","","        14","6","       157","6","        41","6","       117","6","        36","6","","","","","  -42.2","6,0209, ","","","","","  65.0"," ,6,0821, ","   38.9","6,0726, ","-2.8","6,0925","-2.8","6,0925","-4.4","6,1024","-14.4","6,1104","-14.4","6,1104","-0.6","6,0512","-3.3","6,0421","-5.6","6,0418","-9.4","6,0413","-9.4","6,0413","    4262.8","8","    4262.8","6","    249.0"," ,6","","","      7.49","6","     14.14","6","      0.84","6"
"USC00242634","1934","46.58333","-111.91667","1189.0","EAST HELENA, MT US","    245.1","","     245.1","6","        79","6","        29","6","         0","6","","","","","        12","6","       149","6","        29","6","       141","6","        26","6","","","","","  -26.1","6,1225, ","","","","","  21.8"," ,6,0607, ","   39.4","6,0729, ","-5.6","6,0920","-5.6","6,0920","-5.6","6,0920","-7.2","6,0924","-9.4","6,1205","-1.1","6,0513","-5.0","6,0415","-5.0","6,0415","-11.1","6,0403","-11.1","6,0403","    3460.4","4","    3460.4","6","    202.2"," ,6","","","      8.85","6","     16.00","6","      1.70","6"
"USC00242634","1935","46.58333","-111.91667","1189.0","EAST HELENA, MT US","    175.7","","     175.7","6","        57","6","        18","6","         0","6","","","","","        22","6","       182","6","        44","6","       121","6","        25","6","","","","","  -37.8","6,0120, ","","","","","  20.3"," ,6,0304, ","   39.4","6,0728, ","-5.6","6,0927","-5.6","6,0927","-5.6","6,0927","-14.4","6,1029","-14.4","6,1029","0.0","6,0520","-3.3","6,0509","-5.0","6,0429","-12.2","6,0414","-12.2","6,0414","    4303.6","6","    4303.6","6","    126.8"," ,6","","","      6.29","6","     13.58","6","     -1.00","6"
"USC00242634","1936","46.58333","-111.91667","1189.0","EAST HELENA, MT US","    351.9","","     351.9","6","        82","6","        31","6","         0","6","","","        27","6","        50","6","       174","6","        62","6","       137","6","        41","6","","","","","  -42.8","6,0215, ","","","   406"," ,6,0212, ","  17.0"," ,6,0603, ","   40.0","6,0723, ","-0.6","6,0914","-3.3","6,0916","-5.6","6,1021","-6.7","6,1026","-13.3","6,1101","0.0","6,0429","-5.6","6,0407","-5.6","6,0407","-16.1","6,0406","-16.1","6,0406","    4644.6","6","    4644.6","6","    232.0"," ,6","     1939"," ,6","      6.14","6","     13.42","6","     -1.15","6"
"USC00242634","1937","46.58333","-111.91667","1189.0","EAST HELENA, MT US","    247.2","","     247.2","6","        79","6","        35","6","         1","6","","","","","        40","6","       164","6","        63","6","       118","6","        32","6","","","","","  -40.6","6,0108, ","","","","","  30.7"," ,6,0921, ","   39.4","6,0705, ","0.0","6,0925","-2.2","6,0930","-7.2","6,1102","-7.2","6,1102","-10.6","6,1117","0.0","6,0430","-2.2","6,0425","-7.2","6,0424","-7.2","6,0424","-11.7","6,0329","    4851.4","4","    4851.4","6","    279.3"," ,6","","","      6.06","6","     13.15","6","     -1.02","6"
"USC00242634","1938","46.58333","-111.91667","1189.0","EAST HELENA, MT US","    202.7","","     202.7","6","","","","","","","","","","","        20","6","       174","6","        42","6","       119","6","        12","6","","","","","  -33.9","6,0130, ","","","","","","","   35.0","6,0723, ","-3.9","6,1014","-3.9","6,1014","-5.6","6,1017","-11.7","6,1018","-11.7","6,1018","0.0","6,0521","-6.1","6,0421","-6.1","6,0421","-12.8","6,0402","-12.8","6,0402","    4193.1","1","    4193.1","6","","","","","      6.93","6","     13.75","6","      0.10","6"
"USC00242634","1939","46.58333","-111.91667","1189.0","EAST HELENA, MT US","    239.8","","     239.8","6","        65","6","        31","6","         0","6","","","        11","6","        15","6","       167","6","        28","6","       116","6","        31","6","","","","","  -36.1","6,0209, ","","","   152"," ,6,0314,+","  12.7"," ,6,0619, ","   37.2","6,0711, ","0.0","6,0928","-3.9","6,1007","-7.2","6,1024","-7.2","6,1024","-10.6","6,1025","-0.6","6,0521","-3.9","6,0418","-6.7","6,0417","-6.7","6,0417","-12.8","6,0406","    4154.3","3","    4154.3","6","    223.1"," ,6","     1066"," ,6","      7.84","6","     15.33","6","      0.35","6"
"USC00242634","1940","46.58333","-111.91667","1189.0","EAST HELENA, MT US","    311.6","","     311.6","6","        58","6","        25","6","         0","6","","","","","        25","6","       157","6","        57","6","       132","6","        33","6","","","","","  -30.6","6,0122, ","","","","","  23.9"," ,6,0929, ","   40.6","6,0813, ","-0.6","6,1006","-3.3","6,1030","-5.0","6,1104","-12.8","6,1105","-12.8","6,1105","0.0","6,0430","-2.8","6,0416","-9.4","6,0412","-9.4","6,0412","-9.4","6,0412","    4050.1","1","    4050.1","6","    200.9"," ,6","","","      7.23","6","     13.94","6","      0.52","6"
"USC00242634","1941","46.58333","-111.91667","1189.0","EAST HELENA, MT US","    191.2","","     191.2","6","","","","","","","","","","","        10","6","       174","6","        40","6","        99","6","        11","6","","","","","  -32.8","6,1228, ","","","","","","","   37.2","6,0717, ","0.0","6,0921","-5.6","6,1006","-5.6","6,1006","-10.6","6,1030","-10.6","6,1030","-3.9","6,0419","-3.9","6,0419","-9.4","6,0418","-9.4","6,0418","-9.4","6,0418","    4108.2","2","    4108.2","6","","","","","      7.13","6","     13.94","6","      0.32","6"
"USC00242634","1942","46.58333","-111.91667","1189.0","EAST HELENA, MT US","    175.3","","     175.3","6","","","","","","","","","","","        30","6","       192","6","        53","6","       108","6","        25","6","","","","","  -38.9","6,0106,+","","","","","","","   36.7","6,0819, ","-2.2","6,0926","-2.2","6,0926","-4.4","6,1022","-8.3","6,1024","-11.7","6,1025","0.0","6,0601","-2.2","6,0517","-5.6","6,0426","-6.7","6,0407","-9.4","6,0328","    4800.1","1","    4800.1","6","","","","","      5.39","6","     12.50","6","     -1.72","6"
"USC00242634","1943","46.58333","-111.91667","1189.0","EAST HELENA, MT US","    176.0","","     176.0","6","","","","","","","","","","","        37","6","       167","6","        68","6","       118","6","        13","6","","","","","  -36.7","6,0118, ","","","","","","","   34.4","6,0721, ","0.0","6,0919","-2.2","6,1020","-6.7","6,1101","-6.7","6,1101","-15.0","6,1126","-0.6","6,0517","-2.2","6,0511","-4.4","6,0322","-7.2","6,0321","-10.6","6,0320","    4821.3","3","    4821.3","6","","","","","      5.86","6","     12.36","6","     -0.65","6"
"USC00242634","1944","46.58333","-111.91667","1189.0","EAST HELENA, MT US","     74.9","","      74.9","6","        64","6","        38","6","         1","6","","","        13","6","        24","6","       187","6","        62","6","       109","6","         2","6","","","","","  -31.7","6,1223, ","","","   127"," ,6,0306,+","  25.4"," ,6,0627, ","   33.9","6,0630, ","-2.2","6,0918","-2.2","6,0918","-5.6","6,0930","-7.8","6,1115","-12.2","6,1116","-0.6","6,0523","-2.8","6,0419","-4.4","6,0329","-11.7","6,0328","-11.7","6,0328","    4227.9","9","    4227.9","6","    317.0"," ,6","      906"," ,6","      5.94","6","     13.00","6","     -1.13","6"
"USC00242634","1945","46.58333","-111.91667","1189.0","EAST HELENA, MT US","    180.1","","     180.1","6","        49","6","        21","6","         0","6","","","","","        15","6","       178","6","        37","6","       111","6","        20","6","","","","","  -30.0","6,0305, ","","","","","  20.6"," ,6,0610, ","   35.0","6,0725,+","0.0","6,0912","-2.8","6,0927","-4.4","6,0928","-10.0","6,1106","-10.0","6,1106","0.0","6,0521","-6.7","6,0418","-6.7","6,0418","-6.7","6,0418","-11.7","6,0403","    4079.1","1","    4079.1","6","    196.3"," ,6","","","      6.89","6","     13.88","6","     -0.10","6"
"USC00242634","1946","46.58333","-111.91667","1189.0","EAST HELENA, MT US","","","","","        51","6","        30","6","         1","6","","","","","","","","","        17","6","       105","6","        16","6","","","","","","","","","","","  25.4"," ,6,0917, ","   36.7","6,0721, ","","","","","","","","","","","","","","","","","","","","","    3739.7","7","    3739.7"," ","    230.7"," ,6","","","","","     14.58","6","",""
"USC00242634","1947","46.58333","-111.91667","1189.0","EAST HELENA, MT US","","","","","        73","6","        38","6","         3","6","","","        12","6","","","","","        49","6","       112","6","        17","6","","","","","","","","","   152"," ,6,1111, ","  54.4"," ,6,0926, ","   36.1","6,0706, ","","","","","","","","","","","","","","","","","","","","","","","","","    382.9"," ,6","      626"," ,6","","","     13.79","6","",""
"USC00242634","1948","46.58333","-111.91667","1189.0","EAST HELENA, MT US","","","","","        90","0","        29","0","         1","0","","","        11","0","        39","0","       180","0","","","","","","","         2"," ","        14"," ","  -28.9","0,0211, ","","","   127"," ,0,1204, ","  39.6"," ,0,0508, ","","","0.0","0,0920","-5.6","0,1016","-5.6","0,1016","-8.3","0,1017","-9.4","0,1130","0.0","6,0509","-2.8","6,0427","-6.1","6,0412","-7.2","6,0407","-8.9","6,0326","","","","","    321.7"," ,0","      988"," ,0","","","","","     -0.86","0"
"USC00242634","1949","46.58333","-111.91667","1189.0","EAST HELENA, MT US","    197.6","","     197.6","0","        82","0","        27","0","         0","0","       92","","        21","0","        52","0","       179","0","        72","0","       128","0","        21","0","         2"," ","        40"," ","  -36.7","0,0120, ","   330"," ,0,0317,+","   152"," ,0,0316,+","  24.1"," ,0,0617, ","   38.9","0,0807, ","-1.1","0,0911","-3.9","0,0912","-6.7","0,1014","-6.7","0,1014","-9.4","0,1018","0.0","0,0618","-2.2","0,0415","-5.6","0,0402","-6.7","0,0330","-17.2","0,0318","    5023.7","7","    5023.7","0","    230.4"," ,0","     1454"," ,0","      5.62","0","     13.01","0","     -1.78","0"
"USC00242634","1950","46.58333","-111.91667","1189.0","EAST HELENA, MT US","    142.7","","     142.7","0","        87","0","        37","0","         0","0","      107","","        25","0","        37","0","       181","0","        57","0","       114","0","        16","0","         3"," ","        21"," ","  -35.6","0,0103, ","   203"," ,0,1210,+","   152"," ,0,1108, ","  18.3"," ,0,0914, ","   36.7","0,0904,+","0.0","0,0928","-2.2","0,0930","-8.9","0,1001","-8.9","0,1001","-8.9","0,1001","0.0","0,0608","-2.2","0,0504","-6.7","0,0430","-6.7","0,0430","-11.1","0,0405","    4784.0","0","    4784.0","0","    281.3"," ,0","     1938"," ,0","      5.26","0","     12.11","0","     -1.58","0"
"USC00242634","1951","46.58333","-111.91667","1189.0","EAST HELENA, MT US","    133.8","","     133.8","0","       109","0","        36","0","         0","0","      104","","        23","0","        33","0","       195","0","        73","0","        98","0","        16","0","         4"," ","        20"," ","  -32.2","0,0308,+","   457"," ,0,1231, ","   152"," ,0,1223, ","  23.6"," ,0,0430, ","   36.1","0,0719, ","0.0","0,0915","-2.2","0,0927","-4.4","0,1016","-7.8","0,1030","-13.9","0,1101","0.0","0,0607","-6.7","0,0425","-6.7","0,0425","-6.7","0,0425","-10.0","0,0421","    4864.8","8","    4864.8","0","    297.0"," ,0","     1555"," ,0","      4.51","0","     11.10","0","     -2.09","0"
"USC00242634","1952","46.58333","-111.91667","1189.0","EAST HELENA, MT US","    165.1","","     165.1","0","","","","","","","      121","","        14","0","        31","0","       181","0","        72","0","       127","0","        11","0","         5"," ","        15"," ","  -30.0","0,0123, ","   457"," ,0,0107,+","   152"," ,0,1124, ","","","   36.1","0,0724, ","0.0","0,1005","-2.2","0,1006","-5.0","0,1028","-9.4","0,1109","-9.4","0,1109","0.0","0,0423","-2.8","0,0422","-4.4","0,0409","-10.0","0,0323","-10.0","0,0323","    4928.1","1","    4928.1","0","    232.3"," ,0","     1040"," ,0","      6.19","0","     13.25","0","     -0.88","0"
"USC00242634","1953","46.58333","-111.91667","1189.0","EAST HELENA, MT US","    224.4","","     224.4","0","        71","0","        26","0","         1","0","       30","","         7","0","         7","0","       167","0","        17","0","       131","0","        26","0","         3"," ","        25"," ","  -21.7","0,0302, ","   254"," ,0,0303,+","   152"," ,0,0301, ","  38.1"," ,0,0525, ","   39.4","0,0714, ","0.0","0,0921","-6.7","0,1023","-6.7","0,1023","-6.7","0,1023","-13.3","0,1119","-2.8","0,0521","-2.8","0,0521","-5.6","0,0512","-7.2","0,0418","-8.9","0,0403","    4128.0","0","    4128.0","0","    219.1"," ,0","      615"," ,0","      8.56","0","     15.62","0","      1.49","0"
"USC00242634","1954","46.58333","-111.91667","1189.0","EAST HELENA, MT US","    193.8","","     193.8","0","        76","0","        28","0","         0","0","       59","","        13","0","        22","0","       187","0","        44","0","       108","0","        22","0","         3"," ","        23"," ","  -37.8","0,0121, ","   406"," ,0,0121,+","   279"," ,0,1128, ","  19.8"," ,0,0530, ","   37.2","0,0708, ","0.0","0,0929","-3.9","0,1001","-4.4","0,1002","-6.7","0,1128","-18.9","0,1129","-0.6","0,0529","-4.4","0,0503","-4.4","0,0503","-8.3","0,0502","-17.2","0,0403","    4154.3","3","    4154.3","0","    243.8"," ,0","     1140"," ,0","      6.57","0","     13.55","0","     -0.41","0"
"USC00242634","1955","46.58333","-111.91667","1189.0","EAST HELENA, MT US","    193.7","","     193.7","0","       107","0","        40","0","         1","0","      101","","        18","0","        38","0","       184","0","        82","0","       106","0","        24","0","         3"," ","        28"," ","  -31.7","0,1116, ","   254"," ,0,1205,+","   203"," ,0,0302, ","  27.2"," ,0,0718, ","   36.7","0,0901, ","-0.6","0,0921","-6.1","0,1023","-6.1","0,1023","-8.9","0,1101","-8.9","0,1101","-0.6","0,0516","-2.8","0,0417","-5.0","0,0408","-8.3","0,0407","-10.0","0,0406","    4640.8","8","    4640.8","0","    310.2"," ,0","     1595"," ,0","      4.94","0","     11.56","0","     -1.67","0"
"USC00242634","1956","46.58333","-111.91667","1189.0","EAST HELENA, MT US","    155.6","","     155.6","0","        79","0","        25","0","         1","0","       68","","         9","0","        22","0","       188","0","        54","0","       131","0","        18","0","         7"," ","        24"," ","  -35.0","0,0217,+","   152"," ,0,0205,+","   102"," ,0,0116, ","  35.6"," ,0,0616, ","   35.0","0,0725,+","-0.6","0,0905","-3.3","0,1014","-4.4","0,1022","-11.7","0,1028","-11.7","0,1028","0.0","0,0513","-2.2","0,0503","-4.4","0,0412","-7.8","0,0407","-9.4","0,0406","    4824.1","1","    4824.1","0","    213.3"," ,0","      651"," ,0","      6.35","0","     13.46","0","     -0.75","0"
"USC00242634","1957","46.58333","-111.91667","1189.0","EAST HELENA, MT US","    135.0","","     135.0","0","       106","0","        28","0","         0","0","       72","","","","        34","0","       186","0","        49","0","       111","0","        16","0","         2"," ","        24"," ","  -38.9","0,0127,+","   356"," ,0,0205,+","","","  24.9"," ,0,0520, ","   36.7","0,0805, ","-0.6","0,0918","-3.9","0,0919","-4.4","0,1004","-8.9","0,1022","-8.9","0,1022","0.0","0,0427","-3.3","0,0416","-5.6","0,0413","-7.2","0,0412","-8.9","0,0403","    4752.5","5","    4752.5","0","    285.7"," ,0","","","      5.36","0","     12.06","0","     -1.34","0"
"USC00242634","1958","46.58333","-111.91667","1189.0","EAST HELENA, MT US","","","","","","","","","","","","","","","","","","","","","","","","","         2"," ","","","","","","","","","","","","","","","","","","","","","","","","","","","","","","","","","","","","","","","","","","","","","",""
