"STATION","DATE","LATITUDE","LONGITUDE","ELEVATION","NAME","DP01","DP01_ATTRIBUTES","DP10","DP10_ATTRIBUTES","DP1X","DP1X_ATTRIBUTES","DSND","DSND_ATTRIBUTES","DSNW","DSNW_ATTRIBUTES","DYTS","DYTS_ATTRIBUTES","EMSD","EMSD_ATTRIBUTES","EMSN","EMSN_ATTRIBUTES","EMXP","EMXP_ATTRIBUTES","PRCP","PRCP_ATTRIBUTES","SNOW","SNOW_ATTRIBUTES"
"USC00048348","1957","34.28333","-118.96667","149.0","SOMIS 3 NE, CA US","        30","0","        26","0","         4","0","        0","","         0","0","","","     0"," ,0,1231,+","     0"," ,0,1231,+","  71.4"," ,0,0301, ","    514.1"," ,0","        0"," ,0"
"USC00048348","1960","34.28333","-118.96667","149.0","SOMIS 3 NE, CA US","        21","0","        18","0","         4","0","        0","","         0","0","         1"," ","     0"," ,0,1231,+","     0"," ,0,1231,+","  33.8"," ,0,0110, ","    298.1"," ,0","        0"," ,0"
"USC00048348","1961","34.28333","-118.96667","149.0","SOMIS 3 NE, CA US","","","","","","","","","","","         1"," ","","","","","","","","","",""
"USC00048348","1962","34.28333","-118.96667","149.0","SOMIS 3 NE, CA US","        18","0","        17","0","         7","0","        0","","         0","0","","","     0"," ,0,1231,+","     0"," ,0,1231,+","  57.4"," ,0,0208, ","    435.5"," ,0","        0"," ,0"
