"STATION","DATE","LATITUDE","LONGITUDE","ELEVATION","NAME","CDSD","CDSD_ATTRIBUTES","CLDD","CLDD_ATTRIBUTES","DT00","DT00_ATTRIBUTES","DT32","DT32_ATTRIBUTES","DX32","DX32_ATTRIBUTES","DX70","DX70_ATTRIBUTES","DX90","DX90_ATTRIBUTES","EMNT","EMNT_ATTRIBUTES","EMXT","EMXT_ATTRIBUTES","FZF0","FZF0_ATTRIBUTES","FZF1","FZF1_ATTRIBUTES","FZF2","FZF2_ATTRIBUTES","FZF3","FZF3_ATTRIBUTES","FZF4","FZF4_ATTRIBUTES","FZF5","FZF5_ATTRIBUTES","FZF6","FZF6_ATTRIBUTES","FZF7","FZF7_ATTRIBUTES","FZF8","FZF8_ATTRIBUTES","FZF9","FZF9_ATTRIBUTES","HDSD","HDSD_ATTRIBUTES","HTDD","HTDD_ATTRIBUTES","TAVG","TAVG_ATTRIBUTES","TMAX","TMAX_ATTRIBUTES","TMIN","TMIN_ATTRIBUTES"
"USC00462735","1892","39.733333","-80.816667",,"ELLA, WV US","    419.3","","     419.3","6","         3","6","       124","6","        44","6","       144","6","         4","6","  -18.9","6,1228, ","   32.8","6,0818,+","0.0","6,1025","-2.2","6,1109","-6.1","6,1120","-9.4","6,1123","-9.4","6,1123","0.0","6,0508","-2.8","6,0413","-6.7","6,0412","-6.7","6,0412","-9.4","6,0319","","","","","     10.18","6","     14.70","6","      5.67","6"
"USC00462735","1893","39.733333","-80.816667",,"ELLA, WV US","    434.1","","     434.1","6","         7","6","       112","6","        37","6","       144","6","         8","6","  -21.1","6,0116,+","   35.0","6,0716, ","-1.1","6,1029","-3.9","6,1115","-5.0","6,1116","-8.9","6,1124","-8.9","6,1124","-0.6","6,0423","-7.2","6,0329","-7.2","6,0329","-7.2","6,0329","-9.4","6,0305","    3352.1","1","    3352.1","6","     10.49","6","     15.41","6","      5.58","6"
"USC00462735","1894","39.733333","-80.816667",,"ELLA, WV US","    641.8","","     641.8","6","         1","6","        92","6","        21","6","       150","6","        28","6","  -20.0","6,1229, ","   37.2","6,0719, ","-1.1","6,1106","-2.2","6,1110","-5.0","6,1111","-7.8","6,1129","-16.7","6,1228","-0.6","6,0412","-3.3","6,0409","-5.6","6,0330","-7.2","6,0328","-10.6","6,0327","    2872.3","3","    2872.3","6","     12.23","6","     17.11","6","      7.35","6"
