"STATION","DATE","LATITUDE","LONGITUDE","ELEVATION","NAME","DP01","DP01_ATTRIBUTES","DP10","DP10_ATTRIBUTES","DP1X","DP1X_ATTRIBUTES","DSND","DSND_ATTRIBUTES","DSNW","DSNW_ATTRIBUTES","DYFG","DYFG_ATTRIBUTES","DYTS","DYTS_ATTRIBUTES","EMSD","EMSD_ATTRIBUTES","EMSN","EMSN_ATTRIBUTES","EMXP","EMXP_ATTRIBUTES","PRCP","PRCP_ATTRIBUTES","SNOW","SNOW_ATTRIBUTES"
"USC00415192","1965","33.0694","-97.0094","169.5","LEWISVILLE DAM, TX US","        72","0","        50","0","        11","0","        0","","         0","0","","","         2"," ","     0"," ,0,1231,+","     0"," ,0,1231,+","  81.8"," ,0,0922, ","    898.8"," ,0","        0"," ,0"
"USC00415192","1966","33.0694","-97.0094","169.5","LEWISVILLE DAM, TX US","        69","0","        52","0","        12","0","        2","","         1","0","","","        16"," ","   102"," ,0,0122, ","    38"," ,0,0223, ","  57.7"," ,0,0430, ","    904.8"," ,0","       38"," ,0"
"USC00415192","1967","33.0694","-97.0094","169.5","LEWISVILLE DAM, TX US","        79","0","        55","0","        10","0","        0","","         0","0","","","        19"," ","     0"," ,0,1231,+","     0"," ,0,1231,+","  74.9"," ,0,0531, ","    871.2"," ,0","        0"," ,0"
"USC00415192","1968","33.0694","-97.0094","169.5","LEWISVILLE DAM, TX US","       101","0","        67","0","        10","0","        0","","         0","0","","","        17"," ","     0"," ,0,1231,+","    13"," ,0,0223, ","  99.6"," ,0,0419, ","   1134.9"," ,0","       13"," ,0"
"USC00415192","1969","33.0694","-97.0094","169.5","LEWISVILLE DAM, TX US","        72","0","        52","0","        14","0","        0","","         0","0","","","        13"," ","     0"," ,0,1231,+","     0"," ,0,1231,+","  95.5"," ,0,0130, ","   1023.5"," ,0","        0"," ,0"
"USC00415192","1970","33.0694","-97.0094","169.5","LEWISVILLE DAM, TX US","        72","0","        47","0","         9","0","        0","","         0","0","","","         6"," ","     0"," ,0,1231,+","     0"," ,0,1231,+","  56.1"," ,0,0917, ","    760.6"," ,0","        0"," ,0"
"USC00415192","1971","33.0694","-97.0094","169.5","LEWISVILLE DAM, TX US","        84","0","        54","0","        16","0","        0","","         0","0","","","        24"," ","     0"," ,0,1231,+","     0","T,0,0208, ","  78.2"," ,0,0727, ","   1060.6"," ,0","        0","T,0"
"USC00415192","1972","33.0694","-97.0094","169.5","LEWISVILLE DAM, TX US","        77","0","        50","0","         6","0","        0","","         0","0","","","        21"," ","     0","T,0,0105,+","    13"," ,0,1121, ","  86.4"," ,0,1022, ","    681.8"," ,0","       13"," ,0"
"USC00415192","1973","33.0694","-97.0094","169.5","LEWISVILLE DAM, TX US","        89","0","        64","0","        14","0","        0","","         0","0","","","        36"," ","     0"," ,0,1231,+","     0","T,0,0111,+","  86.4"," ,0,0927, ","   1105.5"," ,0","        0","T,0"
"USC00415192","1974","33.0694","-97.0094","169.5","LEWISVILLE DAM, TX US","        73","0","        49","0","        12","0","        0","","         0","0","","","        13"," ","     0"," ,0,1231,+","     0","T,0,0124,+","  90.9"," ,0,0422, ","    974.4"," ,0","        0","T,0"
"USC00415192","1975","33.0694","-97.0094","169.5","LEWISVILLE DAM, TX US","        79","0","        55","0","         3","0","        0","","         0","0","","","        28"," ","     0","T,0,0223, ","    10"," ,0,0223, ","  57.9"," ,0,0201, ","    687.2"," ,0","       10"," ,0"
"USC00415192","1976","33.0694","-97.0094","169.5","LEWISVILLE DAM, TX US","        77","0","        54","0","         9","0","        2","","         2","0","","","        11"," ","   102"," ,0,1114, ","    89"," ,0,1114, ","  56.1"," ,0,0619, ","    825.8"," ,0","      127"," ,0"
"USC00415192","1977","33.0694","-97.0094","169.5","LEWISVILLE DAM, TX US","        54","0","        42","0","         5","0","        3","","         2","0","","","         2"," ","   102"," ,0,0131, ","   102"," ,0,0131, "," 120.9"," ,0,0327, ","    649.4"," ,0","      166"," ,0"
"USC00415192","1978","33.0694","-97.0094","169.5","LEWISVILLE DAM, TX US","        58","0","        41","0","         8","0","","","","","","","","","","","","","  59.9"," ,0,0410, ","    623.6"," ,0","",""
"USC00415192","1979","33.0694","-97.0094","169.5","LEWISVILLE DAM, TX US","        82","0","        58","0","         9","0","","","","","","","","","","","","","  47.2"," ,0,0504, ","    821.0"," ,0","",""
"USC00415192","1980","33.0694","-97.0094","169.5","LEWISVILLE DAM, TX US","        48","0","        37","0","         7","0","","","","","","","","","","","","","  71.1"," ,0,0929, ","    600.5"," ,0","",""
"USC00415192","1981","33.0694","-97.0094","169.5","LEWISVILLE DAM, TX US","        71","0","        56","0","        21","0","        0","","         0","0","","","","","     0"," ,0,1231,+","     0"," ,0,1231,+","  87.6"," ,0,1012, ","   1351.8"," ,0","        0"," ,0"
"USC00415192","1982","33.0694","-97.0094","169.5","LEWISVILLE DAM, TX US","        87","0","        61","0","        11","0","","","         1","0","","","","","","","    51"," ,0,0130, "," 155.2"," ,0,0513, ","   1042.9"," ,0","       51"," ,0"
"USC00415192","1983","33.0694","-97.0094","169.5","LEWISVILLE DAM, TX US","        78","0","        50","0","        10","0","","","","","","","","","","","","","  59.9"," ,0,0521, ","    802.2"," ,0","",""
"USC00415192","1984","33.0694","-97.0094","169.5","LEWISVILLE DAM, TX US","        76","0","        50","0","         9","0","","","         0","0","","","","","","","     0"," ,0,1231,+","  77.5"," ,0,0502, ","    821.6"," ,0","        0"," ,0"
"USC00415192","1985","33.0694","-97.0094","169.5","LEWISVILLE DAM, TX US","        67","0","        49","0","        15","0","","","","","","","","","","","","","  72.9"," ,0,0222, ","    944.1"," ,0","",""
"USC00415192","1994","33.0694","-97.0094","169.5","LEWISVILLE DAM, TX US","","","","","","","","","","","","","         6"," ","","","","","","","","","",""
"USC00415192","1995","33.0694","-97.0094","169.5","LEWISVILLE DAM, TX US","","","","","","","","","","","","","         1"," ","","","","","","","","","",""
"USC00415192","1998","33.0694","-97.0094","169.5","LEWISVILLE DAM, TX US","        71","0","        55","0","        16","0","","","         0","0","         6"," ","","","","","     0"," ,0,1231,+","  88.9"," ,0,1003, ","   1116.1"," ,0","        0"," ,0"
"USC00415192","1999","33.0694","-97.0094","169.5","LEWISVILLE DAM, TX US","        52","0","        38","0","         6","0","        0","","         0","0","","","","","     0"," ,0,1231,+","     0"," ,0,1231,+","  51.6"," ,0,1212, ","    561.0"," ,0","        0"," ,0"
"USC00415192","2000","33.0694","-97.0094","169.5","LEWISVILLE DAM, TX US","        84","0","        57","0","        12","0","        0","","         0","0","","","","","     0"," ,0,1231,+","     0"," ,0,1231,+","  72.6"," ,0,1226, ","    996.5"," ,0","        0"," ,0"
"USC00415192","2001","33.0694","-97.0094","169.5","LEWISVILLE DAM, TX US","        83","0","        53","0","        11","0","        0","","         0","0","","","","","     0"," ,0,1231,+","     0"," ,0,1231,+","  53.3"," ,0,0506, ","    835.2"," ,0","        0"," ,0"
"USC00415192","2002","33.0694","-97.0094","169.5","LEWISVILLE DAM, TX US","        90","0","        50","0","        10","0","        1","","         1","0","","","","","    51"," ,0,0206, ","    51"," ,0,0206, "," 104.1"," ,0,1019,+","   1025.0"," ,0","       51"," ,0"
"USC00415192","2004","33.0694","-97.0094","169.5","LEWISVILLE DAM, TX US","       107","0","        63","0","        17","0","        0","","         0","0","","","","","     0"," ,0,1231,+","     0"," ,0,1231,+"," 135.9"," ,0,0729, ","   1302.4"," ,0","        0"," ,0"
"USC00415192","2005","33.0694","-97.0094","169.5","LEWISVILLE DAM, TX US","        63","0","        33","0","         7","0","        0","","         0","0","","","","","     0"," ,0,1231,+","     0"," ,0,1231,+","  50.8"," ,0,0321, ","    468.7"," ,0","        0"," ,0"
"USC00415192","2006","33.0694","-97.0094","169.5","LEWISVILLE DAM, TX US","        62","0","        38","0","        10","0","        0","","         0","0","","","","","     0"," ,0,1231,+","     0"," ,0,1231,+","  83.8"," ,0,1230, ","    731.2"," ,0","        0"," ,0"
"USC00415192","2007","33.0694","-97.0094","169.5","LEWISVILLE DAM, TX US","        95","0","        65","0","        17","0","        0","","         0","0","","","","","     0"," ,0,1231,+","     0"," ,0,1231,+","  90.2"," ,0,0627, ","   1277.8"," ,0","        0"," ,0"
"USC00415192","2008","33.0694","-97.0094","169.5","LEWISVILLE DAM, TX US","        57","0","        42","0","         9","0","        0","","         0","0","","","","","     0"," ,0,1231,+","     0"," ,0,1231,+","  59.7"," ,0,0319, ","    748.3"," ,0","        0"," ,0"
"USC00415192","2009","33.0694","-97.0094","169.5","LEWISVILLE DAM, TX US","        76","0","        53","0","        16","0","        0","","         0","0","","","","","     0"," ,0,1231,+","     0"," ,0,1231,+","  87.4"," ,0,0503, ","   1137.6"," ,0","        0"," ,0"
"USC00415192","2012","33.0694","-97.0094","169.5","LEWISVILLE DAM, TX US","        45","7","        29","7","         8","7","","","","","","","","","","","",""," 106.7"," ,7,0320, ","    707.3"," ,7","",""
"USC00415192","2014","33.0694","-97.0094","169.5","LEWISVILLE DAM, TX US","        48","7","        34","7","         7","7","","","","","","","","","","","","","  85.6"," ,7,0818, ","    552.6"," ,7","",""
"USC00415192","2015","33.0694","-97.0094","169.5","LEWISVILLE DAM, TX US","        60","7","        54","7","        18","7","","","","","","","","","","","",""," 132.3"," ,7,1127, ","   1355.6"," ,7","",""
"USC00415192","2016","33.0694","-97.0094","169.5","LEWISVILLE DAM, TX US","        61","7","        52","7","        15","7","","","","","","","","","","","","","  66.3"," ,7,0820, ","   1004.2"," ,7","",""
"USC00415192","2019","33.0694","-97.0094","169.5","LEWISVILLE DAM, TX US","        91","7","        57","7","        13","7","","","","","","","","","","","","","  86.4"," ,7,0616, ","    945.1"," ,7","",""
