"STATION","DATE","LATITUDE","LONGITUDE","ELEVATION","NAME","CDSD","CDSD_ATTRIBUTES","CLDD","CLDD_ATTRIBUTES","DT00","DT00_ATTRIBUTES","DT32","DT32_ATTRIBUTES","DX32","DX32_ATTRIBUTES","DX70","DX70_ATTRIBUTES","DX90","DX90_ATTRIBUTES","DYTS","DYTS_ATTRIBUTES","EMNT","EMNT_ATTRIBUTES","EMXT","EMXT_ATTRIBUTES","FZF0","FZF0_ATTRIBUTES","FZF1","FZF1_ATTRIBUTES","FZF2","FZF2_ATTRIBUTES","FZF3","FZF3_ATTRIBUTES","FZF4","FZF4_ATTRIBUTES","FZF5","FZF5_ATTRIBUTES","FZF6","FZF6_ATTRIBUTES","FZF7","FZF7_ATTRIBUTES","FZF8","FZF8_ATTRIBUTES","FZF9","FZF9_ATTRIBUTES","PRCP","PRCP_ATTRIBUTES","TAVG","TAVG_ATTRIBUTES","TMAX","TMAX_ATTRIBUTES","TMIN","TMIN_ATTRIBUTES"
"USC00063495","1974","41.9","-73.28333","299.0","HAUTBOY HILL FARM, CT US","","","","","","","","","","","","","","","         8"," ","","","","","","","","","","","","","","","","","","","","","","","","","","","","","","","",""
"USC00063495","1975","41.9","-73.28333","299.0","HAUTBOY HILL FARM, CT US","    235.0","","     235.0","0","         8","0","       158","0","        35","0","       130","0","         6","0","         4"," ","  -24.4","0,1225, ","   34.4","0,0802, ","-2.2","0,0915","-2.2","0,0915","-6.7","0,1101","-6.7","0,1101","-12.2","0,1205","-0.6","0,0508","-2.2","0,0430","-5.0","0,0423","-7.2","0,0410","-8.9","0,0328","   1429.2"," ,0","      8.59","0","     14.96","0","      2.22","0"
"USC00063495","1976","41.9","-73.28333","299.0","HAUTBOY HILL FARM, CT US","","","","","","","","","","","","","","","        10"," ","","","","","","","","","","","","","","","","","","","","","","","","","   1182.5"," ,0","","","","","",""
"USC00063495","1977","41.9","-73.28333","299.0","HAUTBOY HILL FARM, CT US","","","","","","","","","","","","","","","         2"," ","","","","","","","","","","","","","","","","","","","","","","","","","","","","","","","",""
