"STATION","DATE","LATITUDE","LONGITUDE","ELEVATION","NAME","DP01","DP01_ATTRIBUTES","DP10","DP10_ATTRIBUTES","DP1X","DP1X_ATTRIBUTES","EMXP","EMXP_ATTRIBUTES","PRCP","PRCP_ATTRIBUTES"
"USC00111825","1946","38.66667","-89.98333","171.0","COLLINSVILLE, IL US","        71","6","        61","6","        14","6"," 158.8"," ,6,0816, ","   1369.3"," ,6"
"USC00111825","1948","38.66667","-89.98333","171.0","COLLINSVILLE, IL US","        94","0","        79","0","        11","0","  84.1"," ,0,0725, ","   1143.6"," ,0"
"USC00111825","1949","38.66667","-89.98333","171.0","COLLINSVILLE, IL US","       101","0","        70","0","        14","0","  67.1"," ,0,0912, ","   1149.5"," ,0"
