"STATION","DATE","LATITUDE","LONGITUDE","ELEVATION","NAME","CDSD","CDSD_ATTRIBUTES","CLDD","CLDD_ATTRIBUTES","DP01","DP01_ATTRIBUTES","DP10","DP10_ATTRIBUTES","DP1X","DP1X_ATTRIBUTES","DSND","DSND_ATTRIBUTES","DSNW","DSNW_ATTRIBUTES","DT00","DT00_ATTRIBUTES","DT32","DT32_ATTRIBUTES","DX32","DX32_ATTRIBUTES","DX70","DX70_ATTRIBUTES","DX90","DX90_ATTRIBUTES","DYFG","DYFG_ATTRIBUTES","DYTS","DYTS_ATTRIBUTES","EMNT","EMNT_ATTRIBUTES","EMSD","EMSD_ATTRIBUTES","EMSN","EMSN_ATTRIBUTES","EMXP","EMXP_ATTRIBUTES","EMXT","EMXT_ATTRIBUTES","FZF0","FZF0_ATTRIBUTES","FZF1","FZF1_ATTRIBUTES","FZF2","FZF2_ATTRIBUTES","FZF3","FZF3_ATTRIBUTES","FZF4","FZF4_ATTRIBUTES","FZF5","FZF5_ATTRIBUTES","FZF6","FZF6_ATTRIBUTES","FZF7","FZF7_ATTRIBUTES","FZF8","FZF8_ATTRIBUTES","FZF9","FZF9_ATTRIBUTES","HDSD","HDSD_ATTRIBUTES","HTDD","HTDD_ATTRIBUTES","PRCP","PRCP_ATTRIBUTES","SNOW","SNOW_ATTRIBUTES","TAVG","TAVG_ATTRIBUTES","TMAX","TMAX_ATTRIBUTES","TMIN","TMIN_ATTRIBUTES"
"USC00347012","1899","36.2886","-97.2897","312.4","PERRY, OK US","","","","","","","","","","","","","","","         8","6","       105","6","        22","6","       211","6","        81","6","","","","","  -27.2","6,0212, ","","","","","","","   41.1","6,0822, ","-2.2","6,1102","-2.2","6,1102","-5.6","6,1103","-7.8","6,1204","-10.6","6,1214","-2.8","6,0409","-2.8","6,0409","-6.1","6,0401","-11.7","6,0328","-11.7","6,0328","","","","","","","","","     14.82","6","     21.56","6","      8.09","6"
"USC00347012","1900","36.2886","-97.2897","312.4","PERRY, OK US","","","","","","","","","","","","","","","","","","","","","","","","","         3"," ","","","","","","","","","","","","","","","","","","","","","","","","","","","","","","","","","","","","","","","","","","","","","",""
"USC00347012","1901","36.2886","-97.2897","312.4","PERRY, OK US","   1135.8","","    1135.8","6","        58","6","        37","6","         8","6","","","","","         2","6","       101","6","         7","6","       214","6","        90","6","         1"," ","","","  -22.2","6,1214, ","","","",""," 121.9"," ,6,0608, ","   42.8","6,0826, ","-0.6","6,1104","-2.2","6,1112","-5.0","6,1119","-6.7","6,1123","-22.2","6,1214","-1.1","6,0418","-3.3","6,0326","-5.0","6,0320","-10.6","6,0306","-10.6","6,0306","","","","","    610.8"," ,6","","","     15.44","6","     22.49","6","      8.38","6"
"USC00347012","1902","36.2886","-97.2897","312.4","PERRY, OK US","   1023.9","","    1023.9","6","","","","","","","","","","","         3","6","        90","6","        13","6","       206","6","        62","6","","","","","  -20.0","6,0126, ","","","","","","","   40.6","6,0830,+","-0.6","6,1117","-4.4","6,1129","-4.4","6,1129","-12.2","6,1204","-12.2","6,1204","-2.8","6,0331","-2.8","6,0331","-4.4","6,0318","-8.9","6,0305","-8.9","6,0305","    2170.7","7","    2170.7","6","","","","","     15.09","6","     21.46","6","      8.73","6"
"USC00347012","1903","36.2886","-97.2897","312.4","PERRY, OK US","    842.6","","     842.6","6","        64","6","        46","6","        11","6","","","","","         0","6","        86","6","         7","6","       185","6","        61","6","","","","","  -17.2","6,0216, ","","","","","  48.3"," ,6,1031, ","   41.1","6,0723, ","0.0","6,1114","-6.1","6,1117","-6.1","6,1117","-11.1","6,1118","-11.1","6,1118","-1.1","6,0501","-2.2","6,0324","-8.9","6,0301","-8.9","6,0301","-8.9","6,0301","    2202.4","4","    2202.4","6","    749.0"," ,6","","","     14.26","6","     20.61","6","      7.91","6"
"USC00347012","1904","36.2886","-97.2897","312.4","PERRY, OK US","    883.7","","     883.7","6","        70","6","        52","6","         9","6","","","","","         1","6","        92","6","         6","6","       236","6","        60","6","","","","","  -17.8","6,0126, ","","","","","  60.2"," ,6,0508, ","   37.2","6,0909,+","-2.2","6,1026","-2.2","6,1026","-8.3","6,1112","-8.3","6,1112","-11.7","6,1212","-2.2","6,0417","-2.2","6,0417","-6.1","6,0327","-7.8","6,0304","-10.6","6,0219","    2069.7","7","    2069.7","6","    696.2"," ,6","","","     15.29","6","     22.37","6","      8.22","6"
"USC00347012","1915","36.2886","-97.2897","312.4","PERRY, OK US","    796.2","","     796.2","6","","","","","","","","","","","         0","6","        93","6","         5","6","       212","6","        46","6","","","","","  -13.9","6,0123, ","","","","","","","   37.2","6,0730, ","-1.1","6,1112","-2.2","6,1115","-5.6","6,1129","-6.7","6,1202","-11.1","6,1228","-3.3","6,0403","-3.3","6,0403","-6.7","6,0320","-6.7","6,0320","-10.0","6,0128","","","","","","","","","     14.79","6","     21.25","6","      8.33","6"
"USC00347012","1916","36.2886","-97.2897","312.4","PERRY, OK US","","","","","        59","6","        41","6","         8","6","","","","","","","","","        14","6","       224","6","        99","6","","","         1"," ","","","","","","","  72.4"," ,6,0605, ","   40.6","6,0813,+","","","","","","","","","","","","","","","","","","","","","    1960.0","0","    1960.0","6","    648.7"," ,6","","","","","     22.70","6","",""
"USC00347012","1929","36.2886","-97.2897","312.4","PERRY, OK US","   1071.6","","    1071.6","6","        78","6","        48","6","        13","6","","","","","         2","6","       104","6","        11","6","       205","6","        85","6","","","","","  -20.0","6,0210,+","","","",""," 116.8"," ,6,0701, ","   42.2","6,0805, ","-0.6","6,1024","-2.8","6,1025","-4.4","6,1120","-8.9","6,1122","-8.9","6,1122","-0.6","6,0401","-2.8","6,0317","-7.2","6,0222","-7.2","6,0222","-12.2","6,0219","","","","","   1104.9"," ,6","","","     14.78","6","     21.49","6","      8.07","6"
"USC00347012","1930","36.2886","-97.2897","312.4","PERRY, OK US","","","","","        61","6","        52","6","         8","6","","","","","         6","6","        92","6","","","","","","","","","","","  -28.9","6,0118, ","","","","","  52.8"," ,6,1119, ","","","0.0","6,1024","-2.8","6,1031","-6.7","6,1106","-6.7","6,1106","","","-8.3","6,0331","-8.3","6,0331","-8.3","6,0331","-8.3","6,0331","-8.9","6,0303","","","","","    697.6"," ,6","","","","","","","      8.75","6"
"USC00347012","1931","36.2886","-97.2897","312.4","PERRY, OK US","   1191.0","","    1191.0","6","        80","6","        59","6","         9","6","","","","","         0","6","        79","6","         2","6","       203","6","        96","6","","","","","  -11.1","6,0328,+","","","","","  99.8"," ,6,0803, ","   42.2","6,0704, ","-1.7","6,1031","-3.3","6,1101","-5.0","6,1202","-7.2","6,1214","","","-1.1","6,0422","-2.8","6,0401","-6.1","6,0329","-11.1","6,0328","-11.1","6,0328","    2139.4","4","    2139.4","6","    788.0"," ,6","","","     16.24","6","     22.90","6","      9.59","6"
"USC00347012","1932","36.2886","-97.2897","312.4","PERRY, OK US","   1007.4","","    1007.4","6","        64","6","        49","6","        10","6","","","","","         2","6","        99","6","        12","6","       219","6","        75","6","","","","","  -17.8","6,1217,+","","","","","  92.7"," ,6,0817, ","   39.4","6,0718,+","-2.2","6,1011","-2.2","6,1011","-5.0","6,1112","-12.2","6,1116","-12.2","6,1116","0.0","6,0408","-3.3","6,0322","-8.9","6,0314","-8.9","6,0314","-8.9","6,0314","    1820.8","8","    1820.8","6","    772.1"," ,6","","","     15.17","6","     22.34","6","      8.00","6"
"USC00347012","1933","36.2886","-97.2897","312.4","PERRY, OK US","","","","","        63","6","        48","6","         6","6","","","","","         4","6","        78","6","","","","","","","","","","","  -23.3","6,0208, ","","","","","  87.4"," ,6,0330, ","","","-1.1","6,1108","-3.9","6,1206","-6.7","6,1218","-6.7","6,1218","","","-0.6","6,0416","-4.4","6,0323","-4.4","6,0323","-7.8","6,0321","-10.6","6,0215","    2093.4","4","    2093.4","6","    730.0"," ,6","","","","","","","      9.20","6"
"USC00347012","1934","36.2886","-97.2897","312.4","PERRY, OK US","","","","","","","","","","","","","         1","6","","","","","","","","","","","","","","","","","","","    61"," ,6,0107, ","","","","","","","","","","","","","","","","","","","","","","","","","","","","","","","       71"," ,6","","","","","",""
"USC00347012","1935","36.2886","-97.2897","312.4","PERRY, OK US","   1057.2","","    1057.2","6","        70","6","        55","6","         9","6","","","         1","6","         1","6","        67","6","         7","6","       199","6","        69","6","","","","","  -18.3","6,0121, ","","","    51"," ,6,1228, ","  50.0"," ,6,0829, ","   41.1","6,0811, ","-0.6","6,1101","-3.9","6,1105","-6.1","6,1202","-6.7","6,1220","-10.0","6,1226","0.0","6,0413","-2.8","6,0317","-6.7","6,0307","-6.7","6,0307","-8.9","6,0227","","","","","    774.7"," ,6","       51"," ,6","     15.76","6","     21.74","6","      9.77","6"
"USC00347012","1936","36.2886","-97.2897","312.4","PERRY, OK US","   1516.3","","    1516.3","6","        44","6","        33","6","         6","6","","","","","         2","6","        86","6","        17","6","       217","6","       109","6","","","","","  -18.3","6,0208, ","","","","","  55.9"," ,6,0508, ","   47.2","6,0811, ","-1.1","6,1026","-3.3","6,1027","-6.1","6,1104","-6.7","6,1124","","","-0.6","6,0407","-5.0","6,0406","-5.0","6,0406","-8.9","6,0403","-8.9","6,0403","    2254.7","7","    2254.7","6","    465.7"," ,6","","","     16.50","6","     23.38","6","      9.63","6"
"USC00347012","1937","36.2886","-97.2897","312.4","PERRY, OK US","","","","","","","","","","","","","         6","6","","","","","        22","6","       192","6","        85","6","","","","","","","","","    51"," ,6,1121, ","","","   43.9","6,0810, ","","","","","","","","","","","","","","","","","","","","","    2159.9","9","    2159.9"," ","","","      176"," ,6","","","     20.98","6","",""
"USC00347012","1938","36.2886","-97.2897","312.4","PERRY, OK US","","","","","        64","6","        52","6","        13","6","","","","","","","","","","","","","","","","","","","","","","","","","  72.9"," ,6,0903, ","","","","","","","","","","","","","","","","","","","","","","","","","","","    968.2"," ,6","","","","","","","",""
"USC00347012","1939","36.2886","-97.2897","312.4","PERRY, OK US","   1338.7","","    1338.7","6","        56","6","        43","6","         8","6","","","","","         0","6","        69","6","         4","6","       222","6","       102","6","","","","","  -15.0","6,0221, ","","","","","  77.5"," ,6,0701, ","   43.3","6,0721, ","-0.6","6,1031","-8.3","6,1103","-8.3","6,1103","-8.3","6,1103","-9.4","6,1228","-2.2","6,0407","-2.2","6,0407","-4.4","6,0318","-7.8","6,0226","-15.0","6,0221","    1805.9","9","    1805.9","6","    678.6"," ,6","","","     17.21","6","     24.25","6","     10.16","6"
"USC00347012","1940","36.2886","-97.2897","312.4","PERRY, OK US","","","","","        84","6","        55","6","         7","6","","","","","         3","6","        80","6","","","","","","","","","","","  -18.9","6,0108, ","","","","","  50.8"," ,6,1125, ","","","0.0","6,1106","-4.4","6,1111","-4.4","6,1111","-11.7","6,1113","-11.7","6,1113","-3.9","6,0412","-3.9","6,0412","-4.4","6,0325","-6.7","6,0210","-9.4","6,0128","    2121.2","2","    2121.2","6","    730.6"," ,6","","","","","","","      8.97","6"
"USC00347012","1941","36.2886","-97.2897","312.4","PERRY, OK US","   1095.6","","    1095.6","6","","","","","","","","","         8","6","         0","6","        71","6","         3","6","       206","6","        65","6","","","","","   -8.3","6,0118, ","","","    64"," ,6,0224, ","","","   40.0","6,0730,+","0.0","6,1028","-2.8","6,1123","-4.4","6,1227","","","","","-1.7","6,0329","-2.8","6,0318","-6.1","6,0317","-6.7","6,0221","","","","","","","","","      369"," ,6","     16.21","6","     21.84","6","     10.59","6"
"USC00347012","1942","36.2886","-97.2897","312.4","PERRY, OK US","   1039.6","","    1039.6","6","        93","6","        66","6","        13","6","","","         9","6","         1","6","        72","6","         9","6","       218","6","        68","6","","","","","  -19.4","6,0105, ","","","   102"," ,6,1227, ","  96.0"," ,6,0919, ","   39.4","6,0802, ","-2.2","6,1026","-2.2","6,1026","-6.7","6,1129","-6.7","6,1129","","","-2.8","6,0331","-2.8","6,0331","-4.4","6,0228","-7.2","6,0227","-12.2","6,0219","    1872.5","5","    1872.5","6","   1122.4"," ,6","      405"," ,6","     15.85","6","     21.90","6","      9.81","6"
"USC00347012","1943","36.2886","-97.2897","312.4","PERRY, OK US","   1264.3","","    1264.3","6","        63","6","        42","6","         8","6","","","","","         2","6","        88","6","         8","6","       223","6","        89","6","","","","","  -20.0","6,0119, ","","","","","  74.7"," ,6,0517, ","   41.1","6,0815,+","0.0","6,1016","-2.2","6,1108","-8.3","6,1214","-8.3","6,1214","-15.0","6,1215","-1.1","6,0420","-3.3","6,0321","-5.6","6,0320","-7.2","6,0308","-13.9","6,0307","    1906.9","9","    1906.9","6","    822.9"," ,6","","","     16.32","6","     23.06","6","      9.59","6"
"USC00347012","1944","36.2886","-97.2897","312.4","PERRY, OK US","   1160.6","","    1160.6","6","        76","6","        57","6","        14","6","","","         4","6","         0","6","        72","6","         2","6","       217","6","        77","6","","","","","  -15.6","6,0109, ","","","   102"," ,6,0108, "," 116.1"," ,6,0608, ","   40.0","6,0813,+","-0.6","6,1121","-4.4","6,1127","-4.4","6,1127","-6.7","6,1201","","","0.0","6,0405","-8.9","6,0329","-8.9","6,0329","-8.9","6,0329","-8.9","6,0329","    2016.4","4","    2016.4","6","   1065.3"," ,6","      254"," ,6","     16.23","6","     22.40","6","     10.06","6"
"USC00347012","1945","36.2886","-97.2897","312.4","PERRY, OK US","    958.5","","     958.5","6","        91","6","        58","6","        12","6","","","         3","6","         0","6","        82","6","         5","6","       211","6","        58","6","","","","","  -15.6","6,1219, ","","","   102"," ,6,0227, ","  89.9"," ,6,0927, ","   38.9","6,0818, ","0.0","6,1022","-2.2","6,1121","-6.1","6,1123","-8.3","6,1204","-9.4","6,1210","-0.6","6,0405","-2.2","6,0308","-6.1","6,0307","-8.9","6,0228","-8.9","6,0228","    1887.5","5","    1887.5","6","   1071.2"," ,6","      160"," ,6","     15.54","6","     21.83","6","      9.26","6"
"USC00347012","1946","36.2886","-97.2897","312.4","PERRY, OK US","   1078.9","","    1078.9","6","        70","6","        44","6","         9","6","","","","","         0","6","        48","6","         3","6","       231","6","        70","6","","","","","  -13.3","6,1230, ","","","","","  60.2"," ,6,0429, ","   42.2","6,0807, ","-0.6","6,1110","-2.8","6,1117","-5.0","6,1218","-12.2","6,1229","-12.2","6,1229","0.0","6,0310","-6.7","6,0214","-6.7","6,0214","-6.7","6,0214","","","    1689.6","6","    1689.6","6","    756.2"," ,6","","","     17.07","6","     23.49","6","     10.66","6"
"USC00347012","1947","36.2886","-97.2897","312.4","PERRY, OK US","   1183.6","","    1183.6","6","","","","","","","","","","","         2","6","        87","6","         3","6","       207","6","        86","6","         2"," ","         2"," ","  -24.4","6,0104, ","","","","","","","   42.2","6,0904, ","-1.7","6,1107","-5.6","6,1111","-5.6","6,1111","-6.7","6,1213","","","-1.1","6,0328","-3.3","6,0316","-5.0","6,0308","-10.6","6,0302","-10.6","6,0302","    1955.0","0","    1955.0","6","","","","","     15.81","6","     22.43","6","      9.19","6"
"USC00347012","1948","36.2886","-97.2897","312.4","PERRY, OK US","","","","","        72","0","        51","0","         9","0","       17","","        10","0","","","","","","","","","","","         3"," ","         1"," ","","","   178"," ,0,0205, ","   178"," ,0,0205, ","  47.8"," ,0,0425, ","","","","","","","","","","","","","","","","","","","","","","","","","","","    696.1"," ,0","      722"," ,0","","","","","",""
"USC00347012","1949","36.2886","-97.2897","312.4","PERRY, OK US","","","","","        92","0","        63","0","         7","0","       19","","        10","0","","","","","","","","","","","         7"," ","         1"," ","","","   203"," ,0,0128,+","   191"," ,0,0118, ","  49.5"," ,0,0904, ","","","","","","","","","","","","","","","","","","","","","","","    2020.5","5","    2020.5","0","    821.1"," ,0","      661"," ,0","","","","","",""
"USC00347012","1950","36.2886","-97.2897","312.4","PERRY, OK US","    964.3","","     964.3","0","        69","0","        43","0","         7","0","        0","","         0","0","         0","0","        95","0","        12","0","       222","0","        43","0","         7"," ","","","  -15.6","0,1207,+","     0","T,0,1205,+","     8"," ,0,0303,+","  41.4"," ,0,0510, ","   37.8","0,0626, ","-3.3","0,1104","-3.3","0,1104","-7.2","0,1110","-7.2","0,1110","-10.0","0,1124","-1.1","0,0413","-3.3","0,0320","-10.0","0,0313","-10.0","0,0313","-10.0","0,0313","","","","","    592.8"," ,0","       16"," ,0","     15.43","0","     22.14","0","      8.71","0"
"USC00347012","1951","36.2886","-97.2897","312.4","PERRY, OK US","   1168.9","","    1168.9","0","        91","0","        62","0","        10","0","        8","","         5","0","         1","0","        76","0","         8","0","       214","0","        78","0","","","","","  -18.9","0,0201, ","   152"," ,0,0215, ","   152"," ,0,0215, ","  66.5"," ,0,0501, ","   43.3","0,0817,+","-0.6","0,1101","-3.9","0,1102","-6.7","0,1106","-6.7","0,1106","-12.8","0,1215","-0.6","0,0330","-3.3","0,0321","-5.6","0,0319","-7.2","0,0216","-9.4","0,0214","    1933.7","7","    1933.7","0","    958.9"," ,0","      419"," ,0","     16.00","0","     22.50","0","      9.50","0"
"USC00347012","1952","36.2886","-97.2897","312.4","PERRY, OK US","   1259.6","","    1259.6","0","        64","0","        49","0","         6","0","        6","","         3","0","         0","0","        78","0","         4","0","       223","0","       108","0","","","","","   -9.4","0,0123, ","   102"," ,0,0225, ","    76"," ,0,0103, ","  69.9"," ,0,0605, ","   41.7","0,0816, ","-2.8","0,1007","-2.8","0,1007","-5.0","0,1120","-7.2","0,1128","","","-2.8","0,0410","-2.8","0,0410","-5.0","0,0323","-8.3","0,0304","-9.4","0,0123","    1915.3","3","    1915.3","0","    699.3"," ,0","      173"," ,0","     16.59","0","     23.64","0","      9.54","0"
"USC00347012","1953","36.2886","-97.2897","312.4","PERRY, OK US","   1229.5","","    1229.5","0","        69","0","        43","0","         7","0","        2","","         1","0","         0","0","        70","0","         1","0","       217","0","       110","0","","","","","  -12.8","0,0116, ","    76"," ,0,0117, ","    51"," ,0,0224, "," 112.5"," ,0,0712, ","   42.8","0,0615, ","-2.8","0,1109","-2.8","0,1109","-10.0","0,1222","-10.0","0,1222","-10.0","0,1222","-1.1","0,0420","-2.2","0,0325","-6.1","0,0222","-9.4","0,0221","-9.4","0,0221","    1837.2","2","    1837.2","0","    729.9"," ,0","       69"," ,0","     16.90","0","     23.97","0","      9.83","0"
"USC00347012","1954","36.2886","-97.2897","312.4","PERRY, OK US","","","","","        54","0","        33","0","         2","0","        5","","         0","0","         0","0","        69","0","","","","","","","","","","","  -15.6","0,0122,+","   102"," ,0,0122, ","    13"," ,0,0121, ","  34.0"," ,0,0524, ","","","-4.4","0,1102","-4.4","0,1102","-4.4","0,1102","-9.4","0,1213","-9.4","0,1213","0.0","0,0503","-2.2","0,0401","-6.7","0,0315","-6.7","0,0315","-8.9","0,0127","","","","","    357.5"," ,0","       13"," ,0","","","","","     10.48","0"
"USC00347012","1955","36.2886","-97.2897","312.4","PERRY, OK US","   1221.8","","    1221.8","0","        63","0","        42","0","         9","0","        2","","         2","0","         0","0","        94","0","         1","0","       233","0","       105","0","","","","","  -12.8","0,0211, ","   102"," ,0,0322, ","   102"," ,0,0322, "," 135.9"," ,0,0509, ","   40.0","0,0801,+","-4.4","0,1103","-4.4","0,1103","-4.4","0,1103","-10.0","0,1116","-10.0","0,1116","-4.4","0,0328","-4.4","0,0328","-4.4","0,0328","-7.8","0,0327","-11.7","0,0326","    1717.6","6","    1717.6","0","    887.0"," ,0","      135"," ,0","     16.60","0","     23.68","0","      9.51","0"
"USC00347012","1956","36.2886","-97.2897","312.4","PERRY, OK US","   1463.7","","    1463.7","0","        66","0","        41","0","         3","0","        3","","         2","0","         0","0","        81","0","         8","0","       233","0","       128","0","","","","","  -12.8","0,0119, ","   102"," ,0,0205, ","    64"," ,0,0204, ","  47.8"," ,0,0706, ","   42.8","0,0816,+","-0.6","0,1108","-2.2","0,1109","-4.4","0,1116","-8.3","0,1129","","","-0.6","0,0411","-2.2","0,0319","-4.4","0,0316","-10.0","0,0312","-10.0","0,0312","    1984.1","1","    1984.1","0","    432.5"," ,0","      115"," ,0","     17.17","0","     24.51","0","      9.82","0"
"USC00347012","1957","36.2886","-97.2897","312.4","PERRY, OK US","   1013.5","","    1013.5","0","       106","0","        67","0","        14","0","        1","","         1","0","         0","0","        76","0","        10","0","       191","0","        73","0","","","","","  -13.3","0,0110, ","    25"," ,0,0131, ","    25"," ,0,0131, ","  99.3"," ,0,0418, ","   41.1","0,0729, ","-3.9","0,1026","-3.9","0,1026","-5.6","0,1027","-11.7","0,1211","-11.7","0,1211","-3.3","0,0414","-3.3","0,0414","-4.4","0,0413","-7.2","0,0128","-10.0","0,0127","    1962.9","9","    1962.9","0","   1210.7"," ,0","       25"," ,0","     15.39","0","     21.57","0","      9.21","0"
"USC00347012","1958","36.2886","-97.2897","312.4","PERRY, OK US","   1176.5","","    1176.5","0","        97","0","        60","0","         8","0","        9","","         4","0","         1","0","        88","0","        10","0","       211","0","        84","0","","","","","  -18.9","0,1214, ","   127"," ,0,1231,+","   127"," ,0,1213, ","  85.1"," ,0,0625, ","   37.8","0,0812,+","0.0","0,1028","-2.8","0,1118","-7.8","0,1128","-7.8","0,1128","-8.9","0,1209","-1.1","0,0331","-2.2","0,0318","-4.4","0,0314","-8.3","0,0217","-10.0","0,0216","    2149.9","9","    2149.9","0","    868.6"," ,0","      337"," ,0","     15.59","0","     21.84","0","      9.34","0"
"USC00347012","1959","36.2886","-97.2897","312.4","PERRY, OK US","   1011.2","","    1011.2","0","        84","0","        59","0","        13","0","       10","","         2","0","         2","0","       101","0","         6","0","       209","0","        83","0","","","","","  -21.1","0,0104, ","   102"," ,0,0105,+","    38"," ,0,0205, ","  95.5"," ,0,1002, ","   39.4","0,0806, ","0.0","0,1018","-3.3","0,1105","-8.3","0,1106","-8.3","0,1106","-11.1","0,1114","-1.1","0,0413","-3.3","0,0322","-5.0","0,0306","-7.8","0,0220","-10.6","0,0206","    2071.3","3","    2071.3","0","   1071.1"," ,0","       76"," ,0","     15.28","0","     22.18","0","      8.39","0"
"USC00347012","1960","36.2886","-97.2897","312.4","PERRY, OK US","   1095.5","","    1095.5","0","        90","0","        55","0","         8","0","       17","","         6","0","         0","0","       100","0","        17","0","       220","0","        81","0","","","","","  -17.2","0,0303, ","   229"," ,0,0305,+","   165"," ,0,0302, "," 125.5"," ,0,0704, ","   37.8","0,0805,+","-1.1","0,1020","-7.2","0,1110","-7.2","0,1110","-7.2","0,1110","-8.9","0,1221","-2.2","0,0325","-2.2","0,0325","-5.0","0,0312","-7.8","0,0306","-14.4","0,0305","    2313.4","4","    2313.4","0","    842.8"," ,0","      654"," ,0","     15.19","0","     21.65","0","      8.73","0"
"USC00347012","1961","36.2886","-97.2897","312.4","PERRY, OK US","    866.4","","     866.4","0","        83","0","        55","0","        13","0","        4","","         3","0","         0","0","        82","0","         6","0","       214","0","        67","0","","","","","  -15.0","0,0121, ","   178"," ,0,0207, ","   102"," ,0,0207, "," 144.3"," ,0,0913, ","   37.2","0,0809,+","0.0","0,1026","-2.8","0,1103","-7.2","0,1210","-7.2","0,1210","-14.4","0,1212","0.0","0,0417","-3.3","0,0309","-5.6","0,0228","-8.9","0,0204","-8.9","0,0204","    1973.0","0","    1973.0","0","   1230.5"," ,0","      203"," ,0","     15.01","0","     21.74","0","      8.28","0"
"USC00347012","1962","36.2886","-97.2897","312.4","PERRY, OK US","   1243.9","","    1243.9","0","        80","0","        47","0","        11","0","       13","","         2","0","         4","0","        84","0","        12","0","       216","0","        90","0","","","","","  -21.1","0,1226, ","   127"," ,0,0120, ","    51"," ,0,1224, ","  73.2"," ,0,0529, ","   40.6","0,0810,+","-0.6","0,1104","-4.4","0,1206","-4.4","0,1206","-11.7","0,1211","-11.7","0,1211","-2.2","0,0402","-2.2","0,0402","-5.0","0,0316","-7.2","0,0314","-13.3","0,0301","    2129.9","9","    2129.9","0","    746.3"," ,0","       76"," ,0","     16.15","0","     22.78","0","      9.51","0"
"USC00347012","1963","36.2886","-97.2897","312.4","PERRY, OK US","   1374.2","","    1374.2","0","        59","0","        43","0","        11","0","        5","","         3","0","         5","0","        89","0","        15","0","       231","0","       100","0","","","","","  -20.0","0,0112, ","   102"," ,0,1223,+","    89"," ,0,1222, ","  64.3"," ,0,0728, ","   40.6","0,0722, ","-3.3","0,1113","-3.3","0,1113","-4.4","0,1114","-7.2","0,1211","-14.4","0,1212","-3.3","0,0314","-3.3","0,0314","-5.6","0,0306","-12.2","0,0222","-12.2","0,0222","    1979.3","3","    1979.3","0","    797.6"," ,0","      139"," ,0","     16.54","0","     23.67","0","      9.42","0"
"USC00347012","1964","36.2886","-97.2897","312.4","PERRY, OK US","   1256.1","","    1256.1","0","        82","0","        52","0","         8","0","        0","","         0","0","         0","0","        96","0","         4","0","       237","0","        87","0","","","","","  -16.7","0,0113, ","     0","T,0,0113,+","     0","T,0,0113,+","  92.7"," ,0,0815, ","   42.8","0,0806, ","-0.6","0,1019","-3.3","0,1120","-7.8","0,1121","-7.8","0,1121","-11.1","0,1130","0.0","0,0408","-2.2","0,0407","-6.1","0,0330","-8.9","0,0326","-8.9","0,0326","    1930.0","0","    1930.0","0","    806.8"," ,0","        0","T,0","     16.49","0","     23.36","0","      9.62","0"
"USC00347012","1965","36.2886","-97.2897","312.4","PERRY, OK US","   1224.7","","    1224.7","0","        78","0","        43","0","         8","0","        3","","         2","0","         0","0","        83","0","         3","0","       236","0","        92","0","","","","","  -15.6","0,0224, ","    76"," ,0,1224, ","   102"," ,0,1224, ","  44.2"," ,0,0920, ","   41.1","0,0724, ","0.0","0,1117","-3.3","0,1129","-4.4","0,1130","","","","","-3.3","0,0328","-3.3","0,0328","-4.4","0,0327","-7.2","0,0326","-10.6","0,0320","    2030.0","0","    2030.0","0","    593.7"," ,0","      127"," ,0","     16.77","0","     23.67","0","      9.87","0"
"USC00347012","1966","36.2886","-97.2897","312.4","PERRY, OK US","   1076.2","","    1076.2","0","        65","0","        41","0","         4","0","        8","","         2","0","         0","0","        91","0","        19","0","       224","0","        81","0","","","","","  -16.7","0,1224,+","   127"," ,0,1223, ","   127"," ,0,1223, "," 116.8"," ,0,0723, ","   40.6","0,0711, ","-2.2","0,1016","-2.2","0,1016","-7.8","0,1102","-7.8","0,1102","-10.0","0,1210","-1.7","0,0421","-7.8","0,0324","-7.8","0,0324","-7.8","0,0324","-9.4","0,0224","    1802.7","7","    1802.7","0","    589.2"," ,0","      229"," ,0","     15.63","0","     22.72","0","      8.54","0"
"USC00347012","1967","36.2886","-97.2897","312.4","PERRY, OK US","    974.2","","     974.2","0","        83","0","        53","0","         8","0","","","","","         0","0","        84","0","         2","0","       224","0","        60","0","","","","","  -16.7","0,0308, ","","","",""," 101.1"," ,0,0326, ","   39.4","0,0710, ","-2.8","0,1104","-2.8","0,1104","-5.6","0,1203","-14.4","0,1222","-14.4","0,1222","-0.6","0,0319","-3.9","0,0318","-16.7","0,0308","-16.7","0,0308","-16.7","0,0308","    1841.5","5","    1841.5","0","    831.8"," ,0","","","     15.80","0","     22.68","0","      8.92","0"
"USC00347012","1968","36.2886","-97.2897","312.4","PERRY, OK US","","","","","        89","0","        54","0","        10","0","        6","","         5","0","","","","","","","","","","","","","","","","","   152"," ,0,0321, ","   152"," ,0,0321, ","  72.6"," ,0,0701, ","","","","","","","","","","","","","","","","","","","","","","","","","","","    828.6"," ,0","      343"," ,0","","","","","",""
"USC00347012","1969","36.2886","-97.2897","312.4","PERRY, OK US","   1137.7","","    1137.7","0","        77","0","        49","0","         9","0","        3","","         1","0","         0","0","        89","0","         5","0","       205","0","        80","0","","","","","  -12.8","0,1231, ","    76"," ,0,0315, ","    64"," ,0,0315, "," 103.4"," ,0,0507, ","   40.0","0,0813,+","-0.6","0,1014","-2.8","0,1104","-9.4","0,1128","-9.4","0,1128","-9.4","0,1128","-1.7","0,0330","-2.2","0,0326","-5.6","0,0313","-8.3","0,0311","-11.7","0,0124","    2162.2","2","    2162.2","0","    973.6"," ,0","       77"," ,0","     15.62","0","     21.91","0","      9.34","0"
"USC00347012","1970","36.2886","-97.2897","312.4","PERRY, OK US","   1248.2","","    1248.2","0","        66","0","        44","0","         4","0","       11","","         5","0","         0","0","        89","0","         8","0","       207","0","        91","0","","","","","  -16.1","0,0108, ","   127"," ,0,0317, ","   178"," ,0,0317, ","  72.4"," ,0,0923, ","   42.2","0,0808, ","-0.6","0,1103","-6.7","0,1115","-6.7","0,1115","-6.7","0,1115","-8.9","0,1124","-3.9","0,0405","-3.9","0,0405","-5.6","0,0314","-7.2","0,0313","-10.6","0,0203","    2161.3","3","    2161.3","0","    631.4"," ,0","      455"," ,0","     15.92","0","     22.60","0","      9.23","0"
"USC00347012","1971","36.2886","-97.2897","312.4","PERRY, OK US","   1101.3","","    1101.3","0","        76","0","        54","0","        10","0","        5","","         2","0","         0","0","        86","0","         7","0","       223","0","        79","0","","","","","  -17.2","0,0208, ","   152"," ,0,0222, ","   127"," ,0,0222, ","  78.7"," ,0,0918, ","   41.1","0,0718, ","-5.0","0,1107","-5.0","0,1107","-5.0","0,1107","","","","","0.0","0,0414","-2.2","0,0406","-5.6","0,0320","-7.8","0,0303","-9.4","0,0224","    2051.3","3","    2051.3","0","    893.2"," ,0","      165"," ,0","     15.91","0","     22.60","0","      9.22","0"
"USC00347012","1972","36.2886","-97.2897","312.4","PERRY, OK US","   1173.4","","    1173.4","0","        75","0","        46","0","         6","0","        9","","","","         1","0","        82","0","        16","0","       215","0","        93","0","","","","","  -17.8","0,0115, ","   102"," ,0,0212, ","","","  61.7"," ,0,0624, ","   39.4","0,0726, ","-0.6","0,1019","-3.9","0,1122","-5.6","0,1203","-7.2","0,1204","-13.9","0,1206","-3.9","0,0404","-3.9","0,0404","-5.0","0,0401","-7.8","0,0302","-11.7","0,0212","    1786.7","7","    1786.7","0","    739.2"," ,0","","","     15.77","0","     22.38","0","      9.17","0"
"USC00347012","1973","36.2886","-97.2897","312.4","PERRY, OK US","   1070.0","","    1070.0","0","        90","0","        58","0","        12","0","","","","","         2","0","        70","0","         9","0","       212","0","        78","0","","","","","  -17.8","0,0112,+","","","",""," 106.4"," ,0,0927, ","   38.3","0,0720, ","-1.1","0,1029","-5.0","0,1129","-5.0","0,1129","-7.8","0,1216","-11.1","0,1220","-2.2","0,0410","-2.2","0,0410","-4.4","0,0222","-7.2","0,0216","-9.4","0,0209","    2269.1","1","    2269.1","0","   1110.1"," ,0","","","     15.78","0","     22.01","0","      9.55","0"
"USC00347012","1974","36.2886","-97.2897","312.4","PERRY, OK US","","","","","        74","0","        58","0","        19","0","","","         2","0","","","","","","","","","","","","","","","","","","","    64"," ,0,0110, ","  86.4"," ,0,0920, ","","","","","","","","","","","","","","","","","","","","","","","    1741.8","8","    1741.8","0","   1196.3"," ,0","       89"," ,0","","","","","",""
"USC00347012","1975","36.2886","-97.2897","312.4","PERRY, OK US","","","","","        82","0","        62","0","        13","0","","","","","","","","","         4","0","       218","0","        76","0","","","","","","","","","","","  81.0"," ,0,1015, ","   37.8","0,0720, ","","","","","","","","","","","","","","","","","","","","","","","","","   1031.8"," ,0","","","","","     21.90","0","",""
"USC00347012","1976","36.2886","-97.2897","312.4","PERRY, OK US","    997.0","","     997.0","0","        62","0","        41","0","         5","0","        2","","         2","0","         0","0","        86","0","         9","0","       230","0","        75","0","","","","","  -17.2","0,0108, ","    25"," ,0,1111,+","    25"," ,0,1111,+","  45.7"," ,0,0802, ","   40.0","0,0809, ","-0.6","0,1017","-2.8","0,1020","-6.7","0,1112","-6.7","0,1112","-10.6","0,1128","0.0","0,0321","-2.8","0,0316","-6.1","0,0313","-8.3","0,0305","-10.6","0,0207","    1706.2","2","    1706.2","0","    580.8"," ,0","       50"," ,0","     15.73","0","     23.26","0","      8.20","0"
"USC00347012","1977","36.2886","-97.2897","312.4","PERRY, OK US","   1307.5","","    1307.5","0","        83","0","        49","0","        12","0","","","         2","0","         1","0","        87","0","        10","0","       230","0","        92","0","","","","","  -18.9","0,0109, ","","","    76"," ,0,0109, "," 133.1"," ,0,0521, ","   40.6","0,0725, ","-1.1","0,1012","-2.8","0,1110","-4.4","0,1126","-10.6","0,1206","-10.6","0,1206","-0.6","0,0405","-2.8","0,0322","-4.4","0,0227","-9.4","0,0207","-9.4","0,0207","    2107.3","3","    2107.3","0","    895.0"," ,0","      114"," ,0","     16.73","0","     23.50","0","      9.96","0"
"USC00347012","1978","36.2886","-97.2897","312.4","PERRY, OK US","   1280.1","","    1280.1","0","        77","0","        47","0","         6","0","","","","","         2","0","        98","0","        31","0","       223","0","        98","0","","","","","  -18.9","0,0218, ","","","","","  87.1"," ,0,1009, ","   41.7","0,0709, ","-2.2","0,1107","-2.2","0,1107","-7.8","0,1203","-7.8","0,1203","-10.6","0,1208","-2.2","0,0326","-2.2","0,0326","-5.0","0,0312","-6.7","0,0309","-13.3","0,0304","    2390.9","9","    2390.9","0","    691.0"," ,0","","","     15.17","0","     21.76","0","      8.58","0"
"USC00347012","1980","36.2886","-97.2897","312.4","PERRY, OK US","","","","","        64","0","        43","0","        11","0","","","","","","","","","","","","","","","","","","","","","","","",""," 110.5"," ,0,0818, ","","","","","","","","","","","","","","","","","","","","","","","","","","","    915.3"," ,0","","","","","","","",""
"USC00347012","1981","36.2886","-97.2897","312.4","PERRY, OK US","   1213.1","","    1213.1","0","        74","0","        44","0","         9","0","","","","","         1","0","        79","0","         1","0","       222","0","        80","0","","","","","  -20.0","0,0211, ","","","","","  55.6"," ,0,0510, ","   42.2","0,0724,+","-1.1","0,1023","-5.0","0,1110","-5.0","0,1110","-10.6","0,1217","-10.6","0,1217","-0.6","0,0323","-2.2","0,0319","-4.4","0,0213","-7.8","0,0212","-20.0","0,0211","","","","","    782.0"," ,0","","","     16.60","0","     23.46","0","      9.73","0"
"USC00347012","1982","36.2886","-97.2897","312.4","PERRY, OK US","","","","","        82","0","        51","0","         7","0","","","","","         4","0","        86","0","","","","","","","","","","","  -20.0","0,0110, ","","","","","  88.9"," ,0,0517, ","","","0.0","0,1020","-2.2","0,1022","-5.6","0,1104","-6.7","0,1113","-10.0","0,1212","-0.6","0,0422","-2.2","0,0406","-4.4","0,0326","-6.7","0,0307","-9.4","0,0306","    2063.4","4","    2063.4","0","    753.3"," ,0","","","","","","","      8.71","0"
"USC00347012","1983","36.2886","-97.2897","312.4","PERRY, OK US","","","","","        78","0","        49","0","        13","0","","","         6","0","","","","","","","","","","","","","","","","","","","   102"," ,0,0201, ","  80.0"," ,0,0521, ","","","","","","","","","","","","","","","","","","","","","","","","","","","    889.4"," ,0","      317"," ,0","","","","","",""
"USC00347012","1984","36.2886","-97.2897","312.4","PERRY, OK US","   1200.4","","    1200.4","0","        83","0","        56","0","         8","0","","","         3","0","         0","0","        85","0","         7","0","       201","0","        99","0","","","","","  -16.1","0,0116, ","","","   102"," ,0,1204, ","  36.1"," ,0,1216, ","   43.3","0,0829, ","-1.1","0,0930","-2.2","0,1102","-4.4","0,1121","-8.3","0,1203","-10.0","0,1206","0.0","0,0405","-2.2","0,0320","-5.0","0,0306","-7.2","0,0229","-11.1","0,0205","","","","","    668.1"," ,0","      242"," ,0","     15.93","0","     23.02","0","      8.84","0"
"USC00347012","1985","36.2886","-97.2897","312.4","PERRY, OK US","   1086.0","","    1086.0","0","        87","0","        61","0","        13","0","","","         3","0","         2","0","       107","0","        19","0","       209","0","        84","0","","","","","  -18.9","0,0120, ","","","    51"," ,0,0128, ","  74.9"," ,0,1018, ","   40.6","0,0901, ","-1.1","0,1001","-2.8","0,1107","-6.7","0,1120","-6.7","0,1120","-8.9","0,1201","0.0","0,0401","-2.8","0,0305","-4.4","0,0227","-6.7","0,0215","-9.4","0,0211","    2001.2","2","    2001.2","0","   1001.0"," ,0","      122"," ,0","     15.00","0","     22.02","0","      8.00","0"
"USC00347012","1986","36.2886","-97.2897","312.4","PERRY, OK US","   1007.6","","    1007.6","0","        79","0","        59","0","        15","0","","","         0","0","         0","0","        87","0","         5","0","       232","0","        91","0","","","","","  -16.7","0,0211, ","","","     0"," ,0,1231,+"," 178.6"," ,0,0929, ","   43.9","0,0730,+","-7.2","0,1111","-7.2","0,1111","-7.2","0,1111","-7.2","0,1111","-11.1","0,1113","-1.1","0,0416","-4.4","0,0321","-4.4","0,0321","-8.9","0,0222","-8.9","0,0222","    1999.6","6","    1999.6","0","   1315.4"," ,0","        0"," ,0","     16.00","0","     23.58","0","      8.41","0"
"USC00347012","1988","36.2886","-97.2897","312.4","PERRY, OK US","   1195.5","","    1195.5","0","        63","0","        52","0","        12","0","","","         3","0","         1","0","        89","0","        13","0","       221","0","        85","0","","","","","  -22.2","0,0108, ","","","   178"," ,0,1120, ","  71.6"," ,0,0918, ","   42.8","0,0609, ","0.0","0,1116","-4.4","0,1119","-4.4","0,1119","-6.7","0,1120","","","-2.8","0,0319","-2.8","0,0319","-5.0","0,0318","-6.7","0,0311","-11.1","0,0213","","","","","    860.4"," ,0","      482"," ,0","     16.09","0","     22.96","0","      9.22","0"
"USC00347012","1989","36.2886","-97.2897","312.4","PERRY, OK US","","","","","        68","0","        48","0","        10","0","        0","","         2","0","         5","0","        96","0","","","","","","","","","","","  -27.8","0,1222, ","     0"," ,0,1231,+","    25"," ,0,1217,+","  56.9"," ,0,0904,+","","","-2.2","0,1019","-2.2","0,1019","-6.1","0,1031","-8.9","0,1116","-8.9","0,1116","-0.6","0,0503","-7.8","0,0411","-7.8","0,0411","-7.8","0,0411","-10.6","0,0306","","","","","    893.8"," ,0","       50"," ,0","","","","","      7.13","0"
"USC00347012","1990","36.2886","-97.2897","312.4","PERRY, OK US","","","","","        71","0","        52","0","        10","0","","","         0","0","","","","","","","","","","","","","","","","","","","    13"," ,0,1223, ","  62.7"," ,0,0311, ","","","","","","","","","","","","","","","","","","","","","","","    2558.8","8","    2558.8"," ","    812.1"," ,0","       13"," ,0","","","","","",""
"USC00347012","1991","36.2886","-97.2897","312.4","PERRY, OK US","   1224.0","","    1224.0","0","        67","0","        55","0","        10","0","        0","","         0","0","         0","0","        72","0","         6","0","       219","0","        92","0","","","","","  -11.1","0,0130, ","     0"," ,0,1231,+","     0","T,0,0225,+","  57.7"," ,0,1220, ","   39.4","0,0802,+","-1.1","0,1031","-5.6","0,1101","-5.6","0,1101","-6.7","0,1103","","","0.0","0,0330","-2.2","0,0324","-7.2","0,0215","-7.2","0,0215","-11.1","0,0130","","","","","    860.1"," ,0","        0","T,0","     16.95","0","     23.44","0","     10.45","0"
"USC00347012","1992","36.2886","-97.2897","312.4","PERRY, OK US","    912.8","","     912.8","0","        81","0","        60","0","        14","0","        0","","         0","0","         0","0","        56","0","         0","0","       221","0","        49","0","","","","","  -10.0","0,0116, ","     0","T,0,0112, ","     0","T,0,0113,+"," 131.3"," ,0,0804, ","   36.1","0,0909,+","-3.3","0,1105","-3.3","0,1105","-5.0","0,1127","-6.7","0,1224","-9.4","0,1231","-1.7","0,0403","-2.2","0,0323","-4.4","0,0310","-10.0","0,0116","-10.0","0,0116","    1658.4","4","    1658.4","0","   1077.0"," ,0","        0","T,0","     16.22","0","     22.66","0","      9.78","0"
"USC00347012","1993","36.2886","-97.2897","312.4","PERRY, OK US","   1101.4","","    1101.4","0","        84","0","        70","0","         9","0","        0","","         3","0","         0","0","        81","0","         9","0","       189","0","        69","0","","","","","  -14.4","0,0218, ","     0","T,0,0119, ","    51"," ,0,0312,+","  99.6"," ,0,0509, ","   40.0","0,0731, ","-0.6","0,1027","-5.6","0,1030","-5.6","0,1030","-8.3","0,1031","-10.0","0,1125","-2.2","0,0402","-2.2","0,0402","-6.1","0,0313","-7.2","0,0226","-14.4","0,0218","    1994.5","5","    1994.5","0","   1094.3"," ,0","      158"," ,0","     15.53","0","     21.52","0","      9.53","0"
"USC00347012","1994","36.2886","-97.2897","312.4","PERRY, OK US","","","","","        69","0","        48","0","         7","0","","","         1","0","","","","","","","","","","","","","","","","","","","   203"," ,0,0309, "," 117.9"," ,0,0428, ","","","","","","","","","","","","","","","","","","","","","","","","","","","    848.3"," ,0","      231"," ,0","","","","","",""
"USC00347012","1995","36.2886","-97.2897","312.4","PERRY, OK US","   1043.7","","    1043.7","0","        75","0","        60","0","        12","0","        4","","         4","0","         0","0","        76","0","         7","0","       217","0","        71","0","","","","","  -12.2","0,0104, ","    76"," ,0,0122, ","    76"," ,0,0122, ","  54.6"," ,0,0606, ","   39.4","0,0711, ","-0.6","0,1024","-2.8","0,1103","-7.2","0,1111","-7.2","0,1111","-10.6","0,1209","-1.7","0,0411","-4.4","0,0309","-4.4","0,0309","-11.1","0,0308","-11.1","0,0308","    1759.2","2","    1759.2","0","    917.8"," ,0","      240"," ,0","     16.13","0","     22.76","0","      9.49","0"
"USC00347012","1996","36.2886","-97.2897","312.4","PERRY, OK US","","","","","","","","","","","","","         2","0","","","","","","","","","","","","","","","","","","","    76"," ,0,0202, ","","","","","","","","","","","","","","","","","","","","","","","","","    1922.9","9","    1922.9","0","    932.3"," ,0","      114"," ,0","","","","","",""
"USC00347012","1997","36.2886","-97.2897","312.4","PERRY, OK US","","","","","","","","","","","","","         4","0","","","","","","","","","","","","","","","","","","","    76"," ,0,0115,+","","","","","","","","","","","","","","","","","","","","","","","","","","","","","   1023.4"," ,0","      215"," ,0","","","","","",""
"USC00347012","1998","36.2886","-97.2897","312.4","PERRY, OK US","","","","","        77","0","        57","0","         9","0","","","         0","0","","","","","","","","","","","","","         7"," ","","","","","     8"," ,0,0308, "," 102.1"," ,0,1101, ","","","","","","","","","","","","","","","","","","","","","","","","","","","   1030.0"," ,0","        8"," ,0","","","","","",""
"USC00347012","1999","36.2886","-97.2897","312.4","PERRY, OK US","","","","","        71","0","        51","0","        19","0","","","         1","0","","","","","         7","0","       217","0","        73","0","","","        10"," ","","","","","   279"," ,0,0314, ","  67.3"," ,0,0911, ","   41.1","0,0827,+","","","","","","","","","","","","","","","","","","","","","","","","","   1186.1"," ,0","      279"," ,0","","","     23.13","0","",""
"USC00347012","2000","36.2886","-97.2897","312.4","PERRY, OK US","   1238.6","","    1238.6","0","        69","0","        54","0","        13","0","       18","","         6","0","         0","0","        96","0","        15","0","       205","0","        87","0","","","         5"," ","  -15.6","0,1214, ","   152"," ,0,1214,+","   140"," ,0,1213, ","  58.4"," ,0,1016, ","   42.8","0,0905,+","-0.6","0,1008","-3.3","0,1009","-4.4","0,1113","-6.7","0,1203","-10.6","0,1211","-1.1","0,0313","-3.3","0,0215","-5.0","0,0214","-8.3","0,0203","","","","","","","    887.6"," ,0","      447"," ,0","     15.79","0","     22.12","0","      9.45","0"
"USC00347012","2001","36.2886","-97.2897","312.4","PERRY, OK US","   1259.1","","    1259.1","0","        58","0","        42","0","         9","0","","","         1","0","         0","0","        78","0","        12","0","       216","0","        86","0","         1"," ","         4"," ","  -13.3","0,0101, ","","","   127"," ,0,0101, ","  79.5"," ,0,0518, ","   41.1","0,0713, ","-3.3","0,1120","-3.3","0,1120","-4.4","0,1127","-6.7","0,1224","-8.9","0,1225","0.0","0,0326","-5.0","0,0302","-5.0","0,0302","-8.3","0,0218","-8.9","0,0211","    2343.5","5","    2343.5","0","    682.4"," ,0","      127"," ,0","     16.33","0","     22.64","0","     10.03","0"
"USC00347012","2002","36.2886","-97.2897","312.4","PERRY, OK US","   1080.9","","    1080.9","0","        63","0","        53","0","        15","0","        1","","         1","0","         0","0","        80","0","         5","0","       190","0","        84","0","         1"," ","         4"," ","  -15.0","0,0303, ","   127"," ,0,1224, ","   114"," ,0,1224, ","  55.9"," ,0,0919,+","   38.9","0,0803, ","-1.1","0,1104","-4.4","0,1125","-4.4","0,1125","-6.7","0,1206","-9.4","0,1225","-0.6","0,0404","-2.2","0,0327","-4.4","0,0326","-7.2","0,0322","-13.3","0,0304","    1854.2","2","    1854.2","0","    931.3"," ,0","      134"," ,0","     15.52","0","     21.73","0","      9.32","0"
"USC00347012","2003","36.2886","-97.2897","312.4","PERRY, OK US","   1072.3","","    1072.3","0","        62","0","        43","0","         9","0","","","         5","0","         0","0","        88","0","        13","0","       199","0","        71","0","         1"," ","         6"," ","  -15.0","0,0224, ","","","   203"," ,0,0224, ","  49.8"," ,0,1009, ","   41.7","0,0722,+","-2.2","0,1107","-2.2","0,1107","-7.8","0,1124","-7.8","0,1124","","","-0.6","0,0410","-2.8","0,0330","-5.6","0,0310","-8.3","0,0306","-11.7","0,0227","    2164.6","6","    2164.6","0","    727.8"," ,0","      524"," ,0","     15.39","0","     21.82","0","      8.96","0"
"USC00347012","2004","36.2886","-97.2897","312.4","PERRY, OK US","    957.7","","     957.7","0","        68","0","        54","0","        13","0","        1","","         1","0","         0","0","        72","0","        12","0","       195","0","        57","0","","","","","  -15.0","0,0106, ","    51"," ,0,0205, ","    41"," ,0,0205, "," 106.2"," ,0,0305, ","   38.3","0,0716, ","-0.6","0,1125","-3.3","0,1201","-6.7","0,1214","-6.7","0,1214","-11.7","0,1223","-0.6","0,0316","-3.3","0,0227","-5.6","0,0226","-6.7","0,0215","-11.1","0,0208","    2044.4","4","    2044.4","0","    988.7"," ,0","       41"," ,0","     15.48","0","     21.75","0","      9.20","0"
"USC00347012","2005","36.2886","-97.2897","312.4","PERRY, OK US","   1220.7","","    1220.7","0","        60","0","        44","0","        11","0","        3","","         1","0","         0","0","        77","0","         6","0","       212","0","        92","0","         1"," ","         2"," ","  -17.2","0,1208, ","    76"," ,0,0129, ","    76"," ,0,0129, ","  66.0"," ,0,0915, ","   39.4","0,0723, ","0.0","0,1025","-3.9","0,1116","-5.6","0,1201","-8.9","0,1205","-8.9","0,1205","0.0","0,0319","-2.2","0,0302","-5.0","0,0301","-7.2","0,0210","-9.4","0,0125","    1899.1","1","    1899.1","0","    761.8"," ,0","       86"," ,0","     16.15","0","     22.76","0","      9.54","0"
"USC00347012","2006","36.2886","-97.2897","312.4","PERRY, OK US","   1285.8","","    1285.8","0","        54","0","        38","0","         8","0","","","","","         0","0","        68","0","         5","0","       218","0","       108","0","         1"," ","","","  -12.2","0,1203,+","","","","","  52.3"," ,0,0429, ","   42.8","0,0721, ","-1.1","0,1022","-4.4","0,1102","-4.4","0,1102","-12.2","0,1201","-12.2","0,1201","-0.6","0,0325","-3.3","0,0324","-4.4","0,0227","-8.3","0,0221","-12.2","0,0219","    1668.7","7","    1668.7","0","    530.8"," ,0","","","     17.08","0","     24.37","0","      9.79","0"
"USC00347012","2007","36.2886","-97.2897","312.4","PERRY, OK US","   1115.3","","    1115.3","0","        84","0","        66","0","        19","0","        1","","         2","0","         0","0","        90","0","        16","0","       224","0","        68","0","         1"," ","         2"," ","  -14.4","0,0216, ","    51"," ,0,0121, ","    51"," ,0,0121, ","  68.6"," ,0,0908,+","   39.4","0,0815, ","0.0","0,1107","-5.0","0,1122","-5.0","0,1122","-9.4","0,1216","-9.4","0,1216","-3.3","0,0408","-3.3","0,0408","-6.1","0,0305","-11.1","0,0217","-11.1","0,0217","    1923.5","5","    1923.5","0","   1312.8"," ,0","       84"," ,0","     15.57","0","     21.76","0","      9.39","0"
"USC00347012","2008","36.2886","-97.2897","312.4","PERRY, OK US","   1051.0","","    1051.0","0","        63","0","        54","0","        14","0","        0","","         0","0","         0","0","        98","0","        10","0","       217","0","        69","0","","","","","  -13.3","0,1222,+","     0"," ,0,1231,+","    13"," ,0,0221,+","  81.3"," ,0,0410, ","   40.0","0,0805,+","-1.7","0,1028","-2.2","0,1029","-5.6","0,1121","-6.7","0,1204","-10.0","0,1210","-1.1","0,0415","-7.8","0,0310","-7.8","0,0310","-7.8","0,0310","-10.0","0,0308","    2113.1","1","    2113.1","0","   1052.7"," ,0","       29"," ,0","     15.12","0","     21.84","0","      8.41","0"
"USC00347012","2009","36.2886","-97.2897","312.4","PERRY, OK US","   1022.0","","    1022.0","0","        69","0","        54","0","        10","0","        2","","         1","0","         0","0","        89","0","         9","0","       204","0","        65","0","","","","","  -14.4","0,0128, ","   102"," ,0,1225, ","    89"," ,0,1225, ","  90.2"," ,0,0818, ","   42.8","0,0713,+","-0.6","0,1118","-5.0","0,1203","-5.0","0,1203","-8.3","0,1204","-10.0","0,1209","-2.8","0,0408","-2.8","0,0408","-4.4","0,0407","-6.7","0,0303","-8.9","0,0301","    2087.7","7","    2087.7","0","    964.8"," ,0","      105"," ,0","     15.08","0","     21.56","0","      8.60","0"
"USC00347012","2010","36.2886","-97.2897","312.4","PERRY, OK US","","","","","        61","0","        49","0","        10","0","        3","","         3","0","","","","","","","","","","","","","","","","","   102"," ,0,0130, ","    76"," ,0,0321, ","  63.5"," ,0,0130, ","","","","","","","","","","","","","","","","","","","","","","","","","","","    801.1"," ,0","      165"," ,0","","","","","",""
"USC00347012","2011","36.2886","-97.2897","312.4","PERRY, OK US","","","","","        59","K","        43","K","         8","K","","","","","","","","","","","","","","","","","","","","","","","","","  55.9"," ,K,1108, ","","","","","","","","","","","","","","","","","","","","","","","","","","","    617.5"," ,K","","","","","","","",""
"USC00347012","2012","36.2886","-97.2897","312.4","PERRY, OK US","","","","","        47","7","        38","7","         3","7","","","","","","","","","","","","","","","","","","","","","","","","","  30.7"," ,7,0204, ","","","","","","","","","","","","","","","","","","","","","","","","","","","    471.5"," ,7","","","","","","","",""
"USC00347012","2013","36.2886","-97.2897","312.4","PERRY, OK US","","","","","        79","7","        64","7","        11","7","","","","","","","","","","","","","","","","","         1"," ","","","","","",""," 171.5"," ,7,0530, ","","","","","","","","","","","","","","","","","","","","","","","","","","","   1042.5"," ,7","","","","","","","",""
"USC00347012","2015","36.2886","-97.2897","312.4","PERRY, OK US","","","","","        88","7","        66","7","        18","7","","","","","","","","","","","","","","","","","","","","","","","","","  94.0"," ,7,0911, ","","","","","","","","","","","","","","","","","","","","","","","","","","","   1184.6"," ,7","","","","","","","",""
"USC00347012","2016","36.2886","-97.2897","312.4","PERRY, OK US","","","","","        67","7","        50","7","         7","7","","","","","","","","","","","","","","","","","","","","","","","","","  67.3"," ,7,1005, ","","","","","","","","","","","","","","","","","","","","","","","","","","","    666.2"," ,7","","","","","","","",""
"USC00347012","2017","36.2886","-97.2897","312.4","PERRY, OK US","","","","","        72","7","        54","7","        15","7","","","","","","","","","","","","","","","","","","","","","","","","","  76.2"," ,7,1004,+","","","","","","","","","","","","","","","","","","","","","","","","","","","   1050.4"," ,7","","","","","","","",""
"USC00347012","2018","36.2886","-97.2897","312.4","PERRY, OK US","","","","","        69","7","        59","7","         9","7","","","","","","","","","","","","","","","","","","","","","","","","","  76.2"," ,7,1009, ","","","","","","","","","","","","","","","","","","","","","","","","","","","    857.6"," ,7","","","","","","","",""
