"STATION","DATE","LATITUDE","LONGITUDE","ELEVATION","NAME","DP01","DP01_ATTRIBUTES","DP10","DP10_ATTRIBUTES","DP1X","DP1X_ATTRIBUTES","DSND","DSND_ATTRIBUTES","DSNW","DSNW_ATTRIBUTES","EMSD","EMSD_ATTRIBUTES","EMSN","EMSN_ATTRIBUTES","EMXP","EMXP_ATTRIBUTES","PRCP","PRCP_ATTRIBUTES","SNOW","SNOW_ATTRIBUTES"
"USC00085035","1949","24.9","-80.7","3.0","LIGNUMVITAE KEY, FL US","","","","","","","        0","","         0","0","     0"," ,0,1231,+","     0"," ,0,1231,+","","","","","        0"," ,0"
"USC00085035","1950","24.9","-80.7","3.0","LIGNUMVITAE KEY, FL US","        99","0","        57","0","         9","0","","","","","","","","","  67.6"," ,0,0522, ","    926.2"," ,0","",""
