"STATION","DATE","LATITUDE","LONGITUDE","ELEVATION","NAME","DP01","DP01_ATTRIBUTES","DP10","DP10_ATTRIBUTES","DP1X","DP1X_ATTRIBUTES","DSNW","DSNW_ATTRIBUTES","DYFG","DYFG_ATTRIBUTES","EMSN","EMSN_ATTRIBUTES","EMXP","EMXP_ATTRIBUTES","PRCP","PRCP_ATTRIBUTES","SNOW","SNOW_ATTRIBUTES"
"USC00440725","1944","38.5","-78.41667","1007.1","BIG MEADOWS 2, VA US","","","","","","","","","         2"," ","","","","","","","",""
"USC00440725","1946","38.5","-78.41667","1007.1","BIG MEADOWS 2, VA US","","","","","","","         9","6","","","   152"," ,6,0127, ","","","","","      801"," ,6"
"USC00440725","1947","38.5","-78.41667","1007.1","BIG MEADOWS 2, VA US","","","","","","","         8","6","","","   203"," ,6,0101, ","","","","","      896"," ,6"
"USC00440725","1948","38.5","-78.41667","1007.1","BIG MEADOWS 2, VA US","       138","0","       104","0","        12","0","","","","","","","  85.1"," ,0,1005, ","   1356.0"," ,0","",""
