"STATION","DATE","LATITUDE","LONGITUDE","ELEVATION","NAME","DP01","DP01_ATTRIBUTES","DP10","DP10_ATTRIBUTES","DP1X","DP1X_ATTRIBUTES","EMXP","EMXP_ATTRIBUTES","PRCP","PRCP_ATTRIBUTES"
"USC00041743","1949","35.71667","-120.25","534.0","CHOLAME ALLEY RANCH, CA US","        35","0","        22","0","         1","0","  29.2"," ,0,1207, ","    200.1"," ,0"
"USC00041743","1950","35.71667","-120.25","534.0","CHOLAME ALLEY RANCH, CA US","        35","0","        22","0","         1","0","  32.3"," ,0,0324, ","    225.5"," ,0"
