"STATION","DATE","LATITUDE","LONGITUDE","ELEVATION","NAME","DP01","DP01_ATTRIBUTES","DP10","DP10_ATTRIBUTES","DP1X","DP1X_ATTRIBUTES","EMXP","EMXP_ATTRIBUTES","PRCP","PRCP_ATTRIBUTES"
"USC00404866","1956","36.51667","-82.55","366.1","KINGSPORT T E C, TN US","       135","0","        94","0","         7","0","  66.0"," ,0,0416, ","   1165.6"," ,0"
"USC00404866","1957","36.51667","-82.55","366.1","KINGSPORT T E C, TN US","       137","0","        84","0","        13","0","  45.2"," ,0,0815, ","   1250.8"," ,0"
"USC00404866","1958","36.51667","-82.55","366.1","KINGSPORT T E C, TN US","       144","0","        97","0","        10","0","  66.8"," ,0,0507, ","   1199.5"," ,0"
"USC00404866","1959","36.51667","-82.55","366.1","KINGSPORT T E C, TN US","       132","0","        94","0","        11","0","  56.4"," ,0,0327, ","   1161.9"," ,0"
"USC00404866","1960","36.51667","-82.55","366.1","KINGSPORT T E C, TN US","       124","0","        72","0","         5","0","  45.7"," ,0,0711, ","    937.6"," ,0"
"USC00404866","1961","36.51667","-82.55","366.1","KINGSPORT T E C, TN US","       139","0","        86","0","        14","0","  50.0"," ,0,0223, ","   1166.9"," ,0"
