"STATION","DATE","LATITUDE","LONGITUDE","ELEVATION","NAME","DP01","DP01_ATTRIBUTES","DP10","DP10_ATTRIBUTES","DP1X","DP1X_ATTRIBUTES","DYFG","DYFG_ATTRIBUTES","EMXP","EMXP_ATTRIBUTES","PRCP","PRCP_ATTRIBUTES"
"USC00462875","1925","38.9","-80.366667","987.6","EVENWOOD, WV US","       149","6","       115","6","         8","6","         1"," ","  47.0"," ,6,0721, ","   1312.4"," ,6"
"USC00462875","1926","38.9","-80.366667","987.6","EVENWOOD, WV US","       192","6","       136","6","        13","6","","","  51.1"," ,6,0818, ","   1681.6"," ,6"
