"STATION","DATE","LATITUDE","LONGITUDE","ELEVATION","NAME","CDSD","CDSD_ATTRIBUTES","CLDD","CLDD_ATTRIBUTES","DP01","DP01_ATTRIBUTES","DP10","DP10_ATTRIBUTES","DP1X","DP1X_ATTRIBUTES","DSNW","DSNW_ATTRIBUTES","DT00","DT00_ATTRIBUTES","DT32","DT32_ATTRIBUTES","DX32","DX32_ATTRIBUTES","DX70","DX70_ATTRIBUTES","DX90","DX90_ATTRIBUTES","EMNT","EMNT_ATTRIBUTES","EMSN","EMSN_ATTRIBUTES","EMXP","EMXP_ATTRIBUTES","EMXT","EMXT_ATTRIBUTES","FZF0","FZF0_ATTRIBUTES","FZF1","FZF1_ATTRIBUTES","FZF2","FZF2_ATTRIBUTES","FZF3","FZF3_ATTRIBUTES","FZF4","FZF4_ATTRIBUTES","FZF5","FZF5_ATTRIBUTES","FZF6","FZF6_ATTRIBUTES","FZF7","FZF7_ATTRIBUTES","FZF8","FZF8_ATTRIBUTES","FZF9","FZF9_ATTRIBUTES","HDSD","HDSD_ATTRIBUTES","HTDD","HTDD_ATTRIBUTES","PRCP","PRCP_ATTRIBUTES","SNOW","SNOW_ATTRIBUTES","TAVG","TAVG_ATTRIBUTES","TMAX","TMAX_ATTRIBUTES","TMIN","TMIN_ATTRIBUTES"
"USC00394893","2009","45.71869","-98.9384","482.5","LEOLA SDSU, SD US","","","","","       104","0","        61","0","         8","0","        18","0","","","","","        91","0","       115","0","         2","0","","","   254"," ,0,0226, ","  67.6"," ,0,0815, ","   33.3","0,0812, ","","","","","","","","","","","","","","","","","","","","","","","","","    789.5"," ,0","     1480"," ,0","","","     10.79","0","",""
"USC00394893","2010","45.71869","-98.9384","482.5","LEOLA SDSU, SD US","","","","","       118","0","        54","0","         7","0","        16","0","","","","","        86","0","       131","0","        17","0","","","   234"," ,0,1122, ","  64.5"," ,0,0909, ","   37.8","0,0822, ","","","","","","","","","","","","","","","","","","","","","","","","","    644.0"," ,0","     1253"," ,0","","","     12.28","0","",""
"USC00394893","2011","45.71869","-98.9384","482.5","LEOLA SDSU, SD US","","","","","       105","K","        49","K","         6","K","","","","","","","","","","","","","","","","","  54.4"," ,K,0622, ","","","","","","","","","","","","","","","","","","","","","","","","","","","    614.7"," ,K","","","","","","","",""
"USC00394893","2012","45.71869","-98.9384","482.5","LEOLA SDSU, SD US","    378.3","","     378.3","7","","","","","","","","","        20","7","       160","7","        59","7","       142","7","        27","7","  -25.0","7,1210, ","","","","","   37.8","7,0720, ","0.0","7,0918","-2.2","7,0922","-6.7","7,1012","-6.7","7,1012","-9.4","7,1026","-3.3","7,0417","-3.3","7,0417","-6.7","7,0411","-6.7","7,0411","-10.0","7,0309","","","","","","","","","      8.10","7","     14.81","7","      1.38","7"
"USC00394893","2013","45.71869","-98.9384","482.5","LEOLA SDSU, SD US","","","","","        81","7","        38","7","         3","7","        16","7","","","","","","","","","","","","","   241"," ,7,0414, ","  42.9"," ,7,1015, ","","","","","","","","","","","","","","","","","","","","","","","    5009.0","0","    5009.0","7","    529.4"," ,7","     1558"," ,7","","","","","",""
"USC00394893","2014","45.71869","-98.9384","482.5","LEOLA SDSU, SD US","","","","","        84","7","        39","7","         3","7","        13","7","","","","","","","","","","","","","   203"," ,7,1110, "," 100.1"," ,7,0823, ","","","","","","","","","","","","","","","","","","","","","","","","","","","    511.8"," ,7","     1167"," ,7","","","","","",""
"USC00394893","2015","45.71869","-98.9384","482.5","LEOLA SDSU, SD US","","","","","        68","7","        37","7","         6","7","        10","7","","","","","","","","","","","","","   114"," ,7,1216, ","  80.8"," ,7,0614, ","","","","","","","","","","","","","","","","","","","","","","","","","","","    614.0"," ,7","      569"," ,7","","","","","",""
"USC00394893","2016","45.71869","-98.9384","482.5","LEOLA SDSU, SD US","    293.1","","     293.1","7","        77","7","        45","7","         5","7","         7","7","        20","7","       162","7","        65","7","       139","7","        10","7","  -33.3","7,1218, ","   152"," ,7,0214, ","  84.3"," ,7,0810, ","   34.4","7,0720,+","-1.7","7,1006","-2.8","7,1007","-6.7","7,1013","-6.7","7,1013","-9.4","7,1119","-2.2","7,0514","-2.2","7,0514","-6.7","7,0412","-6.7","7,0412","-8.9","7,0327","","","","","    660.4"," ,7","      647"," ,7","      7.94","7","     14.02","7","      1.85","7"
"USC00394893","2017","45.71869","-98.9384","482.5","LEOLA SDSU, SD US","    293.5","","     293.5","7","        60","7","        22","7","         2","7","         7","7","        27","7","       177","7","        71","7","       131","7","        16","7","  -31.7","7,1231, ","   152"," ,7,0312, ","  29.7"," ,7,0613, ","   38.3","7,0706, ","0.0","7,1004","-3.9","7,1010","-9.4","7,1028","-9.4","7,1028","-9.4","7,1028","-2.2","7,0428","-2.2","7,0428","-4.4","7,0417","-7.8","7,0322","-12.2","7,0316","    4298.9","9","    4298.9","7","    325.5"," ,7","      555"," ,7","      6.94","7","     13.06","7","      0.81","7"
"USC00394893","2018","45.71869","-98.9384","482.5","LEOLA SDSU, SD US","    404.9","","     404.9","7","","","","","","","","","        36","7","       191","7","        94","7","       132","7","        26","7","  -31.1","7,0101, ","","","","","   37.8","7,0606, ","-0.6","7,0928","-5.0","7,1004","-5.0","7,1004","-7.8","7,1015","-8.9","7,1107","-1.1","7,0428","-5.6","7,0417","-5.6","7,0417","-7.8","7,0416","-13.9","7,0408","    4835.9","9","    4835.9","7","    484.1"," ,7","","","      5.61","7","     11.52","7","     -0.30","7"
