"STATION","DATE","LATITUDE","LONGITUDE","ELEVATION","NAME","DP01","DP01_ATTRIBUTES","DP10","DP10_ATTRIBUTES","DP1X","DP1X_ATTRIBUTES","DSND","DSND_ATTRIBUTES","DSNW","DSNW_ATTRIBUTES","DYFG","DYFG_ATTRIBUTES","EMSD","EMSD_ATTRIBUTES","EMSN","EMSN_ATTRIBUTES","EMXP","EMXP_ATTRIBUTES","PRCP","PRCP_ATTRIBUTES","SNOW","SNOW_ATTRIBUTES"
"USC00251940","1909","40.86139","-99.98556","762.0","COZAD, NE US","        46","6","        37","6","         7","6","        5","","         4","6","","","   229"," ,6,1115, ","   229"," ,6,1115, ","  57.2"," ,6,0609, ","    558.4"," ,6","      630"," ,6"
"USC00251940","1910","40.86139","-99.98556","762.0","COZAD, NE US","        42","6","        35","6","         3","6","","","","","","","","","","","  55.9"," ,6,0625, ","    409.6"," ,6","",""
"USC00251940","1911","40.86139","-99.98556","762.0","COZAD, NE US","","","","","","","","","","","         1"," ","","","","","","","","","",""
