"STATION","DATE","LATITUDE","LONGITUDE","ELEVATION","NAME","DP01","DP01_ATTRIBUTES","DP10","DP10_ATTRIBUTES","DP1X","DP1X_ATTRIBUTES","DSND","DSND_ATTRIBUTES","DSNW","DSNW_ATTRIBUTES","DYFG","DYFG_ATTRIBUTES","DYTS","DYTS_ATTRIBUTES","EMSD","EMSD_ATTRIBUTES","EMSN","EMSN_ATTRIBUTES","EMXP","EMXP_ATTRIBUTES","PRCP","PRCP_ATTRIBUTES","SNOW","SNOW_ATTRIBUTES"
"USC00415674","1962","29.28333","-103.5","823.9","MAVERICK RANGER STATION, TX US","        40","0","        26","0","         0","0","        0","","         0","0","         6"," ","        16"," ","     0"," ,0,1231,+","     0","T,0,0111, ","  24.4"," ,0,0704, ","    203.8"," ,0","        0","T,0"
"USC00415674","1963","29.28333","-103.5","823.9","MAVERICK RANGER STATION, TX US","        50","0","        27","0","         6","0","        0","","         0","0","         4"," ","        43"," ","     0"," ,0,1231,+","     0","T,0,0212,+","  40.1"," ,0,0912, ","    373.3"," ,0","        0","T,0"
"USC00415674","1964","29.28333","-103.5","823.9","MAVERICK RANGER STATION, TX US","        34","0","        21","0","         1","0","        0","","         0","0","","","","","     0"," ,0,1231,+","     0","T,0,1219,+","  43.4"," ,0,0527, ","    262.8"," ,0","        0","T,0"
