"STATION","DATE","LATITUDE","LONGITUDE","ELEVATION","NAME","CDSD","CDSD_ATTRIBUTES","CLDD","CLDD_ATTRIBUTES","DP01","DP01_ATTRIBUTES","DP10","DP10_ATTRIBUTES","DP1X","DP1X_ATTRIBUTES","DSND","DSND_ATTRIBUTES","DSNW","DSNW_ATTRIBUTES","DT00","DT00_ATTRIBUTES","DT32","DT32_ATTRIBUTES","DX32","DX32_ATTRIBUTES","DX70","DX70_ATTRIBUTES","DX90","DX90_ATTRIBUTES","DYFG","DYFG_ATTRIBUTES","DYTS","DYTS_ATTRIBUTES","EMNT","EMNT_ATTRIBUTES","EMSD","EMSD_ATTRIBUTES","EMSN","EMSN_ATTRIBUTES","EMXP","EMXP_ATTRIBUTES","EMXT","EMXT_ATTRIBUTES","FZF0","FZF0_ATTRIBUTES","FZF1","FZF1_ATTRIBUTES","FZF2","FZF2_ATTRIBUTES","FZF3","FZF3_ATTRIBUTES","FZF4","FZF4_ATTRIBUTES","FZF5","FZF5_ATTRIBUTES","FZF6","FZF6_ATTRIBUTES","FZF7","FZF7_ATTRIBUTES","FZF8","FZF8_ATTRIBUTES","FZF9","FZF9_ATTRIBUTES","HDSD","HDSD_ATTRIBUTES","HTDD","HTDD_ATTRIBUTES","PRCP","PRCP_ATTRIBUTES","SNOW","SNOW_ATTRIBUTES","TAVG","TAVG_ATTRIBUTES","TMAX","TMAX_ATTRIBUTES","TMIN","TMIN_ATTRIBUTES"
"USC00203585","1900","43.8322","-82.6427","181.4","HARBOR BEACH 1 SSE, MI US","    312.9","","     312.9","6","        94","6","        69","6","         3","6","","","","","         8","6","       151","6","        60","6","       120","6","        14","6","","","","","  -26.1","6,0227, ","","","","","  44.5"," ,6,1121, ","   37.8","6,0805, ","-1.1","6,1010","-2.2","6,1017","-5.0","6,1110","-12.2","6,1114","-12.2","6,1114","0.0","6,0510","-2.2","6,0413","-6.1","6,0411","-6.7","6,0409","-12.2","6,0321","    4211.7","7","    4211.7","6","    643.9"," ,6","","","      7.88","6","     13.01","6","      2.74","6"
"USC00203585","1901","43.8322","-82.6427","181.4","HARBOR BEACH 1 SSE, MI US","    312.4","","     312.4","6","        82","6","        50","6","         2","6","","","","","         9","6","       167","6","        73","6","       112","6","         8","6","         4"," ","","","  -21.1","6,0306, ","","","","","  41.9"," ,6,1012, ","   38.3","6,0701, ","0.0","6,0917","-3.9","6,0918","-4.4","6,1024","-7.2","6,1105","-9.4","6,1204","0.0","6,0421","-2.8","6,0419","-6.7","6,0330","-6.7","6,0330","-12.2","6,0316","    4171.8","8","    4171.8","6","    444.1"," ,6","","","      7.16","6","     12.06","6","      2.27","6"
"USC00203585","1902","43.8322","-82.6427","181.4","HARBOR BEACH 1 SSE, MI US","    102.3","","     102.3","6","       105","6","        71","6","         6","6","","","","","         4","6","       134","6","        59","6","        95","6","         2","6","         1"," ","","","  -22.8","6,0128, ","","","","","  44.5"," ,6,0805, ","   33.3","6,0706, ","-1.1","6,1017","-3.9","6,1119","-11.1","6,1127","-11.1","6,1127","-11.1","6,1127","0.0","6,0515","-2.8","6,0511","-6.7","6,0325","-6.7","6,0325","-12.2","6,0318","    4095.2","2","    4095.2","6","    881.5"," ,6","","","      7.54","6","     12.58","6","      2.49","6"
"USC00203585","1903","43.8322","-82.6427","181.4","HARBOR BEACH 1 SSE, MI US","    150.4","","     150.4","6","        94","6","        67","6","         5","6","","","","","         9","6","       148","6","        66","6","        99","6","         3","6","         3"," ","","","  -22.2","6,0218, ","","","","","  50.8"," ,6,0804, ","   33.3","6,0708, ","0.0","6,0928","-2.2","6,1026","-5.0","6,1114","-12.2","6,1118","-12.2","6,1118","-1.1","6,0508","-4.4","6,0501","-4.4","6,0501","-6.7","6,0405","-11.1","6,0301","    3799.1","1","    3799.1","6","    733.7"," ,6","","","      7.03","6","     12.05","6","      2.01","6"
"USC00203585","1904","43.8322","-82.6427","181.4","HARBOR BEACH 1 SSE, MI US","    150.1","","     150.1","6","        88","6","        54","6","         3","6","","","","","        26","6","       162","6","        94","6","       101","6","         3","6","","","","","  -27.8","6,0216, ","","","","","  26.7"," ,6,1012, ","   35.6","6,0717, ","-1.1","6,0922","-4.4","6,1031","-4.4","6,1031","-7.8","6,1127","-12.2","6,1128","-3.3","6,0515","-3.3","6,0515","-5.6","6,0422","-7.2","6,0417","-11.1","6,0328","    4740.2","2","    4740.2","6","    474.2"," ,6","","","      5.79","6","     10.72","6","      0.86","6"
"USC00203585","1905","43.8322","-82.6427","181.4","HARBOR BEACH 1 SSE, MI US","","","","","        80","6","        52","6","         7","6","","","","","        12","6","       151","6","","","","","","","","","","","  -25.6","6,0213, ","","","","","  40.6"," ,6,0819, ","","","0.0","6,1023","-4.4","6,1029","-4.4","6,1029","-6.7","6,1102","-12.2","6,1130","0.0","6,0509","-2.2","6,0501","-4.4","6,0418","-6.7","6,0320","-16.1","6,0315","","","","","    626.1"," ,6","","","","","","","      2.41","6"
"USC00203585","1907","43.8322","-82.6427","181.4","HARBOR BEACH 1 SSE, MI US","","","","","","","","","","","","","","","        15","6","       174","6","","","","","","","         1"," ","","","  -22.2","6,0222,+","","","","","","","","","-1.1","6,1003","-2.2","6,1021","-4.4","6,1023","-6.7","6,1112","-9.4","6,1114","-0.6","6,0528","-3.3","6,0501","-5.6","6,0427","-10.6","6,0402","-10.6","6,0402","","","","","","","","","","","","","      0.90","6"
"USC00203585","1908","43.8322","-82.6427","181.4","HARBOR BEACH 1 SSE, MI US","","","","","","","","","","","","","","","","","","","        69","6","       134","6","        14","6","","","","","","","","","","","","","   35.0","6,0803, ","","","","","","","","","","","","","","","","","","","","","    4290.7","7","    4290.7"," ","","","","","","","     13.17","6","",""
"USC00203585","1909","43.8322","-82.6427","181.4","HARBOR BEACH 1 SSE, MI US","    133.9","","     133.9","6","","","","","","","","","","","         1","6","       163","6","        63","6","       103","6","         7","6","","","","","  -21.1","6,0201, ","","","","","","","   35.0","6,0825, ","-4.4","6,0928","-4.4","6,0928","-4.4","6,0928","-6.7","6,1117","-12.2","6,1208","-1.7","6,0504","-5.0","6,0427","-5.0","6,0427","-6.7","6,0411","-8.9","6,0410","","","","","","","","","      7.08","6","     12.21","6","      1.95","6"
"USC00203585","1910","43.8322","-82.6427","181.4","HARBOR BEACH 1 SSE, MI US","    120.9","","     120.9","6","        90","6","        78","6","         4","6","","","","","         9","6","       148","6","        64","6","       116","6","         4","6","","","","","  -22.2","6,0224, ","","","","","  30.5"," ,6,0420, ","   34.4","6,0702, ","-0.6","6,1028","-2.8","6,1029","-6.7","6,1115","-6.7","6,1115","-10.0","6,1208","0.0","6,0604","-2.2","6,0512","-5.6","6,0419","-6.7","6,0318","-11.1","6,0315","    4048.7","7","    4048.7","6","    623.5"," ,6","","","      7.32","6","     12.50","6","      2.14","6"
"USC00203585","1911","43.8322","-82.6427","181.4","HARBOR BEACH 1 SSE, MI US","","","","","","","","","","","","","","","","","","","        48","6","       107","6","        13","6","","","","","","","","","","","","","   38.9","6,0705, ","","","","","","","","","","","","","","","","","","","","","    4169.5","5","    4169.5","6","","","","","","","     13.06","6","",""
"USC00203585","1912","43.8322","-82.6427","181.4","HARBOR BEACH 1 SSE, MI US","","","","","","","","","","","","","","","","","","","        78","6","        95","6","         3","6","","","","","","","","","","","","","   33.9","6,0910, ","","","","","","","","","","","","","","","","","","","","","","","","","","","","","","","     11.43","6","",""
"USC00203585","1913","43.8322","-82.6427","181.4","HARBOR BEACH 1 SSE, MI US","    264.6","","     264.6","6","        71","6","        62","6","         7","6","","","","","         5","6","       134","6","        47","6","       111","6","        11","6","","","","","  -20.6","6,0307, ","","","","","  35.6"," ,6,0626, ","   37.2","6,0630, ","-6.1","6,1024","-6.1","6,1024","-6.1","6,1024","-6.7","6,1111","-10.0","6,1228","-1.1","6,0511","-2.8","6,0409","-11.7","6,0328","-11.7","6,0328","-11.7","6,0328","","","","","    653.1"," ,6","","","      8.34","6","     13.32","6","      3.35","6"
"USC00203585","1914","43.8322","-82.6427","181.4","HARBOR BEACH 1 SSE, MI US","    238.3","","     238.3","6","        85","6","        69","6","         5","6","","","","","        14","6","       148","6","        70","6","       110","6","        10","6","","","","","  -23.9","6,0209, ","","","","","  45.7"," ,6,0131, ","   35.6","6,0609, ","-1.7","6,1026","-2.2","6,1102","-5.6","6,1116","-12.8","6,1117","-12.8","6,1117","0.0","6,0502","-3.3","6,0413","-6.1","6,0409","-6.7","6,0408","-10.6","6,0321","    3996.7","7","    3996.7","6","    620.8"," ,6","","","      7.48","6","     12.36","6","      2.60","6"
"USC00203585","1915","43.8322","-82.6427","181.4","HARBOR BEACH 1 SSE, MI US","    141.4","","     141.4","6","       108","6","        80","6","         5","6","","","","","         5","6","       145","6","        61","6","        95","6","         1","6","","","","","  -25.6","6,0130, ","","","","","  52.1"," ,6,0812, ","   32.2","6,0914, ","0.0","6,1002","-3.9","6,1116","-4.4","6,1123","-6.7","6,1207","-8.9","6,1214","-1.1","6,0518","-2.8","6,0415","-4.4","6,0414","-9.4","6,0330","-9.4","6,0330","    4025.2","2","    4025.2","6","    723.2"," ,6","","","      7.70","6","     12.23","6","      3.17","6"
"USC00203585","1916","43.8322","-82.6427","181.4","HARBOR BEACH 1 SSE, MI US","","","","","","","","","","","","","","","","","","","","","","","","","         1"," ","","","","","","","","","","","","","","","","","","","","","","","","","","","","","","","","","","","","","","","","","","","","","",""
"USC00203585","1917","43.8322","-82.6427","181.4","HARBOR BEACH 1 SSE, MI US","","","","","        79","6","        61","6","         7","6","","","","","","","","","","","","","","","         2"," ","","","","","","","","","  31.0"," ,6,0626, ","","","","","","","","","","","","","","","","","","","","","","","","","","","    666.5"," ,6","","","","","","","",""
"USC00203585","1918","43.8322","-82.6427","181.4","HARBOR BEACH 1 SSE, MI US","","","","","","","","","","","","","","","","","","","        60","6","        86","6","        10","6","","","","","","","","","","","","","   38.9","6,0813, ","","","","","","","","","","","","","","","","","","","","","","","","","","","","","","","     12.06","6","",""
"USC00203585","1919","43.8322","-82.6427","181.4","HARBOR BEACH 1 SSE, MI US","    261.9","","     261.9","6","","","","","","","","","","","         2","6","       144","6","        53","6","       110","6","         9","6","","","","","  -17.8","6,1217,+","","","","","","","   37.2","6,0703, ","0.0","6,0914","-2.8","6,1111","-5.6","6,1113","-6.7","6,1114","-8.9","6,1202","-1.1","6,0503","-3.3","6,0425","-7.2","6,0402","-7.2","6,0402","-11.7","6,0308","","","","","","","","","      8.17","6","     12.78","6","      3.56","6"
"USC00203585","1920","43.8322","-82.6427","181.4","HARBOR BEACH 1 SSE, MI US","    142.6","","     142.6","6","","","","","","","","","","","        24","6","       146","6","        78","6","       103","6","         0","6","","","","","  -28.3","6,0218, ","","","","","","","   31.7","6,0713,+","-1.7","6,1030","-2.8","6,1110","-4.4","6,1111","-8.9","6,1112","-8.9","6,1112","-2.8","6,0515","-2.8","6,0515","-6.7","6,0413","-6.7","6,0413","-9.4","6,0408","    4398.1","1","    4398.1","6","","","","","      6.89","6","     11.53","6","      2.26","6"
"USC00203585","1921","43.8322","-82.6427","181.4","HARBOR BEACH 1 SSE, MI US","    362.4","","     362.4","6","","","","","","","","","","","         0","6","       126","6","        38","6","       118","6","        17","6","","","","","  -14.4","6,1225, ","","","","","","","   35.6","6,0718,+","-1.1","6,1013","-2.2","6,1106","-5.0","6,1112","-11.1","6,1113","-11.1","6,1113","-3.3","6,0418","-3.3","6,0418","-5.0","6,0410","-9.4","6,0329","-9.4","6,0329","    3241.2","2","    3241.2","6","","","","","      9.57","6","     14.21","6","      4.92","6"
"USC00203585","1922","43.8322","-82.6427","181.4","HARBOR BEACH 1 SSE, MI US","    179.1","","     179.1","6","","","","","","","","","","","         7","6","       143","6","        59","6","       110","6","         6","6","","","","","  -22.8","6,0217, ","","","","","","","   36.1","6,0817, ","-0.6","6,1013","-2.2","6,1018","-4.4","6,1125","-7.8","6,1129","-8.9","6,1210","-0.6","6,0430","-3.9","6,0421","-9.4","6,0323","-9.4","6,0323","-9.4","6,0323","    3764.3","3","    3764.3","6","","","","","      8.07","6","     12.76","6","      3.37","6"
"USC00203585","1923","43.8322","-82.6427","181.4","HARBOR BEACH 1 SSE, MI US","    218.4","","     218.4","6","        80","6","        64","6","         3","6","","","","","         7","6","       157","6","        61","6","        98","6","         6","6","","","","","  -22.8","6,0204, ","","","","","  28.7"," ,6,0516, ","   35.0","6,0720, ","-1.7","6,1007","-2.8","6,1031","-5.6","6,1109","-7.8","6,1214","","","-2.2","6,0513","-2.2","6,0513","-6.7","6,0412","-6.7","6,0412","-16.1","6,0401","    4250.8","8","    4250.8","6","    644.1"," ,6","","","      7.33","6","     12.10","6","      2.57","6"
"USC00203585","1924","43.8322","-82.6427","181.4","HARBOR BEACH 1 SSE, MI US","    137.8","","     137.8","6","        99","6","        72","6","         1","6","","","","","        15","6","       151","6","        80","6","        76","6","         5","6","","","","","  -23.9","6,0224, ","","","","","  49.8"," ,6,0509, ","   34.4","6,0723, ","0.0","6,1023","-3.9","6,1110","-5.0","6,1115","-8.9","6,1117","-8.9","6,1117","-0.6","6,0520","-3.3","6,0411","-10.0","6,0402","-10.0","6,0402","-10.0","6,0402","    4153.6","6","    4153.6","6","    637.1"," ,6","","","      6.43","6","     11.23","6","      1.62","6"
"USC00203585","1925","43.8322","-82.6427","181.4","HARBOR BEACH 1 SSE, MI US","    233.1","","     233.1","6","        91","6","        62","6","         4","6","","","","","         8","6","       158","6","        64","6","       107","6","        11","6","","","","","  -22.2","6,1227,+","","","","","  63.8"," ,6,0808, ","   36.7","6,0606, ","-1.7","6,1010","-3.9","6,1028","-6.1","6,1029","-7.2","6,1030","-10.0","6,1129","-1.1","6,0518","-3.3","6,0412","-4.4","6,0406","-8.3","6,0316","-16.1","6,0315","    4148.0","0","    4148.0","6","    673.3"," ,6","","","      7.37","6","     12.26","6","      2.48","6"
"USC00203585","1926","43.8322","-82.6427","181.4","HARBOR BEACH 1 SSE, MI US","    132.8","","     132.8","6","        86","6","        72","6","         9","6","","","","","         5","6","       159","6","        70","6","        99","6","         6","6","","","","","  -20.6","6,0129, ","","","","","  51.3"," ,6,0802, ","   35.0","6,0721, ","-0.6","6,0926","-2.8","6,1031","-6.1","6,1110","-8.3","6,1111","-10.0","6,1128","-2.2","6,0504","-2.2","6,0504","-4.4","6,0420","-7.8","6,0412","-9.4","6,0404","    4490.2","2","    4490.2","6","    844.6"," ,6","","","      6.25","6","     10.71","6","      1.78","6"
"USC00203585","1927","43.8322","-82.6427","181.4","HARBOR BEACH 1 SSE, MI US","    156.8","","     156.8","6","        94","6","        63","6","         2","6","","","","","         2","6","       135","6","        53","6","       110","6","         5","6","","","","","  -22.8","6,0127, ","","","","","  30.2"," ,6,0509, ","   35.6","6,0915, ","0.0","6,1103","-3.9","6,1106","-4.4","6,1107","-8.9","6,1118","-8.9","6,1118","-1.7","6,0429","-3.9","6,0423","-5.0","6,0329","-11.1","6,0304","-11.1","6,0304","    4158.5","5","    4158.5","6","    609.7"," ,6","","","      7.99","6","     12.55","6","      3.44","6"
"USC00203585","1928","43.8322","-82.6427","181.4","HARBOR BEACH 1 SSE, MI US","    189.3","","     189.3","6","        87","6","        73","6","         6","6","","","","","         6","6","       147","6","        55","6","        99","6","         3","6","","","","","  -21.7","6,0130, ","","","","","  41.7"," ,6,0629, ","   33.3","6,0707, ","0.0","6,0926","-2.8","6,1029","-6.7","6,1125","-6.7","6,1125","-9.4","6,1209","-1.1","6,0513","-2.8","6,0427","-5.0","6,0420","-6.7","6,0415","-9.4","6,0328","    4017.0","0","    4017.0","6","    828.9"," ,6","","","      7.50","6","     11.90","6","      3.10","6"
"USC00203585","1929","43.8322","-82.6427","181.4","HARBOR BEACH 1 SSE, MI US","    233.2","","     233.2","6","        86","6","        66","6","         2","6","","","","","         6","6","       143","6","        72","6","       108","6","        10","6","","","","","  -27.8","6,0220, ","","","","","  58.4"," ,6,1022, ","   36.1","6,0903, ","-0.6","6,1005","-2.2","6,1009","-5.6","6,1121","-10.6","6,1122","-10.6","6,1122","0.0","6,0522","-7.2","6,0402","-7.2","6,0402","-7.2","6,0402","-14.4","6,0310","    4071.9","9","    4071.9","6","    669.5"," ,6","","","      7.16","6","     12.00","6","      2.33","6"
"USC00203585","1930","43.8322","-82.6427","181.4","HARBOR BEACH 1 SSE, MI US","    302.4","","     302.4","6","        66","6","        48","6","         2","6","","","","","         5","6","       146","6","        68","6","       122","6","         8","6","","","","","  -21.1","6,0216, ","","","","","  65.3"," ,6,0913, ","   36.7","6,0718, ","-1.7","6,1018","-2.2","6,1019","-5.0","6,1106","-6.7","6,1107","-12.2","6,1127","-0.6","6,0427","-4.4","6,0424","-4.4","6,0424","-6.7","6,0402","-10.6","6,0330","    4093.3","3","    4093.3","6","    515.0"," ,6","","","      8.04","6","     12.70","6","      3.38","6"
"USC00203585","1931","43.8322","-82.6427","181.4","HARBOR BEACH 1 SSE, MI US","    368.6","","     368.6","6","        86","6","        61","6","         4","6","","","","","         1","6","       135","6","        28","6","       117","6","        11","6","","","","","  -17.8","6,0122, ","","","","","  42.4"," ,6,0914, ","   36.7","6,0911, ","0.0","6,1102","-2.8","6,1106","-4.4","6,1202","-10.0","6,1208","-10.0","6,1208","0.0","6,0504","-2.2","6,0430","-6.7","6,0407","-6.7","6,0407","-12.2","6,0314","    3955.1","1","    3955.1","6","    629.6"," ,6","","","      9.58","6","     13.98","6","      5.18","6"
"USC00203585","1932","43.8322","-82.6427","181.4","HARBOR BEACH 1 SSE, MI US","    232.2","","     232.2","6","        92","6","        71","6","         4","6","","","","","         1","6","       145","6","        41","6","       113","6","         7","6","","","","","  -19.4","6,1216, ","","","","","  61.7"," ,6,0904, ","   34.4","6,0831, ","0.0","6,1013","-6.7","6,1112","-6.7","6,1112","-6.7","6,1112","-12.8","6,1209","-0.6","6,0503","-2.2","6,0424","-5.0","6,0412","-14.4","6,0324","-14.4","6,0324","    3449.4","4","    3449.4","6","    789.5"," ,6","","","      8.39","6","     12.70","6","      4.07","6"
"USC00203585","1933","43.8322","-82.6427","181.4","HARBOR BEACH 1 SSE, MI US","    329.3","","     329.3","6","        81","6","        69","6","         3","6","","","","","         5","6","       146","6","        46","6","       119","6","        18","6","","","","","  -24.4","6,0210, ","","","","","  39.4"," ,6,1024, ","   37.8","6,0730, ","-1.1","6,1025","-4.4","6,1028","-4.4","6,1028","-7.8","6,1110","-9.4","6,1111","-3.3","6,0427","-3.3","6,0427","-5.6","6,0329","-6.7","6,0324","-8.9","6,0316","    3745.3","3","    3745.3","6","    658.8"," ,6","","","      8.50","6","     13.19","6","      3.80","6"
"USC00203585","1934","43.8322","-82.6427","181.4","HARBOR BEACH 1 SSE, MI US","","","","","        67","6","        63","6","         1","6","","","","","","","","","        75","6","       113","6","         7","6","","","","","","","","","","","  29.5"," ,6,0927, ","   38.9","6,0724, ","","","","","","","","","","","","","","","","","","","","","","","","","    496.0"," ,6","","","","","     11.82","6","",""
"USC00203585","1935","43.8322","-82.6427","181.4","HARBOR BEACH 1 SSE, MI US","    215.7","","     215.7","6","        92","6","        74","6","         1","6","","","","","         4","6","       153","6","        75","6","        86","6","         2","6","","","","","  -24.4","6,0227, ","","","",""," 101.6"," ,6,0617, ","   32.2","6,0812,+","0.0","6,0930","-6.7","6,1122","-6.7","6,1122","-6.7","6,1122","-10.6","6,1130","-0.6","6,0523","-2.2","6,0418","-6.1","6,0416","-6.7","6,0318","-8.9","6,0309","","","","","    655.1"," ,6","","","      6.69","6","     10.68","6","      2.71","6"
"USC00203585","1936","43.8322","-82.6427","181.4","HARBOR BEACH 1 SSE, MI US","","","","","        80","6","        68","6","         0","6","","","","","","","","","","","","","","","","","","","","","","","","","  18.5"," ,6,0828, ","","","","","","","","","","","","","","","","","","","","","","","    4416.6","6","    4416.6","6","    441.3"," ,6","","","","","","","",""
"USC00203585","1937","43.8322","-82.6427","181.4","HARBOR BEACH 1 SSE, MI US","    258.2","","     258.2","6","        98","6","        66","6","         4","6","","","","","         2","6","       171","6","        66","6","       103","6","         7","6","","","","","  -18.9","6,1214, ","","","","","  39.6"," ,6,0617, ","   34.4","6,0710, ","-0.6","6,1008","-2.8","6,1009","-5.6","6,1013","-7.2","6,1121","-10.0","6,1122","-0.6","6,0510","-2.8","6,0420","-4.4","6,0416","-8.3","6,0327","-15.6","6,0326","","","","","    651.8"," ,6","","","      6.88","6","     11.95","6","      1.80","6"
"USC00203585","1938","43.8322","-82.6427","181.4","HARBOR BEACH 1 SSE, MI US","    254.2","","     254.2","6","        91","6","        66","6","         2","6","","","","","         6","6","       142","6","        63","6","       120","6","         7","6","","","","","  -20.0","6,0201,+","","","","","  37.6"," ,6,0523, ","   35.0","6,0814, ","-1.1","6,1002","-2.2","6,1007","-4.4","6,1115","-7.8","6,1116","-11.1","6,1124","-1.1","6,0512","-4.4","6,0426","-4.4","6,0426","-7.2","6,0406","-10.6","6,0310","    4290.2","2","    4290.2","6","    627.1"," ,6","","","      8.15","6","     13.45","6","      2.86","6"
"USC00203585","1939","43.8322","-82.6427","181.4","HARBOR BEACH 1 SSE, MI US","","","","","       106","6","        69","6","         3","6","","","","","         4","6","       159","6","        60","6","       119","6","         6","6","","","","","  -19.4","6,0126, ","","","","","  38.4"," ,6,0704, ","   35.0","6,0915, ","0.0","6,1013","-2.8","6,1015","-5.6","6,1109","-6.7","6,1126","-8.9","6,1215","-1.1","6,0518","-2.2","6,0512","-6.1","6,0413","-6.7","6,0412","-8.9","6,0321","","","","","    653.8"," ,6","","","      7.75","6","     12.65","6","      2.85","6"
"USC00203585","1940","43.8322","-82.6427","181.4","HARBOR BEACH 1 SSE, MI US","","","","","       113","6","        70","6","         3","6","","","","","         7","6","       162","6","        90","6","        96","6","         7","6","","","","","  -20.0","6,0226,+","","","","","  53.3"," ,6,0914, ","   35.0","6,0725, ","-1.1","6,1016","-3.3","6,1021","-4.4","6,1112","-7.8","6,1113","-9.4","6,1114","0.0","6,0511","-3.3","6,0428","-4.4","6,0414","-8.9","6,0328","-8.9","6,0328","    4406.8","8","    4406.8","6","    706.6"," ,6","","","      6.33","6","     11.07","6","      1.59","6"
"USC00203585","1941","43.8322","-82.6427","181.4","HARBOR BEACH 1 SSE, MI US","","","","","","","","","","","","","","","","","","","        69","6","       116","6","        12","6","","","","","","","","","","","","","   35.6","6,0728,+","","","","","","","","","","","","","","","","","","","","","","","","","","","","","","","     13.09","6","",""
"USC00203585","1942","43.8322","-82.6427","181.4","HARBOR BEACH 1 SSE, MI US","    192.2","","     192.2","6","","","","","","","","","","","        10","6","       159","6","        69","6","       114","6","         3","6","","","","","  -22.2","6,0107, ","","","","","","","   35.0","6,0718, ","0.0","6,0923","-2.8","6,0929","-4.4","6,1112","-7.2","6,1114","-8.9","6,1130","-1.1","6,0510","-2.8","6,0413","-6.7","6,0310","-6.7","6,0310","-8.9","6,0304","    3911.7","7","    3911.7","6","","","","","      7.26","6","     12.07","6","      2.45","6"
"USC00203585","1943","43.8322","-82.6427","181.4","HARBOR BEACH 1 SSE, MI US","    217.4","","     217.4","6","","","","","","","","","","","        13","6","       164","6","        71","6","       105","6","         2","6","","","","","  -23.3","6,0215, ","","","","","","","   32.8","6,0627, ","0.0","6,1005","-2.8","6,1111","-5.0","6,1116","-7.2","6,1117","-9.4","6,1210","0.0","6,0514","-5.6","6,0415","-5.6","6,0415","-10.0","6,0313","-10.0","6,0313","    4459.6","6","    4459.6","6","","","","","      6.44","6","     11.36","6","      1.52","6"
"USC00203585","1944","43.8322","-82.6427","181.4","HARBOR BEACH 1 SSE, MI US","    257.4","","     257.4","6","       111","6","        65","6","         3","6","       86","","        17","6","         5","6","       160","6","        71","6","       121","6","        15","6","","","","","  -22.8","6,0219,+","   203"," ,6,0222, ","   109"," ,6,1211, ","  45.7"," ,6,0618, ","   36.7","6,0814, ","0.0","6,1015","-3.9","6,1106","-5.6","6,1130","-10.0","6,1202","-10.0","6,1202","-0.6","6,0429","-2.8","6,0419","-5.6","6,0405","-6.7","6,0404","-8.9","6,0320","    4299.7","7","    4299.7","6","    599.3"," ,6","     1051"," ,6","      7.57","6","     12.50","6","      2.65","6"
"USC00203585","1945","43.8322","-82.6427","181.4","HARBOR BEACH 1 SSE, MI US","    140.1","","     140.1","6","       161","6","        93","6","         9","6","       72","","        10","6","         9","6","       151","6","        64","6","        92","6","         0","6","","","","","  -18.9","6,0110,+","   152"," ,6,0208, ","    91"," ,6,1231, ","  45.2"," ,6,0831, ","   31.7","6,0724, ","-1.7","6,1010","-2.8","6,1031","-5.6","6,1110","-7.2","6,1122","-16.7","6,1211","-1.7","6,0511","-3.3","6,0502","-6.1","6,0311","-6.7","6,0308","-8.9","6,0228","    4175.0","0","    4175.0","6","   1099.6"," ,6","      660"," ,6","      6.89","6","     11.81","6","      1.97","6"
"USC00203585","1948","43.8322","-82.6427","181.4","HARBOR BEACH 1 SSE, MI US","    255.0","","     255.0","0","","","","","","","","","","","        21","0","       139","0","        65","0","       115","0","        11","0","        37"," ","        16"," ","  -25.6","0,0118, ","","","","","","","   37.2","0,0825, ","0.0","0,1019","-2.8","0,1114","-5.0","0,1202","-6.7","0,1217","-11.1","0,1224","0.0","6,0418","-4.4","6,0410","-4.4","6,0410","-6.7","6,0328","-11.7","6,0313","","","","","","","","","      7.86","0","     13.01","0","      2.70","0"
"USC00203585","1949","43.8322","-82.6427","181.4","HARBOR BEACH 1 SSE, MI US","    349.7","","     349.7","0","       111","0","        86","0","         3","0","       63","","        27","0","         2","0","       137","0","        47","0","       121","0","        17","0","        28"," ","         7"," ","  -17.8","0,0131,+","   279"," ,0,1127, ","   127"," ,0,1207,+","  34.5"," ,0,1222,+","   36.1","0,0809, ","-2.8","0,1025","-2.8","0,1025","-6.1","0,1101","-11.7","0,1122","-11.7","0,1122","-2.2","0,0425","-2.2","0,0425","-4.4","0,0417","-14.4","0,0320","-14.4","0,0320","    3637.3","3","    3637.3","0","    734.7"," ,0","     1598"," ,0","      8.84","0","     13.81","0","      3.88","0"
"USC00203585","1950","43.8322","-82.6427","181.4","HARBOR BEACH 1 SSE, MI US","    155.9","","     155.9","0","       106","0","        84","0","         4","0","       71","","        22","0","         5","0","       156","0","        65","0","        92","0","         0","0","        69"," ","        17"," ","  -20.6","0,0225, ","   406"," ,0,0224,+","   152"," ,0,1127, ","  42.4"," ,0,0214, ","   31.7","0,0716,+","0.0","0,1026","-3.9","0,1111","-5.6","0,1112","-15.6","0,1124","-15.6","0,1124","-1.1","0,0508","-2.8","0,0422","-4.4","0,0415","-7.2","0,0414","-12.8","0,0319","    4020.6","6","    4020.6","0","    891.7"," ,0","     1561"," ,0","      7.10","0","     11.82","0","      2.38","0"
"USC00203585","1951","43.8322","-82.6427","181.4","HARBOR BEACH 1 SSE, MI US","","","","","","","","","","","","","","","","","","","","","","","","","        77"," ","        14"," ","","","","","","","","","","","","","","","","","","","","","","","","","","","","","","","","","","","","","","","","","","","",""
"USC00203585","1952","43.8322","-82.6427","181.4","HARBOR BEACH 1 SSE, MI US","    291.5","","     291.5","0","       109","0","        75","0","         5","0","       55","","        22","0","         2","0","       142","0","        49","0","       106","0","         7","0","        53"," ","        13"," ","  -20.0","0,0130, ","   178"," ,0,0111,+","   102"," ,0,0108,+","  42.4"," ,0,0804, ","   35.6","0,0625, ","-2.8","0,1006","-2.8","0,1006","-4.4","0,1018","-8.3","0,1021","-9.4","0,1129","-1.1","0,0426","-2.8","0,0412","-4.4","0,0411","-7.2","0,0327","-9.4","0,0325","    4009.8","8","    4009.8","0","    760.9"," ,0","     1130"," ,0","      8.46","0","     13.21","0","      3.71","0"
"USC00203585","1953","43.8322","-82.6427","181.4","HARBOR BEACH 1 SSE, MI US","    279.0","","     279.0","0","       112","0","        84","0","         5","0","       36","","        21","0","         0","0","       125","0","        33","0","       116","0","        10","0","        61"," ","        18"," ","  -14.4","0,0107, ","   127"," ,0,1218,+","   102"," ,0,1222,+","  55.1"," ,0,0808, ","   36.7","0,0901, ","0.0","0,1008","-2.2","0,1126","-10.0","0,1216","-10.0","0,1216","-10.0","0,1216","-1.7","0,0429","-2.8","0,0421","-5.0","0,0418","-8.3","0,0309","-12.2","0,0308","    3643.6","6","    3643.6","0","    933.4"," ,0","     1072"," ,0","      9.13","0","     13.80","0","      4.47","0"
"USC00203585","1954","43.8322","-82.6427","181.4","HARBOR BEACH 1 SSE, MI US","    206.0","","     206.0","0","       137","0","        94","0","        10","0","       95","","        43","0","         2","0","       137","0","        48","0","       104","0","         4","0","        69"," ","        16"," ","  -20.0","0,0118, ","   432"," ,0,0303, ","   318"," ,0,0127, ","  39.4"," ,0,0731, ","   35.6","0,0823, ","0.0","0,1028","-3.3","0,1101","-5.0","0,1202","-10.0","0,1203","-10.0","0,1203","0.0","0,0510","-2.2","0,0505","-4.4","0,0409","-8.9","0,0404","-8.9","0,0404","    3640.1","1","    3640.1","0","   1011.7"," ,0","     2534"," ,0","      8.17","0","     12.72","0","      3.63","0"
"USC00203585","1955","43.8322","-82.6427","181.4","HARBOR BEACH 1 SSE, MI US","    399.9","","     399.9","0","       100","0","        63","0","         4","0","       81","","        29","0","         4","0","       145","0","        70","0","       126","0","        17","0","        40"," ","        15"," ","  -18.9","0,0128, ","   305"," ,0,0217,+","   178"," ,0,1222, ","  68.8"," ,0,0715, ","   36.7","0,0821, ","-0.6","0,1025","-2.8","0,1105","-6.1","0,1117","-13.3","0,1128","-13.3","0,1128","-2.2","0,0408","-2.2","0,0408","-4.4","0,0329","-7.8","0,0328","-11.1","0,0327","    3812.0","0","    3812.0","0","    763.4"," ,0","     1660"," ,0","      8.67","0","     13.26","0","      4.08","0"
"USC00203585","1956","43.8322","-82.6427","181.4","HARBOR BEACH 1 SSE, MI US","    186.3","","     186.3","0","       137","0","        96","0","         8","0","       86","","        34","0","         0","0","       160","0","        71","0","        86","0","         3","0","        69"," ","        17"," ","  -16.7","0,0224,+","   203"," ,0,0223,+","   127"," ,0,1213,+","  42.9"," ,0,0805, ","   33.3","0,0613,+","-0.6","0,1010","-2.2","0,1110","-5.6","0,1118","-11.1","0,1123","-11.1","0,1123","0.0","0,0524","-3.9","0,0424","-5.0","0,0423","-10.0","0,0325","-10.0","0,0325","    4206.5","5","    4206.5","0","   1017.9"," ,0","     1671"," ,0","      7.44","0","     11.79","0","      3.09","0"
"USC00203585","1957","43.8322","-82.6427","181.4","HARBOR BEACH 1 SSE, MI US","    193.5","","     193.5","0","       121","0","        88","0","         5","0","       61","","        27","0","         7","0","       149","0","        60","0","       109","0","         4","0","        40"," ","         8"," ","  -25.0","0,0115, ","   203"," ,0,1212, ","   127"," ,0,1109,+","  57.4"," ,0,0424, ","   32.8","0,0802,+","0.0","0,1026","-2.8","0,1109","-7.8","0,1110","-7.8","0,1110","-8.9","0,1111","-2.2","0,0517","-2.2","0,0517","-5.0","0,0415","-7.8","0,0321","-9.4","0,0305","    4036.3","3","    4036.3","0","    907.2"," ,0","     1699"," ,0","      7.68","0","     12.20","0","      3.15","0"
"USC00203585","1958","43.8322","-82.6427","181.4","HARBOR BEACH 1 SSE, MI US","    176.8","","     176.8","0","        94","0","        67","0","         4","0","       97","","        35","0","        10","0","       148","0","        63","0","       101","0","         3","0","        31"," ","        18"," ","  -22.8","0,0213, ","   254"," ,0,0220,+","   152"," ,0,0216, ","  36.1"," ,0,1114, ","   33.3","0,0812,+","-2.2","0,1006","-2.2","0,1006","-4.4","0,1122","-7.2","0,1126","-12.2","0,1129","0.0","0,0526","-5.0","0,0410","-5.0","0,0410","-6.7","0,0409","-8.9","0,0222","    4048.5","5","    4048.5","0","    638.0"," ,0","     2077"," ,0","      7.25","0","     12.05","0","      2.45","0"
"USC00203585","1959","43.8322","-82.6427","181.4","HARBOR BEACH 1 SSE, MI US","    358.2","","     358.2","0","       138","0","       107","0","        10","0","      108","","        42","0","        20","0","       158","0","        68","0","       120","0","        10","0","        27"," ","        18"," ","  -25.0","0,0220, ","   381"," ,0,0224, ","   152"," ,0,1230,+","  66.5"," ,0,0815, ","   33.9","0,0814, ","0.0","0,1018","-2.2","0,1019","-5.0","0,1112","-11.7","0,1117","-11.7","0,1117","0.0","0,0516","-3.3","0,0413","-7.8","0,0329","-7.8","0,0329","-8.9","0,0323","    4284.2","2","    4284.2","0","   1128.3"," ,0","     2437"," ,0","      7.72","0","     12.39","0","      3.04","0"
"USC00203585","1960","43.8322","-82.6427","181.4","HARBOR BEACH 1 SSE, MI US","    142.8","","     142.8","0","       115","0","        83","0","         3","0","      118","","        38","0","         5","0","       146","0","        81","0","        98","0","         2","0","        38"," ","        11"," ","  -25.6","0,1224, ","   406"," ,0,1221,+","   368"," ,0,1221, ","  34.5"," ,0,1115, ","   35.0","0,0908, ","-1.7","0,1021","-3.3","0,1107","-5.0","0,1130","-10.0","0,1208","-10.0","0,1208","-2.2","0,0428","-2.2","0,0428","-5.0","0,0406","-7.2","0,0327","-13.3","0,0326","    4171.5","5","    4171.5","0","    738.2"," ,0","     2612"," ,0","      7.17","0","     11.87","0","      2.47","0"
"USC00203585","1961","43.8322","-82.6427","181.4","HARBOR BEACH 1 SSE, MI US","","","","","       124","0","        92","0","         5","0","       94","","        32","0","","","","","","","","","","","        32"," ","        21"," ","","","   229"," ,0,0205,+","   127"," ,0,0314, ","  63.8"," ,0,0926, ","","","","","","","","","","","","","","","","","","","","","","","    4132.3","3","    4132.3","0","    928.7"," ,0","     1797"," ,0","","","","","",""
"USC00203585","1962","43.8322","-82.6427","181.4","HARBOR BEACH 1 SSE, MI US","    166.9","","     166.9","0","       126","0","        89","0","         5","0","      104","","        34","0","        12","0","       151","0","        67","0","       110","0","         1","0","        10"," ","        20"," ","  -26.7","0,0202, ","   508"," ,0,0220,+","   185"," ,0,0219, ","  44.2"," ,0,0605, ","   32.2","0,0707, ","-1.1","0,1024","-3.9","0,1106","-6.7","0,1209","-6.7","0,1209","-12.2","0,1211","-0.6","0,0421","-4.4","0,0417","-4.4","0,0417","-6.7","0,0310","-11.7","0,0308","","","","","    915.3"," ,0","     2409"," ,0","      7.14","0","     11.81","0","      2.46","0"
"USC00203585","1963","43.8322","-82.6427","181.4","HARBOR BEACH 1 SSE, MI US","    154.0","","     154.0","0","       117","0","        71","0","        10","0","      106","","        31","0","        23","0","       144","0","        83","0","       105","0","         1","0","        11"," ","        11"," ","  -24.4","0,0124, ","   305"," ,0,1221,+","   127"," ,0,1218, ","  50.0"," ,0,0713, ","   33.9","0,0701, ","-2.8","0,1103","-2.8","0,1103","-5.0","0,1125","-7.2","0,1201","-8.9","0,1213","-1.1","0,0523","-2.2","0,0512","-5.6","0,0405","-7.8","0,0322","-9.4","0,0315","    4349.3","3","    4349.3","0","    732.3"," ,0","     1886"," ,0","      6.92","0","     11.82","0","      2.01","0"
"USC00203585","1964","43.8322","-82.6427","181.4","HARBOR BEACH 1 SSE, MI US","    258.6","","     258.6","0","       112","0","        73","0","         1","0","       76","","        21","0","         2","0","       150","0","        54","0","       115","0","        10","0","","","        18"," ","  -20.6","0,0101, ","   229"," ,0,1207, ","   203"," ,0,1130, ","  29.2"," ,0,0803, ","   36.1","0,0728,+","0.0","0,1006","-4.4","0,1007","-4.4","0,1007","-6.7","0,1120","-11.1","0,1122","0.0","0,0521","-2.2","0,0411","-4.4","0,0409","-6.7","0,0405","-9.4","0,0318","    3865.9","9","    3865.9","0","    660.1"," ,0","     1785"," ,0","      8.23","0","     13.16","0","      3.30","0"
"USC00203585","1965","43.8322","-82.6427","181.4","HARBOR BEACH 1 SSE, MI US","    171.8","","     171.8","0","       138","0","        94","0","         3","0","       84","","        33","0","        13","0","       152","0","        56","0","        97","0","         5","0","","","        13"," ","  -24.4","0,0204, ","   381"," ,0,0226,+","   292"," ,0,0225, ","  29.0"," ,0,0917, ","   35.0","0,0814,+","0.0","0,1013","-2.2","0,1028","-5.0","0,1029","-7.8","0,1129","-9.4","0,1130","0.0","0,0429","-2.2","0,0424","-7.2","0,0418","-7.2","0,0418","-10.0","0,0404","    4314.6","6","    4314.6","0","    894.2"," ,0","     2667"," ,0","      6.89","0","     11.67","0","      2.12","0"
"USC00203585","1966","43.8322","-82.6427","181.4","HARBOR BEACH 1 SSE, MI US","    265.8","","     265.8","0","       135","0","        91","0","         4","0","       81","","        47","0","         6","0","       162","0","        66","0","       101","0","        11","0","","","        24"," ","  -22.8","0,0128, ","   254"," ,0,0130,+","   152"," ,0,0125,+","  28.4"," ,0,1110, ","   35.6","0,0725, ","-0.6","0,1018","-2.2","0,1026","-5.6","0,1104","-7.2","0,1105","-12.2","0,1201","-1.1","0,0513","-2.8","0,0510","-4.4","0,0329","-7.2","0,0327","-10.0","0,0325","    4161.2","2","    4161.2","0","    867.7"," ,0","     3201"," ,0","      7.53","0","     12.24","0","      2.81","0"
"USC00203585","1967","43.8322","-82.6427","181.4","HARBOR BEACH 1 SSE, MI US","    140.9","","     140.9","0","       156","0","       110","0","         8","0","       95","","        36","0","        10","0","       164","0","        66","0","        98","0","         0","0","","","        33"," ","  -25.6","0,0130, ","   508"," ,0,0208,+","   457"," ,0,0127, ","  57.7"," ,0,0802, ","   31.1","0,0615, ","-2.2","0,1020","-2.2","0,1020","-4.4","0,1107","-11.1","0,1115","-11.1","0,1115","-1.1","0,0523","-2.2","0,0427","-6.7","0,0404","-6.7","0,0404","-9.4","0,0324","    4196.4","4","    4196.4","0","   1121.5"," ,0","     2680"," ,0","      6.91","0","     11.51","0","      2.30","0"
"USC00203585","1968","43.8322","-82.6427","181.4","HARBOR BEACH 1 SSE, MI US","    219.0","","     219.0","0","       131","0","        93","0","         3","0","       87","","        41","0","        12","0","       143","0","        69","0","       105","0","         7","0","","","        19"," ","  -21.1","0,0210, ","   330"," ,0,1231,+","   178"," ,0,1229,+","  40.1"," ,0,0625, ","   35.0","0,0824, ","-0.6","0,1024","-2.2","0,1031","-4.4","0,1114","-6.7","0,1128","-13.3","0,1210","0.0","0,0511","-2.2","0,0506","-4.4","0,0406","-6.7","0,0325","-9.4","0,0314","    4255.5","5","    4255.5","0","    837.1"," ,0","     2400"," ,0","      7.50","0","     12.15","0","      2.85","0"
"USC00203585","1969","43.8322","-82.6427","181.4","HARBOR BEACH 1 SSE, MI US","    252.8","","     252.8","0","       136","0","        89","0","         2","0","      117","","        33","0","         3","0","       157","0","        71","0","       104","0","         6","0","","","        24"," ","  -21.7","0,0101, ","   711"," ,0,0114,+","   178"," ,0,1224,+","  34.5"," ,0,0508, ","   34.4","0,0830, ","-1.7","0,1022","-3.3","0,1023","-7.2","0,1115","-7.2","0,1115","-12.2","0,1121","-1.1","0,0526","-2.8","0,0430","-4.4","0,0403","-9.4","0,0331","-9.4","0,0331","    4166.0","0","    4166.0","0","    842.5"," ,0","     2476"," ,0","      7.46","0","     12.02","0","      2.90","0"
"USC00203585","1970","43.8322","-82.6427","181.4","HARBOR BEACH 1 SSE, MI US","    246.1","","     246.1","0","       148","0","        90","0","         5","0","      109","","        37","0","        11","0","       148","0","        69","0","       110","0","         2","0","","","        33"," ","  -23.3","0,0120, ","   432"," ,0,0124, ","   203"," ,0,0402, ","  36.3"," ,0,0710, ","   32.2","0,0815,+","0.0","0,1011","-2.8","0,1108","-5.0","0,1116","-7.8","0,1123","-10.0","0,1208","-2.2","0,0507","-2.2","0,0507","-5.6","0,0405","-6.7","0,0403","-8.9","0,0329","    4290.9","9","    4290.9","0","    805.4"," ,0","     2304"," ,0","      7.53","0","     12.07","0","      2.99","0"
"USC00203585","1971","43.8322","-82.6427","181.4","HARBOR BEACH 1 SSE, MI US","    240.9","","     240.9","0","       135","0","        89","0","         3","0","      107","","        38","0","         7","0","       146","0","        62","0","       104","0","         6","0","","","        24"," ","  -23.9","0,0202,+","   457"," ,0,0311, ","   203"," ,0,0307, ","  32.5"," ,0,1215, ","   36.1","0,0628, ","0.0","0,1104","-5.6","0,1107","-5.6","0,1107","-6.7","0,1108","-14.4","0,1123","-0.6","0,0513","-3.3","0,0424","-5.0","0,0407","-6.7","0,0404","-9.4","0,0326","    4152.4","4","    4152.4","0","    837.6"," ,0","     2689"," ,0","      7.77","0","     12.27","0","      3.27","0"
"USC00203585","1972","43.8322","-82.6427","181.4","HARBOR BEACH 1 SSE, MI US","    142.2","","     142.2","0","       146","0","       103","0","         5","0","      133","","        50","0","        10","0","       163","0","        62","0","        90","0","         2","0","","","        22"," ","  -23.3","0,0116,+","   406"," ,0,1218,+","   203"," ,0,1216, ","  68.3"," ,0,1230, ","   32.8","0,0720, ","-2.2","0,1010","-2.2","0,1010","-5.0","0,1018","-7.2","0,1116","-11.1","0,1202","0.0","0,0428","-2.2","0,0426","-4.4","0,0425","-7.8","0,0408","-10.0","0,0407","    4212.7","7","    4212.7","0","    948.5"," ,0","     3186"," ,0","      6.28","0","     10.65","0","      1.92","0"
"USC00203585","1973","43.8322","-82.6427","181.4","HARBOR BEACH 1 SSE, MI US","    298.3","","     298.3","0","       138","0","        87","0","         3","0","       68","","        26","0","         3","0","       124","0","        50","0","       115","0","        10","0","","","        30"," ","  -20.0","0,0217, ","   254"," ,0,1221,+","   165"," ,0,1220, ","  34.0"," ,0,0528, ","   33.9","0,0903,+","-1.1","0,1019","-2.2","0,1105","-4.4","0,1107","-7.8","0,1208","-11.1","0,1218","-1.1","0,0518","-2.8","0,0414","-6.1","0,0411","-6.7","0,0322","-14.4","0,0228","    3991.8","8","    3991.8","0","    795.0"," ,0","     1641"," ,0","      8.82","0","     12.95","0","      4.69","0"
"USC00203585","1974","43.8322","-82.6427","181.4","HARBOR BEACH 1 SSE, MI US","    179.1","","     179.1","0","       156","0","        83","0","         5","0","       86","","        27","0","         3","0","       148","0","        52","0","        98","0","         3","0","","","        33"," ","  -21.7","0,0113, ","   203"," ,0,0112, ","   107"," ,0,0111, ","  50.8"," ,0,0703, ","   32.8","0,0709, ","-0.6","0,1002","-3.3","0,1019","-4.4","0,1021","-8.3","0,1209","-10.0","0,1210","-0.6","0,0508","-3.3","0,0420","-7.8","0,0327","-7.8","0,0327","-18.9","0,0325","    3918.0","0","    3918.0","0","    883.4"," ,0","     1733"," ,0","      7.63","0","     12.04","0","      3.23","0"
"USC00203585","1975","43.8322","-82.6427","181.4","HARBOR BEACH 1 SSE, MI US","    242.8","","     242.8","0","       137","0","        88","0","         4","0","       84","","        29","0","         1","0","       148","0","        58","0","       111","0","         1","0","","","        21"," ","  -17.8","0,0210, ","   406"," ,0,0403, ","   406"," ,0,0403, ","  40.6"," ,0,0403, ","   32.8","0,0730, ","0.0","0,1026","-2.2","0,1030","-6.1","0,1201","-6.7","0,1202","-9.4","0,1203","-1.1","0,0422","-2.2","0,0414","-5.0","0,0412","-6.7","0,0406","-9.4","0,0326","    3973.9","9","    3973.9","0","    828.1"," ,0","     1945"," ,0","      8.46","0","     12.78","0","      4.15","0"
"USC00203585","1976","43.8322","-82.6427","181.4","HARBOR BEACH 1 SSE, MI US","    210.0","","     210.0","0","       139","0","        84","0","         7","0","      109","","        39","0","         8","0","       162","0","        70","0","       105","0","         2","0","","","        20"," ","  -25.0","0,0202, ","   483"," ,0,0204,+","   178"," ,0,0302, ","  45.0"," ,0,1006, ","   32.2","0,0827,+","0.0","0,1017","-6.1","0,1028","-6.1","0,1028","-6.7","0,1109","-12.2","0,1129","0.0","0,0508","-3.9","0,0412","-4.4","0,0411","-9.4","0,0322","-9.4","0,0322","    3765.1","1","    3765.1","0","    952.7"," ,0","     2823"," ,0","      7.15","0","     11.87","0","      2.43","0"
"USC00203585","1977","43.8322","-82.6427","181.4","HARBOR BEACH 1 SSE, MI US","    212.0","","     212.0","0","       170","0","        89","0","         7","0","       92","","        27","0","        12","0","       132","0","        75","0","       111","0","         2","0","","","        38"," ","  -23.9","0,0116, ","   457"," ,0,0129,+","   203"," ,0,1126, ","  91.4"," ,0,0816, ","   33.3","0,0720, ","-0.6","0,1017","-2.2","0,1112","-8.3","0,1126","-8.3","0,1126","-11.1","0,1127","-2.2","0,0429","-2.2","0,0429","-5.0","0,0409","-7.2","0,0408","-8.9","0,0319","    4385.7","7","    4385.7","0","   1086.0"," ,0","     2341"," ,0","      7.59","0","     12.08","0","      3.09","0"
"USC00203585","1978","43.8322","-82.6427","181.4","HARBOR BEACH 1 SSE, MI US","    234.5","","     234.5","0","       138","0","        80","0","         4","0","      113","","        31","0","        11","0","       162","0","        84","0","       108","0","         2","0","","","        23"," ","  -20.0","0,0204, ","   305"," ,0,0226,+","   109"," ,0,0225,+","  74.7"," ,0,0914, ","   32.8","0,0719, ","-1.1","0,1015","-2.2","0,1017","-10.0","0,1129","-10.0","0,1129","-10.0","0,1129","-0.6","0,0504","-2.2","0,0423","-4.4","0,0409","-7.8","0,0325","-9.4","0,0320","    4413.3","3","    4413.3","0","    719.1"," ,0","     1919"," ,0","      6.91","0","     11.61","0","      2.21","0"
"USC00203585","1979","43.8322","-82.6427","181.4","HARBOR BEACH 1 SSE, MI US","    189.4","","     189.4","0","       136","0","        81","0","         4","0","       81","","        27","0","        14","0","       144","0","        67","0","       106","0","         0","0","","","        10"," ","  -23.3","0,0211, ","   406"," ,0,0119, ","   163"," ,0,0113, ","  43.7"," ,0,0823, ","   31.1","0,0509, ","-1.1","0,1011","-3.9","0,1108","-4.4","0,1111","-6.7","0,1129","-8.9","0,1201","-1.1","0,0505","-2.2","0,0411","-6.1","0,0407","-7.2","0,0406","-10.6","0,0327","    4290.2","2","    4290.2","0","    766.7"," ,0","     1775"," ,0","      7.13","0","     11.50","0","      2.76","0"
"USC00203585","1980","43.8322","-82.6427","181.4","HARBOR BEACH 1 SSE, MI US","","","","","","","","","","","","","","","","","","","","","","","","","","","        34"," ","","","","","","","","","","","","","","","","","","","","","","","","","","","","","","","","","","","","","","","","","","","",""
"USC00203585","1981","43.8322","-82.6427","181.4","HARBOR BEACH 1 SSE, MI US","    167.2","","     167.2","0","       156","0","        78","0","         9","0","","","","","        13","0","       148","0","        49","0","       103","0","         3","0","","","        16"," ","  -24.4","0,0104, ","","","",""," 105.7"," ,0,0904, ","   33.9","0,0709,+","0.0","0,1020","-2.2","0,1023","-5.0","0,1024","-7.2","0,1215","-14.4","0,1218","0.0","0,0519","-6.7","0,0421","-6.7","0,0421","-6.7","0,0421","-10.6","0,0318","    4265.0","0","    4265.0","0","   1024.4"," ,0","","","      7.42","0","     12.60","0","      2.24","0"
"USC00203585","1982","43.8322","-82.6427","181.4","HARBOR BEACH 1 SSE, MI US","    103.5","","     103.5","0","       161","0","        81","0","         6","0","","","        22","0","        13","0","       156","0","        57","0","        87","0","         1","0","        25"," ","        13"," ","  -28.3","0,0110, ","","","   246"," ,0,0131, ","  46.2"," ,0,1101, ","   32.2","0,0716, ","-1.1","0,1016","-3.3","0,1021","-4.4","0,1104","-10.6","0,1126","-10.6","0,1126","-1.1","0,0429","-2.8","0,0428","-4.4","0,0421","-7.8","0,0407","-8.9","0,0403","    4349.7","7","    4349.7","0","    855.8"," ,0","     1607"," ,0","      6.76","0","     12.27","0","      1.25","0"
"USC00203585","1983","43.8322","-82.6427","181.4","HARBOR BEACH 1 SSE, MI US","    288.0","","     288.0","0","       150","0","        88","0","         3","0","","","        27","0","         7","0","       145","0","        41","0","       106","0","        13","0","         4"," ","        10"," ","  -20.0","0,1230,+","","","   229"," ,0,1219, ","  58.9"," ,0,0821, ","   36.1","0,0626, ","-1.1","0,1025","-4.4","0,1029","-4.4","0,1029","-8.3","0,1112","-10.0","0,1202","-0.6","0,0526","-2.8","0,0516","-5.0","0,0418","-9.4","0,0329","-9.4","0,0329","    3931.0","0","    3931.0","0","    982.8"," ,0","     2138"," ,0","      7.76","0","     12.85","0","      2.66","0"
"USC00203585","1984","43.8322","-82.6427","181.4","HARBOR BEACH 1 SSE, MI US","    175.5","","     175.5","0","","","","","","","","","","","        15","0","       152","0","        51","0","       110","0","         4","0","         6"," ","        19"," ","  -26.1","0,0120, ","","","","","","","   32.8","0,0809,+","0.0","0,0929","-3.3","0,1101","-6.7","0,1102","-6.7","0,1102","-10.6","0,1119","0.0","0,0513","-2.2","0,0411","-5.6","0,0331","-9.4","0,0317","-9.4","0,0317","    4268.6","6","    4268.6","0","","","","","      7.32","0","     12.71","0","      1.94","0"
"USC00203585","1985","43.8322","-82.6427","181.4","HARBOR BEACH 1 SSE, MI US","    119.3","","     119.3","0","       157","0","       105","0","         7","0","","","        40","0","        15","0","       145","0","        63","0","       111","0","         1","0","         2"," ","        29"," ","  -23.3","0,0202,+","","","   470"," ,0,0101, ","  47.0"," ,0,0101, ","   33.9","0,0725, ","0.0","0,1005","-2.2","0,1028","-4.4","0,1120","-8.9","0,1124","-8.9","0,1124","0.0","0,0429","-2.2","0,0411","-4.4","0,0409","-6.7","0,0318","-8.9","0,0317","    3970.3","3","    3970.3","0","   1144.2"," ,0","     3507"," ,0","      6.87","0","     12.30","0","      1.43","0"
"USC00203585","1986","43.8322","-82.6427","181.4","HARBOR BEACH 1 SSE, MI US","    137.4","","     137.4","0","       154","0","        90","0","         4","0","","","        27","0","        11","0","       155","0","        40","0","       110","0","         6","0","        14"," ","        10"," ","  -24.4","0,0307, ","","","   198"," ,0,0131, "," 153.4"," ,0,0910, ","   35.0","0,0718, ","0.0","0,1030","-2.2","0,1102","-6.7","0,1109","-6.7","0,1109","-11.7","0,1112","-1.7","0,0503","-6.7","0,0422","-6.7","0,0422","-6.7","0,0422","-12.8","0,0321","    4045.5","5","    4045.5","0","   1030.0"," ,0","     2173"," ,0","      7.15","0","     12.64","0","      1.66","0"
"USC00203585","1987","43.8322","-82.6427","181.4","HARBOR BEACH 1 SSE, MI US","","","","","       132","0","        88","0","         6","0","","","        21","0","","","","","        33","0","       123","0","        22","0","         7"," ","        17"," ","","","","","   178"," ,0,0129, ","  49.5"," ,0,0724, ","   36.7","0,0815,+","","","","","","","","","","","","","","","","","","","","","    3672.1","1","    3672.1","0","    871.4"," ,0","     1611"," ,0","","","     13.98","0","",""
"USC00203585","1988","43.8322","-82.6427","181.4","HARBOR BEACH 1 SSE, MI US","    351.7","","     351.7","0","       143","0","        81","0","         4","0","","","","","         6","0","       145","0","        57","0","       105","0","        22","0","         3"," ","         5"," ","  -21.1","0,0220, ","","","","","  41.9"," ,0,0904, ","   35.6","0,0802,+","0.0","0,1013","-3.9","0,1030","-4.4","0,1204","-10.6","0,1210","-10.6","0,1210","-0.6","0,0424","-2.2","0,0420","-6.1","0,0322","-12.8","0,0321","-12.8","0,0321","","","","","    737.3"," ,0","","","      7.70","0","     12.43","0","      2.96","0"
"USC00203585","1989","43.8322","-82.6427","181.4","HARBOR BEACH 1 SSE, MI US","    175.4","","     175.4","0","       137","0","        75","0","         2","0","","","","","         3","0","       151","0","        81","0","       102","0","         2","0","","","","","  -20.0","0,1220, ","","","","","  45.7"," ,0,0804, ","   32.2","0,0803,+","-1.7","0,1008","-7.8","0,1116","-7.8","0,1116","-7.8","0,1116","-8.9","0,1118","-2.2","0,0423","-2.2","0,0423","-5.6","0,0410","-8.3","0,0409","-11.1","0,0322","    4172.6","6","    4172.6","0","    734.1"," ,0","","","      6.55","0","     10.92","0","      2.18","0"
"USC00203585","1990","43.8322","-82.6427","181.4","HARBOR BEACH 1 SSE, MI US","    154.4","","     154.4","0","","","","","","","       77","","","","         1","0","       138","0","        38","0","        92","0","         2","0","","","","","  -18.3","0,0225, ","   381"," ,0,0224, ","","","","","   35.0","0,0704, ","0.0","0,1019","-2.8","0,1107","-6.7","0,1204","-6.7","0,1204","-11.7","0,1223","0.0","0,0421","-2.8","0,0418","-4.4","0,0417","-6.7","0,0412","-9.4","0,0306","    4107.6","6","    4107.6","0","","","","","      8.13","0","     12.62","0","      3.65","0"
"USC00203585","1991","43.8322","-82.6427","181.4","HARBOR BEACH 1 SSE, MI US","    275.7","","     275.7","0","","","","","","","","","","","         3","0","       133","0","        58","0","       116","0","         8","0","","","","","  -18.3","0,0124, ","","","","","","","   33.3","0,0719, ","0.0","0,0927","-2.2","0,1015","-5.0","0,1102","-7.8","0,1104","-12.2","0,1204","-1.1","0,0417","-3.3","0,0411","-4.4","0,0330","-7.2","0,0311","-9.4","0,0308","    3758.9","9","    3758.9","0","","","","","      8.35","0","     12.86","0","      3.83","0"
"USC00203585","1992","43.8322","-82.6427","181.4","HARBOR BEACH 1 SSE, MI US","     63.8","","      63.8","0","","","","","","","","","","","         4","0","       146","0","        45","0","        62","0","         0","0","","","","","  -21.1","0,0115, ","","","","","","","   31.7","0,0810,+","-0.6","0,1016","-2.8","0,1030","-5.0","0,1114","-6.7","0,1205","-9.4","0,1220","-1.1","0,0427","-2.8","0,0414","-6.7","0,0402","-6.7","0,0402","-11.1","0,0316","    4144.9","9","    4144.9","0","","","","","      6.63","0","     10.43","0","      2.83","0"
"USC00203585","1993","43.8322","-82.6427","181.4","HARBOR BEACH 1 SSE, MI US","","","","","","","","","","","","","","","","","","","","","","","","","","","","","","","","","","","","","","","","","","","","","","","","","","","","","","","","","","","    4328.2","2","    4328.2","0","","","","","","","","","",""
"USC00203585","1994","43.8322","-82.6427","181.4","HARBOR BEACH 1 SSE, MI US","    142.7","","     142.7","0","","","","","","","       84","","","","        24","0","       150","0","        66","0","        86","0","         0","0","","","","","  -27.2","0,0130,+","   483"," ,0,0214,+","","","","","   31.7","0,0615, ","0.0","0,1101","-2.2","0,1110","-6.1","0,1123","-10.6","0,1211","-10.6","0,1211","0.0","0,0428","-2.2","0,0420","-5.0","0,0326","-9.4","0,0319","-9.4","0,0319","","","","","","","","","      6.75","0","     11.44","0","      2.05","0"
"USC00203585","1995","43.8322","-82.6427","181.4","HARBOR BEACH 1 SSE, MI US","    260.0","","     260.0","0","","","","","","","","","","","         5","0","       153","0","        75","0","        98","0","         5","0","","","","","  -20.0","0,0211, ","","","","","","","   37.8","0,0714, ","0.0","0,1016","-2.2","0,1103","-4.4","0,1104","-7.8","0,1123","-10.6","0,1128","0.0","0,0430","-3.3","0,0415","-9.4","0,0405","-9.4","0,0405","-9.4","0,0405","    3989.1","1","    3989.1","0","","","","","      7.07","0","     11.34","0","      2.80","0"
"USC00203585","1996","43.8322","-82.6427","181.4","HARBOR BEACH 1 SSE, MI US","    135.3","","     135.3","0","","","","","","","","","","","         9","0","       157","0","        71","0","        85","0","         2","0","","","","","  -22.8","0,0204,+","","","","","","","   35.0","0,0807, ","-1.1","0,1030","-2.2","0,1031","-4.4","0,1111","-7.2","0,1112","-11.7","0,1218","0.0","0,0512","-2.2","0,0427","-6.7","0,0408","-6.7","0,0408","-8.9","0,0405","    4551.3","3","    4551.3","0","","","","","      6.36","0","     10.44","0","      2.29","0"
"USC00203585","1997","43.8322","-82.6427","181.4","HARBOR BEACH 1 SSE, MI US","    142.4","","     142.4","0","","","","","","","","","","","         3","0","       160","0","        62","0","        79","0","         2","0","","","","","  -21.7","0,0116, ","","","","","","","   35.0","0,0714, ","-2.8","0,1022","-2.8","0,1022","-6.7","0,1112","-6.7","0,1112","-8.9","0,1227","0.0","0,0513","-2.8","0,0420","-5.0","0,0419","-7.2","0,0409","-11.7","0,0316","    4294.4","4","    4294.4","0","","","","","      6.86","0","     11.01","0","      2.71","0"
"USC00203585","1998","43.8322","-82.6427","181.4","HARBOR BEACH 1 SSE, MI US","    259.5","","     259.5","0","       115","0","        67","0","         5","0","","","         9","0","         0","0","       111","0","        33","0","       113","0","         5","0","         3"," ","         7"," ","  -15.6","0,1222, ","","","   102"," ,0,0309, ","  36.1"," ,0,0719, ","   34.4","0,0625, ","0.0","0,1111","-4.4","0,1112","-4.4","0,1112","-10.0","0,1217","-10.0","0,1217","-2.8","0,0427","-2.8","0,0427","-4.4","0,0323","-6.7","0,0315","-10.6","0,0312","    3746.2","2","    3746.2","0","    767.4"," ,0","      497"," ,0","      9.35","0","     13.55","0","      5.15","0"
"USC00203585","1999","43.8322","-82.6427","181.4","HARBOR BEACH 1 SSE, MI US","    264.1","","     264.1","0","       121","0","        64","0","         5","0","","","","","         6","0","       140","0","        53","0","       114","0","         4","0","         9"," ","         7"," ","  -21.7","0,0111, ","","","","","  45.0"," ,0,0701, ","   33.3","0,0705,+","-1.1","0,1102","-2.2","0,1117","-8.9","0,1130","-8.9","0,1130","-8.9","0,1130","-1.1","0,0429","-5.6","0,0427","-5.6","0,0427","-7.2","0,0312","-15.6","0,0307","    3739.5","5","    3739.5","0","    764.5"," ,0","","","      8.36","0","     12.91","0","      3.82","0"
"USC00203585","2000","43.8322","-82.6427","181.4","HARBOR BEACH 1 SSE, MI US","    155.2","","     155.2","0","       150","0","        80","0","         9","0","","","","","         6","0","       135","0","        63","0","        98","0","         1","0","         9"," ","        20"," ","  -20.6","0,1222, ","","","","","  71.1"," ,0,0513, ","   32.8","0,0611, ","-0.6","0,1030","-2.2","0,1116","-4.4","0,1121","-8.3","0,1122","-8.9","0,1123","-0.6","0,0501","-3.3","0,0412","-5.0","0,0410","-7.8","0,0222","-8.9","0,0221","    3753.3","3","    3753.3","0","   1059.3"," ,0","","","      7.58","0","     11.97","0","      3.20","0"
"USC00203585","2001","43.8322","-82.6427","181.4","HARBOR BEACH 1 SSE, MI US","    231.3","","     231.3","0","       142","0","        68","0","         5","0","       82","","","","         0","0","       136","0","        51","0","        98","0","         6","0","        12"," ","         7"," ","  -16.1","0,0222,+","   330"," ,0,0106,+","","","  43.2"," ,0,0210, ","   37.2","0,0809, ","-1.1","0,1007","-2.2","0,1210","-4.4","0,1221","-8.9","0,1226","-8.9","0,1226","-1.7","0,0429","-2.2","0,0419","-5.6","0,0328","-8.9","0,0327","-8.9","0,0327","    4029.5","5","    4029.5","0","    773.5"," ,0","","","      8.48","0","     12.79","0","      4.18","0"
"USC00203585","2002","43.8322","-82.6427","181.4","HARBOR BEACH 1 SSE, MI US","    278.8","","     278.8","0","       137","0","        70","0","         1","0","       71","","","","         0","0","       166","0","        52","0","       105","0","         9","0","        12"," ","        16"," ","  -16.1","0,0205, ","   152"," ,0,0305, ","","","  27.2"," ,0,0409, ","   33.9","0,0702, ","-1.7","0,1014","-2.2","0,1021","-5.6","0,1106","-7.8","0,1126","-9.4","0,1130","-0.6","0,0521","-2.2","0,0423","-5.0","0,0328","-8.3","0,0326","-8.9","0,0323","    3787.9","9","    3787.9","0","    689.0"," ,0","","","      7.84","0","     12.25","0","      3.43","0"
"USC00203585","2003","43.8322","-82.6427","181.4","HARBOR BEACH 1 SSE, MI US","    124.9","","     124.9","0","       152","0","        65","0","         4","0","       86","","","","        15","0","       161","0","        78","0","        86","0","         2","0","        13"," ","         6"," ","  -22.2","0,0304,+","   178"," ,0,0311,+","","","  48.5"," ,0,0923, ","   32.8","0,0822,+","-1.1","0,1001","-2.8","0,1107","-5.6","0,1108","-7.2","0,1109","-10.0","0,1213","-1.7","0,0504","-2.2","0,0427","-5.0","0,0410","-6.7","0,0408","-13.3","0,0314","    4620.9","9","    4620.9","0","    807.2"," ,0","","","      6.11","0","     10.40","0","      1.82","0"
"USC00203585","2004","43.8322","-82.6427","181.4","HARBOR BEACH 1 SSE, MI US","    108.4","","     108.4","0","       156","0","        80","0","         4","0","       83","","        23","0","        17","0","       142","0","        70","0","        89","0","         0","0","        13"," ","        16"," ","  -22.2","0,0125, ","   406"," ,0,0128, ","   178"," ,0,0122, ","  33.5"," ,0,0510, ","   31.7","0,0609, ","-0.6","0,1005","-3.3","0,1109","-5.6","0,1112","-6.7","0,1204","-11.7","0,1215","-2.8","0,0504","-2.8","0,0504","-4.4","0,0406","-7.2","0,0323","-8.9","0,0314","    4295.9","9","    4295.9","0","    809.4"," ,0","     1623"," ,0","      6.60","0","     10.94","0","      2.26","0"
"USC00203585","2005","43.8322","-82.6427","181.4","HARBOR BEACH 1 SSE, MI US","    234.0","","     234.0","0","       135","0","        81","0","         4","0","      123","","        25","0","         5","0","       150","0","        87","0","       109","0","         1","0","         7"," ","         8"," ","  -20.6","0,0129,+","   356"," ,0,0303, ","   127"," ,0,0221, ","  78.2"," ,0,0926, ","   32.2","0,0625, ","-1.1","0,1029","-3.9","0,1117","-6.7","0,1118","-6.7","0,1118","-9.4","0,1123","-1.7","0,0504","-2.2","0,0429","-6.1","0,0328","-6.7","0,0326","-8.9","0,0316","    4317.7","7","    4317.7","0","    892.6"," ,0","     1562"," ,0","      7.26","0","     11.47","0","      3.06","0"
"USC00203585","2006","43.8322","-82.6427","181.4","HARBOR BEACH 1 SSE, MI US","    186.1","","     186.1","0","       147","0","        82","0","         5","0","       56","","        13","0","         0","0","       141","0","        43","0","        85","0","         5","0","        16"," ","        16"," ","  -17.2","0,0219,+","   178"," ,0,0216,+","   178"," ,0,0205, ","  36.3"," ,0,1130, ","   35.0","0,0802, ","0.0","0,1012","-2.2","0,1026","-5.0","0,1103","-7.2","0,1204","-10.0","0,1205","-0.6","0,0429","-2.2","0,0428","-4.4","0,0410","-8.9","0,0308","-8.9","0,0308","    3957.0","0","    3957.0","0","    901.3"," ,0","      841"," ,0","      7.88","0","     11.94","0","      3.82","0"
"USC00203585","2007","43.8322","-82.6427","181.4","HARBOR BEACH 1 SSE, MI US","    193.4","","     193.4","0","       127","0","        72","0","         6","0","       97","","        17","0","         9","0","       149","0","        81","0","       108","0","         2","0","         5"," ","        16"," ","  -21.7","0,0205,+","   279"," ,0,0130, ","   114"," ,0,1202, ","  47.8"," ,0,0911, ","   33.3","0,0803, ","-0.6","0,1028","-3.3","0,1119","-8.3","0,1123","-8.3","0,1123","-9.4","0,1130","0.0","0,0521","-2.8","0,0415","-4.4","0,0410","-8.3","0,0408","-9.4","0,0407","    4180.0","0","    4180.0","0","    756.0"," ,0","     1005"," ,0","      7.25","0","     11.64","0","      2.85","0"
"USC00203585","2008","43.8322","-82.6427","181.4","HARBOR BEACH 1 SSE, MI US","    134.2","","     134.2","0","       153","0","        99","0","         8","0","      108","","        24","0","         4","0","       151","0","        77","0","        93","0","         0","0","        14"," ","        25"," ","  -20.6","0,0211, ","   305"," ,0,1224,+","   305"," ,0,0207, ","  56.4"," ,0,0915, ","   30.6","0,0824, ","-3.3","0,1030","-3.3","0,1030","-4.4","0,1118","-7.2","0,1119","-11.7","0,1123","-2.8","0,0512","-2.8","0,0512","-4.4","0,0415","-11.7","0,0325","-11.7","0,0325","    4252.8","8","    4252.8","0","   1098.7"," ,0","     1673"," ,0","      6.61","0","     10.90","0","      2.31","0"
"USC00203585","2009","43.8322","-82.6427","181.4","HARBOR BEACH 1 SSE, MI US","","","","","","","","","","","","","","","","","","","","","","","","","         3"," ","         5"," ","","","","","","","","","","","","","","","","","","","","","","","","","","","","","","","    4415.0","0","    4415.0","0","","","","","","","","","",""
"USC00203585","2010","43.8322","-82.6427","181.4","HARBOR BEACH 1 SSE, MI US","    237.5","","     237.5","0","","","","","","","","","","","         0","0","       143","0","        72","0","        99","0","         2","0","         2"," ","","","  -15.6","0,0110, ","","","","","","","   32.2","0,0901,+","-0.6","0,1022","-2.2","0,1101","-4.4","0,1119","-7.2","0,1207","-11.1","0,1209","-1.1","0,0510","-3.9","0,0423","-5.6","0,0330","-6.7","0,0327","-10.0","0,0306","","","","","","","","","      7.98","0","     11.93","0","      4.03","0"
"USC00203585","2012","43.8322","-82.6427","181.4","HARBOR BEACH 1 SSE, MI US","    268.4","","     268.4","7","       132","7","        75","7","         5","7","       53","","        12","7","         0","7","       132","7","        34","7","       113","7","         4","7","","","","","  -16.1","7,0120, ","   178"," ,7,1231,+","   165"," ,7,1227, ","  38.4"," ,7,0908, ","   35.0","7,0724, ","0.0","7,1007","-4.4","7,1114","-4.4","7,1114","-11.1","7,1228","-11.1","7,1228","-3.9","7,0429","-3.9","7,0429","-4.4","7,0328","-7.8","7,0310","-10.0","7,0307","    3514.5","5","    3514.5","7","    731.9"," ,7","      981"," ,7","      9.19","7","     13.67","7","      4.71","7"
"USC00203585","2014","43.8322","-82.6427","181.4","HARBOR BEACH 1 SSE, MI US","    121.0","","     121.0","7","       142","7","        74","7","         8","7","","","","","        27","7","       160","7","        85","7","        80","7","         0","7","","","","","  -25.6","7,0107, ","","","","","  41.7"," ,7,0812, ","   31.7","7,0906, ","-1.7","7,1102","-2.8","7,1113","-4.4","7,1116","-9.4","7,1118","-9.4","7,1118","0.0","7,0506","-2.8","7,0424","-5.0","7,0417","-17.2","7,0327","-17.2","7,0327","    4810.6","6","    4810.6","7","    843.6"," ,7","","","      5.67","7","     10.05","7","      1.29","7"
"USC00203585","2015","43.8322","-82.6427","181.4","HARBOR BEACH 1 SSE, MI US","    173.8","","     173.8","7","       119","7","        73","7","         4","7","       85","","","","        26","7","       133","7","        70","7","        95","7","         0","7","","","","","  -27.8","7,0221,+","   432"," ,7,0307,+","","","  54.6"," ,7,0803, ","   31.1","7,0818,+","0.0","7,1017","-2.8","7,1122","-6.7","7,1123","-6.7","7,1123","","","-2.8","7,0426","-2.8","7,0426","-4.4","7,0405","-8.3","7,0329","-9.4","7,0325","    4551.4","4","    4551.4","7","    762.8"," ,7","","","      7.10","7","     11.43","7","      2.77","7"
"USC00203585","2016","43.8322","-82.6427","181.4","HARBOR BEACH 1 SSE, MI US","    292.9","","     292.9","7","       144","7","        76","7","         3","7","       80","","        13","7","         3","7","       137","7","        62","7","       107","7","         2","7","","","","","  -20.0","7,1220,+","   330"," ,7,0302, ","   340"," ,7,0302, ","  50.3"," ,7,0818, ","   32.2","7,0907,+","-0.6","7,1028","-3.3","7,1121","-5.0","7,1123","-6.7","7,1208","-9.4","7,1210","-1.1","7,0427","-2.8","7,0413","-7.2","7,0410","-7.2","7,0410","-10.0","7,0406","    3806.3","3","    3806.3","7","    891.4"," ,7","     1577"," ,7","      8.32","7","     12.59","7","      4.05","7"
"USC00203585","2018","43.8322","-82.6427","181.4","HARBOR BEACH 1 SSE, MI US","","","","","       145","7","        85","7","         7","7","       78","","        18","7","","","","","","","","","","","","","","","","","   254"," ,7,0110,+","   114"," ,7,0105, "," 127.0"," ,7,0412, ","","","","","","","","","","","","","","","","","","","","","","","    4187.7","7","    4187.7","7","   1082.6"," ,7","     1305"," ,7","","","","","",""
"USC00203585","2019","43.8322","-82.6427","181.4","HARBOR BEACH 1 SSE, MI US","","","","","       143","7","        90","7","         5","7","       71","","        13","7","","","","","","","","","","","","","","","","","   330"," ,7,0130, ","   122"," ,7,1112, ","  31.0"," ,7,0611, ","","","","","","","","","","","","","","","","","","","","","","","","","","","    934.2"," ,7","      889"," ,7","","","","","",""
