"STATION","DATE","LATITUDE","LONGITUDE","ELEVATION","NAME","CDSD","CDSD_ATTRIBUTES","CLDD","CLDD_ATTRIBUTES","DP01","DP01_ATTRIBUTES","DP10","DP10_ATTRIBUTES","DP1X","DP1X_ATTRIBUTES","DT00","DT00_ATTRIBUTES","DT32","DT32_ATTRIBUTES","DX32","DX32_ATTRIBUTES","DX70","DX70_ATTRIBUTES","DX90","DX90_ATTRIBUTES","EMNT","EMNT_ATTRIBUTES","EMXP","EMXP_ATTRIBUTES","EMXT","EMXT_ATTRIBUTES","FZF0","FZF0_ATTRIBUTES","FZF1","FZF1_ATTRIBUTES","FZF2","FZF2_ATTRIBUTES","FZF3","FZF3_ATTRIBUTES","FZF5","FZF5_ATTRIBUTES","FZF6","FZF6_ATTRIBUTES","FZF7","FZF7_ATTRIBUTES","FZF8","FZF8_ATTRIBUTES","PRCP","PRCP_ATTRIBUTES","TAVG","TAVG_ATTRIBUTES","TMAX","TMAX_ATTRIBUTES","TMIN","TMIN_ATTRIBUTES"
"USC00457650","1895","48.2","-122.25","10.7","SILVANIA, WA US","     10.1","","      10.1","6","       101","6","        82","6","         5","6","         0","6","       100","6","         1","6","        71","6","         1","6","   -8.3","6,1106, ","  31.8"," ,6,1226, ","   32.2","6,0711, ","0.0","6,0911","-2.8","6,0921","-5.0","6,1029","-7.2","6,1104","0.0","6,0514","-3.3","6,0317","-6.7","6,0314","-6.7","6,0314","    816.1"," ,6","      8.67","6","     14.06","6","      3.29","6"
"USC00457650","1901","48.2","-122.25","10.7","SILVANIA, WA US","","","","","       113","6","        74","6","         5","6","","","","","","","","","","","","","  42.9"," ,6,0401, ","","","","","","","","","","","","","","","","","","","    759.8"," ,6","","","","","",""
"USC00457650","1903","48.2","-122.25","10.7","SILVANIA, WA US","","","","","        88","6","        63","6","         3","6","","","","","","","","","","","","","  32.5"," ,6,1114, ","","","","","","","","","","","","","","","","","","","    699.5"," ,6","","","","","",""
