"STATION","DATE","LATITUDE","LONGITUDE","ELEVATION","NAME","CDSD","CDSD_ATTRIBUTES","CLDD","CLDD_ATTRIBUTES","DP01","DP01_ATTRIBUTES","DP10","DP10_ATTRIBUTES","DP1X","DP1X_ATTRIBUTES","DSND","DSND_ATTRIBUTES","DSNW","DSNW_ATTRIBUTES","DT00","DT00_ATTRIBUTES","DT32","DT32_ATTRIBUTES","DX32","DX32_ATTRIBUTES","DX70","DX70_ATTRIBUTES","DX90","DX90_ATTRIBUTES","DYFG","DYFG_ATTRIBUTES","DYTS","DYTS_ATTRIBUTES","EMNT","EMNT_ATTRIBUTES","EMSD","EMSD_ATTRIBUTES","EMSN","EMSN_ATTRIBUTES","EMXP","EMXP_ATTRIBUTES","EMXT","EMXT_ATTRIBUTES","FZF0","FZF0_ATTRIBUTES","FZF1","FZF1_ATTRIBUTES","FZF2","FZF2_ATTRIBUTES","FZF3","FZF3_ATTRIBUTES","FZF4","FZF4_ATTRIBUTES","FZF5","FZF5_ATTRIBUTES","FZF6","FZF6_ATTRIBUTES","FZF7","FZF7_ATTRIBUTES","FZF8","FZF8_ATTRIBUTES","FZF9","FZF9_ATTRIBUTES","HDSD","HDSD_ATTRIBUTES","HTDD","HTDD_ATTRIBUTES","PRCP","PRCP_ATTRIBUTES","SNOW","SNOW_ATTRIBUTES","TAVG","TAVG_ATTRIBUTES","TMAX","TMAX_ATTRIBUTES","TMIN","TMIN_ATTRIBUTES"
"USC00480540","1900","44.37985","-108.03495","1170.4","BASIN, WY US","","","","","        27","6","        11","6","         0","6","","","","","        30","6","       182","6","        56","6","       157","6","        55","6","","","","","  -35.6","6,0215, ","","","","","   9.1"," ,6,0405, ","   44.4","6,0712, ","-0.6","6,0924","-3.3","6,0926","-5.0","6,1008","-6.7","6,1014","-9.4","6,1110","0.0","6,0418","-5.0","6,0412","-5.0","6,0412","-8.9","6,0401","-8.9","6,0401","","","","","     73.9"," ,6","","","      7.73","6","     15.95","6","     -0.49","6"
"USC00480540","1901","44.37985","-108.03495","1170.4","BASIN, WY US","","","","","        36","6","        20","6","         0","6","","","","","","","","","","","","","","","","","","","","","","","","","  23.4"," ,6,0522, ","","","","","","","","","","","","","","","","","","","","","","","","","","","    148.5"," ,6","","","","","","","",""
"USC00480540","1902","44.37985","-108.03495","1170.4","BASIN, WY US","    385.1","","     385.1","6","        28","6","         8","6","         0","6","","","","","        24","6","       176","6","        44","6","       146","6","        47","6","","","","","  -39.4","6,0126, ","","","","","  15.2"," ,6,0421, ","   41.7","6,0728, ","-0.6","6,0918","-2.8","6,1004","-6.1","6,1027","-7.8","6,1030","-10.0","6,1102","0.0","6,0504","-2.2","6,0423","-4.4","6,0416","-7.2","6,0411","-8.9","6,0401","","","","","     66.7"," ,6","","","      7.82","6","     15.78","6","     -0.14","6"
"USC00480540","1904","44.37985","-108.03495","1170.4","BASIN, WY US","","","","","","","","","","","","","","","        14","6","       161","6","        33","6","       154","6","        41","6","","","","","  -26.1","6,1227, ","","","","","","","   36.7","6,0814,+","-0.6","6,0914","-2.2","6,1019","-6.1","6,1025","-6.7","6,1102","-12.2","6,1110","-2.8","6,0526","-2.8","6,0526","-6.1","6,0416","-14.4","6,0327","-14.4","6,0327","","","","","","","","","      8.92","6","     17.17","6","      0.68","6"
"USC00480540","1905","44.37985","-108.03495","1170.4","BASIN, WY US","","","","","        37","6","        23","6","         0","6","","","","","","","","","","","","","","","","","","","","","","","","","  18.5"," ,6,0617, ","","","","","","","","","","","","","","","","","","","","","","","","","","","    175.5"," ,6","","","","","","","",""
"USC00480540","1913","44.37985","-108.03495","1170.4","BASIN, WY US","    363.0","","     363.0","6","","","","","","","","","","","        54","6","       208","6","        39","6","       198","6","        81","6","","","","","  -37.8","6,0206, ","","","","","","","   38.9","6,0717,+","-0.6","6,0916","-3.9","6,0921","-4.4","6,1009","-6.7","6,1024","-10.0","6,1112","-1.1","6,0505","-2.2","6,0501","-6.1","6,0424","-10.0","6,0327","-10.0","6,0327","","","","","","","","","      7.92","6","     18.91","6","     -3.08","6"
"USC00480540","1914","44.37985","-108.03495","1170.4","BASIN, WY US","    430.2","","     430.2","6","","","","","","","","","","","        42","6","       185","6","        39","6","       165","6","        81","6","","","","","  -32.8","6,1217,+","","","","","","","   38.3","6,0720, ","-1.1","6,0912","-3.3","6,1005","-4.4","6,1013","-6.7","6,1020","-10.0","6,1103","0.0","6,0525","-2.2","6,0410","-5.6","6,0310","-6.7","6,0226","-12.2","6,0209","    3846.4","4","    3846.4","6","","","","","      8.24","6","     17.60","6","     -1.12","6"
"USC00480540","1919","44.37985","-108.03495","1170.4","BASIN, WY US","    461.6","","     461.6","6","        40","6","        16","6","         0","6","","","","","        49","6","       193","6","        53","6","       154","6","        68","6","","","","","  -38.9","6,1213, ","","","","","  17.8"," ,6,1009, ","   41.1","6,0627, ","0.0","6,0921","-2.8","6,0922","-6.1","6,1009","-12.8","6,1010","-12.8","6,1010","0.0","6,0602","-2.8","6,0506","-4.4","6,0417","-7.2","6,0416","-11.1","6,0320","","","","","    130.7"," ,6","","","      6.88","6","     15.84","6","     -2.08","6"
"USC00480540","1920","44.37985","-108.03495","1170.4","BASIN, WY US","","","","","","","","","","","","","","","","","","","","","","","","","         3"," ","","","","","","","","","","","","","","","","","","","","","","","","","","","","","","","","","    4785.9","9","    4785.9","6","","","","","","","","","",""
"USC00480540","1921","44.37985","-108.03495","1170.4","BASIN, WY US","    379.7","","     379.7","6","","","","","","","","","","","        20","6","       188","6","        33","6","       149","6","        52","6","","","","","  -23.9","6,1225,+","","","","","","","   38.3","6,0708, ","-1.1","6,0917","-2.8","6,0929","-6.7","6,1007","-6.7","6,1007","-11.1","6,1109","-4.4","6,0501","-4.4","6,0501","-4.4","6,0501","-8.9","6,0409","-8.9","6,0409","","","","","","","","","      8.34","6","     17.01","6","     -0.33","6"
"USC00480540","1922","44.37985","-108.03495","1170.4","BASIN, WY US","    420.9","","     420.9","6","","","","","","","","","","","        63","6","       190","6","        75","6","       150","6","        65","6","","","","","  -39.4","6,0119, ","","","","","","","   40.6","6,0622, ","0.0","6,0930","-2.2","6,1005","-7.8","6,1017","-7.8","6,1017","-8.9","6,1106","-1.1","6,0515","-2.8","6,0419","-4.4","6,0418","-8.3","6,0329","-9.4","6,0327","    4902.8","8","    4902.8","6","","","","","      6.03","6","     14.75","6","     -2.70","6"
"USC00480540","1923","44.37985","-108.03495","1170.4","BASIN, WY US","    338.6","","     338.6","6","","","","","","","","","","","        22","6","       194","6","        36","6","       141","6","        36","6","","","","","  -36.7","6,1231, ","","","","","","","   39.4","6,0720, ","-1.7","6,1011","-2.2","6,1012","-5.0","6,1026","-11.1","6,1027","-11.1","6,1027","-0.6","6,0516","-2.8","6,0426","-5.6","6,0420","-7.8","6,0408","-8.9","6,0323","    4234.6","6","    4234.6","6","","","","","      7.52","6","     15.54","6","     -0.49","6"
"USC00480540","1924","44.37985","-108.03495","1170.4","BASIN, WY US","    253.8","","     253.8","6","","","","","","","","","","","        40","6","       196","6","        55","6","       144","6","        44","6","","","","","  -37.8","6,1219, ","","","","","","","   38.3","6,0828,+","0.0","6,0920","-3.3","6,0927","-5.6","6,1106","-7.2","6,1107","-10.0","6,1111","-1.7","6,0509","-2.2","6,0427","-4.4","6,0402","-8.9","6,0331","-8.9","6,0331","    4473.1","1","    4473.1","6","","","","","      6.27","6","     14.59","6","     -2.06","6"
"USC00480540","1925","44.37985","-108.03495","1170.4","BASIN, WY US","    397.3","","     397.3","6","","","","","","","","","","","        32","6","       175","6","        42","6","       144","6","        53","6","","","","","  -28.9","6,0116, ","","","","","","","   42.2","6,0714, ","0.0","6,0930","-2.8","6,1002","-7.8","6,1017","-7.8","6,1017","-11.1","6,1024","-0.6","6,0509","-2.2","6,0504","-8.3","6,0327","-8.3","6,0327","-15.6","6,0314","    4101.4","4","    4101.4","6","","","","","      7.74","6","     16.10","6","     -0.61","6"
"USC00480540","1926","44.37985","-108.03495","1170.4","BASIN, WY US","","","","","","","","","","","","","","","","","","","","","","","","","","","","","","","","","","","","","","","","","","","","","","","","","","","","","","","","","","","    4372.0","0","    4372.0","6","","","","","","","","","",""
"USC00480540","1927","44.37985","-108.03495","1170.4","BASIN, WY US","    223.1","","     223.1","6","","","","","","","","","","","        38","6","       189","6","        47","6","       130","6","        28","6","","","","","  -37.8","6,1231, ","","","","","","","   38.9","6,0719,+","-1.1","6,0919","-3.3","6,1006","-4.4","6,1007","-10.0","6,1101","-10.0","6,1101","-3.9","6,0510","-3.9","6,0510","-5.6","6,0421","-6.7","6,0419","-11.7","6,0320","","","","","","","","","      6.71","6","     14.86","6","     -1.44","6"
"USC00480540","1928","44.37985","-108.03495","1170.4","BASIN, WY US","    244.5","","     244.5","6","","","","","","","","","","","        56","6","       187","6","        61","6","       146","6","        33","6","","","","","  -33.9","6,0224,+","","","","","","","   39.4","6,0810,+","0.0","6,0921","-2.2","6,1011","-4.4","6,1013","-6.7","6,1030","-10.6","6,1101","-1.1","6,0503","-2.2","6,0430","-5.0","6,0422","-7.2","6,0413","-11.1","6,0408","    4492.0","0","    4492.0","6","","","","","      6.07","6","     14.66","6","     -2.53","6"
"USC00480540","1929","44.37985","-108.03495","1170.4","BASIN, WY US","    407.3","","     407.3","6","","","","","","","","","","","        49","6","       189","6","        76","6","       135","6","        61","6","","","","","  -40.0","6,0207, ","","","","","","","   39.4","6,0724,+","0.0","6,0909","-2.8","6,1012","-7.8","6,1023","-7.8","6,1023","-9.4","6,1024","0.0","6,0515","-2.8","6,0508","-4.4","6,0426","-7.2","6,0411","-8.9","6,0324","    4787.5","5","    4787.5","6","","","","","      5.59","6","     14.06","6","     -2.88","6"
"USC00480540","1930","44.37985","-108.03495","1170.4","BASIN, WY US","    333.0","","     333.0","6","","","","","","","","","","","        40","6","       179","6","        48","6","       145","6","        47","6","","","","","  -41.1","6,0117, ","","","","","","","   41.1","6,0708, ","-2.2","6,0923","-2.2","6,0923","-7.2","6,1016","-7.2","6,1016","-10.6","6,1017","0.0","6,0523","-2.2","6,0512","-5.6","6,0402","-7.8","6,0401","-10.0","6,0319","    4516.6","6","    4516.6","6","","","","","      7.02","6","     15.60","6","     -1.56","6"
"USC00480540","1931","44.37985","-108.03495","1170.4","BASIN, WY US","    479.9","","     479.9","6","","","","","","","","","","","        33","6","       185","6","        44","6","       163","6","        64","6","","","","","  -28.9","6,1214, ","","","","","","","   40.0","6,0726,+","0.0","6,1001","-2.8","6,1012","-4.4","6,1013","-8.3","6,1030","-12.2","6,1112","0.0","6,0522","-5.0","6,0520","-5.0","6,0520","-7.2","6,0421","-8.9","6,0403","    4051.1","1","    4051.1","6","","","","","      8.56","6","     17.79","6","     -0.66","6"
"USC00480540","1932","44.37985","-108.03495","1170.4","BASIN, WY US","    385.1","","     385.1","6","","","","","","","","","","","        62","6","       185","6","        64","6","       154","6","        54","6","","","","","  -37.8","6,0115,+","","","","","","","   38.3","6,0819, ","-2.8","6,1004","-2.8","6,1004","-5.0","6,1010","-6.7","6,1020","-8.9","6,1029","-0.6","6,0501","-2.8","6,0430","-4.4","6,0410","-10.6","6,0314","-10.6","6,0314","    4488.1","1","    4488.1","6","","","","","      6.65","6","     15.33","6","     -2.03","6"
"USC00480540","1933","44.37985","-108.03495","1170.4","BASIN, WY US","    469.6","","     469.6","6","","","","","","","","","","","        34","6","       178","6","        48","6","       160","6","        67","6","","","","","  -42.8","6,0209, ","","","","","","","   41.1","6,0727,+","0.0","6,0923","-2.8","6,0926","-7.8","6,1021","-7.8","6,1021","-12.8","6,1104","0.0","6,0514","-2.2","6,0423","-6.1","6,0414","-7.8","6,0413","-10.0","6,0323","    4558.0","0","    4558.0","6","","","","","      8.05","6","     17.01","6","     -0.91","6"
"USC00480540","1934","44.37985","-108.03495","1170.4","BASIN, WY US","    461.0","","     461.0","6","        29","6","        17","6","         0","6","","","         5","6","         5","6","       176","6","        16","6","       166","6","        59","6","","","","","  -26.1","6,0226, ","","","   305"," ,6,0404, ","  19.8"," ,6,0404, ","   40.6","6,0719, ","-3.3","6,0920","-3.3","6,0920","-6.1","6,0925","-7.2","6,1103","-9.4","6,1123","0.0","6,0513","-3.3","6,0416","-4.4","6,0404","-6.7","6,0329","-9.4","6,0326","    3319.4","4","    3319.4","6","    111.2"," ,6","      457"," ,6","     10.32","6","     19.27","6","      1.37","6"
"USC00480540","1935","44.37985","-108.03495","1170.4","BASIN, WY US","    388.6","","     388.6","6","        35","6","        20","6","         0","6","","","        13","6","        18","6","       187","6","        27","6","       150","6","        56","6","","","","","  -38.3","6,0121, ","","","   127"," ,6,1109, ","  17.0"," ,6,0531, ","   40.0","6,0810,+","-2.8","6,0928","-2.8","6,0928","-4.4","6,1017","-7.8","6,1023","-13.3","6,1030","-0.6","6,0509","-3.9","6,0504","-4.4","6,0429","-6.7","6,0404","-14.4","6,0402","    3883.3","3","    3883.3","6","    144.7"," ,6","      761"," ,6","      7.94","6","     16.68","6","     -0.80","6"
"USC00480540","1936","44.37985","-108.03495","1170.4","BASIN, WY US","    561.4","","     561.4","6","        37","6","        23","6","         1","6","","","","","        37","6","       183","6","        49","6","       164","6","        78","6","","","","","  -40.0","6,0217, ","","","","","  27.7"," ,6,0601, ","   41.7","6,0703, ","-0.6","6,0915","-2.2","6,0916","-6.1","6,1022","-9.4","6,1101","-9.4","6,1101","0.0","6,0429","-3.3","6,0409","-12.8","6,0406","-12.8","6,0406","-12.8","6,0406","    4278.1","1","    4278.1","6","    157.9"," ,6","","","      8.11","6","     17.02","6","     -0.80","6"
"USC00480540","1937","44.37985","-108.03495","1170.4","BASIN, WY US","    434.1","","     434.1","6","        33","6","        23","6","         0","6","","","","","        43","6","       184","6","        54","6","       154","6","        56","6","","","","","  -38.3","6,0121, ","","","","","  19.1"," ,6,0520, ","   40.6","6,0705, ","-1.7","6,0925","-2.8","6,1007","-4.4","6,1102","-6.7","6,1103","-8.9","6,1113","-1.1","6,0426","-2.2","6,0425","-4.4","6,0423","-7.2","6,0329","-9.4","6,0328","    4401.3","3","    4401.3","6","    184.5"," ,6","","","      7.47","6","     15.98","6","     -1.04","6"
"USC00480540","1938","44.37985","-108.03495","1170.4","BASIN, WY US","    360.3","","     360.3","6","","","","","","","","","","","        21","6","       174","6","        24","6","       156","6","        52","6","","","","","  -30.0","6,0130, ","","","","","","","   40.0","6,0812, ","-1.1","6,1017","-5.6","6,1019","-5.6","6,1019","-11.7","6,1106","-11.7","6,1106","-0.6","6,0611","-2.8","6,0411","-5.6","6,0408","-7.2","6,0406","-8.9","6,0403","    3822.4","4","    3822.4","6","","","","","      8.58","6","     17.18","6","     -0.01","6"
"USC00480540","1939","44.37985","-108.03495","1170.4","BASIN, WY US","    326.2","","     326.2","6","        33","6","        15","6","         1","6","","","","","        25","6","       187","6","        21","6","       164","6","        58","6","","","","","  -40.6","6,0210, ","","","","","  30.0"," ,6,0601, ","   42.8","6,0710, ","0.0","6,0916","-4.4","6,0929","-4.4","6,0929","-10.6","6,1025","-10.6","6,1025","0.0","6,0508","-6.7","6,0418","-6.7","6,0418","-6.7","6,0418","-13.9","6,0406","    3960.4","4","    3960.4","6","    121.4"," ,6","","","      8.22","6","     18.21","6","     -1.77","6"
"USC00480540","1949","44.37985","-108.03495","1170.4","BASIN, WY US","","","","","","","","","","","","","         8","0","","","","","","","","","","","        11"," ","","","","","","","   127"," ,0,0212, ","","","","","","","","","","","","","","","","","","","","","","","","","    4320.2","2","","","","","      654"," ,0","","","","","",""
"USC00480540","1950","44.37985","-108.03495","1170.4","BASIN, WY US","    215.0","","     215.0","0","","","","","","","","","         4","0","        37","0","       195","0","        34","0","       151","0","        33","0","         3"," ","","","  -32.2","0,0130, ","","","   127"," ,0,1123, ","","","   38.9","0,0904,+","-5.6","0,0928","-5.6","0,0928","-5.6","0,0928","-6.7","0,1103","-13.3","0,1109","-4.4","0,0525","-4.4","0,0525","-4.4","0,0525","-8.9","0,0430","-8.9","0,0430","","","","","    170.0"," ,0","      324"," ,0","      7.23","0","     16.38","0","     -1.92","0"
"USC00480540","1951","44.37985","-108.03495","1170.4","BASIN, WY US","","","","","        39","0","        12","0","         0","0","","","         6","0","        27","0","       201","0","","","","","","","         2"," ","         2"," ","  -41.7","0,0130, ","","","    74"," ,0,1231, ","  24.9"," ,0,0601, ","","","-0.6","0,0912","-4.4","0,0927","-4.4","0,0927","-11.1","0,1101","-11.1","0,1101","-1.1","0,0603","-2.8","0,0423","-8.9","0,0422","-8.9","0,0422","-8.9","0,0422","    4267.6","6","    4267.6","0","    149.0"," ,0","      347"," ,0","","","","","     -1.83","0"
"USC00480540","1952","44.37985","-108.03495","1170.4","BASIN, WY US","    354.0","","     354.0","0","        28","0","         7","0","         0","0","       78","","         7","0","        44","0","       189","0","        41","0","       173","0","        48","0","         1"," ","","","  -35.6","0,0101, ","   152"," ,0,0219,+","   152"," ,0,1121, ","   6.6"," ,0,0508, ","   37.8","0,0731,+","-1.7","0,0914","-4.4","0,1006","-4.4","0,1006","-6.7","0,1028","-10.6","0,1103","-0.6","0,0510","-2.2","0,0422","-4.4","0,0402","-6.7","0,0326","-11.7","0,0323","","","","","    126.6"," ,0","      507"," ,0","      7.95","0","     17.16","0","     -1.25","0"
"USC00480540","1953","44.37985","-108.03495","1170.4","BASIN, WY US","    418.9","","     418.9","0","        32","0","        16","0","         0","0","       30","","        11","0","         5","0","       192","0","        15","0","       156","0","        65","0","","","","","  -20.0","0,0220, ","    76"," ,0,0302,+","   127"," ,0,0417, ","  12.7"," ,0,0606, ","   39.4","0,0714,+","0.0","0,0921","-2.2","0,1004","-5.0","0,1023","-7.2","0,1108","-11.1","0,1119","-1.1","0,0515","-3.9","0,0514","-5.6","0,0512","-8.3","0,0419","-12.2","0,0418","    3893.6","6","    3893.6","0","    133.4"," ,0","      801"," ,0","      9.43","0","     18.15","0","      0.71","0"
"USC00480540","1954","44.37985","-108.03495","1170.4","BASIN, WY US","    403.3","","     403.3","0","        30","0","        17","0","         0","0","       14","","         9","0","        14","0","       187","0","        17","0","       162","0","        57","0","","","","","  -23.3","0,0120, ","   178"," ,0,0501, ","   165"," ,0,0501, ","  15.2"," ,0,0501, ","   41.1","0,0711, ","0.0","0,1003","-3.3","0,1004","-6.1","0,1014","-11.1","0,1027","-11.1","0,1027","0.0","0,0529","-6.7","0,0503","-6.7","0,0503","-6.7","0,0503","-16.1","0,0331","    3689.2","2","    3689.2","0","    122.0"," ,0","      660"," ,0","      9.08","0","     18.35","0","     -0.18","0"
"USC00480540","1955","44.37985","-108.03495","1170.4","BASIN, WY US","    393.7","","     393.7","0","        45","0","        17","0","         0","0","       58","","        14","0","        29","0","       188","0","        57","0","       155","0","        59","0","         2"," ","","","  -31.7","0,1115, ","   102"," ,0,1116,+","   102"," ,0,0403, ","  16.3"," ,0,0724, ","   39.4","0,0720,+","-1.7","0,0922","-2.8","0,0923","-5.0","0,1023","-10.6","0,1101","-10.6","0,1101","0.0","0,0429","-5.6","0,0428","-5.6","0,0428","-6.7","0,0412","-8.9","0,0406","    3985.5","5","    3985.5","0","    190.7"," ,0","      807"," ,0","      7.53","0","     16.21","0","     -1.16","0"
"USC00480540","1956","44.37985","-108.03495","1170.4","BASIN, WY US","    342.2","","     342.2","0","        37","0","         6","0","         0","0","       56","","         4","0","        28","0","       189","0","        44","0","       165","0","        58","0","","","","","  -32.8","0,0201, ","    51"," ,0,1206,+","    38"," ,0,1205,+","  11.4"," ,0,0621, ","   38.9","0,0724, ","0.0","0,0922","-2.8","0,1014","-5.6","0,1020","-7.8","0,1030","-11.7","0,1102","0.0","0,0504","-3.9","0,0419","-4.4","0,0418","-7.2","0,0407","-11.7","0,0329","    4307.3","3","    4307.3","0","     70.8"," ,0","      235"," ,0","      7.93","0","     17.08","0","     -1.23","0"
"USC00480540","1957","44.37985","-108.03495","1170.4","BASIN, WY US","    369.4","","     369.4","0","","","","","","","       48","","         7","0","        32","0","       183","0","        40","0","       139","0","        59","0","","","         1"," ","  -38.9","0,0127, ","   127"," ,0,0117,+","    76"," ,0,1114, ","","","   39.4","0,0811,+","-0.6","0,0919","-5.6","0,1005","-5.6","0,1005","-8.3","0,1026","-9.4","0,1109","-3.3","0,0427","-3.3","0,0427","-6.1","0,0412","-6.7","0,0411","-9.4","0,0324","    4302.2","2","    4302.2","0","    143.8"," ,0","      548"," ,0","      7.55","0","     16.07","0","     -0.97","0"
"USC00480540","1958","44.37985","-108.03495","1170.4","BASIN, WY US","    295.5","","     295.5","0","        52","0","        18","0","         0","0","       62","","        13","0","        14","0","       180","0","        30","0","       168","0","        42","0","","","         6"," ","  -22.2","0,1208, ","   152"," ,0,0214, ","   114"," ,0,0206, ","  11.4"," ,0,0613, ","   39.4","0,0808, ","-1.1","0,0925","-2.8","0,1010","-7.2","0,1022","-7.2","0,1022","-10.0","0,1031","-1.7","0,0501","-3.9","0,0430","-7.2","0,0429","-7.2","0,0429","-11.1","0,0308","    3786.1","1","    3786.1","0","    144.8"," ,0","      647"," ,0","      8.50","0","     17.24","0","     -0.25","0"
"USC00480540","1959","44.37985","-108.03495","1170.4","BASIN, WY US","    389.1","","     389.1","0","        42","0","        20","0","         1","0","","","        10","0","        21","0","       186","0","        43","0","       134","0","        66","0","","","","","  -33.3","0,1116, ","","","   279"," ,0,0416, ","  26.4"," ,0,0630, ","   40.6","0,0724, ","-1.1","0,0928","-5.0","0,0930","-5.0","0,0930","-8.3","0,1104","-15.6","0,1105","0.0","0,0507","-2.8","0,0425","-5.6","0,0417","-7.2","0,0412","-9.4","0,0305","    4183.5","5","    4183.5","0","    206.3"," ,0","      851"," ,0","      7.28","0","     15.56","0","     -1.00","0"
"USC00480540","1960","44.37985","-108.03495","1170.4","BASIN, WY US","    385.1","","     385.1","0","        31","0","        12","0","         0","0","","","         5","0","        23","0","       175","0","        40","0","       165","0","        56","0","","","         1"," ","  -25.6","0,0120, ","","","   152"," ,0,1221, ","  14.2"," ,0,1009, ","   40.6","0,0720, ","-2.8","0,1015","-2.8","0,1015","-6.1","0,1030","-8.3","0,1105","-10.6","0,1109","-0.6","0,0515","-2.2","0,0501","-6.1","0,0430","-7.2","0,0401","-8.9","0,0313","    4222.3","3","    4222.3","0","    121.5"," ,0","      371"," ,0","      8.35","0","     16.89","0","     -0.19","0"
"USC00480540","1961","44.37985","-108.03495","1170.4","BASIN, WY US","    430.7","","     430.7","0","        43","0","        21","0","         0","0","       81","","         4","0","        27","0","       189","0","        45","0","       137","0","        57","0","","","         1"," ","  -28.3","0,0127, ","   178"," ,0,1116, ","   152"," ,0,1115, ","  22.4"," ,0,1010, ","   40.6","0,0805, ","-1.7","0,0914","-3.3","0,0924","-5.0","0,1023","-7.2","0,1025","-8.9","0,1030","-1.7","0,0508","-2.8","0,0506","-5.0","0,0425","-7.2","0,0405","-8.9","0,0328","    3951.4","4","    3951.4","0","    189.4"," ,0","      394"," ,0","      7.70","0","     16.09","0","     -0.68","0"
"USC00480540","1962","44.37985","-108.03495","1170.4","BASIN, WY US","    256.5","","     256.5","0","        51","0","        23","0","         1","0","       73","","         6","0","        35","0","       182","0","        41","0","       161","0","        39","0","","","         1"," ","  -38.9","0,0122, ","   330"," ,0,0125,+","   127"," ,0,0107, ","  26.2"," ,0,0810, ","   37.8","0,0627, ","-1.1","0,0904","-2.2","0,1001","-5.0","0,1017","-6.7","0,1025","-8.9","0,1107","-1.1","0,0501","-2.8","0,0430","-5.0","0,0412","-8.3","0,0330","-9.4","0,0314","    4680.6","6","    4680.6","0","    197.3"," ,0","      397"," ,0","      7.59","0","     16.27","0","     -1.09","0"
"USC00480540","1963","44.37985","-108.03495","1170.4","BASIN, WY US","    352.5","","     352.5","0","        56","0","        23","0","         0","0","","","","","        26","0","       171","0","        50","0","       173","0","        55","0","","","         1"," ","  -36.7","0,0112, ","","","","","  13.7"," ,0,0427, ","   37.8","0,0722,+","0.0","0,1017","-6.1","0,1027","-6.1","0,1027","-6.7","0,1101","-13.9","0,1121","-0.6","0,0502","-2.2","0,0425","-5.0","0,0423","-7.8","0,0417","-12.8","0,0314","    3874.8","8","    3874.8","0","    169.2"," ,0","","","      8.52","0","     17.10","0","     -0.08","0"
"USC00480540","1964","44.37985","-108.03495","1170.4","BASIN, WY US","    329.7","","     329.7","0","        66","0","        23","0","         1","0","      112","","","","        24","0","       189","0","        58","0","       149","0","        54","0","","","","","  -36.1","0,1217, ","   127"," ,0,0227,+","","","  28.2"," ,0,0426, ","   38.9","0,0721, ","-3.9","0,0927","-3.9","0,0927","-5.0","0,1004","-7.2","0,1019","-13.9","0,1115","0.0","0,0503","-2.8","0,0422","-5.6","0,0408","-7.2","0,0407","-8.9","0,0329","    4147.9","9","    4147.9","0","    204.0"," ,0","","","      7.11","0","     15.43","0","     -1.21","0"
"USC00480540","1965","44.37985","-108.03495","1170.4","BASIN, WY US","    246.6","","     246.6","0","        58","0","        17","0","         1","0","","","","","        17","0","       195","0","        31","0","       144","0","        30","0","","","         5"," ","  -24.4","0,0325, ","","","","","  25.4"," ,0,0916, ","   38.3","0,0812, ","0.0","0,0905","-2.2","0,0916","-5.6","0,1102","-7.2","0,1112","-8.9","0,1123","-1.1","0,0527","-2.8","0,0427","-4.4","0,0412","-10.0","0,0329","-10.0","0,0329","    4199.5","5","    4199.5","0","    171.5"," ,0","","","      7.81","0","     16.22","0","     -0.60","0"
"USC00480540","1966","44.37985","-108.03495","1170.4","BASIN, WY US","    399.8","","     399.8","0","        47","0","        12","0","         0","0","       28","","         8","0","        16","0","       195","0","        35","0","       161","0","        69","0","","","         2"," ","  -27.2","0,0125,+","   203"," ,0,0303,+","   330"," ,0,0302, ","  22.6"," ,0,0411, ","   40.0","0,0716, ","0.0","0,0930","-2.2","0,1001","-4.4","0,1010","-7.8","0,1015","-9.4","0,1022","-2.2","0,0523","-2.2","0,0523","-5.0","0,0430","-12.2","0,0420","-12.2","0,0420","    3969.8","8","    3969.8","0","    114.8"," ,0","      894"," ,0","      8.45","0","     17.44","0","     -0.54","0"
"USC00480540","1967","44.37985","-108.03495","1170.4","BASIN, WY US","    308.7","","     308.7","0","        84","0","        23","0","         0","0","       49","","        24","0","        17","0","       188","0","        43","0","       145","0","        46","0","","","         4"," ","  -26.7","0,1221, ","   152"," ,0,1231,+","    76"," ,0,1226, ","  24.1"," ,0,0606, ","   36.7","0,0824,+","-2.2","0,1004","-2.2","0,1004","-5.0","0,1020","-7.8","0,1027","-15.0","0,1103","0.0","0,0512","-2.8","0,0504","-5.0","0,0501","-10.0","0,0317","-10.0","0,0317","    3994.1","1","    3994.1","0","    252.6"," ,0","      950"," ,0","      7.99","0","     16.19","0","     -0.22","0"
"USC00480540","1968","44.37985","-108.03495","1170.4","BASIN, WY US","    262.1","","     262.1","0","        62","0","        25","0","         0","0","       83","","        10","0","        27","0","       190","0","        46","0","       149","0","        42","0","","","        10"," ","  -34.4","0,1231, ","   203"," ,0,1226, ","   152"," ,0,0421, ","  16.3"," ,0,0810, ","   37.8","0,0715,+","-1.7","0,0922","-6.1","0,1008","-6.1","0,1008","-6.7","0,1017","-8.9","0,1107","-0.6","0,0520","-2.2","0,0511","-5.6","0,0423","-7.2","0,0418","-11.1","0,0404","    4209.1","1","    4209.1","0","    212.9"," ,0","      629"," ,0","      7.30","0","     15.89","0","     -1.29","0"
"USC00480540","1969","44.37985","-108.03495","1170.4","BASIN, WY US","    383.2","","     383.2","0","        58","0","        21","0","         0","0","","","","","        23","0","       179","0","        42","0","       161","0","        60","0","","","","","  -32.2","0,0124, ","","","","","  19.3"," ,0,0625, ","   41.1","0,0825, ","-2.2","0,1007","-2.2","0,1007","-5.0","0,1012","-8.3","0,1013","-11.7","0,1014","-0.6","0,0508","-2.8","0,0331","-7.8","0,0330","-7.8","0,0330","-11.7","0,0314","    4260.6","6","    4260.6","0","    172.0"," ,0","","","      7.99","0","     16.79","0","     -0.80","0"
"USC00480540","1970","44.37985","-108.03495","1170.4","BASIN, WY US","    411.3","","     411.3","0","        52","0","        15","0","         0","0","       49","","","","        25","0","       208","0","        37","0","       140","0","        65","0","","","         1"," ","  -27.2","0,0108,+","    76"," ,0,1224,+","","","  14.7"," ,0,0428, ","   41.1","0,0627, ","-0.6","0,0910","-3.3","0,0925","-5.6","0,1008","-7.2","0,1009","-8.9","0,1018","0.0","0,0513","-2.8","0,0430","-5.6","0,0419","-7.2","0,0413","-9.4","0,0401","    4037.4","4","    4037.4","0","    109.2"," ,0","","","      7.79","0","     16.35","0","     -0.77","0"
"USC00480540","1971","44.37985","-108.03495","1170.4","BASIN, WY US","    394.3","","     394.3","0","        50","0","        21","0","         1","0","       49","","         9","0","        18","0","       174","0","        44","0","       148","0","        65","0","","","","","  -28.9","0,0106, ","   178"," ,0,0208,+","   152"," ,0,1028, ","  30.2"," ,0,1018, ","   38.3","0,0828,+","-1.1","0,0916","-3.9","0,0918","-8.3","0,1028","-8.3","0,1028","-14.4","0,1029","-2.2","0,0414","-2.2","0,0414","-6.7","0,0413","-6.7","0,0413","-15.6","0,0322","    4176.4","4","    4176.4","0","    194.6"," ,0","      558"," ,0","      8.17","0","     16.32","0","      0.03","0"
"USC00480540","1972","44.37985","-108.03495","1170.4","BASIN, WY US","    286.5","","     286.5","0","        42","0","        17","0","         0","0","       73","","         8","0","        34","0","       184","0","        44","0","       153","0","        41","0","","","         1"," ","  -38.9","0,1210, ","   152"," ,0,1216,+","   109"," ,0,1204, ","  17.0"," ,0,0721, ","   38.3","0,0812, ","-1.1","0,0921","-4.4","0,0926","-4.4","0,0926","-10.0","0,1030","-10.0","0,1030","0.0","0,0511","-4.4","0,0502","-4.4","0,0502","-6.7","0,0404","-8.9","0,0328","    4011.3","3","    4011.3","0","    130.8"," ,0","      367"," ,0","      7.45","0","     15.95","0","     -1.04","0"
"USC00480540","1973","44.37985","-108.03495","1170.4","BASIN, WY US","    340.9","","     340.9","0","        53","0","        22","0","         0","0","","","","","        24","0","       187","0","        34","0","       150","0","        47","0","","","","","  -38.3","0,0109, ","","","","","  16.8"," ,0,0908, ","   39.4","0,0706, ","0.0","0,0915","-4.4","0,1004","-4.4","0,1004","-9.4","0,1103","-9.4","0,1103","-0.6","0,0528","-5.0","0,0422","-5.0","0,0422","-10.0","0,0415","-10.0","0,0415","    4646.8","8","    4646.8","0","    170.8"," ,0","","","      7.53","0","     16.07","0","     -1.02","0"
"USC00480540","1974","44.37985","-108.03495","1170.4","BASIN, WY US","    385.8","","     385.8","0","        28","0","        18","0","         0","0","       14","","         0","0","        15","0","       197","0","        22","0","       154","0","        60","0","","","         2"," ","  -33.3","0,0106, ","    51"," ,0,0113,+","     5"," ,0,0105, ","  16.5"," ,0,0703, ","   39.4","0,0625, ","0.0","0,0902","-2.8","0,0913","-7.2","0,1006","-7.2","0,1006","-9.4","0,1127","-1.1","0,0522","-3.9","0,0516","-6.1","0,0415","-10.0","0,0325","-10.0","0,0325","    3828.9","9","    3828.9","0","    115.8"," ,0","        5"," ,0","      8.78","0","     18.19","0","     -0.64","0"
"USC00480540","1975","44.37985","-108.03495","1170.4","BASIN, WY US","    304.8","","     304.8","0","        38","0","        28","0","         1","0","","","        15","0","        38","0","       197","0","        56","0","       137","0","        47","0","","","         1"," ","  -32.8","0,1130, ","","","   203"," ,0,0407, ","  25.4"," ,0,0407, ","   40.0","0,0728, ","0.0","0,0919","-2.2","0,0928","-5.6","0,1024","-8.3","0,1025","-11.1","0,1112","0.0","0,0526","-3.3","0,0501","-5.6","0,0414","-8.3","0,0413","-11.1","0,0412","    4375.0","0","    4375.0","0","    230.5"," ,0","     1011"," ,0","      6.59","0","     15.07","0","     -1.90","0"
"USC00480540","1976","44.37985","-108.03495","1170.4","BASIN, WY US","    343.2","","     343.2","0","        31","0","        17","0","         0","0","","","         4","0","        40","0","       184","0","        54","0","       158","0","        55","0","","","","","  -32.2","0,0206, ","","","   127"," ,0,1129, ","  11.7"," ,0,0622, ","   40.6","0,0711, ","-0.6","0,0909","-2.2","0,1005","-6.7","0,1016","-6.7","0,1016","-10.6","0,1111","0.0","0,0501","-2.2","0,0430","-4.4","0,0404","-6.7","0,0403","-8.9","0,0315","    4199.9","9","    4199.9","0","    126.8"," ,0","      294"," ,0","      7.67","0","     16.54","0","     -1.21","0"
"USC00480540","1977","44.37985","-108.03495","1170.4","BASIN, WY US","    362.2","","     362.2","0","        33","0","        22","0","         0","0","","","         7","0","        46","0","       192","0","        51","0","       169","0","        48","0","","","","","  -30.6","0,0109, ","","","    76"," ,0,0418,+","  19.1"," ,0,0418, ","   40.6","0,0717, ","0.0","0,0913","-2.2","0,1002","-10.0","0,1011","-10.0","0,1011","-10.0","0,1011","0.0","0,0520","-3.9","0,0505","-7.8","0,0417","-7.8","0,0417","-9.4","0,0403","    4234.5","5","    4234.5","0","    141.6"," ,0","      503"," ,0","      7.78","0","     16.91","0","     -1.34","0"
"USC00480540","1978","44.37985","-108.03495","1170.4","BASIN, WY US","    260.0","","     260.0","0","        54","0","        26","0","         1","0","","","        25","0","        72","0","       199","0","       101","0","       149","0","        49","0","","","","","  -41.7","0,1231, ","","","   114"," ,0,0211, ","  29.7"," ,0,0428, ","   38.9","0,0812, ","-1.7","0,0918","-2.2","0,0919","-4.4","0,0920","-6.7","0,1003","-12.8","0,1031","-0.6","0,0620","-2.2","0,0509","-9.4","0,0424","-9.4","0,0424","-9.4","0,0424","    4644.8","8","    4644.8","0","    227.5"," ,0","     1324"," ,0","      4.67","0","     13.79","0","     -4.46","0"
"USC00480540","1979","44.37985","-108.03495","1170.4","BASIN, WY US","    328.0","","     328.0","0","        29","0","        13","0","         0","0","","","","","        60","0","       183","0","        60","0","       158","0","        52","0","","","","","  -41.1","0,0107, ","","","","","  24.1"," ,0,0529, ","   41.7","0,0805, ","-1.1","0,0914","-2.2","0,1004","-4.4","0,1009","-8.9","0,1031","-8.9","0,1031","-0.6","0,0510","-2.2","0,0427","-5.0","0,0404","-7.8","0,0326","-8.9","0,0310","    5253.9","9","    5253.9","0","    137.8"," ,0","","","      6.37","0","     15.37","0","     -2.64","0"
"USC00480540","1980","44.37985","-108.03495","1170.4","BASIN, WY US","    252.2","","     252.2","0","        43","0","        26","0","         1","0","","","","","        27","0","       187","0","        43","0","       164","0","        44","0","","","","","  -35.6","0,0129, ","","","","","  34.8"," ,0,0525, ","   38.3","0,0728,+","-1.1","0,0922","-5.0","0,1010","-5.0","0,1010","-9.4","0,1024","-9.4","0,1024","0.0","0,0514","-2.8","0,0417","-6.1","0,0413","-8.3","0,0409","-10.6","0,0308","    4143.0","0","    4143.0","0","    216.7"," ,0","","","      7.73","0","     16.72","0","     -1.26","0"
"USC00480540","1981","44.37985","-108.03495","1170.4","BASIN, WY US","    347.2","","     347.2","0","        32","0","        23","0","         2","0","","","","","        12","0","       187","0","        14","0","       160","0","        70","0","","","","","  -28.3","0,0210, ","","","","","  35.1"," ,0,0522, ","   43.3","0,0630, ","-1.1","0,1001","-2.8","0,1006","-6.1","0,1015","-9.4","0,1022","-9.4","0,1022","-1.1","0,0512","-2.2","0,0508","-5.6","0,0414","-8.3","0,0408","-8.9","0,0311","    3553.5","5","    3553.5","0","    186.8"," ,0","","","      9.37","0","     19.20","0","     -0.47","0"
"USC00480540","1982","44.37985","-108.03495","1170.4","BASIN, WY US","    309.4","","     309.4","0","        25","0","        20","0","         0","0","","","         8","0","        35","0","       199","0","        46","0","       135","0","        52","0","         2"," ","","","  -37.2","0,0206, ","","","    76"," ,0,0304, ","  21.1"," ,0,1027, ","   40.0","0,0721, ","-1.1","0,0914","-4.4","0,1010","-4.4","0,1010","-10.0","0,1020","-10.0","0,1020","-1.1","0,0607","-3.9","0,0506","-6.7","0,0505","-6.7","0,0505","-10.0","0,0421","    4097.4","4","    4097.4","0","    167.5"," ,0","      417"," ,0","      6.83","0","     15.84","0","     -2.19","0"
"USC00480540","1983","44.37985","-108.03495","1170.4","BASIN, WY US","","","","","","","","","","","","","","","","","","","","","","","","","         2"," ","","","","","","","","","","","","","","","","","","","","","","","","","","","","","","","","","    3807.8","8","    3807.8","0","","","","","","","","","",""
"USC00480540","1984","44.37985","-108.03495","1170.4","BASIN, WY US","","","","","","","","","","","","","","","","","","","","","","","","","         4"," ","","","","","","","","","","","","","","","","","","","","","","","","","","","","","","","","","","","","","","","","","","","","","",""
"USC00480540","1985","44.37985","-108.03495","1170.4","BASIN, WY US","","","","","        29","0","        17","0","         0","0","      109","","         8","0","","","","","        67","0","       154","0","        44","0","","","","","","","   229"," ,0,1218,+","   112"," ,0,1118, ","  19.1"," ,0,0625, ","   39.4","0,0608, ","","","","","","","","","","","","","","","","","","","","","","","","","    151.9"," ,0","      577"," ,0","","","     15.05","0","",""
"USC00480540","1986","44.37985","-108.03495","1170.4","BASIN, WY US","    340.6","","     340.6","0","        48","0","        18","0","         0","0","       76","","         5","0","        23","0","       165","0","        39","0","       135","0","        35","0","         2"," ","","","  -26.7","0,0211, ","   203"," ,0,0221,+","   127"," ,0,0220, ","  12.7"," ,0,0925,+","   37.8","0,0618, ","0.0","0,0922","-6.1","0,1012","-6.1","0,1012","-7.8","0,1102","-14.4","0,1109","0.0","0,0517","-3.3","0,0430","-5.0","0,0415","-12.8","0,0414","-12.8","0,0414","    4135.9","9","    4135.9","0","    136.4"," ,0","      459"," ,0","      8.05","0","     16.09","0","      0.02","0"
"USC00480540","1987","44.37985","-108.03495","1170.4","BASIN, WY US","","","","","        49","0","        22","0","         1","0","       48","","         8","0","","","","","        44","0","       156","0","        31","0","","","","","","","   102"," ,0,0226,+","    76"," ,0,0224, ","  30.7"," ,0,0527, ","   36.7","0,0716, ","","","","","","","","","","","","","","","","","","","","","","","","","    169.3"," ,0","      441"," ,0","","","     16.28","0","",""
"USC00480540","1988","44.37985","-108.03495","1170.4","BASIN, WY US","    477.7","","     477.7","0","        42","0","        14","0","         1","0","       52","","         3","0","        29","0","       173","0","        45","0","       162","0","        64","0","","","","","  -30.6","0,0104,+","    76"," ,0,1231,+","    51"," ,0,1226, ","  50.8"," ,0,0507, ","   40.6","0,0715, ","-1.1","0,0929","-3.3","0,1018","-10.0","0,1028","-10.0","0,1028","-10.0","0,1028","0.0","0,0507","-4.4","0,0426","-4.4","0,0426","-8.3","0,0410","-10.0","0,0329","    4086.4","4","    4086.4","0","    174.8"," ,0","      201"," ,0","      8.18","0","     16.73","0","     -0.37","0"
"USC00480540","1989","44.37985","-108.03495","1170.4","BASIN, WY US","    370.8","","     370.8","0","        64","0","        18","0","         1","0","       80","","         9","0","        55","0","       174","0","        65","0","       153","0","        43","0","","","         1"," ","  -38.3","0,1222,+","   330"," ,0,1216,+","   229"," ,0,1215, ","  36.8"," ,0,1215, ","   40.0","0,0709,+","-0.6","0,0911","-5.0","0,1018","-5.0","0,1018","-8.9","0,1030","-8.9","0,1030","-3.9","0,0501","-3.9","0,0501","-6.1","0,0429","-7.2","0,0411","-9.4","0,0410","    4491.2","2","    4491.2","0","    197.7"," ,0","      882"," ,0","      6.62","0","     14.82","0","     -1.59","0"
"USC00480540","1990","44.37985","-108.03495","1170.4","BASIN, WY US","    366.1","","     366.1","0","        59","0","        27","0","         0","0","       60","","        10","0","        30","0","       188","0","        44","0","       147","0","        39","0","","","","","  -40.6","0,1222, ","   203"," ,0,0105,+","    46"," ,0,0405, ","  24.1"," ,0,0721, ","   38.9","0,0703,+","-2.2","0,1003","-2.2","0,1003","-4.4","0,1018","-6.7","0,1021","-11.1","0,1107","0.0","0,0510","-2.2","0,0502","-5.6","0,0411","-8.3","0,0326","-14.4","0,0325","    4266.3","3","    4266.3","0","    185.3"," ,0","      331"," ,0","      7.55","0","     15.54","0","     -0.43","0"
"USC00480540","1991","44.37985","-108.03495","1170.4","BASIN, WY US","    378.1","","     378.1","0","        65","0","        31","0","         0","0","       49","","        11","0","        26","0","       188","0","        49","0","       148","0","        49","0","         1"," ","","","  -28.3","0,0106, ","   152"," ,0,1101,+","   152"," ,0,1028, ","  16.0"," ,0,0915, ","   37.8","0,0718, ","-0.6","0,0918","-5.6","0,1005","-5.6","0,1005","-10.0","0,1028","-10.0","0,1028","-0.6","0,0505","-4.4","0,0501","-4.4","0,0501","-7.2","0,0328","-9.4","0,0327","    4273.7","7","    4273.7","0","    202.7"," ,0","      689"," ,0","      7.54","0","     15.23","0","     -0.15","0"
"USC00480540","1992","44.37985","-108.03495","1170.4","BASIN, WY US","    242.5","","     242.5","0","        49","0","        29","0","         0","0","       31","","         5","0","        22","0","       180","0","        39","0","       145","0","        22","0","         1"," ","","","  -31.1","0,1205, ","   127"," ,0,1216,+","   102"," ,0,1203, ","  22.9"," ,0,0712, ","   36.7","0,0810,+","-1.1","0,0914","-3.3","0,1007","-6.7","0,1008","-6.7","0,1008","-9.4","0,1111","0.0","0,0502","-2.2","0,0425","-4.4","0,0401","-6.7","0,0323","-8.9","0,0218","    3882.9","9","    3882.9","0","    232.4"," ,0","      338"," ,0","      8.05","0","     16.17","0","     -0.07","0"
"USC00480540","1993","44.37985","-108.03495","1170.4","BASIN, WY US","    142.3","","     142.3","0","        51","0","        27","0","         1","0","       68","","         8","0","        50","0","       176","0","        68","0","       129","0","        18","0","         1"," ","","","  -35.0","0,0113, ","   203"," ,0,0122,+","   102"," ,0,0109, ","  30.5"," ,0,1008, ","   37.8","0,0730, ","-2.8","0,0914","-2.8","0,0914","-7.2","0,1029","-7.2","0,1029","-10.6","0,1030","0.0","0,0424","-2.2","0,0421","-4.4","0,0407","-10.0","0,0317","-10.0","0,0317","    4867.3","3","    4867.3","0","    223.3"," ,0","      328"," ,0","      5.53","0","     13.16","0","     -2.10","0"
"USC00480540","1994","44.37985","-108.03495","1170.4","BASIN, WY US","    369.0","","     369.0","0","        34","0","        16","0","         1","0","       22","","        10","0","         9","0","       179","0","        34","0","       155","0","        49","0","","","","","  -26.7","0,0209, ","   127"," ,0,0323,+","   127"," ,0,0323,+","  35.6"," ,0,0915, ","   36.7","0,0827,+","-1.7","0,1008","-5.0","0,1023","-5.0","0,1023","-6.7","0,1029","-10.0","0,1104","-2.2","0,0502","-2.2","0,0502","-5.6","0,0409","-12.8","0,0324","-12.8","0,0324","    4118.1","1","    4118.1","0","    140.0"," ,0","      609"," ,0","      8.53","0","     16.72","0","      0.35","0"
"USC00480540","1995","44.37985","-108.03495","1170.4","BASIN, WY US","    318.4","","     318.4","0","        55","0","        30","0","         0","0","        1","","         2","0","        20","0","       182","0","        43","0","       128","0","        40","0","","","","","  -23.9","0,0104, ","    76"," ,0,1101, ","    76"," ,0,1101, ","  17.5"," ,0,0930, ","   40.0","0,0730, ","-2.2","0,0921","-2.2","0,0921","-5.6","0,1020","-7.8","0,1028","-18.3","0,1102","-0.6","0,0514","-5.6","0,0427","-5.6","0,0427","-7.2","0,0411","-10.6","0,0329","    4091.1","1","    4091.1","0","    186.4"," ,0","      109"," ,0","      7.92","0","     15.59","0","      0.25","0"
"USC00480540","1996","44.37985","-108.03495","1170.4","BASIN, WY US","    355.2","","     355.2","0","        52","0","        23","0","         0","0","       76","","        20","0","        34","0","       181","0","        66","0","       142","0","        41","0","","","","","  -40.6","0,0202, ","   178"," ,0,0302, ","    76"," ,0,0324,+","  24.4"," ,0,0524, ","   37.2","0,0813,+","-0.6","0,0923","-3.3","0,0927","-6.7","0,1018","-6.7","0,1018","-10.0","0,1031","-1.1","0,0511","-3.3","0,0505","-4.4","0,0405","-6.7","0,0330","-15.0","0,0326","    4449.0","0","    4449.0","0","    165.8"," ,0","      862"," ,0","      6.40","0","     14.10","0","     -1.29","0"
"USC00480540","1997","44.37985","-108.03495","1170.4","BASIN, WY US","    331.0","","     331.0","0","        55","0","        24","0","         1","0","       40","","         6","0","        19","0","       176","0","        43","0","       148","0","        36","0","","","","","  -37.2","0,0112, ","   127"," ,0,0113,+","   102"," ,0,1202, ","  29.2"," ,0,0614, ","   36.7","0,0824,+","-0.6","0,1009","-3.9","0,1013","-7.2","0,1025","-7.2","0,1025","-10.6","0,1111","-1.1","0,0519","-3.9","0,0423","-4.4","0,0422","-7.2","0,0414","-10.6","0,0413","    4226.9","9","    4226.9","0","    241.0"," ,0","      278"," ,0","      7.73","0","     15.36","0","      0.11","0"
"USC00480540","1998","44.37985","-108.03495","1170.4","BASIN, WY US","    417.5","","     417.5","0","        59","0","        31","0","         0","0","       38","","        14","0","        20","0","       169","0","        35","0","       142","0","        57","0","         2"," ","","","  -30.0","0,1221, ","   178"," ,0,0305, ","   152"," ,0,0304, ","  18.3"," ,0,0913, ","   40.6","0,0719, ","-0.6","0,1011","-2.8","0,1019","-4.4","0,1105","-7.8","0,1108","-11.1","0,1111","-0.6","0,0428","-3.3","0,0418","-4.4","0,0402","-8.9","0,0313","-8.9","0,0313","    4070.8","8","    4070.8","0","    205.2"," ,0","      657"," ,0","      8.51","0","     16.23","0","      0.80","0"
"USC00480540","1999","44.37985","-108.03495","1170.4","BASIN, WY US","    311.3","","     311.3","0","        50","0","        19","0","         0","0","       26","","        11","0","        10","0","       182","0","        23","0","       152","0","        43","0","","","","","  -22.2","0,0125, ","   178"," ,0,1222, ","   152"," ,0,1222, ","  14.2"," ,0,0429, ","   38.9","0,0729, ","-0.6","0,0913","-3.3","0,0928","-5.6","0,1018","-10.0","0,1102","-10.0","0,1102","-0.6","0,0511","-3.3","0,0506","-5.0","0,0417","-6.7","0,0416","-10.6","0,0308","    3673.6","6","    3673.6","0","    150.5"," ,0","      505"," ,0","      8.78","0","     17.29","0","      0.28","0"
"USC00480540","2000","44.37985","-108.03495","1170.4","BASIN, WY US","    379.5","","     379.5","0","        44","0","        13","0","         0","0","       67","","        11","0","        29","0","       186","0","        53","0","       149","0","        55","0","","","","","  -27.2","0,1211, ","   102"," ,0,0112, ","   102"," ,0,0922, ","  14.2"," ,0,0517, ","   38.9","0,0724,+","-0.6","0,0920","-2.2","0,0922","-7.2","0,1006","-7.2","0,1006","-13.3","0,1107","0.0","0,0513","-3.3","0,0501","-4.4","0,0416","-9.4","0,0403","-9.4","0,0403","    3721.8","8","    3721.8","0","    115.3"," ,0","      482"," ,0","      7.61","0","     16.02","0","     -0.80","0"
"USC00480540","2001","44.37985","-108.03495","1170.4","BASIN, WY US","    489.7","","     489.7","0","        46","0","        18","0","         0","0","       64","","        11","0","        36","0","       175","0","        63","0","       149","0","        68","0","","","","","  -33.3","0,0208, ","   152"," ,0,0220, ","   102"," ,0,0206, ","  18.5"," ,0,0612, ","   40.0","0,0805, ","-4.4","0,1004","-4.4","0,1004","-4.4","0,1004","-7.2","0,1024","-8.9","0,1108","-0.6","0,0520","-2.2","0,0506","-5.6","0,0414","-7.2","0,0315","-9.4","0,0306","    4519.2","2","    4519.2","0","    135.7"," ,0","      455"," ,0","      7.78","0","     16.29","0","     -0.73","0"
"USC00480540","2002","44.37985","-108.03495","1170.4","BASIN, WY US","    409.6","","     409.6","0","        45","0","        17","0","         0","0","       72","","        13","0","        35","0","       195","0","        74","0","       136","0","        50","0","","","","","  -27.8","0,0129, ","   305"," ,0,1123, ","   254"," ,0,1123, ","  17.8"," ,0,1123, ","   41.7","0,0714, ","0.0","0,0921","-2.2","0,1002","-4.4","0,1011","-6.7","0,1025","-14.4","0,1029","-3.3","0,0523","-3.3","0,0523","-7.2","0,0508","-7.2","0,0508","-11.1","0,0402","    4218.4","4","    4218.4","0","    117.0"," ,0","      938"," ,0","      6.73","0","     14.66","0","     -1.19","0"
"USC00480540","2003","44.37985","-108.03495","1170.4","BASIN, WY US","    512.9","","     512.9","0","        44","0","        15","0","         0","0","       43","","        12","0","        18","0","       166","0","        48","0","       153","0","        65","0","","","","","  -27.2","0,0224,+","   152"," ,0,1226, ","   102"," ,0,1226, ","  16.5"," ,0,0430, ","   39.4","0,0815,+","-1.7","0,0917","-2.2","0,1013","-4.4","0,1029","-7.8","0,1030","-13.3","0,1101","-2.2","0,0519","-2.2","0,0519","-6.1","0,0404","-17.8","0,0309","-17.8","0,0309","    4256.6","6","    4256.6","0","    135.7"," ,0","      455"," ,0","      8.46","0","     16.43","0","      0.49","0"
"USC00480540","2004","44.37985","-108.03495","1170.4","BASIN, WY US","    262.6","","     262.6","0","        40","0","        15","0","         0","0","       50","","         3","0","        22","0","       166","0","        37","0","       150","0","        32","0","","","","","  -35.6","0,0105, ","   127"," ,0,0106,+","    76"," ,0,0207, ","  10.2"," ,0,1028,+","   39.4","0,0718, ","-1.1","0,1016","-5.0","0,1024","-5.0","0,1024","-6.7","0,1101","-8.9","0,1114","0.0","0,0513","-3.9","0,0429","-4.4","0,0409","-7.2","0,0313","-8.9","0,0220","    3927.9","9","    3927.9","0","    104.2"," ,0","      126"," ,0","      8.22","0","     16.25","0","      0.19","0"
"USC00480540","2005","44.37985","-108.03495","1170.4","BASIN, WY US","    339.8","","     339.8","0","        63","0","        27","0","         2","0","       17","","        14","0","        17","0","       171","0","        37","0","       138","0","        44","0","","","","","  -28.3","0,0114, ","    51"," ,0,1206,+","    51"," ,0,1004,+","  27.9"," ,0,0511, ","   41.7","0,0713, ","0.0","0,0925","-2.8","0,1022","-4.4","0,1108","-10.6","0,1109","-10.6","0,1109","-1.1","0,0512","-3.9","0,0501","-6.1","0,0429","-6.7","0,0331","-8.9","0,0317","    3872.0","0","    3872.0","0","    265.0"," ,0","      506"," ,0","      8.17","0","     16.17","0","      0.17","0"
"USC00480540","2006","44.37985","-108.03495","1170.4","BASIN, WY US","    440.8","","     440.8","0","        32","0","        16","0","         0","0","       20","","         5","0","        17","0","       176","0","        27","0","       150","0","        54","0","","","","","  -28.3","0,0218, ","    76"," ,0,1128, ","    76"," ,0,1128, ","  20.3"," ,0,0523, ","   40.0","0,0715, ","-0.6","0,1009","-6.7","0,1017","-6.7","0,1017","-6.7","0,1017","-13.3","0,1030","0.0","0,0511","-2.2","0,0509","-5.6","0,0327","-6.7","0,0326","-9.4","0,0315","    3686.3","3","    3686.3","0","    125.3"," ,0","      176"," ,0","      8.95","0","     17.33","0","      0.57","0"
"USC00480540","2007","44.37985","-108.03495","1170.4","BASIN, WY US","    533.8","","     533.8","0","        43","0","        22","0","         0","0","       54","","         8","0","        29","0","       169","0","        58","0","       156","0","        59","0","","","","","  -29.4","0,0113, ","   178"," ,0,0203, ","   102"," ,0,0203, ","  20.1"," ,0,0203, ","   40.6","0,0724,+","0.0","0,0909","-2.8","0,1021","-4.4","0,1101","-6.7","0,1113","-9.4","0,1114","0.0","0,0506","-2.8","0,0413","-4.4","0,0403","-6.7","0,0304","-12.2","0,0302","    4144.4","4","    4144.4","0","    178.5"," ,0","      329"," ,0","      8.50","0","     16.54","0","      0.45","0"
"USC00480540","2008","44.37985","-108.03495","1170.4","BASIN, WY US","    310.0","","     310.0","0","        52","0","        30","0","         0","0","       52","","        13","0","        29","0","       188","0","        41","0","       129","0","        46","0","","","","","  -37.2","0,0121, ","   203"," ,0,0124,+","   127"," ,0,1012, ","  18.8"," ,0,0901, ","   40.6","0,0801, ","-0.6","0,1008","-2.2","0,1011","-6.1","0,1012","-7.2","0,1026","-10.6","0,1124","-2.2","0,0502","-2.2","0,0502","-4.4","0,0424","-9.4","0,0421","-9.4","0,0421","    4211.6","6","    4211.6","0","    200.7"," ,0","      736"," ,0","      7.02","0","     15.15","0","     -1.11","0"
"USC00480540","2009","44.37985","-108.03495","1170.4","BASIN, WY US","","","","","","","","","","","","","","","","","","","","","","","","","","","","","","","","","","","","","","","","","","","","","","","","","","","","","","","","","","","    4261.5","5","    4261.5","0","","","","","","","","","",""
"USC00480540","2010","44.37985","-108.03495","1170.4","BASIN, WY US","    279.6","","     279.6","0","        55","0","        27","0","         0","0","       45","","        12","0","        23","0","       187","0","        53","0","       143","0","        42","0","","","","","  -32.2","0,0107, ","   102"," ,0,1231,+","   102"," ,0,1230, ","  10.9"," ,0,0523, ","   38.3","0,0726,+","-0.6","0,0903","-2.2","0,1019","-6.1","0,1027","-6.7","0,1111","-10.0","0,1112","-1.1","0,0512","-3.3","0,0507","-4.4","0,0504","-7.8","0,0409","-10.0","0,0320","","","","","    173.9"," ,0","      442"," ,0","      7.34","0","     15.60","0","     -0.93","0"
"USC00480540","2011","44.37985","-108.03495","1170.4","BASIN, WY US","    345.4","","     345.4","K","        71","K","        26","K","         1","K","       75","","        13","K","        29","K","       183","K","        57","K","       131","K","        56","K","","","","","  -37.2","K,0202, ","   102"," ,K,0222,+","    76"," ,K,0306, ","  38.9"," ,K,1007, ","   38.9","K,0717, ","-0.6","K,0920","-2.2","K,1018","-6.7","K,1028","-6.7","K,1028","-8.9","K,1107","-1.1","K,0504","-4.4","K,0501","-4.4","K,0501","-6.7","K,0404","-12.8","K,0307","    4456.1","1","    4456.1","K","    275.5"," ,K","      467"," ,K","      6.91","K","     14.86","K","     -1.04","K"
"USC00480540","2012","44.37985","-108.03495","1170.4","BASIN, WY US","    456.8","","     456.8","7","        29","7","        13","7","         0","7","","","","","        12","7","       179","7","        28","7","       168","7","        68","7","","","","","  -25.6","7,1231, ","","","","","   8.4"," ,7,0525, ","   40.0","7,0703,+","-0.6","7,0912","-5.6","7,1005","-5.6","7,1005","-8.3","7,1026","-21.1","7,1110","-0.6","K,0507","-2.2","K,0506","-6.1","K,0408","-6.7","K,0311","-8.9","K,0307","    3722.7","7","    3722.7","7","     77.5"," ,7","","","      9.23","7","     18.06","7","      0.40","7"
"USC00480540","2013","44.37985","-108.03495","1170.4","BASIN, WY US","    472.4","","     472.4","7","        53","7","        25","7","         0","7","      104","","        12","7","        41","7","       190","7","        63","7","       140","7","        62","7","","","","","  -28.9","7,1207, ","   127"," ,7,0204,+","   102"," ,7,0422, ","  20.8"," ,7,1014, ","   37.8","7,0712, ","0.0","7,0928","-4.4","7,1005","-4.4","7,1005","-6.7","7,1105","-8.9","7,1118","-1.7","7,0503","-3.3","7,0502","-10.0","7,0424","-10.0","7,0424","-10.0","7,0424","    4343.3","3","    4343.3","7","    175.3"," ,7","      556"," ,7","      7.05","7","     14.98","7","     -0.89","7"
"USC00480540","2014","44.37985","-108.03495","1170.4","BASIN, WY US","    301.2","","     301.2","7","        69","7","        24","7","         0","7","      109","","        20","7","        35","7","       184","7","        62","7","       156","7","        32","7","","","","","  -36.1","7,0206, ","   229"," ,7,1127,+","   203"," ,7,0413, ","  20.3"," ,7,0911, ","   38.9","7,0725, ","-1.1","7,0912","-2.8","7,1003","-5.6","7,1028","-10.0","7,1110","-10.0","7,1110","-2.8","7,0513","-2.8","7,0513","-9.4","7,0414","-9.4","7,0414","-9.4","7,0414","    4502.4","4","    4502.4","7","    228.2"," ,7","     1203"," ,7","      6.92","7","     14.74","7","     -0.90","7"
"USC00480540","2015","44.37985","-108.03495","1170.4","BASIN, WY US","    445.0","","     445.0","7","        47","7","        19","7","         0","7","       66","","         7","7","        13","7","       156","7","        49","7","       167","7","        56","7","","","","","  -26.1","7,0101, ","   127"," ,7,1130,+","   127"," ,7,1126, ","  14.0"," ,7,1126, ","   39.4","7,0812, ","-2.8","7,1028","-2.8","7,1028","-4.4","7,1108","-10.6","7,1121","-10.6","7,1121","-3.3","7,0511","-3.3","7,0511","-5.0","7,0409","-6.7","7,0310","-12.8","7,0306","    4027.4","4","    4027.4","7","    139.3"," ,7","      329"," ,7","      9.54","7","     17.45","7","      1.63","7"
"USC00480540","2016","44.37985","-108.03495","1170.4","BASIN, WY US","    573.1","","     573.1","7","        47","7","        31","7","         2","7","       48","","         9","7","        16","7","       128","7","        34","7","       168","7","        67","7","","","","","  -26.1","7,1218, ","   203"," ,7,1226, ","   127"," ,7,1226, ","  34.3"," ,7,0924, ","   40.0","7,0721,+","-2.2","7,1012","-2.2","7,1012","-8.9","7,1118","-8.9","7,1118","-8.9","7,1118","-0.6","7,0406","-4.4","7,0327","-4.4","7,0327","-8.9","7,0320","-8.9","7,0320","    3258.5","5","    3258.5","7","    252.8"," ,7","      421"," ,7","     10.84","7","     18.78","7","      2.91","7"
"USC00480540","2017","44.37985","-108.03495","1170.4","BASIN, WY US","    515.6","","     515.6","7","        59","7","        38","7","         0","7","       72","","        14","7","        24","7","       137","7","        43","7","       153","7","        66","7","","","","","  -32.2","7,0106, ","   254"," ,7,0204,+","   102"," ,7,0201, ","  24.4"," ,7,0915, ","   38.9","7,0706, ","0.0","7,1004","-3.3","7,1027","-7.2","7,1031","-7.2","7,1031","-10.0","7,1107","-1.1","7,0410","-2.8","7,0311","-5.0","7,0301","-7.2","7,0226","-10.6","7,0217","    3645.0","0","    3645.0","7","    234.3"," ,7","      659"," ,7","      9.43","7","     17.07","7","      1.80","7"
"USC00480540","2018","44.37985","-108.03495","1170.4","BASIN, WY US","    462.9","","     462.9","7","        55","7","        27","7","         0","7","       86","","        14","7","        21","7","       163","7","        40","7","       157","7","        54","7","","","","","  -27.2","7,0221, ","   178"," ,7,0225,+","   102"," ,7,0406, ","  18.5"," ,7,0529, ","   40.6","7,0812, ","-0.6","7,1011","-3.3","7,1014","-7.2","7,1015","-7.2","7,1015","-9.4","7,1109","-1.1","7,0425","-2.2","7,0414","-7.2","7,0407","-7.2","7,0407","-10.6","7,0403","    3942.7","7","    3942.7","7","    194.7"," ,7","      659"," ,7","      8.70","7","     16.64","7","      0.77","7"
"USC00480540","2019","44.37985","-108.03495","1170.4","BASIN, WY US","    430.4","","     430.4","7","        59","7","        29","7","         2","7","       69","","        10","7","        12","7","       171","7","        39","7","       141","7","        49","7","","","","","  -25.6","7,0304, ","   102"," ,7,1130, ","   107"," ,7,1130, ","  29.5"," ,7,0929, ","   39.4","7,0712, ","-3.9","7,1010","-3.9","7,1010","-6.7","7,1011","-6.7","7,1011","-10.0","7,1028","-1.7","7,0512","-2.2","7,0502","-6.1","7,0412","-7.2","7,0315","-11.7","7,0312","    4032.4","4","    4032.4","7","    245.3"," ,7","      483"," ,7","      8.05","7","     15.54","7","      0.56","7"
"USC00480540","2020","44.37985","-108.03495","1170.4","BASIN, WY US","","","","","","","","","","","","","","","","","","","","","","","","","","","","","","","","","","","","","","","","","","","","","","","","","","","","","","","","","","","    3920.4","4","    3920.4","7","","","","","","","","","",""
