"STATION","DATE","LATITUDE","LONGITUDE","ELEVATION","NAME","CDSD","CDSD_ATTRIBUTES","CLDD","CLDD_ATTRIBUTES","DP01","DP01_ATTRIBUTES","DP10","DP10_ATTRIBUTES","DP1X","DP1X_ATTRIBUTES","DSND","DSND_ATTRIBUTES","DSNW","DSNW_ATTRIBUTES","DT00","DT00_ATTRIBUTES","DT32","DT32_ATTRIBUTES","DX32","DX32_ATTRIBUTES","DX70","DX70_ATTRIBUTES","DX90","DX90_ATTRIBUTES","DYFG","DYFG_ATTRIBUTES","DYTS","DYTS_ATTRIBUTES","EMNT","EMNT_ATTRIBUTES","EMSD","EMSD_ATTRIBUTES","EMSN","EMSN_ATTRIBUTES","EMXP","EMXP_ATTRIBUTES","EMXT","EMXT_ATTRIBUTES","FZF0","FZF0_ATTRIBUTES","FZF1","FZF1_ATTRIBUTES","FZF2","FZF2_ATTRIBUTES","FZF3","FZF3_ATTRIBUTES","FZF4","FZF4_ATTRIBUTES","FZF5","FZF5_ATTRIBUTES","FZF6","FZF6_ATTRIBUTES","FZF7","FZF7_ATTRIBUTES","FZF8","FZF8_ATTRIBUTES","FZF9","FZF9_ATTRIBUTES","HDSD","HDSD_ATTRIBUTES","HTDD","HTDD_ATTRIBUTES","PRCP","PRCP_ATTRIBUTES","SNOW","SNOW_ATTRIBUTES","TAVG","TAVG_ATTRIBUTES","TMAX","TMAX_ATTRIBUTES","TMIN","TMIN_ATTRIBUTES"
"USC00265191","1908","38.9547","-119.7758","1435.3","MINDEN, NV US","","","","","        25","6","        17","6","         0","6","","","        13","6","","","","","","","","","","","         4"," ","","","","","","","   178"," ,6,1017, ","  17.8"," ,6,1017, ","","","","","","","","","","","","","","","","","","","","","","","","","","","    153.8"," ,6","     1257"," ,6","","","","","",""
"USC00265191","1909","38.9547","-119.7758","1435.3","MINDEN, NV US","    105.1","","     105.1","6","        39","6","        31","6","         5","6","","","","","         0","6","       175","6","        14","6","       155","6","        38","6","","","","","  -16.7","6,0124, ","","","","","  53.3"," ,6,0114, ","   36.1","6,0818, ","0.0","6,0912","-4.4","6,0913","-4.4","6,0913","-7.2","6,1024","-8.9","6,1203","-1.1","6,0706","-2.2","6,0529","-4.4","6,0513","-7.8","6,0411","-8.9","6,0331","    3316.4","4","    3316.4","6","    499.8"," ,6","","","      9.54","6","     18.73","6","      0.35","6"
"USC00265191","1914","38.9547","-119.7758","1435.3","MINDEN, NV US","","","","","        28","6","        18","6","         4","6","","","","","","","","","","","","","","","","","","","","","","","","","  44.7"," ,6,0125, ","","","","","","","","","","","","","","","","","","","","","","","","","","","    308.6"," ,6","","","","","","","",""
"USC00265191","1915","38.9547","-119.7758","1435.3","MINDEN, NV US","","","","","        30","6","        21","6","         2","6","","","","","","","","","","","","","","","","","","","","","","","","","  27.2"," ,6,1204, ","","","","","","","","","","","","","","","","","","","","","","","","","","","    240.0"," ,6","","","","","","","",""
"USC00265191","1916","38.9547","-119.7758","1435.3","MINDEN, NV US","","","","","        28","6","        20","6","         3","6","","","","","","","","","","","","","","","","","","","","","","","","","  35.8"," ,6,0117, ","","","","","","","","","","","","","","","","","","","","","","","","","","","    239.1"," ,6","","","","","","","",""
"USC00265191","1917","38.9547","-119.7758","1435.3","MINDEN, NV US","","","","","        27","6","        19","6","         0","6","","","         3","6","","","","","","","","","","","","","","","","","","","   102"," ,6,0309, ","  18.0"," ,6,1106, ","","","","","","","","","","","","","","","","","","","","","","","","","","","    131.3"," ,6","      204"," ,6","","","","","",""
"USC00265191","1918","38.9547","-119.7758","1435.3","MINDEN, NV US","     96.4","","      96.4","6","","","","","","","","","","","         0","6","       170","6","         3","6","       153","6","         2","6","","","","","  -17.2","6,0226, ","","","","","","","   32.2","6,0627,+","-1.7","6,1017","-3.3","6,1018","-6.7","6,1025","-6.7","6,1025","-9.4","6,1108","-1.1","6,0528","-2.2","6,0518","-5.0","6,0427","-6.7","6,0414","-9.4","6,0315","","","","","","","","","      9.60","6","     19.10","6","      0.09","6"
"USC00265191","1923","38.9547","-119.7758","1435.3","MINDEN, NV US","","","","","        31","6","        24","6","         1","6","","","","","","","","","","","","","","","","","","","","","","","","","  25.7"," ,6,0122, ","","","","","","","","","","","","","","","","","","","","","","","","","","","    184.6"," ,6","","","","","","","",""
"USC00265191","1924","38.9547","-119.7758","1435.3","MINDEN, NV US","","","","","        40","6","        16","6","         1","6","","","","","","","","","","","","","","","         1"," ","","","","","","","","","  47.0"," ,6,1109, ","","","","","","","","","","","","","","","","","","","","","","","","","","","    194.0"," ,6","","","","","","","",""
"USC00265191","1925","38.9547","-119.7758","1435.3","MINDEN, NV US","","","","","","","","","","","","","","","","","","","","","","","","","         3"," ","","","","","","","","","","","","","","","","","","","","","","","","","","","","","","","","","","","","","","","","","","","","","",""
"USC00265191","1926","38.9547","-119.7758","1435.3","MINDEN, NV US","    264.7","","     264.7","6","","","","","","","","","","","         1","6","       160","6","         5","6","       177","6","        61","6","         2"," ","","","  -19.4","6,1224, ","","","","","","","   39.4","6,0625, ","-0.6","6,0831","-3.9","6,0925","-5.0","6,0926","-9.4","6,1030","-9.4","6,1030","-0.6","6,0512","-2.8","6,0510","-4.4","6,0508","-7.8","6,0221","-9.4","6,0218","","","","","","","","","     10.94","6","     20.73","6","      1.15","6"
"USC00265191","1927","38.9547","-119.7758","1435.3","MINDEN, NV US","    185.7","","     185.7","6","        54","6","        23","6","         0","6","","","","","         0","6","       167","6","         1","6","       160","6","        49","6","","","","","  -15.0","6,0112, ","","","","","  22.6"," ,6,1113, ","   36.7","6,0722,+","0.0","6,0907","-2.2","6,0910","-5.0","6,1005","-6.7","6,1007","-8.9","6,1205","-0.6","6,0627","-6.1","6,0523","-6.1","6,0523","-6.7","6,0417","-9.4","6,0410","    3012.3","3","    3012.3","6","    229.1"," ,6","","","     10.31","6","     19.31","6","      1.31","6"
"USC00265191","1928","38.9547","-119.7758","1435.3","MINDEN, NV US","    200.6","","     200.6","0","        36","0","        10","0","         0","0","        0","","         5","0","         5","0","       166","0","        12","0","       175","0","        53","0","         2"," ","         1"," ","  -18.9","0,1221,+","     0"," ,0,1231,+","   102"," ,0,1012, ","  13.2"," ,0,0325, ","   41.1","0,0725, ","0.0","0,0911","-2.8","0,0913","-7.8","0,1014","-7.8","0,1014","-10.0","0,1117","0.0","0,0504","-2.2","0,0502","-5.0","0,0421","-6.7","0,0403","-10.0","0,0226","    2998.0","0","    2998.0","0","     71.1"," ,0","      267"," ,0","     10.46","0","     20.39","0","      0.52","0"
"USC00265191","1929","38.9547","-119.7758","1435.3","MINDEN, NV US","","","","","        38","0","        14","0","         0","0","        0","","         5","0","         2","0","       178","0","","","","","","","","","         2"," ","  -20.6","0,0208, ","     0"," ,0,1231,+","   114"," ,0,0408, ","  11.9"," ,0,1210, ","","","0.0","0,0909","-2.2","0,0923","-5.6","0,1027","-9.4","0,1030","-9.4","0,1030","0.0","0,0617","-2.2","0,0602","-12.2","0,0410","-12.2","0,0410","-12.2","0,0410","","","","","    109.8"," ,0","      292"," ,0","","","","","      0.38","0"
"USC00265191","1930","38.9547","-119.7758","1435.3","MINDEN, NV US","    203.2","","     203.2","0","        52","0","        25","0","         0","0","        0","","        10","0","         3","0","       183","0","         6","0","       164","0","        49","0","","","         2"," ","  -25.0","0,0108, ","     0"," ,0,1231,+","   127"," ,0,0107, ","  20.8"," ,0,0930, ","   38.9","0,0714, ","0.0","0,0911","-2.8","0,0925","-6.7","0,1026","-6.7","0,1026","-13.3","0,1114","0.0","0,0531","-3.9","0,0508","-5.0","0,0320","-7.8","0,0301","-9.4","0,0129","    2947.9","9","    2947.9","0","    225.6"," ,0","      583"," ,0","      9.94","0","     19.63","0","      0.25","0"
"USC00265191","1931","38.9547","-119.7758","1435.3","MINDEN, NV US","    391.9","","     391.9","0","        64","0","        27","0","         0","0","        0","","        11","0","         2","0","       170","0","         6","0","       199","0","        75","0","","","         6"," ","  -25.6","0,1215, ","     0"," ,0,1231,+","   305"," ,0,0423, ","  23.1"," ,0,0427, ","   42.2","0,0720, ","-5.0","0,0910","-5.0","0,0910","-5.0","0,0910","-6.7","0,0923","-11.7","0,1112","0.0","0,0508","-3.3","0,0414","-6.7","0,0403","-6.7","0,0403","-11.1","0,0307","    3029.1","1","    3029.1","0","    241.7"," ,0","      812"," ,0","     11.01","0","     20.91","0","      1.11","0"
"USC00265191","1932","38.9547","-119.7758","1435.3","MINDEN, NV US","    233.6","","     233.6","0","        41","0","        16","0","         0","0","       28","","        10","0","         8","0","       166","0","        16","0","       179","0","        64","0","","","","","  -27.2","0,0203, ","   203"," ,0,0206,+","   203"," ,0,0206, ","  19.1"," ,0,0206, ","   40.0","0,0629, ","0.0","0,0927","-3.3","0,1010","-5.0","0,1018","-7.8","0,1019","-9.4","0,1025","0.0","0,0601","-6.7","0,0422","-6.7","0,0422","-6.7","0,0422","-12.2","0,0223","    3376.9","9","    3376.9","0","    134.0"," ,0","      760"," ,0","     10.22","0","     19.94","0","      0.50","0"
"USC00265191","1933","38.9547","-119.7758","1435.3","MINDEN, NV US","    298.4","","     298.4","0","        43","0","        21","0","         2","0","","","        14","0","         4","0","       170","0","         7","0","       179","0","        57","0","","","         7"," ","  -20.0","0,0210, ","","","   356"," ,0,0119, ","  31.0"," ,0,1213, ","   38.3","0,0816, ","0.0","0,0921","-3.9","0,1101","-6.7","0,1105","-6.7","0,1105","-8.9","0,1106","-2.8","0,0519","-2.8","0,0519","-5.6","0,0503","-6.7","0,0430","-9.4","0,0226","    3322.6","6","    3322.6","0","    245.1"," ,0","      956"," ,0","     10.46","0","     20.33","0","      0.59","0"
"USC00265191","1934","38.9547","-119.7758","1435.3","MINDEN, NV US","    261.1","","     261.1","0","        42","0","        14","0","         0","0","        0","","         1","0","         0","0","       133","0","         0","0","       212","0","        69","0","","","         3"," ","  -12.2","0,1231, ","     0"," ,0,1231,+","    51"," ,0,1228, ","  22.9"," ,0,1018, ","   41.7","0,0728, ","-0.6","0,0913","-3.3","0,0925","-4.4","0,0926","-6.7","0,1124","-11.7","0,1202","-1.1","0,0502","-2.2","0,0405","-6.7","0,0404","-6.7","0,0404","","","    2443.5","5","    2443.5","0","    147.5"," ,0","       51"," ,0","     12.20","0","     22.16","0","      2.25","0"
"USC00265191","1935","38.9547","-119.7758","1435.3","MINDEN, NV US","    199.0","","     199.0","0","        42","0","        20","0","         0","0","        2","","         8","0","         1","0","       171","0","         6","0","       167","0","        46","0","","","","","  -20.6","0,0120, ","   178"," ,0,0109, ","   178"," ,0,0109, ","  19.3"," ,0,0403, ","   38.3","0,0809, ","0.0","0,1009","-4.4","0,1017","-4.4","0,1017","-8.9","0,1022","-8.9","0,1022","-1.1","0,0518","-2.2","0,0425","-6.1","0,0330","-10.0","0,0322","-10.0","0,0322","    3042.4","4","    3042.4","0","    206.2"," ,0","      750"," ,0","      9.74","0","     18.61","0","      0.87","0"
"USC00265191","1936","38.9547","-119.7758","1435.3","MINDEN, NV US","    330.5","","     330.5","0","        40","0","        21","0","         2","0","        6","","         6","0","         0","0","       163","0","         2","0","       168","0","        73","0","","","         2"," ","  -15.0","0,0204, ","   127"," ,0,1231,+","   152"," ,0,0201, ","  50.8"," ,0,0222, ","   40.0","0,0719, ","-1.7","0,0914","-3.9","0,1022","-4.4","0,1024","-6.7","0,1029","-8.9","0,1102","-2.8","0,0520","-2.8","0,0520","-7.2","0,0406","-7.2","0,0406","-10.0","0,0326","    3152.6","6","    3152.6","0","    266.0"," ,0","      380"," ,0","     10.82","0","     20.09","0","      1.54","0"
"USC00265191","1937","38.9547","-119.7758","1435.3","MINDEN, NV US","    268.3","","     268.3","0","        39","0","        22","0","         2","0","","","         6","0","        15","0","       167","0","        17","0","       184","0","        64","0","","","         2"," ","  -29.4","0,0121, ","","","   127"," ,0,0129, ","  44.5"," ,0,1211, ","   37.8","0,0812,+","-4.4","0,1004","-4.4","0,1004","-4.4","0,1004","-6.7","0,1129","-8.9","0,1130","0.0","0,0519","-2.2","0,0430","-6.1","0,0428","-6.7","0,0417","-8.9","0,0215","    3407.3","3","    3407.3","0","    298.1"," ,0","      278"," ,0","     10.28","0","     19.79","0","      0.76","0"
"USC00265191","1938","38.9547","-119.7758","1435.3","MINDEN, NV US","    221.5","","     221.5","0","        63","0","        29","0","         3","0","       25","","         6","0","         2","0","       162","0","         5","0","       161","0","        46","0","","","","","  -19.4","0,0217, ","   356"," ,0,0205,+","   356"," ,0,0204, ","  39.4"," ,0,0211, ","   38.3","0,0723, ","-3.9","0,1003","-3.9","0,1003","-5.0","0,1018","-8.9","0,1106","-8.9","0,1106","-1.1","0,0519","-2.8","0,0506","-7.2","0,0503","-7.2","0,0503","-12.2","0,0331","    3012.7","7","    3012.7","0","    328.8"," ,0","      712"," ,0","     10.04","0","     18.88","0","      1.20","0"
"USC00265191","1940","38.9547","-119.7758","1435.3","MINDEN, NV US","    210.8","","     210.8","0","        57","0","        31","0","         0","0","       12","","         6","0","         4","0","       155","0","         1","0","       184","0","        61","0","","","","","  -21.1","0,1214, ","   102"," ,0,1217, ","   152"," ,0,1217, ","  22.6"," ,0,0109, ","   38.3","0,0616, ","-1.7","0,0919","-3.9","0,0929","-5.6","0,1030","-7.2","0,1105","-10.6","0,1110","-1.7","0,0506","-2.8","0,0417","-4.4","0,0406","-6.7","0,0405","-8.9","0,0313","","","","","    302.4"," ,0","      316"," ,0","     10.92","0","     20.69","0","      1.15","0"
"USC00265191","1941","38.9547","-119.7758","1435.3","MINDEN, NV US","    128.7","","     128.7","0","        54","0","        29","0","         1","0","        7","","         8","0","         1","0","       195","0","         6","0","       152","0","        33","0","","","         1"," ","  -17.8","0,1227, ","   483"," ,0,1231, ","   292"," ,0,1227, ","  27.2"," ,0,1203, ","   37.8","0,0722,+","0.0","0,0901","-2.8","0,0914","-4.4","0,0920","-11.1","0,1118","-11.1","0,1118","-1.1","0,0625","-4.4","0,0519","-4.4","0,0519","-8.9","0,0418","-8.9","0,0418","    3121.3","3","    3121.3","0","    277.8"," ,0","     1054"," ,0","      9.64","0","     19.06","0","      0.21","0"
"USC00265191","1942","38.9547","-119.7758","1435.3","MINDEN, NV US","    162.5","","     162.5","0","        45","0","        27","0","         2","0","        1","","         2","0","         5","0","       198","0","        13","0","       164","0","        46","0","        10"," ","","","  -29.4","0,0102, ","    51"," ,0,0314, ","    38"," ,0,0314, ","  29.2"," ,0,1118, ","   38.3","0,0722, ","0.0","0,0830","-5.0","0,0919","-5.0","0,0919","-7.8","0,1013","-9.4","0,1029","-0.6","0,0607","-2.2","0,0529","-5.6","0,0512","-7.2","0,0502","-11.7","0,0327","    3710.0","0","    3710.0","0","    265.3"," ,0","       71"," ,0","      9.10","0","     19.27","0","     -1.06","0"
"USC00265191","1943","38.9547","-119.7758","1435.3","MINDEN, NV US","    102.1","","     102.1","0","        44","0","        19","0","         2","0","       14","","         7","0","         1","0","       188","0","         2","0","       164","0","        45","0","","","         5"," ","  -20.0","0,0118, ","    76"," ,0,1207,+","   127"," ,0,0225, ","  58.9"," ,0,0121, ","   37.8","0,0730,+","0.0","0,0919","-3.3","0,1012","-6.1","0,1022","-6.7","0,1023","-10.6","0,1031","0.0","0,0626","-2.2","0,0623","-4.4","0,0518","-7.2","0,0516","-9.4","0,0318","    3098.5","5","    3098.5","0","    286.2"," ,0","      455"," ,0","      9.75","0","     20.11","0","     -0.62","0"
"USC00265191","1944","38.9547","-119.7758","1435.3","MINDEN, NV US","","","","","        48","0","        15","0","         0","0","       15","","        12","0","","","","","","","","","","","","","         3"," ","","","   127"," ,0,1228, ","   191"," ,0,0222, ","  24.6"," ,0,1110, ","","","","","","","","","","","","","","","","","","","","","","","","","","","    157.7"," ,0","      794"," ,0","","","","","",""
"USC00265191","1945","38.9547","-119.7758","1435.3","MINDEN, NV US","    127.0","","     127.0","0","        57","0","        33","0","         3","0","       17","","        11","0","         0","0","       184","0","         4","0","       163","0","        52","0","","","        12"," ","  -17.2","0,1214,+","    76"," ,0,0104,+","    97"," ,0,0315, ","  32.3"," ,0,0202, ","   38.9","0,0726, ","-2.2","0,0814","-2.2","0,0814","-4.4","0,0923","-7.2","0,1023","-8.9","0,1130","-1.1","0,0616","-2.2","0,0525","-4.4","0,0423","-11.1","0,0413","-11.1","0,0413","    3338.0","0","    3338.0","0","    333.0"," ,0","      591"," ,0","      9.58","0","     19.25","0","     -0.09","0"
"USC00265191","1946","38.9547","-119.7758","1435.3","MINDEN, NV US","    129.8","","     129.8","0","        42","0","        21","0","         0","0","       10","","         9","0","         1","0","       195","0","         0","0","       159","0","        41","0","","","         7"," ","  -18.9","0,0212, ","   102"," ,0,0319, ","   102"," ,0,0319, ","  16.5"," ,0,1119, ","   37.8","0,0720, ","0.0","0,0907","-3.9","0,0917","-4.4","0,1009","-8.3","0,1018","-10.0","0,1029","-1.1","0,0624","-2.2","0,0517","-5.6","0,0420","-6.7","0,0403","-8.9","0,0402","    3165.5","5","    3165.5","0","    185.5"," ,0","      521"," ,0","      9.27","0","     19.43","0","     -0.89","0"
"USC00265191","1947","38.9547","-119.7758","1435.3","MINDEN, NV US","","","","","","","","","","","","","","","","","","","","","","","","","","","         5"," ","","","","","","","","","","","","","","","","","","","","","","","","","","","","","","","    3161.3","3","    3161.3","0","","","","","","","","","",""
"USC00265191","1948","38.9547","-119.7758","1435.3","MINDEN, NV US","","","","","","","","","","","","","","","","","","","","","","","","","","","         3"," ","","","","","","","","","","","","","","","","","","","","","","","","","","","","","","","","","","","","","","","","","","","",""
"USC00265191","1949","38.9547","-119.7758","1435.3","MINDEN, NV US","","","","","        48","0","        11","0","         1","0","       44","","        13","0","","","","","","","","","","","","","","","","","   381"," ,0,0120, ","   152"," ,0,0120, ","  25.9"," ,0,1110, ","","","","","","","","","","","","","","","","","","","","","","","","","","","    139.4"," ,0","      711"," ,0","","","","","",""
"USC00265191","1950","38.9547","-119.7758","1435.3","MINDEN, NV US","","","","","        69","0","        27","0","         2","0","","","","","         4","0","       169","0","        11","0","       175","0","        46","0","","","","","  -22.2","0,0115, ","","","","","  64.8"," ,0,1119, ","   38.9","0,0903, ","-6.7","0,0930","-6.7","0,0930","-6.7","0,0930","-6.7","0,0930","-11.1","0,1110","-1.1","0,0612","-2.8","0,0608","-5.6","0,0509","-7.2","0,0507","-9.4","0,0313","","","","","    346.0"," ,0","","","     10.16","0","     19.98","0","      0.32","0"
"USC00265191","1951","38.9547","-119.7758","1435.3","MINDEN, NV US","    185.5","","     185.5","0","        53","0","        27","0","         1","0","","","         5","0","         2","0","       190","0","         8","0","       169","0","        59","0","","","","","  -19.4","0,0303, ","","","   152"," ,0,1122, ","  25.4"," ,0,1228, ","   36.7","0,0724,+","-0.6","0,0926","-2.2","0,1004","-5.6","0,1005","-7.2","0,1021","-10.6","0,1116","0.0","0,0609","-3.9","0,0514","-4.4","0,0513","-8.9","0,0402","-8.9","0,0402","    2950.1","1","    2950.1","0","    215.4"," ,0","      529"," ,0","      9.69","0","     19.72","0","     -0.34","0"
"USC00265191","1952","38.9547","-119.7758","1435.3","MINDEN, NV US","    136.9","","     136.9","0","        65","0","        30","0","         1","0","","","","","         9","0","       201","0","        12","0","       176","0","        38","0","","","","","  -24.4","0,0101, ","","","","","  46.5"," ,0,0315, ","   34.4","0,0719,+","0.0","0,0913","-2.8","0,1019","-5.0","0,1101","-8.3","0,1102","-10.6","0,1103","-0.6","0,0615","-3.3","0,0612","-4.4","0,0504","-10.0","0,0324","-10.0","0,0324","    3670.2","2","    3670.2","0","    276.6"," ,0","","","      8.91","0","     18.54","0","     -0.71","0"
"USC00265191","1953","38.9547","-119.7758","1435.3","MINDEN, NV US","    145.1","","     145.1","0","        47","0","        20","0","         0","0","","","         6","0","         0","0","       197","0","         1","0","       145","0","        48","0","","","","","  -16.1","0,0302, ","","","    64"," ,0,1204,+","  23.9"," ,0,0830, ","   37.2","0,0713, ","-0.6","0,0929","-5.6","0,1003","-5.6","0,1003","-6.7","0,1025","-9.4","0,1118","-1.1","0,0613","-2.2","0,0524","-5.6","0,0512","-9.4","0,0412","-9.4","0,0412","    3348.1","1","    3348.1","0","    171.0"," ,0","      314"," ,0","      9.46","0","     19.70","0","     -0.78","0"
"USC00265191","1954","38.9547","-119.7758","1435.3","MINDEN, NV US","    174.3","","     174.3","0","        37","0","        18","0","         0","0","","","         6","0","         1","0","       190","0","         1","0","       185","0","        45","0","","","","","  -18.3","0,1227, ","","","   165"," ,0,0125, ","  20.1"," ,0,1116,+","   37.8","0,0802, ","-0.6","0,0915","-2.8","0,0918","-5.0","0,0930","-10.0","0,1024","-10.0","0,1024","-0.6","0,0613","-5.6","0,0606","-5.6","0,0606","-8.3","0,0501","-10.0","0,0320","    3104.4","4","    3104.4","0","    178.7"," ,0","      418"," ,0","      9.80","0","     20.27","0","     -0.67","0"
"USC00265191","1955","38.9547","-119.7758","1435.3","MINDEN, NV US","","","","","        60","0","        28","0","         3","0","","","         8","0","         6","0","       194","0","","","","","","","","","","","  -21.1","0,0108, ","","","   229"," ,0,1223, ","  59.9"," ,0,1223, ","","","0.0","0,0924","-2.8","0,1005","-6.1","0,1024","-8.3","0,1027","-9.4","0,1122","0.0","0,0602","-4.4","0,0601","-4.4","0,0601","-8.9","0,0427","-8.9","0,0427","    3698.7","7","    3698.7","0","    308.6"," ,0","      508"," ,0","","","","","     -1.13","0"
"USC00265191","1956","38.9547","-119.7758","1435.3","MINDEN, NV US","","","","","        40","0","        20","0","         0","0","","","         6","0","         4","0","       187","0","","","","","","","","","","","  -19.4","0,0202, ","","","   178"," ,0,0124, ","  18.0"," ,0,0124, ","","","-2.8","0,1012","-2.8","0,1012","-4.4","0,1019","-9.4","0,1024","-9.4","0,1024","0.0","0,0606","-3.9","0,0514","-4.4","0,0408","-10.0","0,0403","-10.0","0,0403","","","","","    165.9"," ,0","      508"," ,0","","","","","     -1.29","0"
"USC00265191","1957","38.9547","-119.7758","1435.3","MINDEN, NV US","    121.0","","     121.0","0","        58","0","        25","0","         0","0","","","","","        10","0","       190","0","         7","0","       143","0","        38","0","","","         1"," ","  -24.4","0,0130, ","","","","","  21.3"," ,0,0112, ","   36.1","0,0908,+","-1.7","0,0920","-2.2","0,1002","-4.4","0,1004","-7.8","0,1106","-11.1","0,1122","0.0","0,0617","-2.2","0,0515","-4.4","0,0503","-10.0","0,0407","-10.0","0,0407","    3612.5","5","    3612.5","0","    205.8"," ,0","","","      8.92","0","     18.52","0","     -0.67","0"
"USC00265191","1958","38.9547","-119.7758","1435.3","MINDEN, NV US","    192.4","","     192.4","0","        52","0","        26","0","         0","0","","","","","         2","0","       190","0","         3","0","       183","0","        38","0","","","         1"," ","  -22.8","0,1117, ","","","","","  21.8"," ,0,0224, ","   36.7","0,0815, ","-1.1","0,0913","-5.0","0,0924","-5.0","0,0924","-7.8","0,1021","-10.0","0,1112","-0.6","0,0514","-2.2","0,0501","-5.0","0,0426","-8.3","0,0424","-9.4","0,0309","    3341.4","4","    3341.4","0","    228.6"," ,0","","","     10.12","0","     20.02","0","      0.22","0"
"USC00265191","1959","38.9547","-119.7758","1435.3","MINDEN, NV US","    238.9","","     238.9","0","        25","0","        12","0","         0","0","","","","","         4","0","       210","0","         0","0","       174","0","        62","0","","","","","  -21.7","0,0213, ","","","","","  22.9"," ,0,0215, ","   38.3","0,0809, ","-3.3","0,0915","-3.3","0,0915","-4.4","0,1001","-7.2","0,1003","-10.6","0,1031","0.0","0,0608","-5.6","0,0504","-5.6","0,0504","-6.7","0,0418","-8.9","0,0311","    3050.9","9","    3050.9","0","    118.4"," ,0","","","      9.89","0","     21.11","0","     -1.32","0"
"USC00265191","1960","38.9547","-119.7758","1435.3","MINDEN, NV US","","","","","        29","0","        20","0","         0","0","","","","","","","","","        13","0","       186","0","        66","0","","","","","","","","","","","  18.8"," ,0,1201, ","   40.6","0,0719, ","","","","","","","","","","","","","","","","","","","","","","","","","    159.9"," ,0","","","","","     20.35","0","",""
"USC00265191","1961","38.9547","-119.7758","1435.3","MINDEN, NV US","    190.5","","     190.5","0","        34","0","        18","0","         1","0","","","","","         2","0","       195","0","         6","0","       155","0","        39","0","","","","","  -18.9","0,1211, ","","","","","  32.5"," ,0,0807, ","   38.9","0,0621, ","0.0","0,0904","-2.8","0,0924","-7.8","0,1008","-7.8","0,1008","-10.6","0,1022","0.0","0,0516","-5.0","0,0513","-5.0","0,0513","-6.7","0,0424","-8.9","0,0308","    3184.7","7","    3184.7","0","    154.1"," ,0","","","      9.42","0","     19.24","0","     -0.40","0"
"USC00265191","1962","38.9547","-119.7758","1435.3","MINDEN, NV US","","","","","        28","0","        20","0","         3","0","","","","","         2","0","       201","0","","","","","","","","","","","  -26.7","0,0123, ","","","","","  43.4"," ,0,1014, ","","","-2.2","0,0908","-2.2","0,0908","-5.6","0,1006","-6.7","0,1107","-10.0","0,1117","-1.1","0,0605","-2.2","0,0515","-7.2","0,0430","-7.2","0,0430","-11.1","0,0323","    3799.1","1","    3799.1"," ","    263.7"," ,0","","","","","","","     -1.18","0"
"USC00265191","1963","38.9547","-119.7758","1435.3","MINDEN, NV US","     69.7","","      69.7","0","        37","0","        26","0","         2","0","        0","","         0","0","         3","0","       173","0","         2","0","       154","0","        27","0","","","","","  -21.7","0,0112, ","     0"," ,0,1231,+","     0"," ,0,1231,+","  77.0"," ,0,0131, ","   35.0","0,0816,+","0.0","0,0825","-2.2","0,1010","-5.6","0,1028","-7.2","0,1116","-8.9","0,1118","0.0","0,0610","-3.9","0,0428","-5.6","0,0423","-9.4","0,0422","-9.4","0,0422","","","","","    313.6"," ,0","        0"," ,0","      9.50","0","     19.16","0","     -0.16","0"
"USC00265191","1964","38.9547","-119.7758","1435.3","MINDEN, NV US","    147.9","","     147.9","0","        33","0","        19","0","         1","0","","","","","         0","0","       193","0","         7","0","       164","0","        40","0","","","","","  -16.7","0,0226, ","","","","","  48.3"," ,0,1222, ","   36.7","0,0725, ","-2.8","0,0902","-2.8","0,0902","-5.0","0,1019","-8.3","0,1114","-12.2","0,1116","-0.6","0,0523","-2.2","0,0509","-4.4","0,0507","-9.4","0,0425","-9.4","0,0425","    3421.3","3","    3421.3","0","    191.0"," ,0","","","      8.96","0","     18.76","0","     -0.85","0"
"USC00265191","1965","38.9547","-119.7758","1435.3","MINDEN, NV US","     75.2","","      75.2","0","        42","0","        26","0","         1","0","","","","","         8","0","       195","0","        15","0","       165","0","        17","0","","","","","  -23.9","0,0101, ","","","","","  34.3"," ,0,0817, ","   34.4","0,0807,+","-4.4","0,0917","-4.4","0,0917","-4.4","0,0917","-6.7","0,0919","-8.9","0,1129","0.0","0,0512","-2.2","0,0511","-5.6","0,0507","-7.2","0,0503","-9.4","0,0320","    3466.6","6","    3466.6","0","    254.2"," ,0","","","      8.68","0","     18.02","0","     -0.67","0"
"USC00265191","1966","38.9547","-119.7758","1435.3","MINDEN, NV US","","","","","        19","0","        15","0","         0","0","        6","","         2","0","         2","0","       179","0","","","","","","","","","","","  -19.4","0,0102, ","   102"," ,0,0101, ","    51"," ,0,0302, ","  22.9"," ,0,1205, ","","","-4.4","0,0914","-4.4","0,0914","-4.4","0,0914","-9.4","0,1014","-9.4","0,1014","0.0","0,0605","-2.2","0,0501","-6.7","0,0427","-6.7","0,0427","-9.4","0,0323","","","","","    120.8"," ,0","       76"," ,0","","","","","     -0.30","0"
"USC00265191","1967","38.9547","-119.7758","1435.3","MINDEN, NV US","    228.9","","     228.9","0","        42","0","        23","0","         0","0","       15","","","","         0","0","       198","0","         7","0","       157","0","        54","0","","","","","  -16.7","0,1216,+","   279"," ,0,0124, ","","","  19.8"," ,0,0122, ","   37.2","0,0713,+","-0.6","0,0914","-4.4","0,1006","-4.4","0,1006","-7.2","0,1015","-9.4","0,1126","0.0","0,0601","-2.2","0,0514","-5.0","0,0513","-7.2","0,0501","-11.1","0,0305","    3502.0","0","    3502.0","0","    196.8"," ,0","","","      9.26","0","     18.83","0","     -0.30","0"
"USC00265191","1968","38.9547","-119.7758","1435.3","MINDEN, NV US","    182.1","","     182.1","0","        32","0","        20","0","         2","0","       19","","","","         3","0","       210","0","         5","0","       160","0","        39","0","","","","","  -27.8","0,1221, ","   152"," ,0,0308, ","","","  27.4"," ,0,0512,+","   37.8","0,0729, ","-0.6","0,0821","-5.0","0,0921","-5.0","0,0921","-7.2","0,1008","-9.4","0,1114","0.0","0,0630","-2.2","0,0514","-5.0","0,0428","-8.3","0,0422","-10.0","0,0421","    3291.7","7","    3291.7","0","    176.1"," ,0","","","      9.36","0","     19.25","0","     -0.53","0"
"USC00265191","1969","38.9547","-119.7758","1435.3","MINDEN, NV US","    205.5","","     205.5","0","        50","0","        32","0","         0","0","       19","","","","         3","0","       185","0","         3","0","       164","0","        44","0","","","","","  -18.9","0,0207, ","   203"," ,0,0224, ","","","  21.1"," ,0,0119, ","   36.7","0,0809,+","-5.6","0,1004","-5.6","0,1004","-5.6","0,1004","-6.7","0,1012","-11.1","0,1117","-0.6","0,0515","-2.8","0,0428","-4.4","0,0427","-7.8","0,0407","-10.6","0,0311","    3462.4","4","    3462.4","0","    313.3"," ,0","","","      9.59","0","     19.15","0","      0.04","0"
"USC00265191","1970","38.9547","-119.7758","1435.3","MINDEN, NV US","    196.0","","     196.0","0","        40","0","        24","0","         0","0","       19","","","","         3","0","       210","0","         7","0","       152","0","        58","0","","","","","  -20.0","0,1224, ","   178"," ,0,1130, ","","","  24.6"," ,0,1129, ","   37.2","0,0810, ","-3.3","0,0914","-3.3","0,0914","-4.4","0,0925","-12.8","0,1027","-12.8","0,1027","0.0","0,0528","-2.2","0,0502","-5.6","0,0429","-7.8","0,0427","-10.0","0,0401","    3320.3","3","    3320.3","0","    242.5"," ,0","","","      9.41","0","     19.35","0","     -0.52","0"
"USC00265191","1971","38.9547","-119.7758","1435.3","MINDEN, NV US","    190.1","","     190.1","0","        45","0","        27","0","         0","0","       23","","","","         8","0","       209","0","        11","0","       146","0","        41","0","","","","","  -28.9","0,0104, ","   305"," ,0,1227, ","","","  16.0"," ,0,0313, ","   37.2","0,0810,+","-3.3","0,0918","-3.3","0,0918","-5.6","0,0928","-7.8","0,1001","-14.4","0,1029","-0.6","0,0602","-5.6","0,0518","-5.6","0,0518","-8.3","0,0422","-10.0","0,0318","    3585.9","9","    3585.9","0","    233.1"," ,0","","","      8.65","0","     18.40","0","     -1.10","0"
"USC00265191","1972","38.9547","-119.7758","1435.3","MINDEN, NV US","    185.7","","     185.7","0","        35","0","        19","0","         0","0","       36","","","","        17","0","       191","0","        24","0","       156","0","        37","0","","","","","  -26.1","0,0105,+","   229"," ,0,0106,+","","","  13.2"," ,0,1018, ","   39.4","0,0807, ","-1.7","0,0912","-2.8","0,0914","-5.0","0,0925","-7.8","0,1029","-10.0","0,1030","-0.6","0,0611","-3.3","0,0501","-5.0","0,0430","-6.7","0,0420","-8.9","0,0330","    3558.7","7","    3558.7","0","    129.4"," ,0","","","      9.04","0","     18.64","0","     -0.56","0"
"USC00265191","1973","38.9547","-119.7758","1435.3","MINDEN, NV US","    185.9","","     185.9","0","        40","0","        28","0","         1","0","       23","","         9","0","         4","0","       194","0","         7","0","       168","0","        49","0","","","","","  -24.4","0,0106, ","   178"," ,0,0109, ","   102"," ,0,0210,+","  32.5"," ,0,1201, ","   37.2","0,0728, ","-2.2","0,0825","-2.2","0,0825","-5.6","0,1003","-7.8","0,1010","-12.2","0,1104","0.0","0,0526","-2.8","0,0502","-4.4","0,0422","-6.7","0,0418","-10.0","0,0128","    3590.3","3","    3590.3","0","    252.2"," ,0","      520"," ,0","      9.52","0","     18.91","0","      0.13","0"
"USC00265191","1974","38.9547","-119.7758","1435.3","MINDEN, NV US","    168.4","","     168.4","0","        26","0","        16","0","         0","0","       19","","         6","0","         8","0","       197","0","        12","0","       164","0","        54","0","","","","","  -24.4","0,0102, ","   152"," ,0,0302,+","   152"," ,0,0302,+","  24.4"," ,0,0302, ","   36.7","0,0630, ","-0.6","0,0912","-2.2","0,0928","-5.6","0,1007","-7.2","0,1119","-8.9","0,1128","0.0","0,0626","-4.4","0,0520","-4.4","0,0520","-6.7","0,0414","-12.8","0,0305","    3337.0","0","    3337.0","0","    140.9"," ,0","      481"," ,0","      9.42","0","     19.51","0","     -0.68","0"
"USC00265191","1975","38.9547","-119.7758","1435.3","MINDEN, NV US","    142.2","","     142.2","0","        40","0","        29","0","         0","0","       23","","        15","0","         5","0","       206","0","         5","0","       153","0","        37","0","","","         1"," ","  -22.2","0,0101, ","   178"," ,0,0314, ","   178"," ,0,0314, ","  24.1"," ,0,0314, ","   38.3","0,0726, ","-4.4","0,1002","-4.4","0,1002","-4.4","0,1002","-8.9","0,1023","-8.9","0,1023","-1.1","0,0625","-2.2","0,0507","-6.7","0,0429","-6.7","0,0429","-10.0","0,0408","    3576.5","5","    3576.5","0","    260.0"," ,0","     1118"," ,0","      8.69","0","     18.48","0","     -1.11","0"
"USC00265191","1976","38.9547","-119.7758","1435.3","MINDEN, NV US","    114.5","","     114.5","0","        29","0","        19","0","         0","0","        9","","","","         0","0","       205","0","         7","0","       175","0","        31","0","","","","","  -17.2","0,0102, ","   203"," ,0,0207, ","","","  17.5"," ,0,0724, ","   37.2","0,0902, ","0.0","0,1012","-3.9","0,1013","-4.4","0,1015","-6.7","0,1027","-8.9","0,1125","0.0","0,0703","-2.2","0,0521","-5.6","0,0427","-8.3","0,0417","-8.9","0,0409","    3543.5","5","    3543.5","0","    139.2"," ,0","","","      8.88","0","     19.41","0","     -1.66","0"
"USC00265191","1977","38.9547","-119.7758","1435.3","MINDEN, NV US","    198.7","","     198.7","0","        31","0","        25","0","         2","0","","","","","         1","0","       203","0","         3","0","       172","0","        63","0","","","","","  -17.8","0,0108, ","","","","","  33.5"," ,0,1122, ","   37.8","0,0801, ","0.0","0,0918","-2.8","0,0923","-5.0","0,1003","-9.4","0,1009","-9.4","0,1009","-0.6","0,0528","-2.8","0,0518","-5.6","0,0508","-6.7","0,0403","-9.4","0,0331","    3454.2","2","    3454.2","0","    220.9"," ,0","","","      9.93","0","     20.40","0","     -0.54","0"
"USC00265191","1978","38.9547","-119.7758","1435.3","MINDEN, NV US","    176.8","","     176.8","0","        36","0","        24","0","         0","0","       24","","         6","0","         9","0","       199","0","        13","0","       174","0","        42","0","","","","","  -25.6","0,1220, ","   254"," ,0,1219, ","   203"," ,0,1218, ","  19.1"," ,0,1102, ","   38.9","0,0808, ","-1.7","0,0824","-4.4","0,0918","-4.4","0,0918","-8.9","0,1024","-8.9","0,1024","-1.1","0,0531","-3.9","0,0525","-6.1","0,0422","-7.2","0,0405","-12.2","0,0212","    3009.7","7","    3009.7","0","    204.9"," ,0","      534"," ,0","      9.31","0","     19.06","0","     -0.43","0"
"USC00265191","1979","38.9547","-119.7758","1435.3","MINDEN, NV US","    101.5","","     101.5","0","        23","0","        19","0","         0","0","","","","","         4","0","       190","0","        14","0","       159","0","        22","0","","","","","  -22.2","0,0101, ","","","","","  19.8"," ,0,0112, ","   36.7","0,0804, ","-1.1","0,0926","-6.7","0,1021","-6.7","0,1021","-6.7","0,1021","-8.9","0,1110","-1.7","0,0608","-2.2","0,0530","-5.6","0,0509","-7.8","0,0419","-11.1","0,0206","    3761.1","1","    3761.1","0","    155.5"," ,0","","","      8.69","0","     18.21","0","     -0.83","0"
"USC00265191","1980","38.9547","-119.7758","1435.3","MINDEN, NV US","    134.7","","     134.7","0","        34","0","        27","0","         1","0","","","","","         0","0","       174","0","         2","0","       157","0","        23","0","","","","","  -13.3","0,1210,+","","","","","  25.4"," ,0,0114, ","   41.7","0,0727, ","0.0","0,0922","-2.8","0,1013","-4.4","0,1017","-6.7","0,1028","-9.4","0,1116","-3.9","0,0526","-3.9","0,0526","-5.6","0,0412","-7.2","0,0407","-8.9","0,0331","    3424.9","9","    3424.9","0","    242.5"," ,0","","","      9.57","0","     18.59","0","      0.55","0"
"USC00265191","1981","38.9547","-119.7758","1435.3","MINDEN, NV US","","","","","        35","0","        18","0","         0","0","","","","","","","","","","","","","","","","","","","","","","","","","  17.8"," ,0,1220, ","","","","","","","","","","","","","","","","","","","","","","","    3060.1","1","    3060.1"," ","    161.5"," ,0","","","","","","","",""
"USC00265191","1982","38.9547","-119.7758","1435.3","MINDEN, NV US","    126.9","","     126.9","0","        63","0","        31","0","         2","0","","","","","         0","0","       213","0","         8","0","       140","0","        21","0","","","","","  -16.7","0,0108,+","","","","","  50.8"," ,0,0101, ","   35.0","0,0801,+","-2.2","0,0911","-2.2","0,0911","-5.6","0,1008","-7.2","0,1112","-8.9","0,1113","-0.6","0,0609","-2.8","0,0607","-6.1","0,0421","-8.3","0,0420","-10.6","0,0404","","","","","    398.9"," ,0","","","      8.26","0","     17.11","0","     -0.59","0"
"USC00265191","1983","38.9547","-119.7758","1435.3","MINDEN, NV US","","","","","        72","0","        44","0","         3","0","","","","","","","","","","","","","","","","","","","","","","","","","  38.1"," ,0,1130, ","","","","","","","","","","","","","","","","","","","","","","","","","","","    454.9"," ,0","","","","","","","",""
"USC00265191","1984","38.9547","-119.7758","1435.3","MINDEN, NV US","","","","","        29","0","        15","0","         0","0","","","         0","0","","","","","","","","","","","","","","","","","","","     0"," ,0,1231,+","  12.7"," ,0,1127,+","","","","","","","","","","","","","","","","","","","","","","","","","","","    139.7"," ,0","        0"," ,0","","","","","",""
"USC00265191","1986","38.9547","-119.7758","1435.3","MINDEN, NV US","","","","","        25","0","        11","0","         4","0","","","","","         0","0","       217","0","         0","0","       148","0","        40","0","","","","","  -16.1","0,1208, ","","","","","  30.5"," ,0,0219,+","   35.0","0,0818,+","0.0","0,0910","-3.9","0,0918","-6.1","0,0920","-8.3","0,1012","-9.4","0,1013","-2.2","0,0526","-2.2","0,0526","-6.1","0,0522","-7.2","0,0421","-8.9","0,0407","","","","","    194.6"," ,0","","","      9.41","0","     19.98","0","     -1.16","0"
"USC00265191","1988","38.9547","-119.7758","1435.3","MINDEN, NV US","","","","","","","","","","","","","","","","","","","        10","0","       163","0","        59","0","","","","","","","","","","","","","   38.9","0,0722, ","","","","","","","","","","","","","","","","","","","","","","","","","","","","","","","     20.23","0","",""
"USC00265191","1990","38.9547","-119.7758","1435.3","MINDEN, NV US","    228.0","","     228.0","0","        27","0","        13","0","         0","0","        3","","         3","0","        16","0","       174","0","        12","0","       191","0","        61","0","","","","","  -30.0","0,1221, ","    76"," ,0,1219, ","    66"," ,0,1219, ","   9.4"," ,0,0809, ","   40.6","0,0805, ","-6.7","0,1007","-6.7","0,1007","-6.7","0,1007","-6.7","0,1007","-10.0","0,1101","0.0","0,0602","-3.9","0,0501","-4.4","0,0330","-10.6","0,0314","-10.6","0,0314","","","","","     86.6"," ,0","      163"," ,0","      9.54","0","     20.39","0","     -1.31","0"
"USC00265191","1991","38.9547","-119.7758","1435.3","MINDEN, NV US","","","","","","","","","","","","","         8","0","","","","","         4","0","       177","0","        68","0","","","","","","","","","    71"," ,0,0314, ","","","   39.4","0,0704, ","","","","","","","","","","","","","","","","","","","","","    3086.9","9","    3086.9","0","","","      422"," ,0","","","     20.71","0","",""
"USC00265191","1992","38.9547","-119.7758","1435.3","MINDEN, NV US","","","","","","","","","","","","","         6","0","","","","","         3","0","       203","0","        65","0","","","","","","","","","   254"," ,0,1228, ","","","   40.6","0,0811, ","","","","","","","","","","","","","","","","","","","","","","","","","","","      598"," ,0","","","     21.90","0","",""
"USC00265191","1993","38.9547","-119.7758","1435.3","MINDEN, NV US","","","","","        38","0","        23","0","         0","0","","","","","","","","","        10","0","       177","0","        43","0","","","","","","","","","","","  24.4"," ,0,0218, ","   37.8","0,0802, ","","","","","","","","","","","","","","","","","","","","","","","","","    240.8"," ,0","","","","","     19.46","0","",""
"USC00265191","1994","38.9547","-119.7758","1435.3","MINDEN, NV US","","","","","        34","0","        23","0","         0","0","","","","","","","","","         1","0","       181","0","        78","0","","","","","","","","","","","  23.9"," ,0,0506, ","   38.3","0,0817, ","","","","","","","","","","","","","","","","","","","","","","","","","    183.6"," ,0","","","","","     20.86","0","",""
"USC00265191","1995","38.9547","-119.7758","1435.3","MINDEN, NV US","","","","","        58","0","        32","0","         3","0","","","","","","","","","         2","0","       181","0","        45","0","","","","","","","","","","","  48.8"," ,0,0311, ","   37.2","0,0804, ","","","","","","","","","","","","","","","","","","","","","    3107.3","3","    3107.3","0","    405.9"," ,0","","","","","     20.59","0","",""
"USC00265191","1996","38.9547","-119.7758","1435.3","MINDEN, NV US","","","","","        57","0","        38","0","         1","0","","","","","","","","","         2","0","       174","0","        71","0","","","","","","","","","","","  25.7"," ,0,1221, ","   38.3","0,0721, ","","","","","","","","","","","","","","","","","","","","","","","","","    432.6"," ,0","","","","","     20.84","0","",""
"USC00265191","1997","38.9547","-119.7758","1435.3","MINDEN, NV US","","","","","        41","0","        19","0","         2","0","","","         5","0","","","","","         5","0","       189","0","        49","0","","","","","","","","","   178"," ,0,0112, ","  34.3"," ,0,0101, ","   38.9","0,0806, ","","","","","","","","","","","","","","","","","","","","","","","","","    224.2"," ,0","      405"," ,0","","","     20.55","0","",""
"USC00265191","1998","38.9547","-119.7758","1435.3","MINDEN, NV US","","","","","        57","0","        36","0","         2","0","","","        10","0","","","","","         7","0","       148","0","        52","0","","","","","","","","","   241"," ,0,0305, ","  33.0"," ,0,0323, ","   40.0","0,0813, ","","","","","","","","","","","","","","","","","","","","","","","","","    340.2"," ,0","     1020"," ,0","","","     18.93","0","",""
"USC00265191","1999","38.9547","-119.7758","1435.3","MINDEN, NV US","","","","","        39","0","        22","0","         0","0","","","         8","0","","","","","         2","0","       191","0","        51","0","","","","","","","","","   140"," ,0,0405, ","  18.0"," ,0,0206, ","   38.3","0,0712,+","","","","","","","","","","","","","","","","","","","","","","","","","    192.2"," ,0","      598"," ,0","","","     21.03","0","",""
"USC00265191","2000","38.9547","-119.7758","1435.3","MINDEN, NV US","","","","","        44","0","        16","0","         0","0","        0","","         2","0","","","","","         0","0","       181","0","        76","0","","","","","","","     0"," ,0,1231,+","   140"," ,0,1107, ","  15.5"," ,0,0124, ","   38.9","0,0801,+","","","","","","","","","","","","","","","","","","","","","","","","","    156.2"," ,0","      243"," ,0","","","     21.28","0","",""
"USC00265191","2003","38.9547","-119.7758","1435.3","MINDEN, NV US","","","","","        43","0","        16","0","         0","0","","","         3","0","","","","","","","","","","","","","","","","","","","    38"," ,0,1101, ","  17.8"," ,0,0822, ","","","","","","","","","","","","","","","","","","","","","","","","","","","    163.4"," ,0","      169"," ,0","","","","","",""
"USC00265191","2004","38.9547","-119.7758","1435.3","MINDEN, NV US","","","","","        38","0","        20","0","         1","0","","","        10","0","","","","","         6","0","       196","0","        81","0","","","","","","","","","   173"," ,0,1231, ","  26.9"," ,0,0226, ","   38.9","0,0812, ","","","","","","","","","","","","","","","","","","","","","","","","","    185.7"," ,0","      662"," ,0","","","     21.31","0","",""
"USC00265191","2005","38.9547","-119.7758","1435.3","MINDEN, NV US","","","","","        63","0","        31","0","         2","0","","","         9","0","","","","","         1","0","       179","0","        68","0","","","         1"," ","","","","","   191"," ,0,0108, ","  73.7"," ,0,1231, ","   40.0","0,0718,+","","","","","","","","","","","","","","","","","","","","","","","","","    360.3"," ,0","      904"," ,0","","","     20.57","0","",""
"USC00265191","2006","38.9547","-119.7758","1435.3","MINDEN, NV US","","","","","        47","0","        26","0","         1","0","","","        10","0","","","","","         3","0","       181","0","        96","0","","","","","","","","","   140"," ,0,0103, ","  34.8"," ,0,0228, ","   40.6","0,0718, ","","","","","","","","","","","","","","","","","","","","","","","","","    235.6"," ,0","      684"," ,0","","","     21.40","0","",""
"USC00265191","2007","38.9547","-119.7758","1435.3","MINDEN, NV US","","","","","        32","0","        11","0","         1","0","","","         5","0","","","","","         4","0","       206","0","        87","0","","","","","","","","","   152"," ,0,0227, ","  25.9"," ,0,1206, ","   42.8","0,0706, ","","","","","","","","","","","","","","","","","","","","","","","","","    116.9"," ,0","      368"," ,0","","","     22.22","0","",""
"USC00265191","2008","38.9547","-119.7758","1435.3","MINDEN, NV US","","","","","        32","0","        16","0","         1","0","","","         6","0","","","","","         6","0","       178","0","        79","0","","","","","","","","","   178"," ,0,0106, ","  55.1"," ,0,0105, ","   38.9","0,0816,+","","","","","","","","","","","","","","","","","","","","","","","","","    166.5"," ,0","      514"," ,0","","","     21.18","0","",""
"USC00265191","2009","38.9547","-119.7758","1435.3","MINDEN, NV US","","","","","        43","0","        22","0","         1","0","","","         4","0","","","","","         7","0","       179","0","        59","0","","","","","","","","","   102"," ,0,1004,+","  42.7"," ,0,1014, ","   37.8","0,0728,+","","","","","","","","","","","","","","","","","","","","","","","","","    206.3"," ,0","      413"," ,0","","","     20.48","0","",""
"USC00265191","2010","38.9547","-119.7758","1435.3","MINDEN, NV US","","","","","        61","0","        32","0","         1","0","","","         9","0","","","","","         3","0","       161","0","        58","0","","","","","","","","","   165"," ,0,1218, ","  44.2"," ,0,1025, ","   38.3","0,0825,+","","","","","","","","","","","","","","","","","","","","","","","","","    353.5"," ,0","      771"," ,0","","","     19.71","0","",""
"USC00265191","2011","38.9547","-119.7758","1435.3","MINDEN, NV US","","","","","","","","","","","","","","","","","","","         2","K","       162","K","        65","K","","","","","","","","","","","","","   36.7","K,0729,+","","","","","","","","","","","","","","","","","","","","","","","","","","","","","","","     19.92","K","",""
"USC00265191","2012","38.9547","-119.7758","1435.3","MINDEN, NV US","","","","","","","","","","","","","","","","","","","         4","7","       196","7","        79","7","","","         1"," ","","","","","","","","","   37.8","7,0811,+","","","","","","","","","","","","","","","","","","","","","","","","","","","","","","","     21.77","7","",""
"USC00265191","2013","38.9547","-119.7758","1435.3","MINDEN, NV US","    269.2","","     269.2","7","        26","7","        14","7","         0","7","        9","","         6","7","        12","7","       193","7","        16","7","       186","7","        58","7","","","         4"," ","  -23.3","7,1209, ","    51"," ,7,1207,+","    64"," ,7,1204,+","   9.9"," ,7,0821, ","   41.1","7,0721, ","-3.9","7,0927","-3.9","7,0927","-6.7","7,1005","-6.7","7,1005","-9.4","7,1105","-1.7","7,0525","-2.2","7,0502","-6.7","7,0418","-6.7","7,0418","-8.9","7,0323","    3013.0","0","    3013.0","7","     73.5"," ,7","      332"," ,7","      9.87","7","     20.34","7","     -0.60","7"
"USC00265191","2014","38.9547","-119.7758","1435.3","MINDEN, NV US","    258.0","","     258.0","7","        38","7","        16","7","         0","7","","","         5","7","         0","7","       168","7","         1","7","       193","7","        62","7","","","","","  -16.1","7,1231, ","","","   127"," ,7,0131, ","  20.8"," ,7,0130, ","   40.0","7,0630, ","-1.7","7,1002","-3.9","7,1027","-7.2","7,1103","-7.2","7,1103","-9.4","7,1116","0.0","7,0628","-2.8","7,0604","-4.4","7,0404","-8.3","7,0319","-12.8","7,0206","    3105.7","7","    3105.7","7","    214.5"," ,7","      343"," ,7","     11.56","7","     22.02","7","      1.09","7"
"USC00265191","2015","38.9547","-119.7758","1435.3","MINDEN, NV US","    248.5","","     248.5","7","        48","7","        27","7","         0","7","       10","","         5","7","         1","7","       170","7","         9","7","       191","7","        62","7","","","","","  -18.3","7,1227, ","   102"," ,7,1225, ","   102"," ,7,1225, ","  21.8"," ,7,0207, ","   37.2","7,0731, ","-1.1","7,1019","-4.4","7,1030","-4.4","7,1030","-7.2","7,1105","-8.9","7,1111","0.0","7,0507","-3.9","7,0418","-6.1","7,0417","-7.2","7,0416","-8.9","7,0304","    2623.3","3","    2623.3","7","    243.2"," ,7","      279"," ,7","     11.25","7","     21.35","7","      1.16","7"
"USC00265191","2016","38.9547","-119.7758","1435.3","MINDEN, NV US","    225.8","","     225.8","7","        41","7","        27","7","         1","7","        6","","        11","7","         2","7","       162","7","        11","7","       187","7","        68","7","","","","","  -18.9","7,1226, ","    76"," ,7,1127, ","    76"," ,7,1225,+","  28.4"," ,7,1017, ","   39.4","7,0729, ","0.0","7,0922","-2.8","7,1004","-7.8","7,1117","-7.8","7,1117","-9.4","7,1124","-0.6","7,0524","-2.2","7,0427","-4.4","7,0331","-6.7","7,0323","-9.4","7,0204","    2947.0","0","    2947.0","7","    231.6"," ,7","      468"," ,7","     11.09","7","     21.02","7","      1.17","7"
"USC00265191","2017","38.9547","-119.7758","1435.3","MINDEN, NV US","    323.6","","     323.6","7","        56","7","        35","7","         6","7","       17","","        13","7","         0","7","       180","7","         7","7","       175","7","        76","7","","","","","  -15.6","7,0125, ","   127"," ,7,0305,+","   152"," ,7,0120, ","  43.9"," ,7,0507, ","   38.9","7,0803,+","-3.3","7,0923","-3.3","7,0923","-4.4","7,1010","-6.7","7,1106","-10.0","7,1204","-1.1","7,0613","-2.2","7,0513","-5.0","7,0415","-7.2","7,0410","-10.0","7,0225","    3000.4","4","    3000.4","7","    507.9"," ,7","      784"," ,7","     10.75","7","     20.37","7","      1.12","7"
"USC00265191","2018","38.9547","-119.7758","1435.3","MINDEN, NV US","    292.0","","     292.0","7","        42","7","        32","7","         0","7","        1","","         8","7","         0","7","       182","7","         3","7","       180","7","        73","7","","","","","  -15.6","7,0220, ","    76"," ,7,0316, ","   114"," ,7,0303, ","  17.8"," ,7,1225,+","   37.2","7,0811,+","-0.6","7,0925","-2.2","7,1008","-8.3","7,1015","-8.3","7,1015","-12.2","7,1109","0.0","7,0512","-2.2","7,0501","-4.4","7,0417","-7.8","7,0326","-8.9","7,0318","    3013.0","0","    3013.0","7","    235.8"," ,7","      495"," ,7","     10.79","7","     21.05","7","      0.54","7"
"USC00265191","2019","38.9547","-119.7758","1435.3","MINDEN, NV US","    220.7","","     220.7","7","        53","7","        32","7","         1","7","        3","","        17","7","         0","7","       191","7","        17","7","       175","7","        57","7","","","","","  -16.7","7,0222,+","   127"," ,7,0116, ","   178"," ,7,0210, ","  33.0"," ,7,0214, ","   36.1","7,0816,+","-0.6","7,0917","-4.4","7,1002","-4.4","7,1002","-7.2","7,1010","-10.6","7,1028","-2.8","7,0521","-2.8","7,0521","-7.2","7,0410","-7.2","7,0410","-8.9","7,0314","    3293.5","5","    3293.5","7","    268.2"," ,7","     1244"," ,7","      9.35","7","     18.65","7","      0.05","7"
"USC00265191","2020","38.9547","-119.7758","1435.3","MINDEN, NV US","","","","","","","","","","","","","","","","","","","","","","","","","","","","","","","","","","","","","","","","","","","","","","","","","","","","","","","","","","","    3231.3","3","    3231.3","H","","","","","","","","","",""
