"STATION","DATE","LATITUDE","LONGITUDE","ELEVATION","NAME","DP01","DP01_ATTRIBUTES","DP10","DP10_ATTRIBUTES","DP1X","DP1X_ATTRIBUTES","DSND","DSND_ATTRIBUTES","DSNW","DSNW_ATTRIBUTES","DYFG","DYFG_ATTRIBUTES","DYTS","DYTS_ATTRIBUTES","EMSD","EMSD_ATTRIBUTES","EMSN","EMSN_ATTRIBUTES","EMXP","EMXP_ATTRIBUTES","PRCP","PRCP_ATTRIBUTES","SNOW","SNOW_ATTRIBUTES"
"USC00043134","1940","39.01","-120.8455","919.0","FORESTHILL RANGER STATION, CA US","        78","6","        70","6","        28","6","","","","","","","","","","","","","  90.7"," ,6,0109, ","   1882.9"," ,6","",""
"USC00043134","1941","39.01","-120.8455","919.0","FORESTHILL RANGER STATION, CA US","        95","6","        81","6","        22","6","","","","","","","","","","","","","  81.3"," ,6,1102, ","   1518.3"," ,6","",""
"USC00043134","1943","39.01","-120.8455","919.0","FORESTHILL RANGER STATION, CA US","        56","6","        51","6","        13","6","","","","","","","","","","","",""," 109.0"," ,6,0121, ","   1204.6"," ,6","",""
"USC00043134","1944","39.01","-120.8455","919.0","FORESTHILL RANGER STATION, CA US","","","","","","","","","        11","6","         3"," ","","","","","   406"," ,6,0229, ","","","","","     1142"," ,6"
"USC00043134","1945","39.01","-120.8455","919.0","FORESTHILL RANGER STATION, CA US","","","","","","","","","         3","6","         8"," ","","","","","   127"," ,6,0306, ","","","","","      318"," ,6"
"USC00043134","1946","39.01","-120.8455","919.0","FORESTHILL RANGER STATION, CA US","","","","","","","","","         7","6","","","","","","","   318"," ,6,0203, ","","","","","     1129"," ,6"
"USC00043134","1947","39.01","-120.8455","919.0","FORESTHILL RANGER STATION, CA US","","","","","","","","","         5","6","         1"," ","","","","","   203"," ,6,0113, ","","","","","      559"," ,6"
"USC00043134","1948","39.01","-120.8455","919.0","FORESTHILL RANGER STATION, CA US","        79","0","        66","0","        17","0","","","        22","0","         2"," ","","","","","   470"," ,0,0206, ","  62.7"," ,0,0324, ","   1246.7"," ,0","     2514"," ,0"
"USC00043134","1949","39.01","-120.8455","919.0","FORESTHILL RANGER STATION, CA US","        62","0","        44","0","        10","0","","","        14","0","         1"," ","         1"," ","","","   457"," ,0,0122, ","  85.3"," ,0,1110, ","    914.3"," ,0","     2273"," ,0"
"USC00043134","1950","39.01","-120.8455","919.0","FORESTHILL RANGER STATION, CA US","        84","0","        71","0","        28","0","","","        12","0","","","","","","","   381"," ,0,0114, "," 144.8"," ,0,1118, ","   2116.2"," ,0","     1626"," ,0"
"USC00043134","1951","39.01","-120.8455","919.0","FORESTHILL RANGER STATION, CA US","        83","0","        62","0","        27","0","       22","","        10","0","","","","","   330"," ,0,0306, ","   203"," ,0,0110, "," 115.3"," ,0,0122, ","   1613.2"," ,0","     1178"," ,0"
"USC00043134","1952","39.01","-120.8455","919.0","FORESTHILL RANGER STATION, CA US","        80","0","        66","0","        21","0","","","        28","0","","","","","","","   406"," ,0,0112, ","  81.3"," ,0,0115, ","   1509.9"," ,0","     3886"," ,0"
"USC00043134","1953","39.01","-120.8455","919.0","FORESTHILL RANGER STATION, CA US","        77","0","        59","0","        13","0","        7","","         5","0","","","","","   152"," ,0,0410,+","   152"," ,0,0410, ","  64.0"," ,0,1204, ","   1041.3"," ,0","      444"," ,0"
"USC00043134","1954","39.01","-120.8455","919.0","FORESTHILL RANGER STATION, CA US","        62","0","        51","0","        19","0","       18","","         9","0","","","","","   356"," ,0,0319, ","   198"," ,0,0317, ","  86.9"," ,0,0117, ","   1296.7"," ,0","      693"," ,0"
"USC00043134","1955","39.01","-120.8455","919.0","FORESTHILL RANGER STATION, CA US","        75","0","        65","0","        19","0","","","        16","0","","","","","","","   584"," ,0,0119, "," 180.3"," ,0,1222, ","   1607.8"," ,0","     3195"," ,0"
"USC00043134","1956","39.01","-120.8455","919.0","FORESTHILL RANGER STATION, CA US","        66","0","        57","0","        15","0","       13","","        10","0","","","         1"," ","   432"," ,0,0220, ","   432"," ,0,0220, ","  67.3"," ,0,0105, ","   1141.8"," ,0","     1103"," ,0"
"USC00043134","1958","39.01","-120.8455","919.0","FORESTHILL RANGER STATION, CA US","        77","0","        67","0","        22","0","","","","","","","","","","","","","  84.3"," ,0,0225, ","   1477.5"," ,0","",""
"USC00043134","1959","39.01","-120.8455","919.0","FORESTHILL RANGER STATION, CA US","        46","0","        38","0","        13","0","","","         6","0","","","","","","","   330"," ,0,0211, ","  71.1"," ,0,0426, ","    860.0"," ,0","      837"," ,0"
"USC00043134","1960","39.01","-120.8455","919.0","FORESTHILL RANGER STATION, CA US","        75","0","        57","0","        20","0","","","         2","0","","","","","","","   102"," ,0,0114, "," 165.1"," ,0,0208, ","   1301.2"," ,0","      145"," ,0"
"USC00043134","1961","39.01","-120.8455","919.0","FORESTHILL RANGER STATION, CA US","        67","0","        51","0","         8","0","        3","","         2","0","","","","","   152"," ,0,0423, ","   102"," ,0,0423, ","  40.6"," ,0,1130, ","    794.1"," ,0","      178"," ,0"
"USC00043134","1962","39.01","-120.8455","919.0","FORESTHILL RANGER STATION, CA US","        61","0","        44","0","        21","0","","","","","","","","","","","",""," 168.9"," ,0,1013, ","   1570.5"," ,0","",""
"USC00043134","1963","39.01","-120.8455","919.0","FORESTHILL RANGER STATION, CA US","        71","0","        60","0","        19","0","","","","","","","","","","","",""," 157.0"," ,0,0201, ","   1367.8"," ,0","",""
"USC00043134","1964","39.01","-120.8455","919.0","FORESTHILL RANGER STATION, CA US","        81","0","        68","0","        18","0","","","","","","","","","","","",""," 205.0"," ,0,1223, ","   1714.5"," ,0","",""
"USC00043134","1965","39.01","-120.8455","919.0","FORESTHILL RANGER STATION, CA US","        66","0","        51","0","        17","0","","","","","","","","","","","","","  70.1"," ,0,1118, ","   1145.9"," ,0","",""
"USC00043134","1966","39.01","-120.8455","919.0","FORESTHILL RANGER STATION, CA US","        56","0","        48","0","        15","0","       14","","","","","","","","   356"," ,0,0104,+","","","  67.3"," ,0,0130, ","    905.1"," ,0","",""
"USC00043134","1967","39.01","-120.8455","919.0","FORESTHILL RANGER STATION, CA US","        81","0","        63","0","        24","0","       45","","","","","","","","   610"," ,0,0401, ","","","  96.5"," ,0,0122, ","   1500.2"," ,0","",""
"USC00043134","1968","39.01","-120.8455","919.0","FORESTHILL RANGER STATION, CA US","        74","0","        58","0","        18","0","       21","","","","","","","","   737"," ,0,0131, ","","","  64.8"," ,0,0130, ","   1144.3"," ,0","",""
"USC00043134","1969","39.01","-120.8455","919.0","FORESTHILL RANGER STATION, CA US","        86","0","        72","0","        25","0","       43","","        14","0","","","","","   432"," ,0,0226, ","   330"," ,0,0223, "," 106.2"," ,0,1224, ","   1765.3"," ,0","     1460"," ,0"
"USC00043134","1970","39.01","-120.8455","919.0","FORESTHILL RANGER STATION, CA US","        82","0","        65","0","        27","0","       20","","        11","0","","","","","   229"," ,0,1222,+","   140"," ,0,1221, ","  86.6"," ,0,0122, ","   1679.1"," ,0","      467"," ,0"
"USC00043134","1971","39.01","-120.8455","919.0","FORESTHILL RANGER STATION, CA US","        74","0","        60","0","         9","0","","","","","","","","","","","",""," 103.4"," ,0,1225, ","   1031.4"," ,0","",""
"USC00043134","1972","39.01","-120.8455","919.0","FORESTHILL RANGER STATION, CA US","        72","0","        57","0","        10","0","       37","","         6","0","","","","","   356"," ,0,1208, ","   229"," ,0,0127, ","  75.4"," ,0,1104, ","   1050.1"," ,0","      714"," ,0"
"USC00043134","1974","39.01","-120.8455","919.0","FORESTHILL RANGER STATION, CA US","        62","0","        50","0","        16","0","       18","","         7","0","","","","","   483"," ,0,0107, ","   254"," ,0,0106, ","  82.6"," ,0,0302, ","   1265.3"," ,0","      901"," ,0"
"USC00043134","1975","39.01","-120.8455","919.0","FORESTHILL RANGER STATION, CA US","        84","0","        59","0","        19","0","","","","","","","","","","","","","  89.4"," ,0,0325, ","   1294.9"," ,0","",""
"USC00043134","1976","39.01","-120.8455","919.0","FORESTHILL RANGER STATION, CA US","        45","0","        28","0","         3","0","        5","","         4","0","","","","","    76"," ,0,0303, ","    51"," ,0,0303, ","  62.0"," ,0,0217, ","    441.7"," ,0","      139"," ,0"
"USC00043134","1977","39.01","-120.8455","919.0","FORESTHILL RANGER STATION, CA US","        57","0","        36","0","         9","0","","","","","","","         5"," ","","","","","  93.5"," ,0,1122, ","    842.6"," ,0","",""
"USC00043134","1978","39.01","-120.8455","919.0","FORESTHILL RANGER STATION, CA US","","","","","","","","","","","","","         5"," ","","","","","","","   1369.5"," ,0","",""
"USC00043134","1979","39.01","-120.8455","919.0","FORESTHILL RANGER STATION, CA US","","","","","","","","","        13","0","","","         9"," ","","","   305"," ,0,0301, ","","","   1372.5"," ,0","     1574"," ,0"
"USC00043134","1980","39.01","-120.8455","919.0","FORESTHILL RANGER STATION, CA US","","","","","","","","","","","","","         3"," ","","","","","","","","","",""
"USC00043134","1981","39.01","-120.8455","919.0","FORESTHILL RANGER STATION, CA US","","","","","","","","","","","","","         1"," ","","","","","","","","","",""
"USC00043134","1982","39.01","-120.8455","919.0","FORESTHILL RANGER STATION, CA US","","","","","","","","","","","         4"," ","         2"," ","","","","","","","","","",""
"USC00043134","1983","39.01","-120.8455","919.0","FORESTHILL RANGER STATION, CA US","","","","","","","","","","","         1"," ","         1"," ","","","","","","","   2356.5"," ,0","",""
"USC00043134","1984","39.01","-120.8455","919.0","FORESTHILL RANGER STATION, CA US","","","","","","","","","","","         1"," ","         1"," ","","","","","","","","","",""
"USC00043134","1985","39.01","-120.8455","919.0","FORESTHILL RANGER STATION, CA US","","","","","","","","","","","         1"," ","","","","","","","","","","","",""
"USC00043134","1986","39.01","-120.8455","919.0","FORESTHILL RANGER STATION, CA US","","","","","","","","","","","         2"," ","         1"," ","","","","","","","","","",""
"USC00043134","1987","39.01","-120.8455","919.0","FORESTHILL RANGER STATION, CA US","        60","0","        46","0","         9","0","","","","","         1"," ","","","","","","","  64.8"," ,0,0213, ","    916.6"," ,0","",""
"USC00043134","1989","39.01","-120.8455","919.0","FORESTHILL RANGER STATION, CA US","        60","0","        47","0","        10","0","","","","","","","","","","","","","  84.1"," ,0,0327, ","    968.3"," ,0","",""
"USC00043134","1990","39.01","-120.8455","919.0","FORESTHILL RANGER STATION, CA US","        41","0","        35","0","         7","0","","","         6","0","","","","","","","   737"," ,0,0220, ","  54.9"," ,0,0108, ","    572.8"," ,0","     1239"," ,0"
"USC00043134","1991","39.01","-120.8455","919.0","FORESTHILL RANGER STATION, CA US","        58","0","        45","0","        12","0","","","         6","0","","","","","","","   178"," ,0,0325, "," 127.0"," ,0,1026, ","   1108.7"," ,0","      661"," ,0"
"USC00043134","1992","39.01","-120.8455","919.0","FORESTHILL RANGER STATION, CA US","","","","","","","","","         1","0","","","","","","","   305"," ,0,0218, ","","","   1157.2"," ,0","      305"," ,0"
"USC00043134","1993","39.01","-120.8455","919.0","FORESTHILL RANGER STATION, CA US","        66","0","        52","0","        18","0","        2","","         0","0","","","","","    25"," ,0,0108,+","     0"," ,0,1231,+","  75.9"," ,0,0324, ","   1430.2"," ,0","        0"," ,0"
"USC00043134","1994","39.01","-120.8455","919.0","FORESTHILL RANGER STATION, CA US","        54","0","        45","0","        13","0","","","         0","0","","","","","","","    13"," ,0,0323,+"," 143.8"," ,0,1205, ","   1074.3"," ,0","       26"," ,0"
"USC00043134","1996","39.01","-120.8455","919.0","FORESTHILL RANGER STATION, CA US","","","","","","","        0","","         1","0","","","","","     0"," ,0,1231,+","   102"," ,0,0124, ","","","   2350.1"," ,0","      128"," ,0"
"USC00043134","1997","39.01","-120.8455","919.0","FORESTHILL RANGER STATION, CA US","        62","0","        46","0","        13","0","        0","","         0","0","","","","","     0","T,0,0331, ","     0"," ,0,1231,+"," 210.3"," ,0,0102, ","   1311.1"," ,0","        0"," ,0"
"USC00043134","1998","39.01","-120.8455","919.0","FORESTHILL RANGER STATION, CA US","       104","0","        75","0","        26","0","","","         0","0","","","","","","","     0"," ,0,1231,+"," 131.6"," ,0,0112, ","   1917.2"," ,0","        0"," ,0"
"USC00043134","1999","39.01","-120.8455","919.0","FORESTHILL RANGER STATION, CA US","        52","0","        42","0","        18","0","        0","","         0","0","","","","","     0"," ,0,1231,+","     0"," ,0,1231,+"," 118.1"," ,0,0119, ","   1244.8"," ,0","        0"," ,0"
"USC00043134","2000","39.01","-120.8455","919.0","FORESTHILL RANGER STATION, CA US","        71","0","        63","0","        17","0","        0","","         0","0","","","","","     0"," ,0,1231,+","     0"," ,0,1231,+"," 188.2"," ,0,0214, ","   1543.5"," ,0","        0"," ,0"
"USC00043134","2001","39.01","-120.8455","919.0","FORESTHILL RANGER STATION, CA US","        53","0","        46","0","        15","0","        0","","         0","0","","","","","     0","T,0,0220,+","     0"," ,0,1231,+","  99.8"," ,0,1203, ","   1092.5"," ,0","        0"," ,0"
"USC00043134","2003","39.01","-120.8455","919.0","FORESTHILL RANGER STATION, CA US","        67","0","        53","0","        13","0","        0","","         0","0","","","","","     0"," ,0,1231,+","     0"," ,0,1231,+"," 118.6"," ,0,0414, ","   1171.0"," ,0","        0"," ,0"
"USC00043134","2004","39.01","-120.8455","919.0","FORESTHILL RANGER STATION, CA US","        51","0","        45","0","        19","0","        0","","         0","0","","","","","     0"," ,0,1231,+","     0"," ,0,1231,+","  77.7"," ,0,1020, ","   1032.9"," ,0","        0"," ,0"
"USC00043134","2005","39.01","-120.8455","919.0","FORESTHILL RANGER STATION, CA US","        76","0","        69","0","        27","0","        0","","         0","0","","","","","     0"," ,0,1231,+","     0"," ,0,1231,+"," 209.3"," ,0,1231, ","   2146.2"," ,0","        0"," ,0"
"USC00043134","2006","39.01","-120.8455","919.0","FORESTHILL RANGER STATION, CA US","","","","","","","        0","","         0","0","","","","","     0"," ,0,1231,+","     0"," ,0,1231,+","","","","","        0"," ,0"
"USC00043134","2007","39.01","-120.8455","919.0","FORESTHILL RANGER STATION, CA US","        51","0","        41","0","        13","0","        0","","         0","0","","","","","     0"," ,0,1231,+","     0"," ,0,1231,+"," 152.7"," ,0,0212, ","   1075.3"," ,0","        0"," ,0"
"USC00043134","2008","39.01","-120.8455","919.0","FORESTHILL RANGER STATION, CA US","","","","","","","        0","","         0","0","","","","","     0"," ,0,1231,+","     0"," ,0,1231,+","","","","","        0"," ,0"
"USC00043134","2009","39.01","-120.8455","919.0","FORESTHILL RANGER STATION, CA US","        62","0","        45","0","        18","0","        0","","         0","0","","","","","     0"," ,0,1231,+","     0"," ,0,1231,+"," 132.1"," ,0,1214, ","   1213.6"," ,0","        0"," ,0"
"USC00043134","2010","39.01","-120.8455","919.0","FORESTHILL RANGER STATION, CA US","        89","0","        75","0","        25","0","        0","","         0","0","","","","","     0"," ,0,1231,+","     0"," ,0,1231,+"," 220.2"," ,0,1025, ","   1974.5"," ,0","        0"," ,0"
"USC00043134","2014","39.01","-120.8455","919.0","FORESTHILL RANGER STATION, CA US","","","","","","","","","","","","","","","","","","","","","   1322.4"," ,7","",""
"USC00043134","2016","39.01","-120.8455","919.0","FORESTHILL RANGER STATION, CA US","","","","","","","        0","","         0","7","","","","","     0"," ,7,1231,+","     8"," ,7,0307, ","","","","","        8"," ,7"
"USC00043134","2017","39.01","-120.8455","919.0","FORESTHILL RANGER STATION, CA US","","","","","","","        0","","         1","7","","","","","     0"," ,7,1231,+","    51"," ,7,0306, ","","","","","       69"," ,7"
"USC00043134","2018","39.01","-120.8455","919.0","FORESTHILL RANGER STATION, CA US","","","","","","","        6","","         5","7","","","","","   127"," ,7,0227, ","   127"," ,7,0227, ","","","","","      317"," ,7"
"USC00043134","2019","39.01","-120.8455","919.0","FORESTHILL RANGER STATION, CA US","","","","","","","        4","","         3","7","","","","","    51"," ,7,1130, ","   102"," ,7,1130, ","","","","","      205"," ,7"
