"STATION","DATE","LATITUDE","LONGITUDE","ELEVATION","NAME","CDSD","CDSD_ATTRIBUTES","CLDD","CLDD_ATTRIBUTES","DP01","DP01_ATTRIBUTES","DP10","DP10_ATTRIBUTES","DP1X","DP1X_ATTRIBUTES","DSND","DSND_ATTRIBUTES","DSNW","DSNW_ATTRIBUTES","DT00","DT00_ATTRIBUTES","DT32","DT32_ATTRIBUTES","DX32","DX32_ATTRIBUTES","DX70","DX70_ATTRIBUTES","DX90","DX90_ATTRIBUTES","DYFG","DYFG_ATTRIBUTES","DYTS","DYTS_ATTRIBUTES","EMNT","EMNT_ATTRIBUTES","EMSD","EMSD_ATTRIBUTES","EMSN","EMSN_ATTRIBUTES","EMXP","EMXP_ATTRIBUTES","EMXT","EMXT_ATTRIBUTES","FZF0","FZF0_ATTRIBUTES","FZF1","FZF1_ATTRIBUTES","FZF2","FZF2_ATTRIBUTES","FZF3","FZF3_ATTRIBUTES","FZF4","FZF4_ATTRIBUTES","FZF5","FZF5_ATTRIBUTES","FZF6","FZF6_ATTRIBUTES","FZF7","FZF7_ATTRIBUTES","FZF8","FZF8_ATTRIBUTES","FZF9","FZF9_ATTRIBUTES","HDSD","HDSD_ATTRIBUTES","HTDD","HTDD_ATTRIBUTES","PRCP","PRCP_ATTRIBUTES","SNOW","SNOW_ATTRIBUTES","TAVG","TAVG_ATTRIBUTES","TMAX","TMAX_ATTRIBUTES","TMIN","TMIN_ATTRIBUTES"
"USC00380559","1894","32.3952","-80.6955","7.6","BEAUFORT WWTP, SC US","   1356.0","","    1356.0","6","","","","","","","","","","","         0","6","        10","6","         1","6","       251","6","        30","6","","","","","  -10.6","6,1229, ","","","","","","","   36.7","6,0811, ","0.0","6,1112","-5.0","6,1228","-5.0","6,1228","-10.6","6,1229","-10.6","6,1229","-1.1","6,0327","","","","","","","","","     823.5","5","     823.5","6","","","","","     19.68","6","     23.75","6","     15.61","6"
"USC00380559","1895","32.3952","-80.6955","7.6","BEAUFORT WWTP, SC US","   1347.3","","    1347.3","6","","","","","","","","","","","         0","6","        15","6","         1","6","       217","6","        59","6","","","","","  -10.6","6,0208, ","","","","","","","   36.1","6,0603,+","-2.2","6,1204","-2.2","6,1204","","","","","","","-2.2","6,0215","-2.2","6,0215","-6.7","6,0214","-6.7","6,0214","-10.6","6,0208","    1155.8","8","    1155.8","6","","","","","     18.66","6","     22.82","6","     14.50","6"
"USC00380559","1896","32.3952","-80.6955","7.6","BEAUFORT WWTP, SC US","   1518.3","","    1518.3","6","","","","","","","","","","","         0","6","        12","6","         0","6","       236","6","        61","6","","","","","   -6.7","6,0221, ","","","","","","","   37.8","6,0730, ","-0.6","6,1203","-2.2","6,1225","","","","","","","-3.3","6,0222","-3.3","6,0222","-6.7","6,0221","-6.7","6,0221","","","    1059.3","3","    1059.3","6","","","","","     19.71","6","     23.99","6","     15.43","6"
"USC00380559","1897","32.3952","-80.6955","7.6","BEAUFORT WWTP, SC US","   1369.4","","    1369.4","6","","","","","","","","","","","         0","6","         7","6","         1","6","       238","6","        59","6","","","","","   -7.8","6,0129,+","","","","","","","   38.3","6,0701, ","","","","","","","","","","","-2.2","6,0131","-2.2","6,0131","-7.8","6,0129","-7.8","6,0129","","","     903.9","9","     903.9","6","","","","","     19.69","6","     23.95","6","     15.43","6"
"USC00380559","1898","32.3952","-80.6955","7.6","BEAUFORT WWTP, SC US","","","","","","","","","","","","","","","         0","6","        11","6","         0","6","       233","6","        46","6","","","","","   -5.0","6,0102, ","","","","","","","   37.2","6,0721, ","-0.6","6,1127","","","","","","","","","-0.6","6,0222","-4.4","6,0202","-4.4","6,0202","","","","","     852.9","9","     852.9","6","","","","","     19.41","6","     23.60","6","     15.21","6"
"USC00380559","1899","32.3952","-80.6955","7.6","BEAUFORT WWTP, SC US","   1424.2","","    1424.2","6","","","","","","","","","","","         0","6","        16","6","         1","6","       253","6","        69","6","","","","","  -13.9","6,0213, ","","","","","","","   39.4","6,0806,+","-0.6","6,1205","-3.3","6,1230","","","","","","","-3.3","6,0308","-3.3","6,0308","-5.0","6,0215","-12.2","6,0214","-12.2","6,0214","","","","","","","","","     19.71","6","     24.78","6","     14.64","6"
"USC00380559","1900","32.3952","-80.6955","7.6","BEAUFORT WWTP, SC US","   1486.2","","    1486.2","6","       103","6","        76","6","        17","6","","","","","         0","6","        13","6","         0","6","       249","6","        50","6","","","","","   -8.3","6,0218, ","","","","","  85.1"," ,6,0624, ","   38.9","6,0821, ","-0.6","6,1218","","","","","","","","","0.0","6,0226","-2.2","6,0219","-8.3","6,0218","-8.3","6,0218","","","     913.1","1","     913.1","6","   1394.7"," ,6","","","     19.67","6","     24.58","6","     14.75","6"
"USC00380559","1901","32.3952","-80.6955","7.6","BEAUFORT WWTP, SC US","   1224.3","","    1224.3","6","       107","6","        67","6","        10","6","","","","","         0","6","        21","6","         0","6","       227","6","        33","6","","","","","   -6.7","6,1221, ","","","","","  67.3"," ,6,0615, ","   36.7","6,0625, ","-4.4","6,1118","-4.4","6,1118","-4.4","6,1118","-6.7","6,1221","","","-0.6","6,0308","-2.2","6,0307","","","","","","","    1037.8","8","    1037.8","6","    904.4"," ,6","","","     18.34","6","     23.40","6","     13.27","6"
"USC00380559","1902","32.3952","-80.6955","7.6","BEAUFORT WWTP, SC US","   1348.9","","    1348.9","6","       101","6","        66","6","        22","6","","","","","         0","6","        20","6","         0","6","       247","6","        52","6","","","","","   -4.4","6,1228,+","","","","","  85.9"," ,6,1010, ","   40.0","6,0706, ","0.0","6,1225","-4.4","6,1227","-4.4","6,1227","","","","","-0.6","6,0319","-3.9","6,0118","","","","","","","    1212.5","5","    1212.5","6","   1410.8"," ,6","","","     19.29","6","     24.35","6","     14.23","6"
"USC00380559","1903","32.3952","-80.6955","7.6","BEAUFORT WWTP, SC US","   1197.2","","    1197.2","6","       121","6","        74","6","        17","6","","","","","         0","6","        20","6","         0","6","       239","6","        35","6","","","","","   -3.9","6,1128, ","","","",""," 135.4"," ,6,0515, ","   36.7","6,0723, ","-1.1","6,1119","-2.8","6,1127","","","","","","","0.0","6,0220","-2.8","6,0218","","","","","","","     794.6","6","     794.6","6","   1480.2"," ,6","","","     18.68","6","     23.45","6","     13.91","6"
"USC00380559","1904","32.3952","-80.6955","7.6","BEAUFORT WWTP, SC US","","","","","       110","6","        62","6","        12","6","","","","","         0","6","        15","6","","","","","","","","","","","   -3.3","6,0202,+","","","",""," 130.6"," ,6,0827, ","","","-0.6","6,1229","-2.8","6,1230","","","","","","","-1.7","6,0213","-2.2","6,0212","","","","","","","","","","","   1151.7"," ,6","","","","","","","     13.50","6"
"USC00380559","1908","32.3952","-80.6955","7.6","BEAUFORT WWTP, SC US","","","","","","","","","","","","","","","","","","","","","","","","","         1"," ","","","","","","","","","","","","","","","","","","","","","","","","","","","","","","","","","","","","","","","","","","","","","",""
"USC00380559","1912","32.3952","-80.6955","7.6","BEAUFORT WWTP, SC US","","","","","        81","6","        77","6","        24","6","","","","","","","","","","","","","","","","","         1"," ","","","","","","","  77.7"," ,6,0607, ","","","","","","","","","","","","","","","","","","","","","","","","","","","   1580.0"," ,6","","","","","","","",""
"USC00380559","1913","32.3952","-80.6955","7.6","BEAUFORT WWTP, SC US","","","","","        55","6","        53","6","        20","6","","","","","","","","","","","","","","","","","","","","","","","",""," 101.6"," ,6,0905,+","","","","","","","","","","","","","","","","","","","","","","","","","","","   1338.4"," ,6","","","","","","","",""
"USC00380559","1914","32.3952","-80.6955","7.6","BEAUFORT WWTP, SC US","","","","","        65","6","        61","6","        21","6","","","","","","","","","","","","","","","","","","","","","","","","","  73.7"," ,6,0220, ","","","","","","","","","","","","","","","","","","","","","","","","","","","   1337.4"," ,6","","","","","","","",""
"USC00380559","1917","32.3952","-80.6955","7.6","BEAUFORT WWTP, SC US","","","","","","","","","","","","","","","","","","","","","","","","","         1"," ","","","","","","","","","","","","","","","","","","","","","","","","","","","","","","","","","","","","","","","","","","","","","",""
"USC00380559","1918","32.3952","-80.6955","7.6","BEAUFORT WWTP, SC US","","","","","","","","","","","","","","","","","","","","","","","","","         5"," ","","","","","","","","","","","","","","","","","","","","","","","","","","","","","","","","","","","","","","","","","","","","","",""
"USC00380559","1919","32.3952","-80.6955","7.6","BEAUFORT WWTP, SC US","","","","","        98","6","        67","6","        15","6","","","","","         0","6","        16","6","","","","","","","","","","","   -5.6","6,0104, ","","","","","  77.2"," ,6,0604, ","","","-0.6","6,1215","-5.0","6,1216","-5.0","6,1216","","","","","-0.6","6,0218","-3.9","6,0107","-5.6","6,0104","","","","","","","","","   1135.3"," ,6","","","","","","","     15.31","6"
"USC00380559","1920","32.3952","-80.6955","7.6","BEAUFORT WWTP, SC US","","","","","        70","6","        59","6","        15","6","","","","","","","","","","","","","","","","","","","","","","","","","  76.2"," ,6,1111, ","","","","","","","","","","","","","","","","","","","","","","","","","","","   1072.6"," ,6","","","","","","","",""
"USC00380559","1921","32.3952","-80.6955","7.6","BEAUFORT WWTP, SC US","","","","","        71","6","        71","6","         5","6","","","","","         0","6","         3","6","","","","","","","","","","","   -1.7","6,0127, ","","","","","  48.3"," ,6,0717, ","","","","","","","","","","","","","-1.1","6,0128","","","","","","","","","","","","","    845.5"," ,6","","","","","","","     15.31","6"
"USC00380559","1922","32.3952","-80.6955","7.6","BEAUFORT WWTP, SC US","   1384.2","","    1384.2","6","        85","6","        85","6","        24","6","","","","","         0","6","        15","6","         0","6","       282","6","        78","6","","","","","   -2.8","6,0126,+","","","","","  55.9"," ,6,1018, ","   38.3","6,0731,+","0.0","6,1129","","","","","","","","","-0.6","6,0218","-2.2","6,0208","","","","","","","     571.1","1","     571.1","6","   1469.4"," ,6","","","     20.33","6","     26.14","6","     14.51","6"
"USC00380559","1927","32.3952","-80.6955","7.6","BEAUFORT WWTP, SC US","   1343.4","","    1343.4","6","","","","","","","","","","","         0","6","        21","6","         0","6","       282","6","        72","6","","","","","   -7.8","6,0116, ","","","","","","","   37.8","6,0630,+","-2.2","6,1208","-2.2","6,1208","","","","","","","-1.7","6,0305","-5.6","6,0117","-5.6","6,0117","-7.8","6,0116","","","","","","","","","","","     19.92","6","     25.49","6","     14.35","6"
"USC00380559","1928","32.3952","-80.6955","7.6","BEAUFORT WWTP, SC US","","","","","        88","6","        68","6","        15","6","","","","","","","","","","","","","","","","","","","","","","","",""," 147.6"," ,6,0918, ","","","","","","","","","","","","","","","","","","","","","","","","","","","   1317.5"," ,6","","","","","","","",""
"USC00380559","1930","32.3952","-80.6955","7.6","BEAUFORT WWTP, SC US","   1249.9","","    1249.9","0","        93","0","        74","0","        15","0","        0","","         0","0","         0","0","        16","0","         0","0","       238","0","        70","0","","","","","   -2.2","0,1217,+","     0"," ,0,1231,+","     0","T,0,0130, "," 110.5"," ,0,0917, ","   38.9","0,0723, ","-1.1","0,1127","-2.2","0,1128","","","","","","","0.0","0,0304","","","","","","","","","     880.2","2","     880.2","0","   1256.2"," ,0","        0","T,0","     18.89","0","     24.34","0","     13.43","0"
"USC00380559","1931","32.3952","-80.6955","7.6","BEAUFORT WWTP, SC US","","","","","        65","0","        47","0","         7","0","        0","","         0","0","","","","","","","","","","","","","","","","","     0"," ,0,1231,+","     0"," ,0,1231,+","  94.5"," ,0,0614, ","","","","","","","","","","","","","","","","","","","","","","","    1166.6","6","    1166.6","0","    737.8"," ,0","        0"," ,0","","","","","",""
"USC00380559","1932","32.3952","-80.6955","7.6","BEAUFORT WWTP, SC US","","","","","        81","0","        71","0","        14","0","        0","","         0","0","         0"," ","        13","0","","","","","","","","","","","   -3.9","0,0311, ","     0"," ,0,1231,+","     0","T,0,0313, "," 101.6"," ,0,0813, ","","","-0.6","0,1114","","","","","","","","","-3.3","0,0315","-3.3","0,0315","","","","","","","","","","","   1171.0"," ,0","        0","T,0","","","","","     14.36","0"
"USC00380559","1934","32.3952","-80.6955","7.6","BEAUFORT WWTP, SC US","","","","","        58","0","        49","0","         5","0","        0","","         0","0","","","","","","","","","","","","","","","","","     0"," ,0,1231,+","     0"," ,0,1231,+","  47.0"," ,0,0528, ","","","","","","","","","","","","","","","","","","","","","","","","","","","    565.7"," ,0","        0"," ,0","","","","","",""
"USC00380559","1936","32.3952","-80.6955","7.6","BEAUFORT WWTP, SC US","","","","","        91","0","        60","0","        13","0","        1","","         1","0","","","","","","","","","","","","","","","","","    25"," ,0,0101, ","    25"," ,0,0101, ","  53.3"," ,0,0704, ","","","","","","","","","","","","","","","","","","","","","","","","","","","   1019.3"," ,0","       25"," ,0","","","","","",""
"USC00380559","1937","32.3952","-80.6955","7.6","BEAUFORT WWTP, SC US","","","","","        89","0","        77","0","        21","0","        0","","         0","0","         0","0","        19","0","","","","","","","","","","","   -8.9","0,1207, ","     0"," ,0,1231,+","     0"," ,0,1231,+","  57.2"," ,0,0429, ","","","-5.0","0,1121","-5.0","0,1121","-5.0","0,1121","-8.9","0,1207","-8.9","0,1207","0.0","0,0302","-2.8","0,0212","","","","","","","     804.0","0","     804.0"," ","   1313.9"," ,0","        0"," ,0","","","","","     13.15","0"
"USC00380559","1938","32.3952","-80.6955","7.6","BEAUFORT WWTP, SC US","   1242.4","","    1242.4","0","        79","0","        67","0","         9","0","        0","","         0","0","         0","0","        23","0","         0","0","       278","0","        81","0","","","","","   -5.6","0,1129,+","     0"," ,0,1231,+","     0"," ,0,1231,+"," 104.1"," ,0,0725, ","   38.9","0,0827, ","-1.1","0,1125","-4.4","0,1126","-4.4","0,1126","","","","","-1.1","0,0302","-5.6","0,0129","-5.6","0,0129","","","","","","","","","   1014.6"," ,0","        0"," ,0","     19.30","0","     25.88","0","     12.73","0"
"USC00380559","1939","32.3952","-80.6955","7.6","BEAUFORT WWTP, SC US","   1363.2","","    1363.2","0","        78","0","        68","0","        19","0","        0","","         0","0","         0","0","        16","0","         0","0","       269","0","        93","0","","","","","   -6.1","0,0224, ","     0"," ,0,1231,+","     0"," ,0,1231,+","  78.7"," ,0,0615, ","   37.8","0,0910,+","0.0","0,1107","-2.2","0,1215","","","","","","","0.0","0,0320","-6.1","0,0224","-6.1","0,0224","","","","","     888.5","5","     888.5","0","   1201.8"," ,0","        0"," ,0","     19.39","0","     25.72","0","     13.06","0"
"USC00380559","1940","32.3952","-80.6955","7.6","BEAUFORT WWTP, SC US","","","","","        77","0","        59","0","        11","0","        0","","         0","0","         0","0","        36","0","","","","","","","","","","","   -8.3","0,0129,+","     0"," ,0,1231,+","     0","T,0,0123, "," 275.3"," ,0,0811, ","","","-0.6","0,1115","-3.3","0,1116","","","","","","","-0.6","0,0309","-5.0","0,0203","-5.0","0,0203","-8.3","0,0129","","","","","","","   1174.6"," ,0","        0","T,0","","","","","     12.78","0"
"USC00380559","1941","32.3952","-80.6955","7.6","BEAUFORT WWTP, SC US","","","","","        75","0","        63","0","         9","0","        0","","         0","0","","","","","","","","","","","","","","","","","     0"," ,0,1231,+","     0","T,0,0209, ","  78.7"," ,0,0627, ","","","","","","","","","","","","","","","","","","","","","","","","","","","    870.5"," ,0","        0","T,0","","","","","",""
"USC00380559","1942","32.3952","-80.6955","7.6","BEAUFORT WWTP, SC US","   1411.7","","    1411.7","0","        72","0","        60","0","        13","0","        0","","         0","0","         0","0","        23","0","         0","0","       262","0","        77","0","","","","","   -8.9","0,0111, ","     0"," ,0,1231,+","     0"," ,0,1231,+","  67.6"," ,0,0609, ","   39.4","0,0721,+","-1.1","0,1206","-4.4","0,1217","-4.4","0,1217","","","","","-0.6","0,0228","-3.9","0,0221","-8.9","0,0111","-8.9","0,0111","-8.9","0,0111","","","","","   1079.3"," ,0","        0"," ,0","     19.39","0","     25.42","0","     13.36","0"
"USC00380559","1943","32.3952","-80.6955","7.6","BEAUFORT WWTP, SC US","   1245.0","","    1245.0","0","        71","0","        62","0","        16","0","        2","","         1","0","         0","0","        35","0","         0","0","       276","0","        66","0","","","","","  -11.1","0,1216, ","    51"," ,0,1215, ","    61"," ,0,1215, ","  97.8"," ,0,0813, ","   38.9","0,0606,+","0.0","0,1110","-11.1","0,1216","-11.1","0,1216","-11.1","0,1216","-11.1","0,1216","-0.6","0,0324","-5.6","0,0304","-5.6","0,0304","-7.8","0,0217","-9.4","0,0215","     915.3","3","     915.3","0","   1078.8"," ,0","       61"," ,0","     18.80","0","     25.22","0","     12.38","0"
"USC00380559","1944","32.3952","-80.6955","7.6","BEAUFORT WWTP, SC US","   1300.0","","    1300.0","0","        92","0","        81","0","        12","0","        0","","         0","0","         0","0","        30","0","         0","0","       254","0","        67","0","","","","","   -6.1","0,1215, ","     0"," ,0,1231,+","     0"," ,0,1231,+"," 101.6"," ,0,1019, ","   38.3","0,0904,+","-2.2","0,1201","-2.2","0,1201","-5.6","0,1203","","","","","-0.6","0,0406","-3.9","0,0213","-5.0","0,0110","","","","","    1049.5","5","    1049.5","0","   1397.1"," ,0","        0"," ,0","     18.91","0","     25.02","0","     12.79","0"
"USC00380559","1945","32.3952","-80.6955","7.6","BEAUFORT WWTP, SC US","   1367.6","","    1367.6","0","        85","0","        78","0","        14","0","        0","","         0","0","         0","0","        24","0","         0","0","       264","0","        56","0","","","","","   -5.6","0,0202, ","     0"," ,0,1231,+","     0"," ,0,1231,+"," 110.0"," ,0,0917, ","   37.8","0,0531, ","0.0","0,1124","-2.2","0,1212","","","","","","","0.0","0,0209","-2.8","0,0203","-5.6","0,0202","","","","","     990.4","4","     990.4","0","   1375.3"," ,0","        0"," ,0","     19.53","0","     25.02","0","     14.04","0"
"USC00380559","1946","32.3952","-80.6955","7.6","BEAUFORT WWTP, SC US","   1159.1","","    1159.1","0","        63","0","        55","0","        15","0","        0","","         0","0","         0","0","        16","0","         0","0","       287","0","        34","0","","","","","   -4.4","0,0102, ","     0"," ,0,1231,+","     0"," ,0,1231,+","  86.9"," ,0,1008, ","   36.1","0,0817, ","0.0","0,1203","","","","","","","","","-0.6","0,0221","-2.2","0,0129","-4.4","0,0102","","","","","     932.9","9","     932.9","0","   1131.4"," ,0","        0"," ,0","     19.42","0","     24.94","0","     13.90","0"
"USC00380559","1947","32.3952","-80.6955","7.6","BEAUFORT WWTP, SC US","   1253.4","","    1253.4","0","        86","0","        76","0","        19","0","        0","","         0","0","         0","0","        23","0","         0","0","       245","0","        50","0","","","","","   -6.7","0,0211, ","     0"," ,0,1231,+","     0"," ,0,1231,+"," 141.2"," ,0,0924, ","   37.8","0,0609, ","-1.7","0,1130","-2.8","0,1202","","","","","","","-1.1","0,0327","-2.2","0,0309","-6.7","0,0211","-6.7","0,0211","","","     941.4","4","     941.4","0","   1485.6"," ,0","        0"," ,0","     18.77","0","     23.97","0","     13.57","0"
"USC00380559","1948","32.3952","-80.6955","7.6","BEAUFORT WWTP, SC US","   1218.6","","    1218.6","0","        90","0","        81","0","        22","0","        0","","         0","0","         0","0","        22","0","         0","0","       272","0","        43","0","","","","","   -8.9","0,0115, ","     0"," ,0,1231,+","     0"," ,0,1231,+","  97.8"," ,0,0401, ","   36.7","0,0830, ","-3.9","0,1226","-3.9","0,1226","","","","","","","0.0","0,0211","-2.2","0,0210","-6.1","0,0116","-8.9","0,0115","-8.9","0,0115","    1066.4","4","    1066.4","0","   1604.5"," ,0","        0"," ,0","     19.06","0","     24.32","0","     13.81","0"
"USC00380559","1949","32.3952","-80.6955","7.6","BEAUFORT WWTP, SC US","   1254.0","","    1254.0","0","","","","","","","        0","","         0","0","         0","0","        15","0","         0","0","       282","0","        50","0","","","         3"," ","   -3.9","0,0316, ","     0"," ,0,1231,+","     0"," ,0,1231,+","","","   38.3","0,0728, ","-1.1","0,1118","","","","","","","","","-3.9","0,0316","-3.9","0,0316","","","","","","","     656.9","9","     656.9","0","","","        0"," ,0","     19.67","0","     25.37","0","     13.97","0"
"USC00380559","1950","32.3952","-80.6955","7.6","BEAUFORT WWTP, SC US","","","","","        65","0","        60","0","        11","0","        0","","         0","0","","","","","","","","","","","","","         1"," ","","","     0"," ,0,1231,+","     0","T,0,0427, ","  68.1"," ,0,0905, ","","","","","","","","","","","","","","","","","","","","","","","","","","","   1094.1"," ,0","        0","T,0","","","","","",""
"USC00380559","1951","32.3952","-80.6955","7.6","BEAUFORT WWTP, SC US","   1158.7","","    1158.7","0","        57","0","        48","0","        11","0","        0","","         0","0","         0","0","        29","0","         0","0","       259","0","        70","0","","","         3"," ","   -6.7","0,0204, ","     0","T,0,0605, ","     0","T,0,0605, ","  58.4"," ,0,0729, ","   37.2","0,0714, ","-1.1","0,1118","-4.4","0,1120","-4.4","0,1120","","","","","-0.6","0,0314","-2.2","0,0211","-4.4","0,0208","-6.7","0,0204","","","    1193.4","4","    1193.4","0","    883.9"," ,0","        0","T,0","     18.58","0","     24.62","0","     12.54","0"
"USC00380559","1952","32.3952","-80.6955","7.6","BEAUFORT WWTP, SC US","   1232.1","","    1232.1","0","        68","0","        57","0","        18","0","        0","","         0","0","         0","0","        15","0","         0","0","       262","0","        63","0","","","         1"," ","   -4.4","0,0131, ","     0"," ,0,1231,+","     0","T,0,0504,+","  72.9"," ,0,0830, ","   40.6","0,0626, ","-1.7","0,1030","-2.2","0,1215","","","","","","","-0.6","0,0309","-2.2","0,0201","-4.4","0,0131","","","","","     908.3","3","     908.3","0","   1151.7"," ,0","        0","T,0","     19.04","0","     24.80","0","     13.27","0"
"USC00380559","1953","32.3952","-80.6955","7.6","BEAUFORT WWTP, SC US","   1150.5","","    1150.5","0","        88","0","        71","0","        18","0","        0","","         0","0","         0","0","        17","0","         0","0","       256","0","        48","0","","","","","   -9.4","0,1219, ","     0"," ,0,1231,+","     0"," ,0,1231,+"," 111.8"," ,0,0322, ","   37.8","0,0803, ","-0.6","0,1107","-2.2","0,1126","-7.2","0,1218","-7.2","0,1218","-9.4","0,1219","-1.1","0,0218","-3.9","0,0113","","","","","","","     994.4","4","     994.4","0","   1280.6"," ,0","        0"," ,0","     18.80","0","     24.65","0","     12.96","0"
"USC00380559","1954","32.3952","-80.6955","7.6","BEAUFORT WWTP, SC US","   1227.3","","    1227.3","0","        66","0","        50","0","        10","0","        0","","         0","0","         0","0","        35","0","         0","0","       258","0","        73","0","","","","","   -5.6","0,1208,+","     0"," ,0,1231,+","     0","T,0,0306, "," 104.9"," ,0,0513, ","   38.9","0,0805,+","-0.6","0,1101","-3.9","0,1103","-5.6","0,1207","","","","","-1.1","0,0317","-3.3","0,0307","-4.4","0,0113","","","","","     983.7","7","     983.7","0","    849.4"," ,0","        0","T,0","     18.66","0","     25.08","0","     12.25","0"
"USC00380559","1955","32.3952","-80.6955","7.6","BEAUFORT WWTP, SC US","   1038.6","","    1038.6","0","        67","0","        58","0","         8","0","        0","","         0","0","         0","0","        40","0","         0","0","       263","0","        50","0","","","","","   -7.8","0,0213,+","     0"," ,0,1231,+","     0"," ,0,1231,+","  69.1"," ,0,0618, ","   36.1","0,0811, ","0.0","0,1102","-6.1","0,1129","-6.1","0,1129","-6.7","0,1201","","","0.0","0,0330","-5.0","0,0327","-5.0","0,0327","-6.7","0,0214","","","    1210.6","6","    1210.6","0","    856.6"," ,0","        0"," ,0","     17.92","0","     24.54","0","     11.29","0"
"USC00380559","1956","32.3952","-80.6955","7.6","BEAUFORT WWTP, SC US","   1117.2","","    1117.2","0","        67","0","        47","0","        11","0","        0","","         0","0","         0","0","        28","0","         0","0","       265","0","        69","0","","","","","   -5.0","0,1125, ","     0"," ,0,1231,+","     0"," ,0,1231,+","  67.8"," ,0,0719, ","   36.7","0,0806, ","-1.1","0,1109","-5.0","0,1125","-5.0","0,1125","","","","","-1.1","0,0325","-3.9","0,0322","","","","","","","    1161.2","2","    1161.2","0","    768.8"," ,0","        0"," ,0","     18.69","0","     25.01","0","     12.38","0"
"USC00380559","1957","32.3952","-80.6955","7.6","BEAUFORT WWTP, SC US","   1108.6","","    1108.6","0","        97","0","        80","0","        14","0","        0","","         0","0","         0","0","        27","0","         0","0","       260","0","        44","0","","","","","  -11.1","0,0119, ","     0"," ,0,1231,+","     0"," ,0,1231,+"," 139.7"," ,0,0530, ","   36.7","0,0812,+","0.0","0,1029","-7.2","0,1212","-7.2","0,1212","-7.2","0,1212","","","-1.1","0,0311","-2.2","0,0310","-11.1","0,0119","-11.1","0,0119","-11.1","0,0119","     941.8","8","     941.8","0","   1372.5"," ,0","        0"," ,0","     18.59","0","     24.35","0","     12.83","0"
"USC00380559","1958","32.3952","-80.6955","7.6","BEAUFORT WWTP, SC US","   1237.2","","    1237.2","0","        83","0","        72","0","        14","0","        0","","         0","0","         0","0","        36","0","         0","0","       226","0","        53","0","","","","","  -10.0","0,0217, ","     0","T,0,1212,+","     0","T,0,1211,+","  54.6"," ,0,0415, ","   37.2","0,0614, ","-2.2","0,1211","-2.2","0,1211","-7.2","0,1212","-7.2","0,1212","","","-0.6","0,0223","-6.7","0,0221","-6.7","0,0221","-6.7","0,0221","-9.4","0,0218","    1283.6","6","    1283.6","0","   1137.5"," ,0","        0","T,0","     18.04","0","     23.18","0","     12.90","0"
"USC00380559","1959","32.3952","-80.6955","7.6","BEAUFORT WWTP, SC US","   1249.9","","    1249.9","0","       102","0","        87","0","        16","0","        0","","         0","0","         0","0","        20","0","         0","0","       233","0","        38","0","","","","","   -7.8","0,0117, ","     0"," ,0,1231,+","     0"," ,0,1231,+"," 154.9"," ,0,0929, ","   40.6","0,0629, ","-0.6","0,1119","-5.0","0,1130","-5.0","0,1130","","","","","-0.6","0,0222","-4.4","0,0221","-4.4","0,0221","-7.8","0,0117","","","    1027.8","8","    1027.8","0","   1518.7"," ,0","        0"," ,0","     19.09","0","     24.20","0","     13.99","0"
"USC00380559","1960","32.3952","-80.6955","7.6","BEAUFORT WWTP, SC US","   1236.0","","    1236.0","0","        87","0","        65","0","        10","0","        0","","         0","0","         0","0","        45","0","         0","0","       234","0","        49","0","","","","","   -7.8","0,1214, ","     0"," ,0,1231,+","     0","T,0,0311, ","  87.6"," ,0,0911, ","   37.8","0,0702, ","-2.8","0,1202","-2.8","0,1202","-6.1","0,1204","-7.8","0,1214","","","0.0","0,0324","-2.8","0,0314","-5.6","0,0306","-6.7","0,0124","","","    1194.4","4","    1194.4","0","   1159.2"," ,0","        0","T,0","     18.42","0","     24.00","0","     12.83","0"
"USC00380559","1961","32.3952","-80.6955","7.6","BEAUFORT WWTP, SC US","   1134.3","","    1134.3","0","        87","0","        67","0","        17","0","        0","","         0","0","         0","0","        29","0","         0","0","       259","0","        52","0","","","","","   -6.7","0,0122, ","     0"," ,0,1231,+","     0","T,0,0126, ","  81.3"," ,0,0826, ","   37.2","0,0731, ","-1.1","0,1122","-2.2","0,1130","-4.4","0,1226","","","","","-0.6","0,0210","-2.2","0,0131","-6.7","0,0122","-6.7","0,0122","","","    1009.3","3","    1009.3","0","   1327.5"," ,0","        0","T,0","     18.69","0","     24.38","0","     12.99","0"
"USC00380559","1962","32.3952","-80.6955","7.6","BEAUFORT WWTP, SC US","","","","","       101","0","        86","0","        15","0","        0","","         0","0","         0","0","        25","0","","","","","","","","","","","  -12.2","0,1213, ","     0"," ,0,1231,+","     0","T,0,0119,+","  69.9"," ,0,0605, ","","","0.0","0,1206","-4.4","0,1212","-4.4","0,1212","-12.2","0,1213","-12.2","0,1213","-1.1","0,0318","-2.2","0,0211","-8.3","0,0113","-8.3","0,0113","","","    1003.4","4","    1003.4","0","   1284.8"," ,0","        0","T,0","","","","","     12.56","0"
"USC00380559","1963","32.3952","-80.6955","7.6","BEAUFORT WWTP, SC US","   1203.0","","    1203.0","0","        94","0","        72","0","        16","0","        0","","         0","0","         0","0","        37","0","         0","0","       240","0","        61","0","","","","","   -8.9","0,0125, ","     0"," ,0,1231,+","     0"," ,0,1231,+","  91.4"," ,0,0815, ","   35.6","0,0813,+","-2.8","0,1115","-2.8","0,1115","-4.4","0,1204","","","","","-1.7","0,0323","-3.3","0,0227","-4.4","0,0223","-8.9","0,0125","-8.9","0,0125","","","","","   1285.2"," ,0","        0"," ,0","     18.20","0","     23.84","0","     12.55","0"
"USC00380559","1964","32.3952","-80.6955","7.6","BEAUFORT WWTP, SC US","   1159.6","","    1159.6","0","       107","0","        85","0","        26","0","        0","","         0","0","         0","0","        19","0","         0","0","       249","0","        48","0","","","","","   -8.3","0,0115, ","     0"," ,0,1231,+","     0","T,0,0113, "," 146.6"," ,0,0829, ","   37.2","0,0616,+","-3.9","0,1201","-3.9","0,1201","","","","","","","0.0","0,0331","-2.8","0,0212","-5.6","0,0116","-8.3","0,0115","","","    1218.5","5","    1218.5","0","   2070.9"," ,0","        0","T,0","     18.65","0","     24.16","0","     13.14","0"
"USC00380559","1965","32.3952","-80.6955","7.6","BEAUFORT WWTP, SC US","   1270.3","","    1270.3","0","       133","0","        90","0","        18","0","        0","","         0","0","         0","0","        25","0","         0","0","       253","0","        57","0","","","","","   -5.6","0,1208, ","     0"," ,0,1231,+","     0"," ,0,1231,+","  75.2"," ,0,0611, ","   36.1","0,0826, ","-1.1","0,1118","-4.4","0,1202","-4.4","0,1202","","","","","-1.1","0,0322","-2.2","0,0226","-4.4","0,0201","","","","","     919.4","4","     919.4","0","   1352.5"," ,0","        0"," ,0","     19.06","0","     24.75","0","     13.37","0"
"USC00380559","1966","32.3952","-80.6955","7.6","BEAUFORT WWTP, SC US","   1100.7","","    1100.7","0","        99","0","        82","0","        18","0","        0","","         0","0","         0","0","        30","0","         0","0","       245","0","        39","0","","","","","  -11.7","0,0130, ","     0"," ,0,1231,+","    23"," ,0,0127, ","  82.8"," ,0,0702, ","   36.1","0,0712, ","-3.9","0,1104","-3.9","0,1104","","","","","","","-1.1","0,0308","-3.9","0,0207","-6.1","0,0206","-8.3","0,0131","-11.7","0,0130","    1143.0","0","    1143.0","0","   1400.5"," ,0","       23"," ,0","     18.05","0","     23.73","0","     12.36","0"
"USC00380559","1967","32.3952","-80.6955","7.6","BEAUFORT WWTP, SC US","   1030.2","","    1030.2","0","       101","0","        80","0","        18","0","        0","","         0","0","         0","0","        29","0","         0","0","       267","0","        52","0","","","","","   -7.8","0,0226, ","     0"," ,0,1231,+","     0"," ,0,1231,+","  63.5"," ,0,0522, ","   35.0","0,0728,+","-1.1","0,1107","-3.3","0,1109","","","","","","","-1.1","0,0319","-5.6","0,0227","-5.6","0,0227","-7.8","0,0226","","","    1029.3","3","    1029.3","0","   1314.6"," ,0","        0"," ,0","     18.38","0","     24.59","0","     12.16","0"
"USC00380559","1968","32.3952","-80.6955","7.6","BEAUFORT WWTP, SC US","   1234.3","","    1234.3","0","       100","0","        76","0","        14","0","        0","","         0","0","         0","0","        61","0","         1","0","       240","0","        66","0","","","","","   -6.1","0,1209, ","     0"," ,0,1231,+","     0"," ,0,1231,+","  77.5"," ,0,1017, ","   38.3","0,0824,+","-1.1","0,1113","-2.2","0,1114","-6.1","0,1209","","","","","-1.7","0,0324","-3.9","0,0304","-4.4","0,0212","","","","","    1267.8","8","    1267.8","0","   1218.3"," ,0","        0"," ,0","     17.96","0","     24.24","0","     11.68","0"
"USC00380559","1969","32.3952","-80.6955","7.6","BEAUFORT WWTP, SC US","   1195.6","","    1195.6","0","       124","0","        73","0","        17","0","        0","","         0","0","         0","0","        43","0","         0","0","       236","0","        50","0","","","         1"," ","   -6.7","0,0115,+","     0"," ,0,1231,+","     0"," ,0,1231,+","  80.0"," ,0,0901, ","   36.7","0,0706, ","-3.3","0,1115","-3.3","0,1115","-4.4","0,1116","","","","","-0.6","0,0312","-2.2","0,0311","-6.7","0,0115","-6.7","0,0115","","","    1312.1","1","    1312.1","0","   1362.7"," ,0","        0"," ,0","     17.95","0","     23.77","0","     12.14","0"
"USC00380559","1970","32.3952","-80.6955","7.6","BEAUFORT WWTP, SC US","   1326.2","","    1326.2","0","       101","0","        77","0","        17","0","        0","","         0","0","         0","0","        39","0","         0","0","       261","0","        78","0","","","","","  -11.7","0,0109, ","     0"," ,0,1231,+","     0"," ,0,1231,+","  97.5"," ,0,1020, ","   37.2","0,0803,+","-2.2","0,1117","-2.2","0,1117","-6.1","0,1124","-8.3","0,1125","","","-1.1","0,0317","-3.3","0,0227","-6.1","0,0205","-8.3","0,0204","-11.1","0,0110","    1289.6","6","    1289.6","0","   1249.8"," ,0","        0"," ,0","     18.76","0","     24.83","0","     12.68","0"
"USC00380559","1971","32.3952","-80.6955","7.6","BEAUFORT WWTP, SC US","   1226.2","","    1226.2","0","       116","0","        83","0","        17","0","        0","","         0","0","         0","0","        27","0","         0","0","       268","0","        53","0","","","","","   -7.2","0,0120, ","     0"," ,0,1231,+","     0","T,0,0119, "," 259.1"," ,0,0817, ","   37.2","0,0615, ","-1.7","0,1122","-2.8","0,1219","","","","","","","0.0","0,0331","-3.9","0,0305","-5.0","0,0214","-6.7","0,0211","","","    1112.5","5","    1112.5","0","   1617.4"," ,0","        0","T,0","     18.88","0","     25.02","0","     12.74","0"
"USC00380559","1972","32.3952","-80.6955","7.6","BEAUFORT WWTP, SC US","   1222.5","","    1222.5","0","       105","0","        82","0","        13","0","        0","","         0","0","         0","0","        16","0","         0","0","       267","0","        55","0","","","         1"," ","   -8.3","0,0117, ","     0"," ,0,1231,+","     0"," ,0,1231,+","  76.5"," ,0,0829, ","   36.7","0,0808, ","-2.8","0,1124","-2.8","0,1124","-5.0","0,1218","","","","","0.0","0,0310","-3.3","0,0221","-8.3","0,0117","-8.3","0,0117","","","     804.9","9","     804.9","0","   1244.8"," ,0","        0"," ,0","     19.37","0","     25.08","0","     13.67","0"
"USC00380559","1973","32.3952","-80.6955","7.6","BEAUFORT WWTP, SC US","   1345.5","","    1345.5","0","       118","0","        90","0","        19","0","        3","","         2","0","         0","0","        24","0","         0","0","       266","0","        59","0","","","         1"," ","   -6.7","0,0212, ","    76"," ,0,0210, ","   102"," ,0,0210, ","  72.4"," ,0,0727, ","   35.6","0,0705,+","-1.1","0,1211","-2.8","0,1212","-5.6","0,1222","","","","","0.0","0,0220","-2.8","0,0218","-6.7","0,0212","-6.7","0,0212","","","     907.3","3","     907.3","0","   1373.9"," ,0","      153"," ,0","     19.40","0","     25.10","0","     13.71","0"
"USC00380559","1974","32.3952","-80.6955","7.6","BEAUFORT WWTP, SC US","   1274.4","","    1274.4","0","       112","0","        79","0","        14","0","        0","","         0","0","         0","0","        14","0","         0","0","       288","0","        54","0","","","","","   -6.7","0,0227, ","     0"," ,0,1231,+","     0"," ,0,1231,+","  91.4"," ,0,0806, ","   35.6","0,0716,+","0.0","0,1126","-2.2","0,1205","","","","","","","-1.7","0,0228","-6.7","0,0227","-6.7","0,0227","-6.7","0,0227","","","     651.5","5","     651.5","0","   1333.4"," ,0","        0"," ,0","     19.83","0","     25.93","0","     13.74","0"
"USC00380559","1975","32.3952","-80.6955","7.6","BEAUFORT WWTP, SC US","   1358.8","","    1358.8","0","       128","0","        91","0","        16","0","        0","","         0","0","         0","0","        12","0","         0","0","       276","0","        56","0","","","","","   -6.1","0,1219, ","     0"," ,0,1231,+","     0"," ,0,1231,+","  67.6"," ,0,0902, ","   35.6","0,0824,+","0.0","0,1211","-6.1","0,1219","-6.1","0,1219","","","","","-2.8","0,0304","-2.8","0,0304","","","","","","","     873.7","7","     873.7","0","   1536.1"," ,0","        0"," ,0","     19.74","0","     25.03","0","     14.44","0"
"USC00380559","1976","32.3952","-80.6955","7.6","BEAUFORT WWTP, SC US","   1085.7","","    1085.7","0","       101","0","        68","0","        18","0","        0","","         0","0","         0","0","        21","0","         0","0","       239","0","        25","0","","","","","   -6.1","0,0119, ","     0"," ,0,1231,+","     0"," ,0,1231,+"," 162.6"," ,0,0617, ","   35.0","0,0716,+","0.0","0,1106","-5.6","0,1222","-5.6","0,1222","","","","","-0.6","0,0208","-3.9","0,0120","-6.1","0,0119","","","","","     856.6","6","     856.6","0","   1524.4"," ,0","        0"," ,0","     18.42","0","     23.59","0","     13.24","0"
"USC00380559","1977","32.3952","-80.6955","7.6","BEAUFORT WWTP, SC US","   1425.9","","    1425.9","0","        98","0","        66","0","        12","0","        0","","         0","0","         0","0","        42","0","         2","0","       255","0","        68","0","","","","","   -8.3","0,0117, ","     0","T,0,0120,+","    13"," ,0,0118, ","  48.3"," ,0,0819, ","   37.2","0,0722, ","0.0","0,1114","-2.8","0,1211","","","","","","","-0.6","0,0221","-2.2","0,0210","-5.0","0,0120","-7.8","0,0119","","","    1322.6","6","    1322.6","0","    956.7"," ,0","       18"," ,0","     19.10","0","     24.36","0","     13.84","0"
"USC00380559","1978","32.3952","-80.6955","7.6","BEAUFORT WWTP, SC US","   1327.6","","    1327.6","0","        93","0","        59","0","        10","0","        0","","         0","0","         0","0","        31","0","         0","0","       255","0","        52","0","","","","","   -6.1","0,0207,+","     0"," ,0,1231,+","     0"," ,0,1231,+","  58.7"," ,0,1224, ","   35.6","0,0701,+","0.0","0,1211","","","","","","","","","0.0","0,0306","-3.3","0,0305","-6.1","0,0207","","","","","    1220.2","2","    1220.2","0","    912.3"," ,0","        0"," ,0","     18.92","0","     23.89","0","     13.96","0"
"USC00380559","1979","32.3952","-80.6955","7.6","BEAUFORT WWTP, SC US","   1218.4","","    1218.4","0","       107","0","        73","0","        18","0","        0","","         0","0","         0","0","        24","0","         0","0","       250","0","        34","0","","","","","   -6.7","0,0103, ","     0","T,0,0218, ","     0","T,0,0218, ","  91.2"," ,0,0616, ","   35.6","0,0619, ","-1.7","0,1130","-2.2","0,1218","","","","","","","-1.1","0,0220","-5.6","0,0219","-5.6","0,0219","-6.7","0,0103","","","     944.1","1","     944.1","0","   1302.5"," ,0","        0","T,0","     18.75","0","     23.69","0","     13.81","0"
"USC00380559","1980","32.3952","-80.6955","7.6","BEAUFORT WWTP, SC US","   1348.7","","    1348.7","0","       106","0","        71","0","        12","0","        0","","         0","0","         0","0","        20","0","         0","0","       237","0","        67","0","","","","","   -6.1","0,0303,+","     0","T,0,1227,+","    13"," ,0,1227, "," 186.7"," ,0,0624, ","   38.3","0,0713, ","-0.6","0,1221","-3.9","0,1226","","","","","","","-2.8","0,0304","-2.8","0,0304","-6.1","0,0303","","","","","    1037.6","6","    1037.6","0","   1206.2"," ,0","       16"," ,0","     18.98","0","     23.98","0","     13.98","0"
"USC00380559","1981","32.3952","-80.6955","7.6","BEAUFORT WWTP, SC US","   1265.3","","    1265.3","0","        95","0","        59","0","        13","0","        0","","         0","0","         0","0","        30","0","         0","0","       237","0","        57","0","","","","","   -7.2","0,0113,+","     0"," ,0,1231,+","     0"," ,0,1231,+","  81.3"," ,0,0724, ","   38.3","0,0616, ","0.0","0,1206","-3.9","0,1211","-6.7","0,1220","-6.7","0,1220","","","-0.6","0,0213","-5.0","0,0212","-5.0","0,0212","-7.2","0,0113","","","    1130.5","5","    1130.5","0","    980.0"," ,0","        0"," ,0","     18.69","0","     23.97","0","     13.40","0"
"USC00380559","1982","32.3952","-80.6955","7.6","BEAUFORT WWTP, SC US","   1280.7","","    1280.7","0","       128","0","        72","0","        11","0","        0","","         0","0","         0","0","        12","0","         0","0","       263","0","        38","0","","","","","  -10.6","0,0111, ","     0"," ,0,1231,+","     0"," ,0,1231,+"," 141.0"," ,0,0618, ","   36.1","0,0704, ","-1.7","0,1213","","","","","","","","","-1.1","0,0128","-5.0","0,0127","-5.0","0,0127","-10.6","0,0111","-10.6","0,0111","     974.9","9","     974.9","0","   1235.6"," ,0","        0"," ,0","     19.54","0","     24.35","0","     14.74","0"
"USC00380559","1983","32.3952","-80.6955","7.6","BEAUFORT WWTP, SC US","   1240.7","","    1240.7","0","       105","0","        80","0","        14","0","        0","","         0","0","         0","0","        15","0","         2","0","       231","0","        54","0","","","","","  -12.2","0,1225, ","     0"," ,0,1231,+","     0"," ,0,1231,+"," 114.3"," ,0,0723, ","   36.7","0,0725,+","-1.1","0,1224","-12.2","0,1225","-12.2","0,1225","-12.2","0,1225","-12.2","0,1225","-0.6","0,0226","-3.9","0,0119","","","","","","","    1010.1","1","    1010.1","0","   1364.8"," ,0","        0"," ,0","     18.56","0","     23.51","0","     13.61","0"
"USC00380559","1984","32.3952","-80.6955","7.6","BEAUFORT WWTP, SC US","   1268.7","","    1268.7","0","       108","0","        69","0","        15","0","        0","","         0","0","         0","0","        15","0","         0","0","       262","0","        46","0","","","","","   -5.0","0,0122, ","     0"," ,0,1231,+","     0"," ,0,1231,+","  60.7"," ,0,0306, ","   36.7","0,0620, ","0.0","0,1113","-3.3","0,1207","","","","","","","-0.6","0,0301","-2.8","0,0209","-5.0","0,0122","","","","","    1031.7","7","    1031.7","0","   1172.7"," ,0","        0"," ,0","     19.24","0","     24.51","0","     13.97","0"
"USC00380559","1985","32.3952","-80.6955","7.6","BEAUFORT WWTP, SC US","   1438.4","","    1438.4","0","        91","0","        68","0","        10","0","","","","","         0","0","        28","0","         1","0","       272","0","        45","0","","","","","  -15.0","0,0121, ","","","",""," 144.5"," ,0,0830, ","   37.8","0,0602, ","-2.2","0,1215","-2.2","0,1215","-7.8","0,1226","-7.8","0,1226","","","-1.1","0,0217","-2.2","0,0210","-6.1","0,0127","-7.2","0,0122","-15.0","0,0121","     939.1","1","     939.1","0","   1128.6"," ,0","","","     19.63","0","     24.68","0","     14.58","0"
"USC00380559","1986","32.3952","-80.6955","7.6","BEAUFORT WWTP, SC US","   1469.8","","    1469.8","0","        94","0","        65","0","        12","0","        0","","         0","0","         0","0","        14","0","         0","0","       257","0","        71","0","","","","","  -10.6","0,0128, ","     0"," ,0,1231,+","     0","T,0,0127, "," 141.0"," ,0,0705, ","   39.4","0,0720,+","","","","","","","","","","","-1.1","0,0323","-2.2","0,0214","-10.6","0,0128","-10.6","0,0128","-10.6","0,0128","     856.8","8","     856.8","0","   1292.3"," ,0","        0","T,0","     20.02","0","     24.89","0","     15.15","0"
"USC00380559","1987","32.3952","-80.6955","7.6","BEAUFORT WWTP, SC US","   1285.2","","    1285.2","0","       100","0","        74","0","        14","0","","","         0","0","         0","0","        12","0","         0","0","       236","0","        44","0","","","        11"," ","   -2.2","0,0210, ","","","     0"," ,0,1231,+"," 104.6"," ,0,0905, ","   35.6","0,0824,+","-0.6","0,1112","","","","","","","","","0.0","0,0311","-2.2","0,0210","","","","","","","    1008.1","1","    1008.1","0","   1347.8"," ,0","        0"," ,0","     18.95","0","     23.77","0","     14.13","0"
"USC00380559","1988","32.3952","-80.6955","7.6","BEAUFORT WWTP, SC US","","","","","","","","","","","","","","","","","","","","","","","","","","","        16"," ","","","","","","","","","","","","","","","","","","","","","","","","","","","","","","","","","","","","","","","","","","","",""
"USC00380559","1989","32.3952","-80.6955","7.6","BEAUFORT WWTP, SC US","   1320.6","","    1320.6","0","       102","0","        68","0","        13","0","        1","","         1","0","         0","0","        18","0","         1","0","       266","0","        47","0","         2"," ","        16"," ","   -8.9","0,1223, ","   127"," ,0,1224, ","   127"," ,0,1224, "," 120.7"," ,0,1002, ","   35.0","0,0807,+","0.0","0,1130","-2.2","0,1204","-8.9","0,1223","-8.9","0,1223","-8.9","0,1223","-3.3","0,0225","-3.3","0,0225","","","","","","","     827.0","0","     827.0","0","   1312.5"," ,0","      127"," ,0","     19.35","0","     24.35","0","     14.36","0"
"USC00380559","1990","32.3952","-80.6955","7.6","BEAUFORT WWTP, SC US","   1441.7","","    1441.7","0","        85","0","        60","0","         9","0","        0","","         0","0","         0","0","         4","0","         0","0","       273","0","        62","0","        11"," ","         6"," ","   -1.1","0,0114, ","     0"," ,0,1231,+","     0"," ,0,1231,+"," 118.4"," ,0,1011, ","   37.2","0,0706, ","","","","","","","","","","","-0.6","0,0226","","","","","","","","","     855.2","2","     855.2","0","   1028.4"," ,0","        0"," ,0","     20.54","0","     25.71","0","     15.38","0"
"USC00380559","1991","32.3952","-80.6955","7.6","BEAUFORT WWTP, SC US","   1352.5","","    1352.5","0","       114","0","        83","0","        19","0","        0","","         0","0","         0","0","        10","0","         0","0","       255","0","        31","0","         2"," ","        34"," ","   -6.7","0,0216, ","     0"," ,0,1231,+","     0"," ,0,1231,+","  94.7"," ,0,0716, ","   35.0","0,0714,+","-0.6","0,1126","","","","","","","","","0.0","0,0311","-2.2","0,0217","-6.7","0,0216","-6.7","0,0216","","","     737.6","6","     737.6","0","   1483.2"," ,0","        0"," ,0","     19.72","0","     24.31","0","     15.14","0"
"USC00380559","1992","32.3952","-80.6955","7.6","BEAUFORT WWTP, SC US","   1151.3","","    1151.3","0","       103","0","        78","0","        15","0","        0","","         0","0","         0","0","         5","0","         0","0","       242","0","        28","0","         6"," ","         6"," ","   -2.2","0,0120, ","     0"," ,0,1231,+","     0"," ,0,1231,+","  78.7"," ,0,0817, ","   35.6","0,0710, ","","","","","","","","","","","-1.1","0,0209","-2.2","0,0120","","","","","","","     944.1","1","     944.1","0","   1278.6"," ,0","        0"," ,0","     18.91","0","     23.56","0","     14.26","0"
"USC00380559","1993","32.3952","-80.6955","7.6","BEAUFORT WWTP, SC US","   1323.9","","    1323.9","0","        98","0","        78","0","        13","0","        0","","         0","0","         0","0","         8","0","         0","0","       231","0","        61","0","         2"," ","        20"," ","   -3.3","0,0315, ","     0"," ,0,1231,+","     0"," ,0,1231,+","  77.5"," ,0,0908, ","   36.7","0,0729, ","-1.1","0,1212","-2.8","0,1231","","","","","","","-3.3","0,0315","-3.3","0,0315","","","","","","","     963.1","1","     963.1","0","   1280.9"," ,0","        0"," ,0","     19.19","0","     24.09","0","     14.28","0"
"USC00380559","1994","32.3952","-80.6955","7.6","BEAUFORT WWTP, SC US","   1295.6","","    1295.6","0","       118","0","        86","0","        17","0","        0","","         0","0","         0","0","        12","0","         0","0","       269","0","        37","0","         5"," ","        21"," ","   -7.2","0,0119, ","     0"," ,0,1231,+","     0"," ,0,1231,+"," 167.4"," ,0,1003, ","   36.1","0,0516, ","","","","","","","","","","","-1.1","0,0204","-4.4","0,0122","-4.4","0,0122","-7.2","0,0119","","","     912.1","1","     912.1","0","   1553.0"," ,0","        0"," ,0","     19.68","0","     24.66","0","     14.69","0"
"USC00380559","1995","32.3952","-80.6955","7.6","BEAUFORT WWTP, SC US","   1385.9","","    1385.9","0","       104","0","        75","0","        15","0","        0","","         0","0","         0","0","        14","0","         0","0","       249","0","        47","0","         1"," ","        11"," ","   -6.1","0,0209, ","     0"," ,0,1231,+","     0"," ,0,1231,+","  79.8"," ,0,0826, ","   36.1","0,0818,+","-2.2","0,1211","-2.2","0,1211","","","","","","","-6.1","0,0209","-6.1","0,0209","-6.1","0,0209","","","","","     803.0","0","     803.0","0","   1236.7"," ,0","        0"," ,0","     19.41","0","     24.27","0","     14.55","0"
"USC00380559","1996","32.3952","-80.6955","7.6","BEAUFORT WWTP, SC US","","","","","","","","","","","","","","","","","","","","","","","","","         7"," ","         1"," ","","","","","","","","","","","","","","","","","","","","","","","","","","","","","","","    1072.9","9","    1072.9","0","","","","","","","","","",""
"USC00380559","1997","32.3952","-80.6955","7.6","BEAUFORT WWTP, SC US","","","","","","","","","","","","","","","","","","","","","","","","","         1"," ","","","","","","","","","","","","","","","","","","","","","","","","","","","","","","","","","","","","","","","","","","","","","",""
"USC00380559","1998","32.3952","-80.6955","7.6","BEAUFORT WWTP, SC US","","","","","","","","","","","","","","","","","","","","","","","","","         1"," ","","","","","","","","","","","","","","","","","","","","","","","","","","","","","","","","","","","","","","","","","","","","","",""
"USC00380559","2003","32.3952","-80.6955","7.6","BEAUFORT WWTP, SC US","","","","","       123","0","        81","0","        16","0","        0","","         0","0","         0","0","        18","0","","","","","","","        16"," ","         2"," ","   -7.2","0,0125,+","     0"," ,0,1231,+","     0"," ,0,1231,+"," 100.3"," ,0,0720, ","","","0.0","0,1208","-2.2","0,1221","-6.7","0,1223","-6.7","0,1223","","","-2.2","0,0129","-2.2","0,0129","-4.4","0,0126","-7.2","0,0125","","","","","","","   1393.0"," ,0","        0"," ,0","","","","","     14.31","0"
"USC00380559","2004","32.3952","-80.6955","7.6","BEAUFORT WWTP, SC US","","","","","","","","","","","","","","","","","","","","","","","","","         8"," ","","","","","","","","","","","","","","","","","","","","","","","","","","","","","","","","","","","","","","","","","","","","","",""
"USC00380559","2005","32.3952","-80.6955","7.6","BEAUFORT WWTP, SC US","   1428.7","","    1428.7","0","       107","0","        83","0","        18","0","","","         0","0","         0","0","        12","0","         0","0","       249","0","        66","0","","","","","   -5.0","0,0125, ","","","     0"," ,0,1231,+","  86.4"," ,0,1121, ","   37.8","0,0728, ","-1.7","0,1222","","","","","","","","","0.0","0,0212","-5.0","0,0125","-5.0","0,0125","","","","","","","","","   1541.0"," ,0","        0"," ,0","     19.48","0","     24.32","0","     14.64","0"
