"STATION","DATE","LATITUDE","LONGITUDE","ELEVATION","NAME","CDSD","CDSD_ATTRIBUTES","CLDD","CLDD_ATTRIBUTES","DP01","DP01_ATTRIBUTES","DP10","DP10_ATTRIBUTES","DP1X","DP1X_ATTRIBUTES","DSND","DSND_ATTRIBUTES","DSNW","DSNW_ATTRIBUTES","DT00","DT00_ATTRIBUTES","DT32","DT32_ATTRIBUTES","DX32","DX32_ATTRIBUTES","DX70","DX70_ATTRIBUTES","DX90","DX90_ATTRIBUTES","DYFG","DYFG_ATTRIBUTES","DYTS","DYTS_ATTRIBUTES","EMNT","EMNT_ATTRIBUTES","EMSD","EMSD_ATTRIBUTES","EMSN","EMSN_ATTRIBUTES","EMXP","EMXP_ATTRIBUTES","EMXT","EMXT_ATTRIBUTES","FZF0","FZF0_ATTRIBUTES","FZF1","FZF1_ATTRIBUTES","FZF2","FZF2_ATTRIBUTES","FZF3","FZF3_ATTRIBUTES","FZF4","FZF4_ATTRIBUTES","FZF5","FZF5_ATTRIBUTES","FZF6","FZF6_ATTRIBUTES","FZF7","FZF7_ATTRIBUTES","FZF8","FZF8_ATTRIBUTES","FZF9","FZF9_ATTRIBUTES","HDSD","HDSD_ATTRIBUTES","HTDD","HTDD_ATTRIBUTES","PRCP","PRCP_ATTRIBUTES","SNOW","SNOW_ATTRIBUTES","TAVG","TAVG_ATTRIBUTES","TMAX","TMAX_ATTRIBUTES","TMIN","TMIN_ATTRIBUTES"
"USC00180565","1949","39.0","-77.11667","103.9","BATTERY PARK, MD US","    674.4","","     674.4","0","       126","0","        88","0","        12","0","        7","","         4","0","         0","0","        78","0","         0","0","       178","0","        28","0","        14"," ","        13"," ","   -9.4","0,0203, ","   127"," ,0,0210, ","   127"," ,0,0210, ","  41.1"," ,0,0818, ","   36.1","0,0705, ","0.0","0,1027","-4.4","0,1106","-4.4","0,1106","-8.3","0,1202","-8.9","0,1217","-1.1","0,0417","-2.2","0,0321","-4.4","0,0320","-6.7","0,0319","-9.4","0,0203","","","","","   1153.9"," ,0","      369"," ,0","     13.90","0","     19.93","0","      7.86","0"
"USC00180565","1950","39.0","-77.11667","103.9","BATTERY PARK, MD US","","","","","","","","","","","","","","","","","","","","","","","","","         6"," ","         8"," ","","","","","","","","","","","","","","","","","","","","","","","","","","","","","","","    2277.3","3","    2277.3"," ","","","","","","","","","",""
