"STATION","DATE","LATITUDE","LONGITUDE","ELEVATION","NAME","DP01","DP01_ATTRIBUTES","DP10","DP10_ATTRIBUTES","DP1X","DP1X_ATTRIBUTES","DSND","DSND_ATTRIBUTES","DSNW","DSNW_ATTRIBUTES","DYFG","DYFG_ATTRIBUTES","DYTS","DYTS_ATTRIBUTES","EMSD","EMSD_ATTRIBUTES","EMSN","EMSN_ATTRIBUTES","EMXP","EMXP_ATTRIBUTES","PRCP","PRCP_ATTRIBUTES","SNOW","SNOW_ATTRIBUTES"
"USC00412621","1972","33.8094","-100.5169","612.6","DUMONT, TX US","        61","0","        39","0","         9","0","        5","","         3","0","","","","","    25"," ,0,1121,+","    38"," ,0,1124, ","  39.9"," ,0,0809, ","    617.7"," ,0","      166"," ,0"
"USC00412621","1973","33.8094","-100.5169","612.6","DUMONT, TX US","        67","0","        46","0","         4","0","","","         8","0","","","","","","","   114"," ,0,0223, ","  63.5"," ,0,0310, ","    512.9"," ,0","      460"," ,0"
"USC00412621","1974","33.8094","-100.5169","612.6","DUMONT, TX US","        56","0","        40","0","        10","0","        0","","         0","0","","","","","     0"," ,0,1231,+","     0"," ,0,1231,+","  56.4"," ,0,0925, ","    637.0"," ,0","        0"," ,0"
"USC00412621","1975","33.8094","-100.5169","612.6","DUMONT, TX US","        60","0","        45","0","         2","0","        5","","         3","0","","","","","    76"," ,0,1224, ","    76"," ,0,1224, ","  44.5"," ,0,0725, ","    502.2"," ,0","      198"," ,0"
"USC00412621","1976","33.8094","-100.5169","612.6","DUMONT, TX US","        54","0","        40","0","         5","0","        3","","         1","0","","","","","    76"," ,0,1114,+","    64"," ,0,1113, ","  59.4"," ,0,0803, ","    508.9"," ,0","       67"," ,0"
"USC00412621","1977","33.8094","-100.5169","612.6","DUMONT, TX US","        46","0","        34","0","         5","0","        1","","         1","0","","","","","   152"," ,0,0109, ","   152"," ,0,0109, ","  40.9"," ,0,0417, ","    457.2"," ,0","      152"," ,0"
"USC00412621","1978","33.8094","-100.5169","612.6","DUMONT, TX US","        50","0","        35","0","         4","0","","","","","","","","","","","","","  58.9"," ,0,0921, ","    510.6"," ,0","",""
"USC00412621","1979","33.8094","-100.5169","612.6","DUMONT, TX US","        60","0","        42","0","         6","0","       18","","         4","0","","","","","   127"," ,0,1214,+","   127"," ,0,0101, ","  49.8"," ,0,0718, ","    526.5"," ,0","      285"," ,0"
"USC00412621","1980","33.8094","-100.5169","612.6","DUMONT, TX US","        44","0","        35","0","         6","0","","","","","","","","","","","","","  52.3"," ,0,0927, ","    490.9"," ,0","",""
"USC00412621","1981","33.8094","-100.5169","612.6","DUMONT, TX US","        56","0","        46","0","         7","0","        0","","         0","0","","","","","     0"," ,0,1231,+","     0","T,0,0211, ","  81.3"," ,0,0817, ","    656.3"," ,0","        0","T,0"
"USC00412621","1982","33.8094","-100.5169","612.6","DUMONT, TX US","        54","0","        44","0","         5","0","        4","","         3","0","","","         1"," ","    25"," ,0,1211,+","    58"," ,0,0225, ","  95.3"," ,0,0916, ","    621.6"," ,0","      147"," ,0"
"USC00412621","1983","33.8094","-100.5169","612.6","DUMONT, TX US","        58","0","        44","0","         7","0","       25","","         8","0","","","","","   254"," ,0,0102, ","   241"," ,0,0102, "," 126.5"," ,0,1020, ","    689.2"," ,0","      661"," ,0"
"USC00412621","1984","33.8094","-100.5169","612.6","DUMONT, TX US","        50","0","        38","0","         4","0","","","         0","0","","","","","","","    23"," ,0,0118, ","  54.4"," ,0,0519, ","    477.8"," ,0","       23"," ,0"
"USC00412621","1985","33.8094","-100.5169","612.6","DUMONT, TX US","        46","0","        39","0","         9","0","","","","","         1"," ","","","","","","","  70.6"," ,0,1018, ","    671.2"," ,0","",""
"USC00412621","1986","33.8094","-100.5169","612.6","DUMONT, TX US","        69","0","        54","0","         9","0","","","","","","","         1"," ","","","","","  56.6"," ,0,0930, ","    665.2"," ,0","",""
"USC00412621","1987","33.8094","-100.5169","612.6","DUMONT, TX US","        55","0","        44","0","         6","0","       12","","         4","0","","","","","   102"," ,0,1215,+","   140"," ,0,0118, "," 143.5"," ,0,0527, ","    623.8"," ,0","      343"," ,0"
"USC00412621","1988","33.8094","-100.5169","612.6","DUMONT, TX US","        54","0","        44","0","         7","0","        9","","         6","0","","","","","   102"," ,0,0206, ","   102"," ,0,0206, ","  55.9"," ,0,0430, ","    542.1"," ,0","      279"," ,0"
"USC00412621","1989","33.8094","-100.5169","612.6","DUMONT, TX US","        41","0","        32","0","         9","0","        5","","         3","0","         1"," ","         1"," ","   102"," ,0,0321, ","   102"," ,0,0321, ","  54.4"," ,0,0912, ","    538.4"," ,0","      178"," ,0"
"USC00412621","1990","33.8094","-100.5169","612.6","DUMONT, TX US","        47","0","        36","0","         6","0","        2","","         2","0","         2"," ","        12"," ","    25"," ,0,1222,+","    25"," ,0,1230,+","  46.2"," ,0,0419, ","    493.1"," ,0","       50"," ,0"
"USC00412621","1991","33.8094","-100.5169","612.6","DUMONT, TX US","        58","0","        52","0","        14","0","        1","","         1","0","","","        18"," ","    25"," ,0,1031, ","    25"," ,0,1031, "," 145.3"," ,0,0601, ","   1149.2"," ,0","       25"," ,0"
"USC00412621","1992","33.8094","-100.5169","612.6","DUMONT, TX US","        56","0","        49","0","         6","0","        8","","         3","0","         1"," ","        27"," ","   152"," ,0,0113, ","   152"," ,0,0113, ","  40.6"," ,0,1121, ","    689.6"," ,0","      343"," ,0"
"USC00412621","1993","33.8094","-100.5169","612.6","DUMONT, TX US","        45","0","        34","0","         4","0","        0","","         1","0","         2"," ","        31"," ","     0"," ,0,1231,+","    25"," ,0,0102, ","  39.9"," ,0,0509, ","    414.0"," ,0","       25"," ,0"
"USC00412621","1994","33.8094","-100.5169","612.6","DUMONT, TX US","","","","","","","","","","","         1"," ","        19"," ","","","","","","","","","",""
"USC00412621","1995","33.8094","-100.5169","612.6","DUMONT, TX US","        59","0","        45","0","        11","0","        0","","         0","0","         3"," ","        35"," ","     0"," ,0,1231,+","     0"," ,0,1231,+"," 104.1"," ,0,0802, ","    848.5"," ,0","        0"," ,0"
"USC00412621","1996","33.8094","-100.5169","612.6","DUMONT, TX US","        50","0","        39","0","         7","0","        0","","         0","0","         3"," ","        39"," ","     0"," ,0,1231,+","     0"," ,0,1231,+","  51.3"," ,0,0826, ","    545.7"," ,0","        0"," ,0"
"USC00412621","1997","33.8094","-100.5169","612.6","DUMONT, TX US","        64","0","        46","0","        10","0","","","         0","0","         1"," ","        28"," ","","","     0","T,0,0206, ","  91.4"," ,0,0425, ","    833.7"," ,0","        0","T,0"
"USC00412621","1998","33.8094","-100.5169","612.6","DUMONT, TX US","        37","0","        29","0","         3","0","","","         0","0","","","         1"," ","","","     0"," ,0,1231,+","  53.8"," ,0,1002, ","    359.9"," ,0","        0"," ,0"
"USC00412621","1999","33.8094","-100.5169","612.6","DUMONT, TX US","        46","0","        38","0","         8","0","        0","","         0","0","","","         1"," ","     0"," ,0,1231,+","     0"," ,0,1231,+","  63.5"," ,0,0620, ","    670.7"," ,0","        0"," ,0"
"USC00412621","2000","33.8094","-100.5169","612.6","DUMONT, TX US","        47","0","        35","0","         7","0","        0","","         0","0","","","","","     0"," ,0,1231,+","    20"," ,0,1226, ","  75.7"," ,0,0323, ","    576.5"," ,0","       25"," ,0"
"USC00412621","2001","33.8094","-100.5169","612.6","DUMONT, TX US","        52","0","        32","0","         4","0","        0","","         0","0","","","","","     0","T,0,0117, ","     0","T,0,0117, ","  29.7"," ,0,1116, ","    381.1"," ,0","        0","T,0"
"USC00412621","2002","33.8094","-100.5169","612.6","DUMONT, TX US","        59","0","        40","0","         6","0","        0","","         0","0","","","","","     0"," ,0,1231,+","     0"," ,0,1231,+","  45.0"," ,0,0712, ","    574.9"," ,0","        0"," ,0"
"USC00412621","2003","33.8094","-100.5169","612.6","DUMONT, TX US","        39","0","        26","0","         3","0","        0","","         0","0","","","","","     0"," ,0,1231,+","     0"," ,0,1231,+","  32.3"," ,0,0911, ","    361.9"," ,0","        0"," ,0"
"USC00412621","2004","33.8094","-100.5169","612.6","DUMONT, TX US","        73","0","        56","0","         9","0","        1","","         1","0","","","","","    51"," ,0,1223, ","    51"," ,0,1223, ","  51.8"," ,0,1115, ","    825.3"," ,0","       51"," ,0"
"USC00412621","2005","33.8094","-100.5169","612.6","DUMONT, TX US","        48","0","        41","0","         2","0","        0","","         1","0","","","","","     0"," ,0,1231,+","    25"," ,0,0202, ","  72.4"," ,0,0601, ","    484.8"," ,0","       25"," ,0"
"USC00412621","2006","33.8094","-100.5169","612.6","DUMONT, TX US","        40","0","        36","0","         8","0","        0","","         0","0","","","","","     0"," ,0,1231,+","     5"," ,0,0329, ","  86.4"," ,0,1016, ","    610.4"," ,0","        5"," ,0"
"USC00412621","2007","33.8094","-100.5169","612.6","DUMONT, TX US","        52","0","        41","0","         6","0","        0","","         0","0","","","","","     0"," ,0,1231,+","     0"," ,0,1231,+","  69.9"," ,0,0818, ","    601.2"," ,0","        0"," ,0"
"USC00412621","2008","33.8094","-100.5169","612.6","DUMONT, TX US","        41","0","        32","0","         9","0","        0","","         0","0","","","","","     0"," ,0,1231,+","     0"," ,0,1231,+","  83.8"," ,0,0620, ","    613.8"," ,0","        0"," ,0"
"USC00412621","2009","33.8094","-100.5169","612.6","DUMONT, TX US","        49","0","        36","0","         3","0","        1","","         0","0","","","","","   102"," ,0,1225, ","     5"," ,0,0128, ","  63.5"," ,0,0430, ","    461.6"," ,0","      102"," ,0"
"USC00412621","2010","33.8094","-100.5169","612.6","DUMONT, TX US","        47","0","        37","0","        11","0","        2","","         2","0","","","","","    76"," ,0,0212, ","    76"," ,0,0212, "," 102.1"," ,0,0417, ","    786.9"," ,0","      140"," ,0"
"USC00412621","2011","33.8094","-100.5169","612.6","DUMONT, TX US","","","","","","","","","","","","","         2"," ","","","","","","","","","",""
"USC00412621","2012","33.8094","-100.5169","612.6","DUMONT, TX US","","","","","","","","","","","","","         9"," ","","","","","","","","","",""
"USC00412621","2013","33.8094","-100.5169","612.6","DUMONT, TX US","        44","7","        34","7","         5","7","        6","","         3","7","","","         2"," ","    76"," ,7,1207,+","    64"," ,7,1206, ","  64.0"," ,7,0606, ","    442.0"," ,7","      153"," ,7"
"USC00412621","2014","33.8094","-100.5169","612.6","DUMONT, TX US","        47","7","        33","7","         9","7","        7","","         2","7","","","         3"," ","   229"," ,7,0202, ","   229"," ,7,0202, ","  66.0"," ,7,0829, ","    579.9"," ,7","      292"," ,7"
"USC00412621","2015","33.8094","-100.5169","612.6","DUMONT, TX US","        66","7","        50","7","         9","7","       12","","         5","7","","","        10"," ","   229"," ,7,1228, ","   140"," ,7,1228, ","  68.3"," ,7,1022, ","    791.8"," ,7","      467"," ,7"
"USC00412621","2016","33.8094","-100.5169","612.6","DUMONT, TX US","        65","7","        42","7","         9","7","        3","","         0","7","         1"," ","        14"," ","    25"," ,7,0103,+","     0","T,7,0223,+","  74.7"," ,7,0417, ","    748.0"," ,7","        0","T,7"
"USC00412621","2017","33.8094","-100.5169","612.6","DUMONT, TX US","        59","7","        32","7","         6","7","        0","","         2","7","         1"," ","         5"," ","     0","T,7,1231,+","    25"," ,7,1223,+","  54.6"," ,7,0814, ","    542.3"," ,7","       50"," ,7"
"USC00412621","2018","33.8094","-100.5169","612.6","DUMONT, TX US","        71","7","        43","7","         6","7","        3","","         2","7","","","         6"," ","   152"," ,7,1209, ","   102"," ,7,1208, ","  57.4"," ,7,0713, ","    596.5"," ,7","      153"," ,7"
"USC00412621","2019","33.8094","-100.5169","612.6","DUMONT, TX US","        62","7","        33","7","         6","7","        0","","         0","7","         1"," ","        15"," ","     0"," ,7,1231,+","     0","T,7,0303,+","  50.5"," ,7,0413, ","    567.8"," ,7","        0","T,7"
"USC00412621","2020","33.8094","-100.5169","612.6","DUMONT, TX US","","","","","","","","","","","","","         5"," ","","","","","","","","","",""
