"STATION","DATE","LATITUDE","LONGITUDE","ELEVATION","NAME","CDSD","CDSD_ATTRIBUTES","CLDD","CLDD_ATTRIBUTES","DP01","DP01_ATTRIBUTES","DP10","DP10_ATTRIBUTES","DP1X","DP1X_ATTRIBUTES","DSND","DSND_ATTRIBUTES","DSNW","DSNW_ATTRIBUTES","DT00","DT00_ATTRIBUTES","DT32","DT32_ATTRIBUTES","DX32","DX32_ATTRIBUTES","DX70","DX70_ATTRIBUTES","DX90","DX90_ATTRIBUTES","DYTS","DYTS_ATTRIBUTES","EMNT","EMNT_ATTRIBUTES","EMSD","EMSD_ATTRIBUTES","EMSN","EMSN_ATTRIBUTES","EMXP","EMXP_ATTRIBUTES","EMXT","EMXT_ATTRIBUTES","FZF0","FZF0_ATTRIBUTES","FZF1","FZF1_ATTRIBUTES","FZF2","FZF2_ATTRIBUTES","FZF5","FZF5_ATTRIBUTES","FZF6","FZF6_ATTRIBUTES","FZF7","FZF7_ATTRIBUTES","FZF8","FZF8_ATTRIBUTES","HDSD","HDSD_ATTRIBUTES","HTDD","HTDD_ATTRIBUTES","PRCP","PRCP_ATTRIBUTES","SNOW","SNOW_ATTRIBUTES","TAVG","TAVG_ATTRIBUTES","TMAX","TMAX_ATTRIBUTES","TMIN","TMIN_ATTRIBUTES"
"USC00021353","1928","33.9826","-112.3628","606.6","CASTLE HOT SPRINGS, AZ US","","","","","","","","","","","","","","","","","","","","","","","","","         4"," ","","","","","","","","","","","","","","","","","","","","","","","","","","","","","","","","","","","","","",""
"USC00021353","1929","33.9826","-112.3628","606.6","CASTLE HOT SPRINGS, AZ US","","","","","        27","6","        21","6","         1","6","","","         0","6","","","","","         0","6","       289","6","       149","6","","","","","","","     0"," ,6,1231,+","  32.0"," ,6,0802, ","   46.1","6,0624, ","","","","","","","","","","","","","","","","","","","    262.5"," ,6","        0"," ,6","","","     28.63","6","",""
"USC00021353","1930","33.9826","-112.3628","606.6","CASTLE HOT SPRINGS, AZ US","   1921.6","","    1921.6","6","","","","","","","","","","","         0","6","         1","6","         0","6","       267","6","       129","6","","","   -2.2","6,0109, ","","","","","","","   43.3","6,0701, ","","","","","","","-2.2","6,0109","-2.2","6,0109","","","","","     571.1","1","     571.1","6","","","","","     21.57","6","     27.70","6","     15.44","6"
"USC00021353","1931","33.9826","-112.3628","606.6","CASTLE HOT SPRINGS, AZ US","","","","","        55","6","        35","6","         7","6","","","","","         0","6","         2","6","         0","6","       256","6","       155","6","","","   -2.2","6,1124, ","","","","","  41.9"," ,6,1210, ","   43.9","6,0713, ","-2.2","6,1124","-2.2","6,1124","","","0.0","6,0107","","","","","","","     710.6","6","     710.6","6","    513.7"," ,6","","","     22.02","6","     27.85","6","     16.18","6"
"USC00021353","1932","33.9826","-112.3628","606.6","CASTLE HOT SPRINGS, AZ US","   2065.4","","    2065.4","6","        46","6","        32","6","         1","6","","","         0","6","         0","6","         5","6","         0","6","       273","6","       149","6","","","   -1.1","6,1230,+","","","     0"," ,6,1231,+","  36.1"," ,6,0820, ","   43.9","6,0722, ","-1.1","6,1230","","","","","-0.6","6,0130","","","","","","","","","","","    357.8"," ,6","        0"," ,6","     21.76","6","     27.89","6","     15.62","6"
"USC00021353","1933","33.9826","-112.3628","606.6","CASTLE HOT SPRINGS, AZ US","   2089.8","","    2089.8","6","","","","","","","","","","","         0","6","         5","6","         0","6","       271","6","       135","6","","","   -6.7","6,0208, ","","","","","","","   44.4","6,0726,+","","","","","","","-3.3","6,0210","-3.3","6,0210","-6.7","6,0208","-6.7","6,0208","     831.4","4","     831.4","6","","","","","     21.81","6","     28.06","6","     15.56","6"
"USC00021353","1935","33.9826","-112.3628","606.6","CASTLE HOT SPRINGS, AZ US","","","","","","","","","","","","","","","","","","","","","","","","","","","","","","","","","","","","","","","","","","","","","","","","","","","     750.3","3","     750.3","6","","","","","","","","","",""
"USC00021353","1959","33.9826","-112.3628","606.6","CASTLE HOT SPRINGS, AZ US","","","","","","","","","","","","","","","","","","","","","","","","","        11"," ","","","","","","","","","","","","","","","","","","","","","","","","","","","","","","","","","","","","","",""
"USC00021353","1960","33.9826","-112.3628","606.6","CASTLE HOT SPRINGS, AZ US","   1952.1","","    1952.1","0","        24","0","        14","0","         1","0","        0","","         0","0","         0","0","        14","0","         0","0","       287","0","       153","0","         2"," ","   -2.8","0,1207, ","     0"," ,0,1231,+","     0"," ,0,1231,+","  26.4"," ,0,0113, ","   43.3","0,0622,+","-2.8","0,1207","-2.8","0,1207","","","-2.2","0,0225","-2.2","0,0225","","","","","     832.4","4","     832.4","0","    155.7"," ,0","        0"," ,0","     21.38","0","     29.03","0","     13.73","0"
"USC00021353","1961","33.9826","-112.3628","606.6","CASTLE HOT SPRINGS, AZ US","   1760.1","","    1760.1","0","        35","0","        21","0","         1","0","        0","","         0","0","         0","0","         1","0","         0","0","       299","0","       156","0","        22"," ","    0.0","0,1122, ","     0"," ,0,1231,+","     0"," ,0,1231,+","  46.5"," ,0,1215, ","   43.3","0,0719,+","0.0","0,1122","","","","","","","","","","","","","     606.1","1","     606.1","0","    233.9"," ,0","        0"," ,0","     21.24","0","     28.88","0","     13.60","0"
"USC00021353","1962","33.9826","-112.3628","606.6","CASTLE HOT SPRINGS, AZ US","   1836.8","","    1836.8","0","        36","0","        24","0","         0","0","        0","","         0","0","         0","0","         6","0","         0","0","       293","0","       149","0","         1"," ","   -3.3","0,0111, ","     0"," ,0,1231,+","     0","T,0,0310,+","  19.8"," ,0,0321, ","   42.8","0,0814, ","","","","","","","0.0","0,0314","-2.8","0,0112","","","","","     928.2","2","     928.2","0","    213.9"," ,0","        0","T,0","     21.23","0","     28.70","0","     13.77","0"
"USC00021353","1963","33.9826","-112.3628","606.6","CASTLE HOT SPRINGS, AZ US","   1847.8","","    1847.8","0","        24","0","        23","0","         7","0","        0","","         0","0","         0","0","         8","0","         0","0","       300","0","       150","0","","","   -8.3","0,0112, ","     0"," ,0,1231,+","     0"," ,0,1231,+","  68.6"," ,0,0801, ","   42.2","0,0725,+","0.0","0,1214","","","","","-1.1","0,0213","-3.3","0,0120","-8.3","0,0112","-8.3","0,0112","     677.2","2","     677.2","0","    405.2"," ,0","        0"," ,0","     21.34","0","     28.78","0","     13.90","0"
"USC00021353","1964","33.9826","-112.3628","606.6","CASTLE HOT SPRINGS, AZ US","   1748.3","","    1748.3","0","        27","0","        22","0","         5","0","        0","","         0","0","         0","0","         8","0","         0","0","       261","0","       153","0","","","   -2.8","0,0116,+","     0"," ,0,1231,+","     0"," ,0,1231,+","  50.8"," ,0,0802, ","   42.8","0,0703, ","","","","","","","-1.1","0,0215","-2.8","0,0116","","","","","     936.7","7","     936.7","0","    339.1"," ,0","        0"," ,0","     20.30","0","     27.88","0","     12.72","0"
"USC00021353","1965","33.9826","-112.3628","606.6","CASTLE HOT SPRINGS, AZ US","   1659.3","","    1659.3","0","        51","0","        44","0","        11","0","        0","","         0","0","         0","0","         5","0","         0","0","       279","0","       151","0","","","   -2.2","0,0303,+","     0"," ,0,1231,+","     0"," ,0,1231,+","  74.9"," ,0,1210, ","   43.3","0,0704, ","","","","","","","-2.2","0,0303","-2.2","0,0303","","","","","     913.6","6","     913.6","0","    781.3"," ,0","        0"," ,0","     20.54","0","     27.97","0","     13.11","0"
"USC00021353","1966","33.9826","-112.3628","606.6","CASTLE HOT SPRINGS, AZ US","   1992.6","","    1992.6","0","        26","0","        24","0","         5","0","        0","","         0","0","         0","0","        18","0","         0","0","       300","0","       164","0","","","   -3.3","0,0303, ","     0"," ,0,1231,+","     0","T,0,0302, "," 101.6"," ,0,0912, ","   44.4","0,0706,+","0.0","0,1227","","","","","-0.6","0,0305","-2.2","0,0304","","","","","     793.3","3","     793.3","0","    427.0"," ,0","        0","T,0","     21.56","0","     29.63","0","     13.49","0"
"USC00021353","1967","33.9826","-112.3628","606.6","CASTLE HOT SPRINGS, AZ US","   1709.9","","    1709.9","0","        37","0","        32","0","         3","0","        0","","         0","0","         0","0","        12","0","         0","0","       294","0","       149","0","         1"," ","   -2.8","0,1222, ","     0"," ,0,1231,+","     0","T,0,1214,+","  64.8"," ,0,1219, ","   43.9","0,0702, ","0.0","0,1216","-2.2","0,1221","","","0.0","0,0110","-2.2","0,0103","","","","","     766.3","3","     766.3","0","    444.5"," ,0","        0","T,0","     20.59","0","     28.70","0","     12.48","0"
"USC00021353","1968","33.9826","-112.3628","606.6","CASTLE HOT SPRINGS, AZ US","","","","","","","","","","","","","","","","","","","","","","","","","","","","","","","","","","","","","","","","","","","","","","","","","","","     777.2","2","     777.2","0","","","","","","","","","",""
"USC00021353","1969","33.9826","-112.3628","606.6","CASTLE HOT SPRINGS, AZ US","   1873.7","","    1873.7","0","        47","0","        35","0","         3","0","        0","","         0","0","         0","0","         8","0","         0","0","       278","0","       146","0","","","   -1.1","0,1231,+","     0"," ,0,1231,+","     0"," ,0,1231,+","  33.8"," ,0,0311, ","   44.4","0,0821,+","0.0","0,1227","","","","","-0.6","0,0308","","","","","","","","","","","    341.8"," ,0","        0"," ,0","     21.04","0","     28.69","0","     13.39","0"
"USC00021353","1970","33.9826","-112.3628","606.6","CASTLE HOT SPRINGS, AZ US","   1727.4","","    1727.4","0","        31","0","        20","0","         4","0","        0","","         0","0","         0","0","         8","0","         0","0","       292","0","       142","0","","","   -2.8","0,0108,+","     0"," ,0,1231,+","     0"," ,0,1231,+","  89.9"," ,0,0905, ","   46.7","0,0624, ","","","","","","","-2.8","0,0108","-2.8","0,0108","","","","","     824.8","8","     824.8","0","    375.0"," ,0","        0"," ,0","     20.80","0","     28.78","0","     12.81","0"
"USC00021353","1971","33.9826","-112.3628","606.6","CASTLE HOT SPRINGS, AZ US","   1691.9","","    1691.9","0","        29","0","        20","0","         0","0","        0","","         0","0","         0","0","        21","0","         0","0","       277","0","       133","0","","","   -8.3","0,0107,+","     0"," ,0,1231,+","     0"," ,0,1231,+","  18.3"," ,0,0803, ","   45.0","0,0711, ","0.0","0,1030","","","","","-4.4","0,0302","-4.4","0,0302","-4.4","0,0302","-8.3","0,0107","     797.9","9","     797.9","0","    184.0"," ,0","        0"," ,0","     20.36","0","     28.28","0","     12.43","0"
"USC00021353","1972","33.9826","-112.3628","606.6","CASTLE HOT SPRINGS, AZ US","   1903.6","","    1903.6","0","        27","0","        22","0","         6","0","        0","","         0","0","         0","0","         9","0","         0","0","       290","0","       151","0","","","   -2.2","0,0105, ","     0"," ,0,1231,+","     0"," ,0,1231,+","  66.3"," ,0,1228, ","   46.7","0,0706, ","-1.7","0,1212","","","","","-1.1","0,0203","-2.2","0,0105","","","","","     807.9","9","     807.9","0","    392.9"," ,0","        0"," ,0","     21.27","0","     28.97","0","     13.58","0"
"USC00021353","1973","33.9826","-112.3628","606.6","CASTLE HOT SPRINGS, AZ US","   1889.3","","    1889.3","0","        34","0","        24","0","         1","0","        0","","         0","0","         0","0","         8","0","         0","0","       252","0","       163","0","","","   -1.7","0,1225,+","     0"," ,0,1231,+","     0"," ,0,1231,+","  26.7"," ,0,0307, ","   47.2","0,0627, ","0.0","0,1203","","","","","0.0","0,0128","","","","","","","    1184.6","6","    1184.6","0","    228.2"," ,0","        0"," ,0","     20.57","0","     28.50","0","     12.64","0"
"USC00021353","1974","33.9826","-112.3628","606.6","CASTLE HOT SPRINGS, AZ US","   1781.2","","    1781.2","0","        26","0","        23","0","         4","0","        0","","         0","0","         0","0","        13","0","         0","0","       285","0","       154","0","","","   -3.9","0,1225, ","     0"," ,0,1231,+","     0"," ,0,1231,+","  47.8"," ,0,0718, ","   45.6","0,0627,+","-0.6","0,1214","-3.3","0,1224","","","0.0","0,0221","-2.2","0,0103","","","","","     835.2","2","     835.2","0","    344.9"," ,0","        0"," ,0","     20.76","0","     28.89","0","     12.63","0"
"USC00021353","1975","33.9826","-112.3628","606.6","CASTLE HOT SPRINGS, AZ US","   1665.2","","    1665.2","0","        19","0","        16","0","         1","0","        0","","         0","0","         0","0","        20","0","         0","0","       284","0","       144","0","         4"," ","   -3.9","0,1121, ","     0"," ,0,1231,+","     0"," ,0,1231,+","  25.4"," ,0,0407, ","   44.4","0,0804, ","-0.6","0,1117","-3.9","0,1121","","","0.0","0,0328","-2.2","0,0104","","","","","    1078.1","1","    1078.1","0","    205.5"," ,0","        0"," ,0","     20.07","0","     28.24","0","     11.90","0"
"USC00021353","1976","33.9826","-112.3628","606.6","CASTLE HOT SPRINGS, AZ US","","","","","","","","","","","","","","","","","","","","","","","","","","","","","","","","","","","","","","","","","","","","","","","","","","","     853.8","8","     853.8","0","","","","","","","","","",""
"USC00021353","1978","33.9826","-112.3628","606.6","CASTLE HOT SPRINGS, AZ US","   1806.0","","    1806.0","0","        48","0","        44","0","        11","0","        0","","         0","0","         0","0","        12","0","         0","0","       265","0","       152","0","         2"," ","   -4.4","0,1207, ","     0"," ,0,1231,+","     0"," ,0,1231,+","  68.1"," ,0,0228, ","   45.0","0,0719, ","0.0","0,1204","-4.4","0,1207","-4.4","0,1207","0.0","0,0219","","","","","","","     690.9","9","     690.9","0","    827.0"," ,0","        0"," ,0","     20.67","0","     28.31","0","     13.03","0"
"USC00021353","1979","33.9826","-112.3628","606.6","CASTLE HOT SPRINGS, AZ US","","","","","","","","","","","","","","","","","","","","","","","","","","","","","","","","","","","","","","","","","","","","","","","","","","","    1127.4","4","    1127.4","0","","","","","","","","","",""
"USC00021353","1980","33.9826","-112.3628","606.6","CASTLE HOT SPRINGS, AZ US","   1646.3","","    1646.3","0","        36","0","        29","0","         6","0","        0","","         0","0","         0","0","         0","0","         0","0","       283","0","       143","0","         7"," ","    0.6","0,0123, ","     0"," ,0,1231,+","     0"," ,0,1231,+","  62.2"," ,0,0214, ","   43.9","0,0716,+","","","","","","","","","","","","","","","","","","","    514.3"," ,0","        0"," ,0","     20.89","0","     28.79","0","     12.99","0"
"USC00021353","1981","33.9826","-112.3628","606.6","CASTLE HOT SPRINGS, AZ US","","","","","        32","0","        26","0","         3","0","        0","","         0","0","","","","","","","","","","","         1"," ","","","     0"," ,0,1231,+","     0"," ,0,1231,+","  41.1"," ,0,1127, ","","","","","","","","","","","","","","","","","     601.4","4","     601.4","0","    333.7"," ,0","        0"," ,0","","","","","",""
"USC00021353","1982","33.9826","-112.3628","606.6","CASTLE HOT SPRINGS, AZ US","   1507.3","","    1507.3","0","        64","0","        39","0","         5","0","        0","","         0","0","         0","0","         5","0","         0","0","       272","0","       126","0","        19"," ","   -2.2","0,0228, ","     0"," ,0,1231,+","     0"," ,0,1231,+","  51.6"," ,0,1130, ","   42.2","0,0820,+","0.0","0,1229","","","","","-2.2","0,0228","-2.2","0,0228","","","","","","","","","    551.5"," ,0","        0"," ,0","     20.16","0","     27.30","0","     13.02","0"
"USC00021353","1983","33.9826","-112.3628","606.6","CASTLE HOT SPRINGS, AZ US","   1588.7","","    1588.7","0","        62","0","        51","0","         5","0","        0","","         0","0","         0","0","         2","0","         0","0","       253","0","       122","0","         1"," ","   -1.1","0,0121,+","     0"," ,0,1231,+","     0"," ,0,1231,+","  79.0"," ,0,0816, ","   43.9","0,0705, ","","","","","","","-1.1","0,0121","","","","","","","     946.5","5","     946.5","0","    617.5"," ,0","        0"," ,0","     20.16","0","     27.16","0","     13.16","0"
"USC00021353","1984","33.9826","-112.3628","606.6","CASTLE HOT SPRINGS, AZ US","   1624.2","","    1624.2","0","        47","0","        35","0","         4","0","","","         0","0","         0","0","         4","0","         0","0","       283","0","       140","0","","","   -2.2","0,0118, ","","","     0"," ,0,1231,+","  38.6"," ,0,1227, ","   42.2","0,0528, ","0.0","0,1214","","","","","0.0","0,0122","-2.2","0,0118","","","","","     737.1","1","     737.1","0","    420.9"," ,0","        0"," ,0","     20.66","0","     27.98","0","     13.35","0"
"USC00021353","1985","33.9826","-112.3628","606.6","CASTLE HOT SPRINGS, AZ US","   1721.5","","    1721.5","0","        45","0","        27","0","         2","0","","","         1","0","         0","0","        14","0","         0","0","       271","0","       134","0","","","   -4.4","0,0201, ","","","   152"," ,0,0202, ","  50.8"," ,0,1125, ","   43.9","0,0707,+","-1.7","0,1119","-2.2","0,1210","","","0.0","0,0303","-2.2","0,0205","-4.4","0,0201","","","     879.6","6","     879.6","0","    356.7"," ,0","      152"," ,0","     20.63","0","     27.95","0","     13.31","0"
"USC00021353","1986","33.9826","-112.3628","606.6","CASTLE HOT SPRINGS, AZ US","   1715.5","","    1715.5","0","        45","0","        31","0","         1","0","","","         0","0","         0","0","         4","0","         0","0","       301","0","       140","0","","","   -1.7","0,0207, ","","","     0"," ,0,1231,+","  25.9"," ,0,0311, ","   43.3","0,0731, ","-0.6","0,1211","","","","","-0.6","0,0210","","","","","","","     627.7","7","     627.7","0","    275.7"," ,0","        0"," ,0","     21.40","0","     28.62","0","     14.18","0"
"USC00021353","1987","33.9826","-112.3628","606.6","CASTLE HOT SPRINGS, AZ US","   1803.7","","    1803.7","0","        49","0","        32","0","         3","0","","","","","         0","0","        17","0","         0","0","       279","0","       160","0","         4"," ","   -4.4","0,0118, ","","","","","  27.2"," ,0,1101, ","   42.8","0,0714, ","0.0","0,1213","-2.2","0,1214","","","0.0","0,0225","-4.4","0,0118","-4.4","0,0118","","","     775.3","3","     775.3","0","    331.6"," ,0","","","     20.82","0","     28.17","0","     13.47","0"
"USC00021353","1988","33.9826","-112.3628","606.6","CASTLE HOT SPRINGS, AZ US","   1896.1","","    1896.1","0","        37","0","        26","0","         2","0","        0","","         0","0","         0","0","         8","0","         0","0","       287","0","       161","0","","","   -3.3","0,1228,+","     0"," ,0,1231,+","     0"," ,0,1231,+","  30.0"," ,0,0422, ","   44.4","0,0623, ","-1.1","0,1226","-3.3","0,1227","","","0.0","0,0120","","","","","","","     848.0","0","     848.0","0","    296.8"," ,0","        0"," ,0","     21.28","0","     28.83","0","     13.72","0"
"USC00021353","1989","33.9826","-112.3628","606.6","CASTLE HOT SPRINGS, AZ US","   1926.1","","    1926.1","0","        24","0","        18","0","         3","0","        0","","         0","0","         0","0","         8","0","         0","0","       307","0","       170","0","         3"," ","   -2.2","0,0206, ","     0"," ,0,1231,+","     0"," ,0,1231,+","  48.5"," ,0,0104, ","   45.0","0,0704, ","-1.1","0,1212","","","","","-1.1","0,0207","-2.2","0,0206","","","","","     739.8","8","     739.8","0","    270.7"," ,0","        0"," ,0","     21.80","0","     29.67","0","     13.93","0"
"USC00021353","1990","33.9826","-112.3628","606.6","CASTLE HOT SPRINGS, AZ US","   1706.7","","    1706.7","0","        47","0","        30","0","         5","0","        0","","         0","0","         0","0","        17","0","         0","0","       284","0","       145","0","         1"," ","   -5.0","0,1223, ","     0"," ,0,1231,+","     0"," ,0,1231,+","  84.3"," ,0,0814, ","   46.7","0,0626, ","0.0","0,1218","-3.9","0,1222","-5.0","0,1223","-2.2","0,0314","-2.2","0,0314","-4.4","0,0216","","","     754.6","6","     754.6","0","    461.0"," ,0","        0"," ,0","     20.75","0","     28.46","0","     13.03","0"
"USC00021353","1991","33.9826","-112.3628","606.6","CASTLE HOT SPRINGS, AZ US","   1648.1","","    1648.1","0","        40","0","        25","0","         5","0","        0","","         0","0","         0","0","         4","0","         0","0","       279","0","       144","0","","","   -0.6","0,0130, ","     0"," ,0,1231,+","     0"," ,0,1231,+","  85.1"," ,0,0301, ","   42.8","0,0808,+","0.0","0,1129","","","","","-0.6","0,0130","","","","","","","     777.3","3","     777.3","0","    446.1"," ,0","        0"," ,0","     20.66","0","     28.19","0","     13.13","0"
"USC00021353","1992","33.9826","-112.3628","606.6","CASTLE HOT SPRINGS, AZ US","   1684.2","","    1684.2","0","        63","0","        37","0","         8","0","        0","","         0","0","         0","0","         7","0","         0","0","       278","0","       151","0","         4"," ","   -1.7","0,0116, ","     0"," ,0,1231,+","     0"," ,0,1231,+","  82.6"," ,0,0822, ","   41.7","0,0818,+","0.0","0,1215","","","","","-1.7","0,0116","","","","","","","     783.0","0","     783.0","0","    693.5"," ,0","        0"," ,0","     20.74","0","     28.09","0","     13.40","0"
"USC00021353","1993","33.9826","-112.3628","606.6","CASTLE HOT SPRINGS, AZ US","   1685.1","","    1685.1","0","        57","0","        39","0","        10","0","        0","","         0","0","         0","0","         4","0","         0","0","       285","0","       140","0","","","   -0.6","0,1223,+","     0"," ,0,1231,+","     0"," ,0,1231,+","  53.3"," ,0,0108, ","   45.0","0,0801, ","0.0","0,1125","","","","","","","","","","","","","     820.8","8","     820.8","0","    651.7"," ,0","        0"," ,0","     20.77","0","     28.11","0","     13.43","0"
"USC00021353","1994","33.9826","-112.3628","606.6","CASTLE HOT SPRINGS, AZ US","   1773.9","","    1773.9","0","        43","0","        28","0","         4","0","        0","","         0","0","         0","0","         7","0","         0","0","       282","0","       142","0","","","   -1.7","0,1120,+","     0"," ,0,1231,+","     0","T,0,1119, ","  33.8"," ,0,0806, ","   46.1","0,0628, ","-1.7","0,1120","","","","","-0.6","0,0223","","","","","","","     740.3","3","     740.3","0","    358.6"," ,0","        0","T,0","     21.06","0","     28.69","0","     13.41","0"
"USC00021353","1995","33.9826","-112.3628","606.6","CASTLE HOT SPRINGS, AZ US","   1701.6","","    1701.6","0","        45","0","        26","0","         7","0","        0","","         0","0","         0","0","         1","0","         0","0","       295","0","       137","0","","","   -0.6","0,0118, ","     0"," ,0,1231,+","     0"," ,0,1231,+","  57.7"," ,0,0215, ","   48.9","0,0728, ","","","","","","","-0.6","0,0118","","","","","","","     798.6","6","     798.6","0","    475.4"," ,0","        0"," ,0","     21.32","0","     28.99","0","     13.66","0"
"USC00021353","1998","33.9826","-112.3628","606.6","CASTLE HOT SPRINGS, AZ US","","","","","","","","","","","","","         0","0","","","","","","","","","","","","","","","","","     0"," ,0,1231,+","","","","","","","","","","","","","","","","","","","    1006.9","9","    1006.9","0","","","        0"," ,0","","","","","",""
"USC00021353","1999","33.9826","-112.3628","606.6","CASTLE HOT SPRINGS, AZ US","","","","","","","","","","","        0","","         0","0","","","","","","","","","","","","","","","     0"," ,0,1231,+","     0"," ,0,1231,+","","","","","","","","","","","","","","","","","","","","","","","","","        0"," ,0","","","","","",""
"USC00021353","2000","33.9826","-112.3628","606.6","CASTLE HOT SPRINGS, AZ US","","","","","","","","","","","        0","","         0","0","","","","","","","","","","","","","","","     0"," ,0,1231,+","     0"," ,0,1231,+","","","","","","","","","","","","","","","","","","","","","","","","","        0"," ,0","","","","","",""
"USC00021353","2001","33.9826","-112.3628","606.6","CASTLE HOT SPRINGS, AZ US","","","","","        15","0","        15","0","         0","0","        0","","         0","0","","","","","","","","","","","","","","","     0"," ,0,1231,+","     0"," ,0,1231,+","  21.6"," ,0,0109, ","","","","","","","","","","","","","","","","","","","","","    179.8"," ,0","        0"," ,0","","","","","",""
"USC00021353","2002","33.9826","-112.3628","606.6","CASTLE HOT SPRINGS, AZ US","   1946.7","","    1946.7","0","         7","0","         7","0","         3","0","        0","","         0","0","         0","0","         2","0","         0","0","       298","0","       157","0","","","   -3.9","0,0131, ","     0"," ,0,1231,+","     0"," ,0,1231,+","  38.1"," ,0,1023, ","   44.4","0,0708,+","","","","","","","-1.1","0,0303","-3.9","0,0131","","","","","     630.9","9","     630.9","0","    129.6"," ,0","        0"," ,0","     22.12","0","     30.37","0","     13.87","0"
"USC00021353","2003","33.9826","-112.3628","606.6","CASTLE HOT SPRINGS, AZ US","   1905.2","","    1905.2","0","        27","0","        26","0","         8","0","        0","","         0","0","         0","0","         3","0","         0","0","       278","0","       151","0","","","   -3.3","0,1228, ","     0"," ,0,1231,+","     0"," ,0,1231,+","  88.9"," ,0,0826, ","   45.0","0,0714,+","0.0","0,1123","-3.3","0,1228","","","","","","","","","","","     601.8","8","     601.8","0","    540.3"," ,0","        0"," ,0","     22.04","0","     29.13","0","     14.96","0"
"USC00021353","2004","33.9826","-112.3628","606.6","CASTLE HOT SPRINGS, AZ US","   1741.7","","    1741.7","0","","","","","","","        0","","         0","0","         0","0","         3","0","         0","0","       260","0","       147","0","","","   -1.7","0,1130, ","     0"," ,0,1231,+","     0"," ,0,1231,+","","","   41.7","0,0809,+","-1.7","0,1130","","","","","0.0","0,0213","","","","","","","     723.5","5","     723.5","0","","","        0"," ,0","     21.14","0","     28.22","0","     14.05","0"
"USC00021353","2005","33.9826","-112.3628","606.6","CASTLE HOT SPRINGS, AZ US","","","","","","","","","","","        0","","         0","0","","","","","","","","","","","","","","","     0"," ,0,1231,+","     0"," ,0,1231,+","","","","","","","","","","","","","","","","","","","     771.9","9","     771.9","0","","","        0"," ,0","","","","","",""
"USC00021353","2006","33.9826","-112.3628","606.6","CASTLE HOT SPRINGS, AZ US","   1786.2","","    1786.2","0","        18","0","        18","0","         3","0","        0","","         0","0","         0","0","         5","0","         0","0","       289","0","       140","0","","","   -2.2","0,1130, ","     0"," ,0,1231,+","     0"," ,0,1231,+","  49.8"," ,0,0907, ","   45.0","0,0721, ","-2.2","0,1130","-2.2","0,1130","","","","","","","","","","","","","","","    219.8"," ,0","        0"," ,0","     21.68","0","     29.14","0","     14.22","0"
"USC00021353","2007","33.9826","-112.3628","606.6","CASTLE HOT SPRINGS, AZ US","","","","","","","","","","","        0","","         0","0","","","","","","","","","","","","","","","     0"," ,0,1231,+","     0"," ,0,1231,+","","","","","","","","","","","","","","","","","","","","","","","","","        0"," ,0","","","","","",""
"USC00021353","2009","33.9826","-112.3628","606.6","CASTLE HOT SPRINGS, AZ US","   1900.6","","    1900.6","0","        16","0","        16","0","         4","0","        0","","         0","0","         0","0","         0","0","         0","0","       292","0","       137","0","         1"," ","    0.6","0,1226,+","     0"," ,0,1231,+","     0"," ,0,1231,+","  68.6"," ,0,1207, ","   43.9","0,0727, ","","","","","","","","","","","","","","","","","","","    241.4"," ,0","        0"," ,0","     21.92","0","     29.17","0","     14.66","0"
"USC00021353","2010","33.9826","-112.3628","606.6","CASTLE HOT SPRINGS, AZ US","","","","","        31","0","        31","0","         4","0","        0","","         0","0","","","","","","","","","","","","","","","     0","T,0,1230, ","     0","T,0,1230, ","  90.2"," ,0,0121, ","","","","","","","","","","","","","","","","","     835.9","9","     835.9","0","    415.6"," ,0","        0","T,0","","","","","",""
"USC00021353","2011","33.9826","-112.3628","606.6","CASTLE HOT SPRINGS, AZ US","   1992.1","","    1992.1","7","        15","7","        15","7","         2","7","","","","","         0","7","         7","7","         0","7","       282","7","       155","7","","","   -5.6","7,0203, ","","","","","  38.1"," ,7,1212, ","   43.9","7,0823,+","-2.2","7,1206","-2.2","7,1206","","","0.0","K,0210","-4.4","K,0204","-4.4","K,0204","","","","","","","    178.9"," ,7","","","     21.38","7","     28.65","7","     14.12","7"
"USC00021353","2012","33.9826","-112.3628","606.6","CASTLE HOT SPRINGS, AZ US","   2127.5","","    2127.5","7","        15","7","        15","7","         2","7","        0","","         0","7","         0","7","         6","7","         0","7","       303","7","       164","7","         7"," ","   -3.9","7,1229, ","     0"," ,7,1231,+","     0"," ,7,1231,+","  53.3"," ,7,0823, ","   43.9","7,0808, ","-0.6","7,1220","-3.9","7,1229","","","","","","","","","","","     740.4","4","     740.4","7","    218.4"," ,7","        0"," ,7","     22.37","7","     29.68","7","     15.05","7"
"USC00021353","2013","33.9826","-112.3628","606.6","CASTLE HOT SPRINGS, AZ US","","","","","        18","7","        18","7","         3","7","        0","","         0","7","","","","","         0","7","       284","7","       127","7","         4"," ","","","     0"," ,7,1231,+","     0","T,7,0211, ","  40.6"," ,7,0126, ","   45.6","7,0628, ","","","","","","","","","","","","","","","     754.3","3","     754.3"," ","    285.8"," ,7","        0","T,7","","","     28.23","7","",""
"USC00021353","2014","33.9826","-112.3628","606.6","CASTLE HOT SPRINGS, AZ US","   1896.2","","    1896.2","7","        21","7","        20","7","         5","7","        0","","         0","7","         0","7","         1","7","         0","7","       314","7","       148","7","         7"," ","    0.0","7,1226, ","     0"," ,7,1231,+","     0"," ,7,1231,+","  82.6"," ,7,0813, ","   42.8","7,0722, ","0.0","7,1226","","","","","","","","","","","","","","","","","    366.2"," ,7","        0"," ,7","     22.24","7","     29.28","7","     15.19","7"
"USC00021353","2015","33.9826","-112.3628","606.6","CASTLE HOT SPRINGS, AZ US","   2000.7","","    2000.7","7","        37","7","        37","7","         2","7","        0","","         0","7","         0","7","         5","7","         0","7","       308","7","       143","7","        11"," ","   -2.8","7,0103, ","     0"," ,7,1231,+","     0"," ,7,1231,+","  49.5"," ,7,0130, ","   43.9","7,0815, ","-0.6","7,1229","","","","","0.0","7,0104","-2.8","7,0103","","","","","     471.1","1","     471.1","7","    397.8"," ,7","        0"," ,7","     22.24","7","     29.13","7","     15.35","7"
"USC00021353","2016","33.9826","-112.3628","606.6","CASTLE HOT SPRINGS, AZ US","","","","","        30","7","        30","7","         5","7","        0","","         0","7","","","","","","","","","","","        13"," ","","","     0"," ,7,1231,+","     0"," ,7,1231,+","  57.2"," ,7,1222, ","","","","","","","","","","","","","","","","","","","","","    418.2"," ,7","        0"," ,7","","","","","",""
"USC00021353","2017","33.9826","-112.3628","606.6","CASTLE HOT SPRINGS, AZ US","","","","","","","","","","","","","","","","","","","","","","","","","         5"," ","","","","","","","","","","","","","","","","","","","","","","","","","     514.9","9","     514.9","7","","","","","","","","","",""
"USC00021353","2018","33.9826","-112.3628","606.6","CASTLE HOT SPRINGS, AZ US","","","","","","","","","","","","","","","","","","","","","","","","","         1"," ","","","","","","","","","","","","","","","","","","","","","","","","","","","","","","","","","","","","","",""
