"STATION","DATE","LATITUDE","LONGITUDE","ELEVATION","NAME","DP01","DP01_ATTRIBUTES","DP10","DP10_ATTRIBUTES","DP1X","DP1X_ATTRIBUTES","DSND","DSND_ATTRIBUTES","DSNW","DSNW_ATTRIBUTES","DYTS","DYTS_ATTRIBUTES","EMSD","EMSD_ATTRIBUTES","EMSN","EMSN_ATTRIBUTES","EMXP","EMXP_ATTRIBUTES","PRCP","PRCP_ATTRIBUTES","SNOW","SNOW_ATTRIBUTES"
"USC00107808","2002","42.5138","-112.875","1432.6","ROCKLAND, ID US","        35","0","        27","0","         1","0","","","         1","0","","","","","    51"," ,0,1030, ","  30.2"," ,0,0908, ","    215.5"," ,0","       51"," ,0"
"USC00107808","2004","42.5138","-112.875","1432.6","ROCKLAND, ID US","        28","0","        24","0","         2","0","        0","","         0","0","","","     0"," ,0,1231,+","     0"," ,0,1231,+","  29.0"," ,0,0618, ","    273.2"," ,0","        0"," ,0"
"USC00107808","2006","42.5138","-112.875","1432.6","ROCKLAND, ID US","        34","0","        30","0","         1","0","","","         0","0","","","","","     0"," ,0,1231,+","  25.4"," ,0,0414, ","    354.3"," ,0","        0"," ,0"
"USC00107808","2013","42.5138","-112.875","1432.6","ROCKLAND, ID US","","","","","","","","","","","         1"," ","","","","","","","","","",""
