"STATION","DATE","LATITUDE","LONGITUDE","ELEVATION","NAME","CDSD","CDSD_ATTRIBUTES","CLDD","CLDD_ATTRIBUTES","DP01","DP01_ATTRIBUTES","DP10","DP10_ATTRIBUTES","DP1X","DP1X_ATTRIBUTES","DSND","DSND_ATTRIBUTES","DSNW","DSNW_ATTRIBUTES","DT00","DT00_ATTRIBUTES","DT32","DT32_ATTRIBUTES","DX32","DX32_ATTRIBUTES","DX70","DX70_ATTRIBUTES","DX90","DX90_ATTRIBUTES","DYFG","DYFG_ATTRIBUTES","DYTS","DYTS_ATTRIBUTES","EMNT","EMNT_ATTRIBUTES","EMSD","EMSD_ATTRIBUTES","EMSN","EMSN_ATTRIBUTES","EMXP","EMXP_ATTRIBUTES","EMXT","EMXT_ATTRIBUTES","FZF0","FZF0_ATTRIBUTES","FZF1","FZF1_ATTRIBUTES","FZF2","FZF2_ATTRIBUTES","FZF3","FZF3_ATTRIBUTES","FZF4","FZF4_ATTRIBUTES","FZF5","FZF5_ATTRIBUTES","FZF6","FZF6_ATTRIBUTES","FZF7","FZF7_ATTRIBUTES","FZF8","FZF8_ATTRIBUTES","FZF9","FZF9_ATTRIBUTES","HDSD","HDSD_ATTRIBUTES","HTDD","HTDD_ATTRIBUTES","PRCP","PRCP_ATTRIBUTES","SNOW","SNOW_ATTRIBUTES","TAVG","TAVG_ATTRIBUTES","TMAX","TMAX_ATTRIBUTES","TMIN","TMIN_ATTRIBUTES"
"USC00021664","1909","32.0061","-109.3572","1615.4","CHIRICAHUA NATIONAL MONUMENT, AZ US","    638.9","","     638.9","0","        40","0","        35","0","         2","0","        5","","         5","0","         0","0","       111","0","         0","0","       229","0","        76","0","","","","","  -12.8","0,1205, ","   178"," ,0,0310, ","   213"," ,0,0310, ","  30.0"," ,0,0704, ","   42.8","0,0713, ","-0.6","0,1031","-2.2","0,1113","-6.1","0,1116","-10.0","0,1204","-10.0","0,1204","0.0","0,0501","-2.2","0,0408","-5.6","0,0324","-7.2","0,0313","","","","","","","    383.9"," ,0","      482"," ,0","     14.60","0","     23.91","0","      5.29","0"
"USC00021664","1910","32.0061","-109.3572","1615.4","CHIRICAHUA NATIONAL MONUMENT, AZ US","    785.5","","     785.5","0","        28","0","        26","0","         2","0","        1","","         1","0","         0","0","        97","0","         1","0","       244","0","       114","0","","","         6"," ","  -16.7","0,0106, ","    51"," ,0,0104, ","    51"," ,0,0104, ","  54.6"," ,0,0722, ","   42.2","0,0707,+","-2.8","0,1017","-2.8","0,1017","-4.4","0,1217","-7.8","0,1222","","","-1.1","0,0417","-5.0","0,0330","-5.0","0,0330","-7.8","0,0221","-10.0","0,0218","    1820.1","1","    1820.1","0","    268.3"," ,0","       51"," ,0","     15.45","0","     25.18","0","      5.72","0"
"USC00021664","1911","32.0061","-109.3572","1615.4","CHIRICAHUA NATIONAL MONUMENT, AZ US","    534.5","","     534.5","0","        60","0","        51","0","         6","0","        3","","         5","0","         0","0","        91","0","         1","0","       215","0","        71","0","","","         7"," ","  -13.3","0,1227, ","   229"," ,0,1225,+","   229"," ,0,1225,+"," 114.3"," ,0,0611, ","   41.1","0,0626, ","0.0","0,1017","-4.4","0,1112","-4.4","0,1112","-7.2","0,1126","-8.9","0,1212","0.0","0,0516","-2.8","0,0312","-4.4","0,0222","-9.4","0,0104","-9.4","0,0104","    1796.6","6","    1796.6","0","    770.8"," ,0","      636"," ,0","     14.05","0","     22.96","0","      5.14","0"
"USC00021664","1912","32.0061","-109.3572","1615.4","CHIRICAHUA NATIONAL MONUMENT, AZ US","    393.8","","     393.8","0","        42","0","        35","0","         3","0","        3","","         4","0","         0","0","       131","0","         0","0","       183","0","        59","0","","","         2"," ","  -13.3","0,0226, ","   279"," ,0,0224, ","   279"," ,0,0224, ","  50.8"," ,0,0827, ","   40.0","0,0708, ","-1.1","0,1011","-5.0","0,1029","-5.0","0,1029","-8.3","0,1206","-8.9","0,1221","-1.7","0,0505","-3.3","0,0504","-4.4","0,0421","-6.7","0,0413","-8.9","0,0227","    2424.2","2","    2424.2","0","    427.8"," ,0","      508"," ,0","     12.57","0","     21.48","0","      3.65","0"
"USC00021664","1913","32.0061","-109.3572","1615.4","CHIRICAHUA NATIONAL MONUMENT, AZ US","","","","","        59","0","        47","0","         5","0","        5","","         4","0","","","","","","","","","","","","","         2"," ","","","   102"," ,0,0111,+","   178"," ,0,0111, ","  80.8"," ,0,0810, ","","","","","","","","","","","","","","","","","","","","","","","    2508.3","3","    2508.3","0","    546.3"," ,0","      409"," ,0","","","","","",""
"USC00021664","1914","32.0061","-109.3572","1615.4","CHIRICAHUA NATIONAL MONUMENT, AZ US","","","","","","","","","","","","","","","","","","","","","","","","","","","         7"," ","","","","","","","","","","","","","","","","","","","","","","","","","","","","","","","","","","","","","","","","","","","",""
"USC00021664","1915","32.0061","-109.3572","1615.4","CHIRICAHUA NATIONAL MONUMENT, AZ US","","","","","        41","0","        34","0","         1","0","        6","","         9","0","         0","0","       135","0","","","","","","","","","         2"," ","  -13.3","0,1217, ","   127"," ,0,1231,+","   152"," ,0,1231,+","  26.4"," ,0,0130, ","","","-0.6","0,1012","-6.7","0,1111","-6.7","0,1111","-6.7","0,1111","-13.3","0,1217","-1.7","0,0507","-2.2","0,0506","-6.1","0,0322","-6.7","0,0316","-8.9","0,0119","    2209.2","2","    2209.2"," ","    354.9"," ,0","      645"," ,0","","","","","      4.03","0"
"USC00021664","1916","32.0061","-109.3572","1615.4","CHIRICAHUA NATIONAL MONUMENT, AZ US","    403.7","","     403.7","0","        53","0","        39","0","         5","0","       20","","","","         0","0","        96","0","         0","0","       231","0","        47","0","","","         1"," ","  -15.0","0,0112, ","   254"," ,0,0120, ","","","  56.9"," ,0,0120, ","   36.7","0,0705,+","-0.6","0,1024","-6.7","0,1108","-6.7","0,1108","-6.7","0,1108","-11.1","0,1208","0.0","0,0515","-2.8","0,0405","-6.1","0,0325","-8.9","0,0202","-8.9","0,0202","","","","","    462.5"," ,0","","","     14.14","0","     23.33","0","      4.96","0"
"USC00021664","1917","32.0061","-109.3572","1615.4","CHIRICAHUA NATIONAL MONUMENT, AZ US","    423.1","","     423.1","0","        34","0","        27","0","         4","0","        0","","         3","0","         0","0","       140","0","         0","0","       209","0","        58","0","","","         1"," ","  -10.0","0,1207, ","     0"," ,0,1231,+","    51"," ,0,0313,+","  58.4"," ,0,0729, ","   36.7","0,0628,+","-1.7","0,1020","-4.4","0,1117","-4.4","0,1117","-10.0","0,1207","-10.0","0,1207","-0.6","0,0506","-2.2","0,0419","-6.1","0,0402","-7.8","0,0323","-9.4","0,0313","    2138.3","3","    2138.3","0","    355.4"," ,0","      127"," ,0","     13.80","0","     23.30","0","      4.29","0"
"USC00021664","1949","32.0061","-109.3572","1615.4","CHIRICAHUA NATIONAL MONUMENT, AZ US","","","","","        77","0","        51","0","         6","0","","","        10","0","","","","","","","","","","","         4"," ","        13"," ","","","","","   254"," ,0,0116, ","  42.4"," ,0,0808, ","","","","","","","","","","","","","","","","","","","","","","","    2135.4","4","    2135.4","0","    637.8"," ,0","     1104"," ,0","","","","","",""
"USC00021664","1950","32.0061","-109.3572","1615.4","CHIRICAHUA NATIONAL MONUMENT, AZ US","    535.6","","     535.6","0","        46","0","        26","0","         3","0","","","         1","0","         0","0","        52","0","         0","0","       244","0","        40","0","         1"," ","        22"," ","  -10.0","0,0105, ","","","    76"," ,0,0212, ","  36.1"," ,0,0709, ","   37.2","0,0901,+","-2.2","0,1110","-2.2","0,1110","-4.4","0,1111","","","","","-3.3","0,0506","-3.3","0,0506","-4.4","0,0126","-9.4","0,0106","-9.4","0,0106","","","","","    339.5"," ,0","       89"," ,0","     15.62","0","     23.97","0","      7.26","0"
"USC00021664","1951","32.0061","-109.3572","1615.4","CHIRICAHUA NATIONAL MONUMENT, AZ US","    610.7","","     610.7","0","        74","0","        48","0","         1","0","","","         3","0","         0","0","        80","0","         3","0","       202","0","        69","0","","","        34"," ","  -10.0","0,0304,+","","","   211"," ,0,0113, ","  43.7"," ,0,0805, ","   38.9","0,0708, ","0.0","0,1102","-2.8","0,1118","-5.6","0,1207","-6.7","0,1209","-9.4","0,1221","-0.6","0,0515","-2.2","0,0501","-5.0","0,0319","-10.0","0,0304","-10.0","0,0304","    1802.0","0","    1802.0","0","    439.7"," ,0","      420"," ,0","     14.38","0","     22.40","0","      6.35","0"
"USC00021664","1952","32.0061","-109.3572","1615.4","CHIRICAHUA NATIONAL MONUMENT, AZ US","","","","","        63","0","        40","0","         3","0","","","         7","0","         0","0","        97","0","         1","0","       196","0","        58","0","","","         7"," ","  -11.1","0,0104, ","","","   178"," ,0,0309, ","  41.9"," ,0,0603, ","   36.7","0,0720, ","0.0","0,1117","-2.8","0,1118","-6.1","0,1125","-6.7","0,1127","","","-0.6","0,0428","-2.2","0,0326","-7.2","0,0324","-7.2","0,0324","-10.0","0,0303","    2107.4","4","    2107.4","0","    453.9"," ,0","      546"," ,0","     14.22","0","     22.07","0","      6.36","0"
"USC00021664","1953","32.0061","-109.3572","1615.4","CHIRICAHUA NATIONAL MONUMENT, AZ US","    574.3","","     574.3","0","        57","0","        28","0","         2","0","        5","","         3","0","         0","0","        84","0","         2","0","       197","0","        51","0","         1"," ","        58"," ","  -11.7","0,0220, ","   178"," ,0,1223, ","   165"," ,0,1223, ","  34.8"," ,0,0821, ","   37.2","0,0702,+","-0.6","0,1025","-6.1","0,1119","-6.1","0,1119","-6.7","0,1122","-8.9","0,1223","-1.7","0,0510","-2.8","0,0509","-7.2","0,0304","-7.2","0,0304","-10.6","0,0221","","","","","    308.4"," ,0","      254"," ,0","     14.34","0","     22.45","0","      6.23","0"
"USC00021664","1954","32.0061","-109.3572","1615.4","CHIRICAHUA NATIONAL MONUMENT, AZ US","    501.0","","     501.0","0","        69","0","        36","0","         4","0","        1","","         1","0","         0","0","        56","0","         0","0","       229","0","        33","0","","","        77"," ","  -12.8","0,1228, ","    25"," ,0,0121, ","    36"," ,0,0121, ","  53.1"," ,0,0804, ","   37.2","0,0622, ","0.0","0,1103","-2.2","0,1118","-12.8","0,1228","-12.8","0,1228","-12.8","0,1228","-2.8","0,0327","-2.8","0,0327","-7.8","0,0313","-7.8","0,0313","","","    1717.5","5","    1717.5","0","    490.6"," ,0","       36"," ,0","     15.41","0","     23.32","0","      7.50","0"
"USC00021664","1955","32.0061","-109.3572","1615.4","CHIRICAHUA NATIONAL MONUMENT, AZ US","    430.5","","     430.5","0","        70","0","        39","0","         4","0","        6","","         5","0","         0","0","        91","0","         0","0","       222","0","        30","0","","","        40"," ","  -13.3","0,0123, ","   127"," ,0,0108, ","   127"," ,0,0108, ","  44.2"," ,0,0821, ","   37.8","0,0608, ","-1.7","0,1108","-5.6","0,1109","-5.6","0,1109","","","","","-1.1","0,0503","-3.3","0,0412","-5.6","0,0328","-6.7","0,0327","-9.4","0,0321","    1937.2","2","    1937.2","0","    479.9"," ,0","      317"," ,0","     14.09","0","     22.52","0","      5.66","0"
"USC00021664","1956","32.0061","-109.3572","1615.4","CHIRICAHUA NATIONAL MONUMENT, AZ US","    621.5","","     621.5","0","        48","0","        28","0","         3","0","        1","","         4","0","         0","0","        83","0","         1","0","       222","0","        65","0","","","        26"," ","  -11.7","0,0204,+","    25"," ,0,0209, ","   160"," ,0,0209, ","  58.2"," ,0,0730, ","   36.7","0,0709,+","0.0","0,1025","-3.3","0,1030","-7.2","0,1102","-7.2","0,1102","-10.6","0,1120","-1.7","0,0415","-2.8","0,0404","-5.6","0,0314","-9.4","0,0313","-9.4","0,0313","    1657.5","5","    1657.5","0","    367.8"," ,0","      305"," ,0","     15.01","0","     23.49","0","      6.52","0"
"USC00021664","1957","32.0061","-109.3572","1615.4","CHIRICAHUA NATIONAL MONUMENT, AZ US","    407.3","","     407.3","0","        88","0","        57","0","         4","0","","","         1","0","         0","0","        72","0","         0","0","       198","0","        31","0","         1"," ","         2"," ","  -13.3","0,1123, ","","","    25"," ,0,0422, ","  54.9"," ,0,0822, ","   36.7","0,0705,+","0.0","0,1023","-2.2","0,1106","-5.0","0,1107","-13.3","0,1123","-13.3","0,1123","-0.6","0,0513","-2.8","0,0423","-4.4","0,0325","-6.7","0,0323","","","    1784.3","3","    1784.3","0","    664.7"," ,0","       25"," ,0","     14.20","0","     22.26","0","      6.14","0"
"USC00021664","1958","32.0061","-109.3572","1615.4","CHIRICAHUA NATIONAL MONUMENT, AZ US","    624.6","","     624.6","0","        84","0","        49","0","         5","0","","","         5","0","         0","0","        80","0","         0","0","       210","0","        54","0","         4"," ","         2"," ","  -10.6","0,1118, ","","","   229"," ,0,0307, ","  45.7"," ,0,0729, ","   40.0","0,0711, ","-0.6","0,1101","-4.4","0,1116","-4.4","0,1116","-10.6","0,1118","-10.6","0,1118","-2.8","0,0409","-2.8","0,0409","-5.6","0,0310","-6.7","0,0308","-8.9","0,0123","    2055.0","0","    2055.0","0","    618.9"," ,0","      516"," ,0","     14.68","0","     22.62","0","      6.76","0"
"USC00021664","1959","32.0061","-109.3572","1615.4","CHIRICAHUA NATIONAL MONUMENT, AZ US","    590.3","","     590.3","0","        74","0","        42","0","         5","0","        1","","         4","0","         0","0","        78","0","         0","0","       213","0","        55","0","         2"," ","","","   -9.4","0,1215,+","    51"," ,0,1214, ","   114"," ,0,1215, ","  38.1"," ,0,0802, ","   36.7","0,0626,+","-0.6","0,1031","-3.3","0,1127","-6.7","0,1128","-6.7","0,1128","-9.4","0,1215","-1.7","0,0505","-2.2","0,0326","-6.1","0,0306","-7.8","0,0204","-9.4","0,0101","    1747.8","8","    1747.8","0","    502.6"," ,0","      279"," ,0","     14.96","0","     23.10","0","      6.83","0"
"USC00021664","1960","32.0061","-109.3572","1615.4","CHIRICAHUA NATIONAL MONUMENT, AZ US","    668.1","","     668.1","0","        62","0","        34","0","         3","0","","","         7","0","         0","0","        81","0","         0","0","       223","0","        61","0","         1"," ","         8"," ","  -12.8","0,0118, ","","","   287"," ,0,0101, ","  32.5"," ,0,0707, ","   41.1","0,0622, ","-0.6","0,1108","-8.3","0,1128","-8.3","0,1128","-8.3","0,1128","","","-2.2","0,0425","-2.2","0,0425","-5.6","0,0317","-10.0","0,0225","-10.0","0,0225","    1991.6","6","    1991.6","0","    376.6"," ,0","      951"," ,0","     14.75","0","     22.97","0","      6.53","0"
"USC00021664","1961","32.0061","-109.3572","1615.4","CHIRICAHUA NATIONAL MONUMENT, AZ US","    530.8","","     530.8","0","        65","0","        41","0","         3","0","","","         3","0","         0","0","        80","0","         0","0","       218","0","        52","0","         5"," ","        25"," ","   -7.2","0,0224, ","","","    51"," ,0,1216,+","  51.6"," ,0,0812, ","   40.0","0,0623,+","0.0","0,1030","-2.2","0,1103","-5.6","0,1115","","","","","-0.6","0,0508","-3.9","0,0331","-4.4","0,0317","-7.2","0,0224","","","    1817.8","8","    1817.8","0","    451.8"," ,0","      173"," ,0","     14.54","0","     22.68","0","      6.41","0"
"USC00021664","1962","32.0061","-109.3572","1615.4","CHIRICAHUA NATIONAL MONUMENT, AZ US","    581.5","","     581.5","0","        68","0","        37","0","         1","0","","","         2","0","         0","0","        70","0","         0","0","       225","0","        49","0","","","         1"," ","  -15.0","0,0111, ","","","   312"," ,0,0114, ","  32.5"," ,0,0724, ","   37.2","0,0624, ","-0.6","0,1116","-4.4","0,1119","-4.4","0,1119","","","","","-0.6","0,0331","-6.1","0,0325","-6.1","0,0325","-6.7","0,0315","-8.9","0,0314","    1973.0","0","    1973.0","0","    370.5"," ,0","      345"," ,0","     14.97","0","     22.92","0","      7.02","0"
"USC00021664","1963","32.0061","-109.3572","1615.4","CHIRICAHUA NATIONAL MONUMENT, AZ US","    500.9","","     500.9","0","        74","0","        41","0","         4","0","        6","","","","         0","0","        89","0","         0","0","       226","0","        34","0","","","         4"," ","  -13.9","0,0120, ","   127"," ,0,1121, ","","","  33.8"," ,0,0805, ","   38.3","0,0630, ","-0.6","0,1104","-2.8","0,1127","-4.4","0,1213","-6.7","0,1221","","","-1.7","0,0428","-3.3","0,0419","-6.1","0,0319","-7.2","0,0305","-10.0","0,0213","    1719.4","4","    1719.4","0","    523.9"," ,0","","","     14.66","0","     22.86","0","      6.46","0"
"USC00021664","1964","32.0061","-109.3572","1615.4","CHIRICAHUA NATIONAL MONUMENT, AZ US","    477.4","","     477.4","0","        59","0","        36","0","         3","0","        2","","         3","0","         0","0","       113","0","         0","0","       204","0","        32","0","","","        49"," ","  -11.7","0,0215, ","   102"," ,0,0303, ","   102"," ,0,0303, ","  38.9"," ,0,0814, ","   37.2","0,0704,+","-0.6","0,1103","-2.8","0,1112","-6.7","0,1119","-6.7","0,1119","","","-0.6","0,0508","-3.9","0,0426","-4.4","0,0310","-8.9","0,0309","-8.9","0,0309","    2172.5","5","    2172.5","0","    450.5"," ,0","      204"," ,0","     13.55","0","     21.57","0","      5.52","0"
"USC00021664","1965","32.0061","-109.3572","1615.4","CHIRICAHUA NATIONAL MONUMENT, AZ US","","","","","        78","0","        49","0","         4","0","        8","","         3","0","","","","","         0","0","       213","0","        33","0","","","        35"," ","","","    51"," ,0,0211,+","   102"," ,0,0210, ","  37.3"," ,0,0711, ","   36.1","0,0704,+","","","","","","","","","","","","","","","","","","","","","","","","","    537.6"," ,0","      152"," ,0","","","     22.38","0","",""
"USC00021664","1966","32.0061","-109.3572","1615.4","CHIRICAHUA NATIONAL MONUMENT, AZ US","    469.8","","     469.8","0","        73","0","        44","0","         4","0","       12","","","","         0","0","        76","0","         0","0","       235","0","        34","0","","","        73"," ","  -11.1","0,1228, ","   127"," ,0,0210,+","","","  65.3"," ,0,0818, ","   37.8","0,0706,+","0.0","0,1018","-2.8","0,1102","-6.1","0,1209","-11.1","0,1228","-11.1","0,1228","-2.2","0,0420","-2.2","0,0420","-7.8","0,0304","-7.8","0,0304","-9.4","0,0303","    1848.6","6","    1848.6","0","    494.9"," ,0","","","     14.31","0","     22.36","0","      6.25","0"
"USC00021664","1967","32.0061","-109.3572","1615.4","CHIRICAHUA NATIONAL MONUMENT, AZ US","    449.1","","     449.1","0","        77","0","        45","0","         5","0","        9","","         4","0","         0","0","        86","0","         0","0","       236","0","        26","0","","","        48"," ","  -11.1","0,0107, ","   711"," ,0,1218, ","   356"," ,0,1217, ","  46.7"," ,0,0726, ","   37.2","0,0702, ","-1.7","0,1031","-2.2","0,1130","-7.8","0,1210","-7.8","0,1210","","","-1.1","0,0502","-4.4","0,0501","-4.4","0,0501","-8.3","0,0109","-11.1","0,0107","    1840.4","4","    1840.4","0","    528.1"," ,0","      941"," ,0","     14.53","0","     22.76","0","      6.29","0"
"USC00021664","1968","32.0061","-109.3572","1615.4","CHIRICAHUA NATIONAL MONUMENT, AZ US","    395.7","","     395.7","0","        62","0","        39","0","         1","0","        5","","         3","0","         0","0","        78","0","         0","0","       215","0","        35","0","","","        33"," ","  -14.4","0,1222, ","    76"," ,0,1221,+","    76"," ,0,0108, ","  31.2"," ,0,0310, ","   38.9","0,0621, ","-0.6","0,1016","-2.2","0,1118","-5.6","0,1127","-6.7","0,1202","-10.6","0,1218","-1.1","0,0423","-3.9","0,0419","-4.4","0,0320","","","","","    1862.2","2","    1862.2","0","    369.4"," ,0","      199"," ,0","     14.13","0","     22.25","0","      6.02","0"
"USC00021664","1969","32.0061","-109.3572","1615.4","CHIRICAHUA NATIONAL MONUMENT, AZ US","    610.4","","     610.4","0","        62","0","        35","0","         2","0","        3","","         5","0","         0","0","       100","0","         0","0","       218","0","        55","0","","","        32"," ","  -10.6","0,0305, ","    51"," ,0,1228, ","    76"," ,0,1228, ","  54.1"," ,0,0715, ","   38.9","0,0629, ","0.0","0,1031","-3.9","0,1118","-7.2","0,1208","-7.2","0,1208","-8.9","0,1230","-0.6","0,0507","-3.3","0,0415","-5.0","0,0318","-7.2","0,0316","-10.6","0,0305","    1953.9","9","    1953.9","0","    361.1"," ,0","      259"," ,0","     14.60","0","     23.14","0","      6.05","0"
"USC00021664","1970","32.0061","-109.3572","1615.4","CHIRICAHUA NATIONAL MONUMENT, AZ US","    581.6","","     581.6","0","        52","0","        25","0","         0","0","        0","","         1","0","         0","0","        94","0","         0","0","       210","0","        44","0","","","        26"," ","  -11.7","0,0102, ","     0","T,0,0417, ","    51"," ,0,0418, ","  25.1"," ,0,0724, ","   37.8","0,0625, ","-2.8","0,1008","-2.8","0,1008","-5.0","0,1116","","","","","-4.4","0,0430","-4.4","0,0430","-4.4","0,0430","-7.2","0,0203","-10.0","0,0109","    2060.8","8","    2060.8","0","    249.5"," ,0","       64"," ,0","     14.41","0","     22.84","0","      5.97","0"
"USC00021664","1971","32.0061","-109.3572","1615.4","CHIRICAHUA NATIONAL MONUMENT, AZ US","    495.6","","     495.6","0","        76","0","        46","0","         4","0","       10","","         9","0","         0","0","        99","0","         4","0","       223","0","        42","0","","","        35"," ","  -15.6","0,0104, ","   203"," ,0,0221, ","   178"," ,0,0220, ","  61.0"," ,0,0730, ","   37.8","0,0712, ","-1.1","0,1019","-6.1","0,1030","-6.1","0,1030","-7.2","0,1210","","","0.0","0,0523","-3.3","0,0420","-5.0","0,0307","-7.8","0,0303","-12.2","0,0302","    1904.0","0","    1904.0","0","    645.7"," ,0","      760"," ,0","     14.07","0","     22.49","0","      5.64","0"
"USC00021664","1972","32.0061","-109.3572","1615.4","CHIRICAHUA NATIONAL MONUMENT, AZ US","    506.5","","     506.5","0","        62","0","        39","0","         2","0","        0","","         1","0","         0","0","        85","0","         0","0","       233","0","        37","0","","","        30"," ","  -12.2","0,0105, ","     0","T,0,1112, ","    76"," ,0,1229, ","  31.5"," ,0,1019, ","   36.7","0,0801,+","-0.6","0,1026","-2.8","0,1031","-6.1","0,1101","-6.7","0,1212","-9.4","0,1230","-3.9","0,0415","-3.9","0,0415","-4.4","0,0330","-9.4","0,0203","-9.4","0,0203","    1765.7","7","    1765.7","0","    427.2"," ,0","       76"," ,0","     14.96","0","     23.31","0","      6.60","0"
"USC00021664","1973","32.0061","-109.3572","1615.4","CHIRICAHUA NATIONAL MONUMENT, AZ US","    567.0","","     567.0","0","        53","0","        29","0","         0","0","","","        10","0","         0","0","       109","0","         0","0","       213","0","        44","0","","","         5"," ","  -12.8","0,0121, ","","","   305"," ,0,0313, ","  22.9"," ,0,0731, ","   38.3","0,0702,+","-1.1","0,1030","-3.3","0,1120","-5.6","0,1121","-6.7","0,1203","","","0.0","0,0506","-3.3","0,0415","-6.7","0,0315","-6.7","0,0315","-11.1","0,0124","    2161.0","0","    2161.0","0","    259.8"," ,0","     1080"," ,0","     14.32","0","     22.53","0","      6.12","0"
"USC00021664","1974","32.0061","-109.3572","1615.4","CHIRICAHUA NATIONAL MONUMENT, AZ US","    530.1","","     530.1","0","        76","0","        40","0","         2","0","        1","","         1","0","         0","0","        95","0","         0","0","       211","0","        44","0","","","        42"," ","  -12.8","0,1224, ","    51"," ,0,0103, ","    51"," ,0,0103, ","  61.7"," ,0,0708, ","   38.3","0,0630, ","-1.1","0,1030","-2.2","0,1128","-4.4","0,1207","-12.8","0,1224","-12.8","0,1224","-2.2","0,0520","-2.2","0,0520","-5.6","0,0411","-12.2","0,0221","-12.2","0,0221","    1721.4","4","    1721.4","0","    467.7"," ,0","       71"," ,0","     14.56","0","     22.69","0","      6.42","0"
"USC00021664","1975","32.0061","-109.3572","1615.4","CHIRICAHUA NATIONAL MONUMENT, AZ US","    473.0","","     473.0","0","        72","0","        38","0","         3","0","","","","","         0","0","       102","0","         0","0","       222","0","        35","0","","","        48"," ","  -11.7","0,0223, ","","","","","  37.8"," ,0,0719, ","   36.1","0,0701, ","-0.6","0,1023","-6.1","0,1119","-6.1","0,1119","-7.8","0,1130","","","-1.7","0,0507","-3.3","0,0506","-5.6","0,0408","-11.7","0,0223","-11.7","0,0223","    2083.0","0","    2083.0","0","    401.8"," ,0","","","     14.16","0","     22.49","0","      5.82","0"
"USC00021664","1976","32.0061","-109.3572","1615.4","CHIRICAHUA NATIONAL MONUMENT, AZ US","","","","","","","","","","","","","","","","","","","","","","","","","","","         2"," ","","","","","","","","","","","","","","","","","","","","","","","","","","","","","","","    1767.2","2","    1767.2","0","","","","","","","","","",""
"USC00021664","1977","32.0061","-109.3572","1615.4","CHIRICAHUA NATIONAL MONUMENT, AZ US","","","","","","","","","","","","","","","","","","","","","","","","","","","        16"," ","","","","","","","","","","","","","","","","","","","","","","","","","","","","","","","","","","","","","","","","","","","",""
"USC00021664","1978","32.0061","-109.3572","1615.4","CHIRICAHUA NATIONAL MONUMENT, AZ US","    584.4","","     584.4","0","        87","0","        54","0","         4","0","","","         0","0","         2","0","        66","0","         1","0","       218","0","        51","0","","","         2"," ","  -18.3","0,1209, ","","","     0"," ,0,1231,+","  38.1"," ,0,1021, ","   37.8","0,0708,+","-0.6","0,1029","-3.9","0,1117","-7.8","0,1204","-7.8","0,1204","-17.8","0,1208","-0.6","0,0422","-3.3","0,0410","-5.6","0,0220","-6.7","0,0219","-8.9","0,0125","    1695.3","3","    1695.3","0","    643.2"," ,0","        0"," ,0","     14.83","0","     22.81","0","      6.85","0"
"USC00021664","1979","32.0061","-109.3572","1615.4","CHIRICAHUA NATIONAL MONUMENT, AZ US","    613.3","","     613.3","0","        79","0","        44","0","         0","0","","","         0","0","         0","0","        94","0","         0","0","       210","0","        63","0","","","         1"," ","  -11.7","0,1121,+","","","     0"," ,0,1231,+","  23.6"," ,0,0806, ","   37.8","0,0713, ","0.0","0,1030","-2.8","0,1031","-7.8","0,1120","-7.8","0,1120","-11.7","0,1121","-1.7","0,0510","-2.2","0,0404","-5.6","0,0224","-11.7","0,0130","-11.7","0,0130","    1985.0","0","    1985.0","0","    406.7"," ,0","        0"," ,0","     14.67","0","     22.78","0","      6.56","0"
"USC00021664","1980","32.0061","-109.3572","1615.4","CHIRICAHUA NATIONAL MONUMENT, AZ US","","","","","","","","","","","","","","","","","","","","","","","","","","","        20"," ","","","","","","","","","","","","","","","","","","","","","","","","","","","","","","","    1812.0","0","    1812.0","0","","","","","","","","","",""
"USC00021664","1981","32.0061","-109.3572","1615.4","CHIRICAHUA NATIONAL MONUMENT, AZ US","","","","","","","","","","","","","","","","","","","","","","","","","","","        17"," ","","","","","","","","","","","","","","","","","","","","","","","","","","","","","","","","","","","","","","","","","","","",""
"USC00021664","1982","32.0061","-109.3572","1615.4","CHIRICAHUA NATIONAL MONUMENT, AZ US","","","","","        86","0","        55","0","         4","0","","","         3","0","         0","0","        79","0","","","","","","","","","         2"," ","  -10.0","0,1227, ","","","   305"," ,0,1231, ","  38.4"," ,0,1201, ","","","0.0","0,1010","-5.0","0,1112","-5.0","0,1112","-7.2","0,1203","-10.0","0,1227","0.0","0,0513","-2.8","0,0326","-4.4","0,0322","-7.2","0,0204","","","","","","","    584.7"," ,0","      711"," ,0","","","","","      6.34","0"
"USC00021664","1983","32.0061","-109.3572","1615.4","CHIRICAHUA NATIONAL MONUMENT, AZ US","    519.0","","     519.0","0","       102","0","        56","0","         7","0","","","         1","0","         0","0","        92","0","         0","0","       201","0","        34","0","","","","","   -9.4","0,0105, ","","","   102"," ,0,0131, ","  76.5"," ,0,0928, ","   36.1","0,0903, ","-3.9","0,1119","-3.9","0,1119","-5.0","0,1122","-6.7","0,1123","","","-1.7","0,0502","-3.9","0,0414","-4.4","0,0408","-7.2","0,0122","-9.4","0,0105","    2093.7","7","    2093.7","0","    837.7"," ,0","      102"," ,0","     14.14","0","     22.09","0","      6.18","0"
"USC00021664","1984","32.0061","-109.3572","1615.4","CHIRICAHUA NATIONAL MONUMENT, AZ US","    468.8","","     468.8","0","        82","0","        45","0","         3","0","        0","","         0","0","         0","0","        95","0","         0","0","       212","0","        19","0","","","        10"," ","   -9.4","0,0130, ","     0"," ,0,1231,+","     0"," ,0,1231,+","  41.7"," ,0,0722, ","   36.1","0,0717, ","-2.2","0,1118","-2.2","0,1118","-8.3","0,1127","-8.3","0,1127","","","-0.6","0,0429","-2.8","0,0421","-5.6","0,0402","-7.8","0,0306","-9.4","0,0130","    1805.8","8","    1805.8","0","    566.6"," ,0","        0"," ,0","     14.23","0","     22.42","0","      6.03","0"
"USC00021664","1985","32.0061","-109.3572","1615.4","CHIRICAHUA NATIONAL MONUMENT, AZ US","","","","","        65","0","        45","0","         7","0","","","","","         0","0","        81","0","","","","","","","         1"," ","        12"," ","  -12.2","0,0202, ","","","","","  43.4"," ,0,0928, ","","","-3.3","0,1114","-3.3","0,1114","-5.6","0,1119","-7.8","0,1211","-10.6","0,1213","0.0","0,0513","-3.3","0,0331","-5.6","0,0330","-7.8","0,0304","-10.0","0,0206","    1886.4","4","    1886.4","0","    613.4"," ,0","","","","","","","      6.54","0"
"USC00021664","1986","32.0061","-109.3572","1615.4","CHIRICAHUA NATIONAL MONUMENT, AZ US","    467.1","","     467.1","0","        80","0","        48","0","         7","0","","","         5","0","         0","0","        71","0","         0","0","       227","0","        33","0","","","        52"," ","  -10.6","0,1211, ","","","    76"," ,0,0318,+","  48.5"," ,0,1210, ","   37.2","0,0801, ","-2.8","0,1108","-2.8","0,1108","-5.0","0,1201","-10.6","0,1211","-10.6","0,1211","-1.1","0,0508","-3.9","0,0320","-5.0","0,0222","-6.7","0,0207","","","","","","","    717.5"," ,0","      253"," ,0","     14.91","0","     22.93","0","      6.90","0"
"USC00021664","1987","32.0061","-109.3572","1615.4","CHIRICAHUA NATIONAL MONUMENT, AZ US","    436.9","","     436.9","0","        83","0","        55","0","         5","0","","","         7","0","         0","0","        97","0","         4","0","       220","0","        37","0","         2"," ","        22"," ","  -15.6","0,0118, ","","","   191"," ,0,0117, ","  73.7"," ,0,1218, ","   35.0","0,0724,+","0.0","0,1107","-6.7","0,1116","-6.7","0,1116","-6.7","0,1116","-12.8","0,1214","-1.7","0,0413","-3.9","0,0330","-6.7","0,0329","-6.7","0,0329","-10.6","0,0121","    2037.5","5","    2037.5","0","    695.0"," ,0","      711"," ,0","     14.07","0","     22.17","0","      5.97","0"
"USC00021664","1988","32.0061","-109.3572","1615.4","CHIRICAHUA NATIONAL MONUMENT, AZ US","    502.0","","     502.0","0","        80","0","        48","0","         4","0","        0","","         0","0","         0","0","        92","0","         1","0","       222","0","        31","0","         7"," ","        19"," ","  -11.1","0,0120, ","     0"," ,0,1231,+","     0"," ,0,1231,+","  35.6"," ,0,0807, ","   36.7","0,0623, ","-1.1","0,1115","-5.6","0,1116","-5.6","0,1116","-7.2","0,1119","-8.9","0,1228","-1.1","0,0508","-3.9","0,0502","-5.0","0,0401","-7.8","0,0313","-10.0","0,0123","    1622.9","9","    1622.9","0","    644.6"," ,0","        0"," ,0","     14.73","0","     22.89","0","      6.58","0"
"USC00021664","1989","32.0061","-109.3572","1615.4","CHIRICAHUA NATIONAL MONUMENT, AZ US","    638.9","","     638.9","0","        55","0","        27","0","         0","0","        0","","         0","0","         0","0","        76","0","         0","0","       244","0","        50","0","         4"," ","        42"," ","   -8.9","0,0304, ","     0"," ,0,1231,+","     0","T,0,0107, ","  23.6"," ,0,1005, ","   39.4","0,0705, ","0.0","0,1029","-3.3","0,1128","-4.4","0,1201","-8.3","0,1212","","","0.0","0,0512","-5.0","0,0305","-5.0","0,0305","-8.9","0,0304","-8.9","0,0304","    1614.5","5","    1614.5","0","    299.6"," ,0","        0","T,0","     15.55","0","     24.32","0","      6.78","0"
"USC00021664","1990","32.0061","-109.3572","1615.4","CHIRICAHUA NATIONAL MONUMENT, AZ US","    535.1","","     535.1","0","        89","0","        50","0","         3","0","       10","","         5","0","         0","0","        84","0","         0","0","       228","0","        33","0","         5"," ","         6"," ","  -14.4","0,1223, ","   102"," ,0,0202,+","   224"," ,0,0215, ","  27.7"," ,0,0804, ","   40.0","0,0627, ","-1.1","0,1103","-3.3","0,1104","-7.8","0,1218","-7.8","0,1218","-14.4","0,1223","0.0","0,0520","-4.4","0,0316","-4.4","0,0316","-7.2","0,0315","-10.0","0,0314","    1747.8","8","    1747.8","0","    629.4"," ,0","      530"," ,0","     14.90","0","     23.03","0","      6.77","0"
"USC00021664","1991","32.0061","-109.3572","1615.4","CHIRICAHUA NATIONAL MONUMENT, AZ US","","","","","        93","0","        54","0","         5","0","        2","","         3","0","         0","0","        91","0","","","","","","","         2"," ","","","  -10.0","0,0130, ","   152"," ,0,0117, ","   152"," ,0,0117, ","  48.0"," ,0,0810, ","","","-0.6","0,1028","-2.2","0,1029","-8.3","0,1201","-8.3","0,1201","-9.4","0,1202","-0.6","0,0504","-6.1","0,0413","-6.1","0,0413","-10.0","0,0130","-10.0","0,0130","    1779.0","0","    1779.0","0","    646.8"," ,0","      330"," ,0","","","","","      6.15","0"
"USC00021664","1992","32.0061","-109.3572","1615.4","CHIRICAHUA NATIONAL MONUMENT, AZ US","    532.3","","     532.3","0","        81","0","        50","0","         3","0","        0","","         0","0","         0","0","        67","0","         0","0","       204","0","        41","0","","","        11"," ","   -8.3","0,0113, ","     0"," ,0,1231,+","     0"," ,0,1231,+","  47.2"," ,0,0724, ","   37.8","0,0706, ","0.0","0,1104","-7.8","0,1123","-7.8","0,1123","-7.8","0,1123","","","0.0","0,0420","-2.2","0,0310","-5.0","0,0217","-8.3","0,0113","","","","","","","    560.8"," ,0","        0"," ,0","     14.94","0","     22.65","0","      7.22","0"
"USC00021664","1993","32.0061","-109.3572","1615.4","CHIRICAHUA NATIONAL MONUMENT, AZ US","    576.2","","     576.2","0","        79","0","        56","0","         6","0","        0","","         2","0","         0","0","        64","0","         0","0","       210","0","        45","0","         2"," ","        35"," ","   -7.2","0,1223, ","     0"," ,0,1231,+","    51"," ,0,1115, ","  42.9"," ,0,0831, ","   38.3","0,0615, ","0.0","0,1031","-5.0","0,1116","-5.0","0,1116","-7.2","0,1223","","","0.0","0,0415","-2.2","0,0328","","","","","","","    1601.4","4","    1601.4","0","    632.1"," ,0","       76"," ,0","     15.19","0","     23.33","0","      7.05","0"
"USC00021664","1994","32.0061","-109.3572","1615.4","CHIRICAHUA NATIONAL MONUMENT, AZ US","    779.0","","     779.0","0","        35","0","        21","0","         3","0","        0","","         1","0","         0","0","        77","0","         0","0","       217","0","        79","0","         3"," ","        37"," ","   -8.9","0,1120, ","     0"," ,0,1231,+","    25"," ,0,1104, ","  49.0"," ,0,1112, ","   41.1","0,0628,+","-1.1","0,1104","-8.9","0,1120","-8.9","0,1120","-8.9","0,1120","-8.9","0,1120","0.0","0,0429","-3.3","0,0328","-5.6","0,0223","-6.7","0,0201","","","    1594.1","1","    1594.1","0","    321.3"," ,0","       50"," ,0","     15.85","0","     24.23","0","      7.47","0"
"USC00021664","1995","32.0061","-109.3572","1615.4","CHIRICAHUA NATIONAL MONUMENT, AZ US","","","","","        65","0","        40","0","         2","0","        1","","         1","0","","","","","","","","","","","","","        15"," ","","","    51"," ,0,0117, ","    51"," ,0,0117, ","  33.3"," ,0,0215, ","","","","","","","","","","","","","","","","","","","","","","","    1757.5","5","    1757.5","0","    390.6"," ,0","       51"," ,0","","","","","",""
"USC00021664","1996","32.0061","-109.3572","1615.4","CHIRICAHUA NATIONAL MONUMENT, AZ US","    732.0","","     732.0","0","        56","0","        38","0","         8","0","        0","","         1","0","         0","0","        49","0","         0","0","       237","0","        55","0","","","        20"," ","   -5.6","0,1216,+","     0"," ,0,1231,+","    25"," ,0,1026, ","  81.3"," ,0,0630, ","   36.7","0,0608, ","-3.9","0,1022","-3.9","0,1022","-5.6","0,1201","","","","","0.0","0,0330","-3.3","0,0301","-4.4","0,0124","","","","","","","","","    625.5"," ,0","       25"," ,0","     16.41","0","     24.12","0","      8.70","0"
"USC00021664","1997","32.0061","-109.3572","1615.4","CHIRICAHUA NATIONAL MONUMENT, AZ US","    740.7","","     740.7","0","        88","0","        52","0","         3","0","        2","","         0","0","         0","0","        58","0","         0","0","       217","0","        58","0","","","        12"," ","  -10.0","0,0108, ","    76"," ,0,1225, ","    18"," ,0,0228, ","  52.8"," ,0,0830, ","   39.4","0,0703, ","-2.8","0,1025","-2.8","0,1025","-4.4","0,1212","","","","","-1.1","0,0404","-2.8","0,0302","-6.1","0,0207","-6.7","0,0109","-10.0","0,0108","    1575.5","5","    1575.5","0","    574.7"," ,0","       29"," ,0","     15.55","0","     22.90","0","      8.20","0"
"USC00021664","1998","32.0061","-109.3572","1615.4","CHIRICAHUA NATIONAL MONUMENT, AZ US","","","","","        71","0","        40","0","         4","0","","","         4","0","         0","0","        73","0","","","","","","","         1"," ","        28"," ","   -7.8","0,1207, ","","","    76"," ,0,0221,+","  72.4"," ,0,0705, ","","","-3.3","0,1110","-3.3","0,1110","-4.4","0,1206","-7.8","0,1207","","","-2.8","0,0417","-2.8","0,0417","-5.0","0,0331","","","","","","","","","    510.3"," ,0","      215"," ,0","","","","","      7.68","0"
"USC00021664","1999","32.0061","-109.3572","1615.4","CHIRICAHUA NATIONAL MONUMENT, AZ US","    510.7","","     510.7","0","        70","0","        48","0","         5","0","        1","","         2","0","         0","0","        83","0","         0","0","       261","0","        23","0","","","        52"," ","  -11.7","0,0211, ","    25"," ,0,0317, ","   114"," ,0,0317, ","  46.7"," ,0,0809, ","   36.7","0,0702,+","0.0","0,1121","-3.3","0,1123","-4.4","0,1124","-7.2","0,1204","","","0.0","0,0502","-6.1","0,0410","-6.1","0,0410","-6.7","0,0405","-11.7","0,0211","","","","","    546.6"," ,0","      152"," ,0","     15.47","0","     24.28","0","      6.67","0"
"USC00021664","2000","32.0061","-109.3572","1615.4","CHIRICAHUA NATIONAL MONUMENT, AZ US","    701.7","","     701.7","0","        70","0","        40","0","         6","0","        0","","         0","0","         0","0","        85","0","         0","0","       235","0","        66","0","         4"," ","        65"," ","   -7.8","0,0103, ","     0","T,0,1226, ","    13"," ,0,0321, ","  42.7"," ,0,1011, ","   37.8","0,0530, ","-2.8","0,1101","-2.8","0,1101","-4.4","0,1113","","","","","0.0","0,0402","-2.2","0,0331","-6.1","0,0321","-6.7","0,0104","","","    1386.9","9","    1386.9","0","    557.0"," ,0","       13"," ,0","     15.74","0","     24.39","0","      7.08","0"
"USC00021664","2001","32.0061","-109.3572","1615.4","CHIRICAHUA NATIONAL MONUMENT, AZ US","    617.2","","     617.2","0","        76","0","        42","0","         2","0","","","         4","0","         0","0","        75","0","         0","0","       233","0","        45","0","","","        43"," ","   -9.4","0,1213, ","","","    76"," ,0,0117, ","  43.2"," ,0,0801, ","   36.1","0,0620, ","-3.3","0,1124","-3.3","0,1124","-5.6","0,1127","-9.4","0,1213","-9.4","0,1213","-1.1","0,0423","-2.2","0,0412","-5.6","0,0216","-7.8","0,0209","-8.9","0,0118","    1829.9","9","    1829.9","0","    479.0"," ,0","      177"," ,0","     15.35","0","     23.26","0","      7.43","0"
"USC00021664","2002","32.0061","-109.3572","1615.4","CHIRICAHUA NATIONAL MONUMENT, AZ US","    656.2","","     656.2","0","        60","0","        31","0","         3","0","        0","","         0","0","         0","0","        83","0","         0","0","       235","0","        63","0","","","        27"," ","  -11.1","0,0131, ","     0"," ,0,1231,+","     0"," ,0,1231,+","  58.7"," ,0,0803, ","   37.8","0,0703,+","-2.8","0,1105","-2.8","0,1105","-6.7","0,1219","-6.7","0,1219","","","0.0","0,0427","-2.8","0,0325","-5.0","0,0317","-7.8","0,0304","-11.1","0,0131","    1566.6","6","    1566.6","0","    421.9"," ,0","        0"," ,0","     15.44","0","     23.89","0","      6.99","0"
"USC00021664","2003","32.0061","-109.3572","1615.4","CHIRICAHUA NATIONAL MONUMENT, AZ US","    755.4","","     755.4","0","        58","0","        21","0","         0","0","        0","","         0","0","         0","0","        73","0","         0","0","       242","0","        80","0","","","        31"," ","  -13.3","0,1228, ","     0","T,0,1212, ","     0"," ,0,1231,+","  24.9"," ,0,1113, ","   38.9","0,0715,+","0.0","0,1027","-2.2","0,1105","-7.2","0,1123","-7.2","0,1123","-13.3","0,1228","-0.6","0,0424","-2.2","0,0407","-4.4","0,0330","","","","","    1713.1","1","    1713.1","0","    195.6"," ,0","        0"," ,0","     15.81","0","     24.59","0","      7.02","0"
"USC00021664","2004","32.0061","-109.3572","1615.4","CHIRICAHUA NATIONAL MONUMENT, AZ US","    572.1","","     572.1","0","        87","0","        54","0","         0","0","        4","","         2","0","         0","0","        78","0","         0","0","       225","0","        63","0","","","        10"," ","   -9.4","0,1225, ","   102"," ,0,0204, ","    51"," ,0,1206,+","  23.9"," ,0,1123, ","   37.2","0,0604, ","-4.4","0,1102","-4.4","0,1102","-4.4","0,1102","-8.9","0,1130","-8.9","0,1130","-0.6","0,0413","-2.2","0,0306","-6.1","0,0229","-8.9","0,0213","-8.9","0,0213","    1647.4","4","    1647.4","0","    489.5"," ,0","      102"," ,0","     14.97","0","     23.09","0","      6.84","0"
"USC00021664","2005","32.0061","-109.3572","1615.4","CHIRICAHUA NATIONAL MONUMENT, AZ US","    782.6","","     782.6","0","        64","0","        31","0","         1","0","","","","","         0","0","        59","0","         0","0","       237","0","        71","0","","","        29"," ","  -11.1","0,1128, ","","","","","  30.5"," ,0,1009, ","   38.9","0,0718,+","0.0","0,1117","-2.2","0,1119","-11.1","0,1128","-11.1","0,1128","-11.1","0,1128","-0.6","0,0420","-2.8","0,0410","-4.4","0,0131","","","","","    1717.7","7","    1717.7","0","    321.7"," ,0","","","     16.16","0","     24.38","0","      7.95","0"
"USC00021664","2006","32.0061","-109.3572","1615.4","CHIRICAHUA NATIONAL MONUMENT, AZ US","","","","","","","","","","","","","","","","","","","","","","","","","","","         1"," ","","","","","","","","","","","","","","","","","","","","","","","","","","","","","","","","","","","","","","","","","","","",""
"USC00021664","2009","32.0061","-109.3572","1615.4","CHIRICAHUA NATIONAL MONUMENT, AZ US","","","","","        62","0","        40","0","         1","0","        3","","         3","0","","","","","","","","","","","","","","","","","   152"," ,0,1223, ","   145"," ,0,1223, ","  31.0"," ,0,0626, ","","","","","","","","","","","","","","","","","","","","","","","","","","","    368.3"," ,0","      195"," ,0","","","","","",""
"USC00021664","2010","32.0061","-109.3572","1615.4","CHIRICAHUA NATIONAL MONUMENT, AZ US","","","","","","","","","","","","","","","","","","","","","","","","","         1"," ","","","","","","","","","","","","","","","","","","","","","","","","","","","","","","","","","","","","","","","","","","","","","",""
"USC00021664","2012","32.0061","-109.3572","1615.4","CHIRICAHUA NATIONAL MONUMENT, AZ US","","","","","        58","7","        39","7","         2","7","","","","","","","","","","","","","","","","","","","","","","","","","  41.1"," ,7,0818, ","","","","","","","","","","","","","","","","","","","","","","","","","","","    378.5"," ,7","","","","","","","",""
"USC00021664","2014","32.0061","-109.3572","1615.4","CHIRICAHUA NATIONAL MONUMENT, AZ US","","","","","        65","7","        45","7","         3","7","","","","","","","","","","","","","","","","","","","","","","","","","  57.9"," ,7,0918, ","","","","","","","","","","","","","","","","","","","","","","","","","","","    514.8"," ,7","","","","","","","",""
"USC00021664","2016","32.0061","-109.3572","1615.4","CHIRICAHUA NATIONAL MONUMENT, AZ US","","","","","        73","7","        46","7","         3","7","","","","","","","","","","","","","","","","","","","","","","","","","  40.9"," ,7,0610, ","","","","","","","","","","","","","","","","","","","","","","","","","","","    532.6"," ,7","","","","","","","",""
"USC00021664","2017","32.0061","-109.3572","1615.4","CHIRICAHUA NATIONAL MONUMENT, AZ US","","","","","        62","7","        31","7","         2","7","","","","","","","","","","","","","","","","","","","","","","","","","  51.1"," ,7,0725, ","","","","","","","","","","","","","","","","","","","","","","","","","","","    403.7"," ,7","","","","","","","",""
