"STATION","DATE","LATITUDE","LONGITUDE","ELEVATION","NAME","CDSD","CDSD_ATTRIBUTES","CLDD","CLDD_ATTRIBUTES","DP01","DP01_ATTRIBUTES","DP10","DP10_ATTRIBUTES","DP1X","DP1X_ATTRIBUTES","DSND","DSND_ATTRIBUTES","DSNW","DSNW_ATTRIBUTES","DT00","DT00_ATTRIBUTES","DT32","DT32_ATTRIBUTES","DX32","DX32_ATTRIBUTES","DX70","DX70_ATTRIBUTES","DX90","DX90_ATTRIBUTES","DYFG","DYFG_ATTRIBUTES","DYTS","DYTS_ATTRIBUTES","EMNT","EMNT_ATTRIBUTES","EMSD","EMSD_ATTRIBUTES","EMSN","EMSN_ATTRIBUTES","EMXP","EMXP_ATTRIBUTES","EMXT","EMXT_ATTRIBUTES","FZF0","FZF0_ATTRIBUTES","FZF1","FZF1_ATTRIBUTES","FZF2","FZF2_ATTRIBUTES","FZF3","FZF3_ATTRIBUTES","FZF4","FZF4_ATTRIBUTES","FZF5","FZF5_ATTRIBUTES","FZF6","FZF6_ATTRIBUTES","FZF7","FZF7_ATTRIBUTES","FZF8","FZF8_ATTRIBUTES","FZF9","FZF9_ATTRIBUTES","HDSD","HDSD_ATTRIBUTES","HTDD","HTDD_ATTRIBUTES","PRCP","PRCP_ATTRIBUTES","SNOW","SNOW_ATTRIBUTES","TAVG","TAVG_ATTRIBUTES","TMAX","TMAX_ATTRIBUTES","TMIN","TMIN_ATTRIBUTES"
"USC00363526","1903","41.41667","-80.36667","344.4","GREENVILLE 2 NE, PA US","    252.9","","     252.9","6","","","","","","","","","","","        11","6","       133","6","        39","6","       144","6","         7","6","","","","","  -24.4","6,0219, ","","","","","","","   34.4","6,0709, ","-1.7","6,0929","-3.9","6,1025","-5.0","6,1106","-6.7","6,1108","-8.9","6,1119","0.0","6,0508","-3.3","6,0502","-8.3","6,0405","-8.3","6,0405","-12.2","6,0226","","","","","","","","","      9.09","6","     15.37","6","      2.81","6"
"USC00363526","1905","41.41667","-80.36667","344.4","GREENVILLE 2 NE, PA US","    291.8","","     291.8","6","       166","6","        94","6","        10","6","","","","","        14","6","       151","6","        44","6","       160","6","         5","6","","","","","  -27.2","6,0216, ","","","","","  46.0"," ,6,0911, ","   33.9","6,0718, ","0.0","6,1012","-2.2","6,1026","-5.0","6,1030","-10.0","6,1114","-10.0","6,1114","-0.6","6,0524","-2.8","6,0424","-5.0","6,0419","-10.0","6,0315","-10.0","6,0315","    3901.2","2","    3901.2","6","   1214.4"," ,6","","","      8.79","6","     14.97","6","      2.60","6"
"USC00363526","1906","41.41667","-80.36667","344.4","GREENVILLE 2 NE, PA US","    389.8","","     389.8","6","       162","6","        98","6","         3","6","       49","","        25","6","         8","6","       146","6","        33","6","       155","6","        16","6","","","","","  -26.1","6,0206, ","   203"," ,6,0321,+","   203"," ,6,1011, ","  45.0"," ,6,0807, ","   35.0","6,0629, ","-5.6","6,1011","-5.6","6,1011","-5.6","6,1011","-8.3","6,1203","-11.7","6,1204","-0.6","6,0511","-3.9","6,0424","-4.4","6,0403","-6.7","6,0326","-15.6","6,0324","    3540.6","6","    3540.6","6","    941.4"," ,6","     1707"," ,6","      9.82","6","     16.03","6","      3.60","6"
"USC00363526","1907","41.41667","-80.36667","344.4","GREENVILLE 2 NE, PA US","    188.9","","     188.9","6","       154","6","       104","6","         5","6","       56","","        18","6","        10","6","       157","6","        37","6","       119","6","         0","6","","","","","  -26.1","6,0127, ","   178"," ,6,0125, ","   102"," ,6,0310,+","  71.4"," ,6,0716, ","   31.7","6,0812, ","-1.7","6,1009","-2.2","6,1015","-5.0","6,1021","-7.8","6,1112","-8.9","6,1115","0.0","6,0528","-3.9","6,0512","-5.6","6,0421","-11.1","6,0402","-11.1","6,0402","    3616.0","0","    3616.0","6","   1212.4"," ,6","     1350"," ,6","      8.23","6","     14.02","6","      2.45","6"
"USC00363526","1908","41.41667","-80.36667","344.4","GREENVILLE 2 NE, PA US","    341.6","","     341.6","6","","","","","","","       53","","        26","6","         3","6","       151","6","        36","6","       153","6","        15","6","","","","","  -28.3","6,0209, ","   305"," ,6,0207, ","   152"," ,6,0205, ","","","   33.9","6,0803, ","-1.7","6,0930","-4.4","6,1003","-4.4","6,1003","-7.2","6,1102","-8.9","6,1115","0.0","6,0504","-3.3","6,0501","-7.8","6,0404","-7.8","6,0404","-16.7","6,0229","    3659.7","7","    3659.7","6","","","     1418"," ,6","      9.61","6","     16.03","6","      3.20","6"
"USC00363526","1909","41.41667","-80.36667","344.4","GREENVILLE 2 NE, PA US","    288.3","","     288.3","6","       144","6","        90","6","         5","6","","","","","         2","6","       150","6","        39","6","       146","6","        11","6","","","","","  -23.3","6,0113, ","","","","","  40.9"," ,6,0605, ","   35.0","6,0825, ","-2.2","6,0928","-2.2","6,0928","-4.4","6,1019","-6.7","6,1020","-12.8","6,1208","-1.1","6,0512","-2.8","6,0428","-9.4","6,0411","-9.4","6,0411","-9.4","6,0411","    3430.0","0","    3430.0","6","    933.4"," ,6","","","      9.31","6","     15.71","6","      2.91","6"
"USC00363526","1910","41.41667","-80.36667","344.4","GREENVILLE 2 NE, PA US","    267.4","","     267.4","6","       141","6","        84","6","         7","6","       96","","        42","6","        16","6","       158","6","        42","6","       156","6","        11","6","","","","","  -26.7","6,0219, ","   635"," ,6,0123, ","   381"," ,6,0122, ","  51.3"," ,6,0903, ","   33.9","6,0815,+","0.0","6,1008","-5.6","6,1029","-5.6","6,1029","-6.7","6,1121","-11.7","6,1207","-0.6","6,0515","-3.3","6,0506","-5.0","6,0413","-6.7","6,0318","-11.7","6,0311","    3666.4","4","    3666.4","6","   1022.4"," ,6","     2943"," ,6","      8.82","6","     15.65","6","      1.99","6"
"USC00363526","1911","41.41667","-80.36667","344.4","GREENVILLE 2 NE, PA US","    394.5","","     394.5","6","       133","6","       102","6","         9","6","       42","","        21","6","         0","6","       149","6","        19","6","       152","6","        25","6","","","","","  -15.6","6,0110, ","   127"," ,6,1205,+","   127"," ,6,1112, "," 103.9"," ,6,0915, ","   38.3","6,0704, ","-1.7","6,1008","-3.3","6,1028","-5.6","6,1029","-7.2","6,1112","-10.6","6,1113","-1.1","6,0507","-2.8","6,0506","-5.0","6,0505","-9.4","6,0417","-9.4","6,0417","    3574.2","2","    3574.2","6","   1274.4"," ,6","     1329"," ,6","      9.97","6","     16.44","6","      3.50","6"
"USC00363526","1912","41.41667","-80.36667","344.4","GREENVILLE 2 NE, PA US","    261.2","","     261.2","6","       131","6","        97","6","         9","6","","","","","        22","6","       155","6","        43","6","       149","6","         8","6","","","","","  -32.8","6,0113, ","","","","","  61.0"," ,6,0826, ","   34.4","6,0910,+","0.0","6,0930","-2.8","6,1016","-4.4","6,1104","-8.9","6,1128","-8.9","6,1128","-0.6","6,0609","-3.3","6,0428","-5.0","6,0330","-7.8","6,0326","-11.1","6,0325","    3946.7","7","    3946.7","6","   1184.3"," ,6","","","      8.35","6","     14.96","6","      1.74","6"
"USC00363526","1913","41.41667","-80.36667","344.4","GREENVILLE 2 NE, PA US","    316.1","","     316.1","6","       143","6","        95","6","         9","6","","","","","         4","6","       139","6","        26","6","       148","6","        29","6","","","","","  -18.3","6,0308, ","","","","","  95.0"," ,6,0325, ","   36.1","6,0701, ","-2.8","6,0914","-2.8","6,0914","-4.4","6,1103","-6.7","6,1106","-8.9","6,1112","-1.7","6,0610","-3.9","6,0512","-6.7","6,0421","-6.7","6,0421","-8.9","6,0309","    3390.0","0","    3390.0","6","   1110.5"," ,6","","","      9.80","6","     16.60","6","      2.99","6"
"USC00363526","1914","41.41667","-80.36667","344.4","GREENVILLE 2 NE, PA US","    326.7","","     326.7","6","       142","6","        86","6","        11","6","","","","","        16","6","       152","6","        47","6","       152","6","        27","6","","","","","  -28.9","6,0225, ","","","","","  51.8"," ,6,0713, ","   35.6","6,0609, ","0.0","6,0910","-3.3","6,1027","-7.2","6,1110","-7.2","6,1110","-10.6","6,1123","-0.6","6,0617","-3.3","6,0502","-4.4","6,0414","-7.2","6,0410","-12.8","6,0321","    3646.3","3","    3646.3","6","   1091.1"," ,6","","","      8.86","6","     15.50","6","      2.22","6"
"USC00363526","1915","41.41667","-80.36667","344.4","GREENVILLE 2 NE, PA US","    255.6","","     255.6","6","       150","6","        96","6","         8","6","","","","","         5","6","       152","6","        31","6","       141","6","         8","6","","","","","  -25.6","6,0130, ","","","","","  60.2"," ,6,0804, ","   33.3","6,0916,+","-0.6","6,0928","-2.8","6,1023","-5.6","6,1024","-7.2","6,1201","-10.6","6,1211","-2.8","6,0526","-2.8","6,0526","-6.1","6,0414","-6.7","6,0404","-10.0","6,0330","    3627.9","9","    3627.9","6","   1039.9"," ,6","","","      9.15","6","     15.39","6","      2.91","6"
"USC00363526","1916","41.41667","-80.36667","344.4","GREENVILLE 2 NE, PA US","    333.5","","     333.5","6","       153","6","        89","6","         5","6","","","","","         8","6","       153","6","        48","6","       150","6","        31","6","","","","","  -25.0","6,0318, ","","","","","  31.8"," ,6,0709, ","   37.8","6,0821, ","-1.7","6,0919","-2.8","6,1001","-4.4","6,1027","-6.7","6,1116","-8.9","6,1214","-0.6","6,0601","-2.2","6,0411","-5.6","6,0410","-6.7","6,0407","-10.0","6,0324","    3668.3","3","    3668.3","6","    943.1"," ,6","","","      8.96","6","     15.79","6","      2.14","6"
"USC00363526","1917","41.41667","-80.36667","344.4","GREENVILLE 2 NE, PA US","    258.5","","     258.5","6","       169","6","        95","6","         4","6","","","","","        21","6","       178","6","        45","6","       124","6","        12","6","","","","","  -28.9","6,0213, ","","","","","  45.2"," ,6,1019, ","   37.8","6,0731, ","-0.6","6,0925","-2.2","6,1007","-5.0","6,1101","-7.2","6,1105","-9.4","6,1125","0.0","6,0526","-2.8","6,0428","-5.6","6,0411","-8.9","6,0410","-8.9","6,0410","    3846.9","9","    3846.9","6","    993.9"," ,6","","","      7.51","6","     13.77","6","      1.25","6"
"USC00363526","1919","41.41667","-80.36667","344.4","GREENVILLE 2 NE, PA US","","","","","","","","","","","","","","","","","","","","","","","","","","","         1"," ","","","","","","","","","","","","","","","","","","","","","","","","","","","","","","","    3206.3","3","    3206.3","6","","","","","","","","","",""
"USC00363526","1921","41.41667","-80.36667","344.4","GREENVILLE 2 NE, PA US","    489.4","","     489.4","6","","","","","","","","","","","         0","6","       117","6","        23","6","       167","6","        26","6","","","","","  -13.9","6,1222,+","","","","","","","   37.2","6,0705, ","-1.1","6,1012","-2.8","6,1013","-6.1","6,1112","-6.7","6,1205","-13.9","6,1222","-1.7","6,0515","-3.9","6,0417","-5.6","6,0411","-7.8","6,0303","-10.0","6,0225","","","","","","","","","     11.13","6","     17.29","6","      4.96","6"
"USC00363526","1922","41.41667","-80.36667","344.4","GREENVILLE 2 NE, PA US","    330.7","","     330.7","6","","","","","","","","","","","         6","6","       144","6","        23","6","       169","6","        18","6","","","","","  -24.4","6,0125, ","","","","","","","   36.7","6,0816, ","-1.7","6,0926","-3.9","6,1019","-4.4","6,1021","-9.4","6,1129","-9.4","6,1129","-1.7","6,0501","-5.0","6,0429","-5.0","6,0429","-6.7","6,0422","-11.7","6,0323","    3115.2","2","    3115.2","6","","","","","     10.17","6","     17.16","6","      3.18","6"
"USC00363526","1923","41.41667","-80.36667","344.4","GREENVILLE 2 NE, PA US","    372.7","","     372.7","6","","","","","","","","","","","         4","6","       158","6","        29","6","       150","6","        32","6","","","","","  -21.1","6,0224, ","","","","","","","   35.6","6,0807,+","0.0","6,0914","-2.8","6,0915","-5.0","6,1007","-6.7","6,1102","","","-2.2","6,0514","-2.2","6,0514","-4.4","6,0417","-18.9","6,0401","-18.9","6,0401","    3572.9","9","    3572.9","6","","","","","      9.54","6","     16.63","6","      2.46","6"
"USC00363526","1924","41.41667","-80.36667","344.4","GREENVILLE 2 NE, PA US","","","","","","","","","","","","","","","        13","6","       161","6","","","","","","","","","","","  -24.4","6,0224, ","","","","","","","","","-0.6","6,0924","-6.1","6,1023","-6.1","6,1023","-7.8","6,1117","-12.8","6,1118","-1.1","6,0522","-2.8","6,0421","-4.4","6,0408","-7.2","6,0319","-8.9","6,0315","    3587.3","3","    3587.3","6","","","","","","","","","      1.79","6"
"USC00363526","1925","41.41667","-80.36667","344.4","GREENVILLE 2 NE, PA US","","","","","","","","","","","","","","","","","","","        24","6","       149","6","        22","6","","","","","","","","","","","","","   37.2","6,0607, ","","","","","","","","","","","","","","","","","","","","","","","","","","","","","","","     16.10","6","",""
"USC00363526","1926","41.41667","-80.36667","344.4","GREENVILLE 2 NE, PA US","","","","","","","","","","","        0","","","","        12","0","       170","0","","","","","","","         1"," ","","","  -23.9","0,0129, ","     0"," ,0,1231,+","","","","","","","-2.8","0,1009","-2.8","0,1009","-5.0","0,1027","-10.0","0,1112","-10.0","0,1112","-1.1","0,0604","-6.7","0,0427","-6.7","0,0427","-6.7","0,0427","-8.9","0,0419","","","","","   1154.7"," ,0","","","","","","","      1.80","0"
"USC00363526","1927","41.41667","-80.36667","344.4","GREENVILLE 2 NE, PA US","    220.3","","     220.3","0","       160","0","        95","0","         5","0","        0","","         7","0","         8","0","       136","0","        28","0","       151","0","        13","0","         2"," ","         1"," ","  -22.2","0,0116, ","     0"," ,0,1231,+","    97"," ,0,0219, ","  59.2"," ,0,1130, ","   35.6","0,0915,+","-2.2","0,1009","-2.2","0,1009","-5.0","0,1106","-7.2","0,1113","-10.6","0,1204","-0.6","0,0602","-2.8","0,0501","-6.7","0,0423","-6.7","0,0423","-10.6","0,0304","    3555.1","1","    3555.1","0","    993.9"," ,0","      538"," ,0","      9.58","0","     16.43","0","      2.73","0"
"USC00363526","1928","41.41667","-80.36667","344.4","GREENVILLE 2 NE, PA US","    319.8","","     319.8","0","       151","0","        95","0","         8","0","        0","","        14","0","         5","0","       155","0","        29","0","       153","0","         9","0","","","","","  -25.0","0,0130, ","     0"," ,0,1231,+","    66"," ,0,1123, ","  40.6"," ,0,0618, ","   33.3","0,0803,+","-1.1","0,0926","-5.0","0,1027","-5.0","0,1027","-7.8","0,1125","-9.4","0,1126","0.0","0,0514","-2.8","0,0513","-7.2","0,0418","-7.2","0,0418","-8.9","0,0416","    3525.3","3","    3525.3","0","   1040.2"," ,0","      800"," ,0","      9.33","0","     15.94","0","      2.73","0"
"USC00363526","1929","41.41667","-80.36667","344.4","GREENVILLE 2 NE, PA US","    282.5","","     282.5","0","       155","0","       100","0","         6","0","        0","","        15","0","         7","0","       157","0","        40","0","       144","0","        17","0","         1"," ","","","  -27.2","0,0220, ","     0"," ,0,1231,+","   107"," ,0,0207, ","  49.5"," ,0,0503, ","   34.4","0,0731,+","-2.2","0,0919","-2.2","0,0919","-4.4","0,1010","-6.7","0,1110","-13.9","0,1123","0.0","0,0606","-2.8","0,0520","-4.4","0,0419","-7.2","0,0317","-15.0","0,0310","    3383.3","3","    3383.3","0","   1177.4"," ,0","      915"," ,0","      9.08","0","     16.14","0","      2.03","0"
"USC00363526","1930","41.41667","-80.36667","344.4","GREENVILLE 2 NE, PA US","","","","","       129","0","        69","0","         2","0","        0","","         6","0","","","","","        37","0","       157","0","        40","0","","","","","","","     0"," ,0,1231,+","   104"," ,0,1127, ","  30.0"," ,0,0610, ","   38.9","0,0804, ","","","","","","","","","","","","","","","","","","","","","","","","","    711.8"," ,0","      563"," ,0","","","     16.86","0","",""
"USC00363526","1931","41.41667","-80.36667","344.4","GREENVILLE 2 NE, PA US","","","","","       107","0","        79","0","         4","0","        0","","         7","0","","","","","","","","","","","","","","","","","     0"," ,0,1231,+","   102"," ,0,0308, ","  37.6"," ,0,0902, ","","","","","","","","","","","","","","","","","","","","","","","    3595.1","1","    3595.1"," ","    835.3"," ,0","      512"," ,0","","","","","",""
"USC00363526","1932","41.41667","-80.36667","344.4","GREENVILLE 2 NE, PA US","    349.2","","     349.2","0","       124","0","        86","0","         9","0","        0","","         8","0","         3","0","       131","0","        26","0","       163","0","        22","0","","","","","  -17.8","0,1217,+","     0"," ,0,1231,+","   102"," ,0,0306,+","  42.2"," ,0,0426, ","   36.1","0,0901,+","-0.6","0,1008","-2.2","0,1014","-5.6","0,1118","-12.2","0,1127","-12.2","0,1127","-0.6","0,0523","-3.9","0,0503","-5.0","0,0417","-7.8","0,0404","-10.0","0,0323","","","","","   1005.3"," ,0","      655"," ,0","     10.55","0","     17.03","0","      4.06","0"
"USC00363526","1933","41.41667","-80.36667","344.4","GREENVILLE 2 NE, PA US","    477.4","","     477.4","0","       126","0","        90","0","         3","0","       10","","        12","0","         4","0","       139","0","        27","0","       158","0","        44","0","","","","","  -19.4","0,0210,+","    76"," ,0,1229,+","   127"," ,0,0325, ","  71.1"," ,0,0524, ","   38.3","0,0608, ","0.0","0,1003","-2.2","0,1014","-5.6","0,1110","-7.2","0,1111","-11.1","0,1115","0.0","0,0506","-5.0","0,0423","-5.0","0,0423","-8.9","0,0327","-8.9","0,0327","    3113.5","5","    3113.5","0","    941.5"," ,0","      904"," ,0","     10.89","0","     17.59","0","      4.18","0"
"USC00363526","1934","41.41667","-80.36667","344.4","GREENVILLE 2 NE, PA US","    546.3","","     546.3","0","       117","0","        81","0","         3","0","       14","","        16","0","        18","0","       150","0","        40","0","       173","0","        54","0","","","","","  -29.4","0,0209, ","   102"," ,0,1113,+","   102"," ,0,1113, ","  81.3"," ,0,0809, ","   38.9","0,0629, ","0.0","0,1001","-2.2","0,1013","-6.7","0,1014","-6.7","0,1014","-9.4","0,1208","0.0","0,0526","-6.7","0,0428","-6.7","0,0428","-6.7","0,0428","-9.4","0,0328","    3537.3","3","    3537.3","0","    730.4"," ,0","      962"," ,0","     10.06","0","     17.09","0","      3.04","0"
"USC00363526","1935","41.41667","-80.36667","344.4","GREENVILLE 2 NE, PA US","","","","","       136","0","        80","0","         2","0","","","         9","0","","","","","","","","","","","","","","","","","","","   117"," ,0,0205, ","  29.5"," ,0,0713, ","","","","","","","","","","","","","","","","","","","","","","","    3373.8","8","    3373.8","0","    796.7"," ,0","      869"," ,0","","","","","",""
"USC00363526","1936","41.41667","-80.36667","344.4","GREENVILLE 2 NE, PA US","","","","","       133","0","        88","0","         9","0","       10","","        11","0","","","","","","","","","","","","","","","","","   152"," ,0,0101, ","    66"," ,0,0317, ","  68.3"," ,0,0727, ","","","","","","","","","","","","","","","","","","","","","","","","","","","   1066.5"," ,0","      691"," ,0","","","","","",""
"USC00363526","1937","41.41667","-80.36667","344.4","GREENVILLE 2 NE, PA US","","","","","       159","0","       105","0","         9","0","       23","","        11","0","","","","","        31","0","       141","0","        36","0","","","","","","","   127"," ,0,1215,+","   122"," ,0,0123, ","  44.5"," ,0,0716, ","   35.0","0,0709,+","","","","","","","","","","","","","","","","","","","","","","","","","   1238.8"," ,0","      766"," ,0","","","     16.24","0","",""
"USC00363526","1938","41.41667","-80.36667","344.4","GREENVILLE 2 NE, PA US","    405.2","","     405.2","0","       136","0","        92","0","         3","0","       24","","        16","0","         1","0","       132","0","        22","0","       181","0","        39","0","","","","","  -19.4","0,0128, ","   178"," ,0,1125, ","   157"," ,0,0406, ","  37.6"," ,0,0626, ","   35.6","0,0803,+","-1.7","0,1002","-3.9","0,1007","-6.1","0,1110","-6.7","0,1124","-9.4","0,1125","-0.6","0,0525","-4.4","0,0423","-4.4","0,0423","-6.7","0,0406","-13.3","0,0304","    3267.9","9","    3267.9","0","    987.7"," ,0","     1022"," ,0","     11.09","0","     18.09","0","      4.08","0"
"USC00363526","1939","41.41667","-80.36667","344.4","GREENVILLE 2 NE, PA US","    549.0","","     549.0","0","       135","0","        81","0","         6","0","       47","","        24","0","         3","0","       140","0","        25","0","       170","0","        50","0","","","","","  -19.4","0,0225,+","   178"," ,0,0127,+","   114"," ,0,0215, ","  68.6"," ,0,0803, ","   36.7","0,0803, ","-3.3","0,1015","-3.3","0,1015","-4.4","0,1018","-6.7","0,1104","-9.4","0,1126","-2.2","0,0514","-2.2","0,0514","-5.0","0,0413","-7.8","0,0409","-10.6","0,0321","    3197.1","1","    3197.1","0","    985.1"," ,0","     1230"," ,0","     11.06","0","     17.97","0","      4.16","0"
"USC00363526","1940","41.41667","-80.36667","344.4","GREENVILLE 2 NE, PA US","","","","","","","","","","","","","","","","","","","","","","","","","","","","","","","","","","","","","","","","","","","","","","","","","","","","","","","","","","","    3637.1","1","    3637.1","0","","","","","","","","","",""
"USC00363526","1941","41.41667","-80.36667","344.4","GREENVILLE 2 NE, PA US","","","","","","","","","","","","","","","","","","","","","","","","","         2"," ","         2"," ","","","","","","","","","","","","","","","","","","","","","","","","","","","","","","","","","","","","","","","","","","","",""
"USC00363526","1942","41.41667","-80.36667","344.4","GREENVILLE 2 NE, PA US","","","","","","","","","","","","","","","","","","","        45","0","       149","0","         5","0","        10"," ","         5"," ","","","","","","","","","   34.4","0,0718, ","","","","","","","","","","","","","","","","","","","","","    3172.9","9","    3172.9","0","","","","","","","     15.50","0","",""
"USC00363526","1943","41.41667","-80.36667","344.4","GREENVILLE 2 NE, PA US","","","","","","","","","","","","","","","","","","","","","","","","","        16"," ","         9"," ","","","","","","","","","","","","","","","","","","","","","","","","","","","","","","","","","","","    948.2"," ,0","","","","","","","",""
"USC00363526","1944","41.41667","-80.36667","344.4","GREENVILLE 2 NE, PA US","    388.0","","     388.0","0","       162","0","        91","0","         4","0","","","        15","0","         4","0","       150","0","        37","0","       157","0","        27","0","        24"," ","        21"," ","  -23.3","0,0219, ","","","   381"," ,0,1212, ","  47.8"," ,0,0524, ","   36.7","0,0804, ","-1.7","0,0924","-3.9","0,1015","-7.2","0,1016","-7.2","0,1016","-9.4","0,1125","-1.7","0,0430","-5.0","0,0429","-5.0","0,0429","-6.7","0,0405","-8.9","0,0403","    3617.8","8","    3617.8","0","    971.3"," ,0","     1344"," ,0","      9.66","0","     16.20","0","      3.12","0"
"USC00363526","1945","41.41667","-80.36667","344.4","GREENVILLE 2 NE, PA US","","","","","","","","","","","","","        17","0","","","","","        51","0","       158","0","        24","0","        12"," ","         8"," ","","","","","   102"," ,0,1211, ","","","   34.4","0,0908,+","","","","","","","","","","","","","","","","","","","","","","","","","","","      981"," ,0","","","     15.75","0","",""
"USC00363526","1946","41.41667","-80.36667","344.4","GREENVILLE 2 NE, PA US","    233.5","","     233.5","0","       136","0","        81","0","         8","0","       32","","        16","0","         4","0","       130","0","        23","0","       152","0","         9","0","        13"," ","         9"," ","  -22.2","0,0127, ","   102"," ,0,0220,+","    76"," ,0,0220, ","  52.6"," ,0,1012, ","   36.1","0,0707, ","-0.6","0,1002","-2.2","0,1022","-6.7","0,1115","-6.7","0,1115","-10.6","0,1202","-0.6","0,0513","-7.8","0,0428","-7.8","0,0428","-7.8","0,0428","-10.0","0,0310","","","","","    970.0"," ,0","      740"," ,0","     10.24","0","     17.26","0","      3.22","0"
"USC00363526","1947","41.41667","-80.36667","344.4","GREENVILLE 2 NE, PA US","","","","","       160","0","        86","0","         7","0","       47","","        18","0","","","","","        49","0","       159","0","        17","0","        16"," ","         9"," ","","","   254"," ,0,0326, ","   203"," ,0,0325, ","  36.8"," ,0,0711, ","   35.6","0,0814,+","","","","","","","","","","","","","","","","","","","","","    3555.1","1","    3555.1"," ","   1037.9"," ,0","     1402"," ,0","","","     15.68","0","",""
"USC00363526","1948","41.41667","-80.36667","344.4","GREENVILLE 2 NE, PA US","    274.4","","     274.4","0","       154","0","        90","0","         9","0","       50","","        13","0","        20","0","       138","0","        43","0","       149","0","         9","0","         5"," ","         4"," ","  -29.4","0,0131, ","   381"," ,0,0124, ","   292"," ,0,0124, ","  41.1"," ,0,0811, ","   35.6","0,0828,+","0.0","0,0925","-2.2","0,1004","-5.6","0,1125","-8.3","0,1202","-10.0","0,1211","-0.6","0,0526","-3.3","0,0422","-4.4","0,0418","-7.8","0,0410","-9.4","0,0329","","","","","   1162.0"," ,0","     1077"," ,0","      9.35","0","     16.13","0","      2.57","0"
"USC00363526","1949","41.41667","-80.36667","344.4","GREENVILLE 2 NE, PA US","    422.4","","     422.4","0","       157","0","        96","0","         6","0","       25","","        16","0","         1","0","       141","0","        21","0","       163","0","        22","0","         9"," ","        12"," ","  -19.4","0,0203, ","   102"," ,0,1202,+","   114"," ,0,1202, ","  64.0"," ,0,0620, ","   35.0","0,0705,+","-1.7","0,0930","-7.2","0,1027","-7.2","0,1027","-7.2","0,1027","-9.4","0,1122","-1.1","0,0608","-3.3","0,0511","-8.9","0,0417","-8.9","0,0417","-8.9","0,0417","    3166.1","1","    3166.1","0","   1009.5"," ,0","     1120"," ,0","     10.80","0","     17.45","0","      4.15","0"
"USC00363526","1950","41.41667","-80.36667","344.4","GREENVILLE 2 NE, PA US","    203.5","","     203.5","0","       176","0","        99","0","         8","0","       54","","        30","0","         6","0","       143","0","        31","0","       151","0","         4","0","        19"," ","        15"," ","  -26.1","0,1228, ","   635"," ,0,1126, ","   381"," ,0,1125, ","  48.5"," ,0,0901, ","   34.4","0,0817, ","0.0","0,1006","-2.2","0,1021","-9.4","0,1112","-9.4","0,1112","-9.4","0,1112","0.0","0,0618","-3.9","0,0508","-4.4","0,0422","-7.8","0,0416","-11.7","0,0414","    3340.7","7","    3340.7","0","   1266.9"," ,0","     2177"," ,0","      8.89","0","     15.49","0","      2.29","0"
"USC00363526","1951","41.41667","-80.36667","344.4","GREENVILLE 2 NE, PA US","    290.7","","     290.7","0","       160","0","       109","0","         7","0","       66","","        26","0","         8","0","       140","0","        38","0","       154","0","        10","0","        19"," ","        28"," ","  -27.2","0,0203, ","   305"," ,0,1218, ","   191"," ,0,0201, ","  48.0"," ,0,0728, ","   32.8","0,0831,+","-1.1","0,0929","-3.9","0,1013","-5.6","0,1103","-11.7","0,1105","-11.7","0,1105","-1.7","0,0514","-3.9","0,0421","-4.4","0,0420","-6.7","0,0327","-9.4","0,0326","    3538.0","0","    3538.0","0","   1225.5"," ,0","     2083"," ,0","      9.58","0","     16.07","0","      3.09","0"
"USC00363526","1952","41.41667","-80.36667","344.4","GREENVILLE 2 NE, PA US","    377.2","","     377.2","0","       148","0","        87","0","        11","0","       24","","        15","0","         0","0","       144","0","        23","0","       145","0","        33","0","        21"," ","        20"," ","  -17.2","0,0130, ","   127"," ,0,0207, ","   142"," ,0,0207, ","  58.9"," ,0,0815, ","   37.2","0,0626, ","0.0","0,0925","-3.9","0,1004","-5.0","0,1008","-8.3","0,1021","-12.2","0,1129","0.0","0,0530","-2.8","0,0503","-7.2","0,0330","-7.2","0,0330","-8.9","0,0318","    3438.8","8","    3438.8","0","   1146.2"," ,0","     1107"," ,0","     10.10","0","     16.49","0","      3.70","0"
"USC00363526","1953","41.41667","-80.36667","344.4","GREENVILLE 2 NE, PA US","    356.0","","     356.0","0","       148","0","        77","0","         6","0","       30","","        22","0","         0","0","       134","0","        18","0","       160","0","        30","0","        12"," ","        26"," ","  -17.2","0,0218, ","   127"," ,0,0104, ","   160"," ,0,0111, ","  33.0"," ,0,0627, ","   38.3","0,0902, ","0.0","0,0923","-4.4","0,1008","-4.4","0,1008","-9.4","0,1106","-9.4","0,1106","-1.1","0,0428","-3.3","0,0421","-4.4","0,0420","-7.8","0,0309","-9.4","0,0308","    3236.4","4","    3236.4","0","    794.0"," ,0","     1454"," ,0","     10.62","0","     17.30","0","      3.94","0"
"USC00363526","1954","41.41667","-80.36667","344.4","GREENVILLE 2 NE, PA US","    352.5","","     352.5","0","       161","0","        97","0","         5","0","       57","","        28","0","         3","0","       150","0","        32","0","       158","0","        23","0","        16"," ","        23"," ","  -22.8","0,0118, ","   127"," ,0,0305,+","   107"," ,0,0208, "," 125.5"," ,0,1015, ","   36.7","0,0905, ","0.0","0,0923","-3.9","0,1007","-6.7","0,1101","-6.7","0,1101","-13.3","0,1206","-1.1","0,0522","-2.2","0,0505","-8.3","0,0409","-8.3","0,0409","-10.6","0,0404","    3269.0","0","    3269.0","0","   1086.1"," ,0","     1710"," ,0","     10.05","0","     16.69","0","      3.41","0"
"USC00363526","1955","41.41667","-80.36667","344.4","GREENVILLE 2 NE, PA US","    430.8","","     430.8","0","       157","0","        84","0","         8","0","       65","","        25","0","         6","0","       141","0","        38","0","       169","0","        37","0","        13"," ","        27"," ","  -24.4","0,0204, ","   203"," ,0,0129,+","   140"," ,0,0327, "," 105.2"," ,0,0811, ","   35.6","0,0805, ","-3.3","0,1022","-3.3","0,1022","-5.6","0,1106","-6.7","0,1117","-11.7","0,1128","-1.7","0,0518","-6.1","0,0408","-6.1","0,0408","-7.2","0,0330","-9.4","0,0327","    3320.3","3","    3320.3","0","   1164.2"," ,0","     2027"," ,0","     10.23","0","     16.93","0","      3.53","0"
"USC00363526","1956","41.41667","-80.36667","344.4","GREENVILLE 2 NE, PA US","    279.7","","     279.7","0","       185","0","        95","0","         8","0","       50","","        24","0","         2","0","       143","0","        23","0","       142","0","         6","0","        12"," ","        36"," ","  -18.9","0,0126, ","   203"," ,0,0316, ","   203"," ,0,0316, ","  58.4"," ,0,0805, ","   33.9","0,0614, ","0.0","0,0921","-2.2","0,1010","-5.6","0,1111","-7.8","0,1117","-9.4","0,1124","-3.3","0,0525","-3.3","0,0525","-5.6","0,0425","-7.2","0,0401","-13.3","0,0321","    3614.8","8","    3614.8","0","   1187.2"," ,0","     1677"," ,0","      9.72","0","     15.79","0","      3.65","0"
"USC00363526","1957","41.41667","-80.36667","344.4","GREENVILLE 2 NE, PA US","    334.7","","     334.7","0","       155","0","        99","0","         8","0","       39","","        19","0","         4","0","       147","0","        24","0","       157","0","        17","0","        14"," ","        20"," ","  -24.4","0,0115, ","   203"," ,0,0116,+","   142"," ,0,1212, ","  43.2"," ,0,0629, ","   35.0","0,0618,+","0.0","0,0906","-3.9","0,0927","-6.1","0,0929","-6.7","0,1110","-13.9","0,1205","-0.6","0,0517","-3.3","0,0506","-5.6","0,0415","-7.8","0,0331","-8.9","0,0305","    3215.1","1","    3215.1","0","    934.9"," ,0","     1616"," ,0","     10.03","0","     16.62","0","      3.44","0"
"USC00363526","1958","41.41667","-80.36667","344.4","GREENVILLE 2 NE, PA US","    295.9","","     295.9","0","       165","0","        85","0","        10","0","       78","","        22","0","        13","0","       141","0","        50","0","       152","0","         1","0","        19"," ","        26"," ","  -23.3","0,1211, ","   203"," ,0,0219,+","   160"," ,0,1128, "," 118.9"," ,0,0715, ","   32.2","0,0704, ","-1.1","0,1002","-2.8","0,1006","-5.6","0,1123","-7.2","0,1127","-9.4","0,1129","0.0","0,0607","-2.8","0,0430","-8.9","0,0409","-8.9","0,0409","-8.9","0,0409","    3550.3","3","    3550.3","0","   1169.0"," ,0","     1604"," ,0","      9.06","0","     15.17","0","      2.95","0"
"USC00363526","1959","41.41667","-80.36667","344.4","GREENVILLE 2 NE, PA US","    569.4","","     569.4","0","       152","0","        93","0","        13","0","       46","","        25","0","         6","0","       147","0","        30","0","       160","0","        41","0","        17"," ","        32"," ","  -21.1","0,0118, ","   203"," ,0,0119, ","   165"," ,0,0312, ","  54.1"," ,0,0210, ","   36.7","0,0908,+","-1.1","0,0917","-2.2","0,1019","-5.0","0,1110","-9.4","0,1117","-9.4","0,1117","-0.6","0,0516","-2.2","0,0423","-6.7","0,0414","-6.7","0,0414","-11.1","0,0323","    3532.9","9","    3532.9","0","   1237.9"," ,0","     1541"," ,0","     10.69","0","     17.23","0","      4.14","0"
"USC00363526","1960","41.41667","-80.36667","344.4","GREENVILLE 2 NE, PA US","    384.7","","     384.7","0","       151","0","        79","0","         2","0","       84","","        35","0","        12","0","       143","0","        52","0","       173","0","        23","0","        13"," ","        17"," ","  -22.2","0,1228,+","   279"," ,0,0304, ","   229"," ,0,0322, ","  38.1"," ,0,0508, ","   34.4","0,0730,+","-1.1","0,1001","-3.3","0,1026","-5.6","0,1108","-6.7","0,1124","-11.7","0,1202","-1.1","0,0502","-4.4","0,0419","-4.4","0,0419","-12.8","0,0326","-12.8","0,0326","    3365.5","5","    3365.5","0","    814.1"," ,0","     2782"," ,0","      9.88","0","     16.49","0","      3.27","0"
"USC00363526","1961","41.41667","-80.36667","344.4","GREENVILLE 2 NE, PA US","    469.4","","     469.4","0","       162","0","        96","0","         2","0","       54","","        20","0","         8","0","       139","0","        34","0","       155","0","        31","0","        22"," ","        22"," ","  -24.4","0,0202, ","   178"," ,0,0203, ","   140"," ,0,1224, ","  31.8"," ,0,1116, ","   34.4","0,0831,+","0.0","0,0929","-2.2","0,1109","-4.4","0,1110","-6.7","0,1119","-12.8","0,1214","-1.1","0,0530","-2.2","0,0505","-5.0","0,0402","-7.2","0,0331","-11.1","0,0317","    3497.4","4","    3497.4","0","    934.9"," ,0","     1411"," ,0","     10.37","0","     16.81","0","      3.93","0"
"USC00363526","1962","41.41667","-80.36667","344.4","GREENVILLE 2 NE, PA US","    417.0","","     417.0","0","       151","0","        82","0","         1","0","       57","","        27","0","         9","0","       146","0","        40","0","       166","0","        32","0","        12"," ","        19"," ","  -22.2","0,0110, ","   203"," ,0,0306, ","   198"," ,0,0306, ","  39.9"," ,0,1110, ","   35.0","0,0707,+","0.0","0,1024","-3.3","0,1025","-8.9","0,1126","-8.9","0,1126","-8.9","0,1126","-2.2","0,0424","-2.2","0,0424","-4.4","0,0421","-7.2","0,0417","-13.3","0,0304","    3256.6","6","    3256.6","0","    719.2"," ,0","     1890"," ,0","      9.86","0","     16.53","0","      3.19","0"
"USC00363526","1963","41.41667","-80.36667","344.4","GREENVILLE 2 NE, PA US","    286.3","","     286.3","0","       135","0","        68","0","         1","0","      101","","        27","0","        21","0","       147","0","        55","0","       173","0","        21","0","        17"," ","        16"," ","  -29.4","0,0226, ","   203"," ,0,0302,+","   132"," ,0,1218, ","  26.7"," ,0,1129, ","   35.6","0,0627, ","-0.6","0,0923","-2.2","0,1013","-7.2","0,1125","-7.2","0,1125","-12.8","0,1214","-4.4","0,0524","-4.4","0,0524","-4.4","0,0524","-7.2","0,0323","-9.4","0,0311","    3750.2","2","    3750.2","0","    624.3"," ,0","     1915"," ,0","      9.00","0","     15.91","0","      2.08","0"
"USC00363526","1964","41.41667","-80.36667","344.4","GREENVILLE 2 NE, PA US","    372.4","","     372.4","0","       146","0","        82","0","         8","0","       50","","        18","0","         4","0","       139","0","        32","0","       164","0","        25","0","","","        27"," ","  -24.4","0,0114, ","   203"," ,0,0114,+","   183"," ,0,0219, ","  41.4"," ,0,0310, ","   35.0","0,0720, ","0.0","0,1006","-2.8","0,1011","-7.8","0,1121","-7.8","0,1121","-11.1","0,1122","0.0","0,0530","-2.8","0,0416","-4.4","0,0411","-6.7","0,0404","-13.3","0,0401","    3380.2","2","    3380.2","0","   1001.7"," ,0","     1485"," ,0","     10.32","0","     16.98","0","      3.65","0"
"USC00363526","1965","41.41667","-80.36667","344.4","GREENVILLE 2 NE, PA US","    356.0","","     356.0","0","       150","0","        99","0","         7","0","       36","","        17","0","        11","0","       133","0","        27","0","       157","0","        12","0","","","        24"," ","  -27.2","0,0117, ","   178"," ,0,0120, ","   132"," ,0,0305, ","  44.7"," ,0,0602, ","   34.4","0,0815,+","-2.2","0,1006","-2.2","0,1006","-8.9","0,1029","-8.9","0,1029","-8.9","0,1029","-1.1","0,0429","-2.2","0,0418","-8.3","0,0404","-8.3","0,0404","-8.9","0,0403","    3389.5","5","    3389.5","0","   1040.9"," ,0","     1148"," ,0","     10.05","0","     16.33","0","      3.78","0"
"USC00363526","1966","41.41667","-80.36667","344.4","GREENVILLE 2 NE, PA US","    384.1","","     384.1","0","       146","0","        81","0","         3","0","       44","","        21","0","         4","0","       147","0","        46","0","       147","0","        29","0","","","        14"," ","  -24.4","0,0129, ","   203"," ,0,0131,+","   201"," ,0,0123, ","  47.8"," ,0,0610, ","   38.9","0,0702, ","0.0","0,0916","-2.8","0,1021","-5.0","0,1104","-10.0","0,1120","-10.0","0,1120","0.0","0,0602","-3.9","0,0511","-5.6","0,0510","-7.2","0,0329","-8.9","0,0328","    3389.3","3","    3389.3","0","    898.3"," ,0","     1470"," ,0","      9.74","0","     16.21","0","      3.27","0"
"USC00363526","1967","41.41667","-80.36667","344.4","GREENVILLE 2 NE, PA US","","","","","","","","","","","","","","","","","","","","","","","","","","","        21"," ","","","","","","","","","","","","","","","","","","","","","","","","","","","","","","","","","","","","","","","","","","","",""
"USC00363526","1968","41.41667","-80.36667","344.4","GREENVILLE 2 NE, PA US","    390.3","","     390.3","0","       157","0","        90","0","         4","0","       76","","        24","0","        10","0","       134","0","        42","0","       160","0","        20","0","","","        34"," ","  -24.4","0,0221, ","   279"," ,0,1120, ","   279"," ,0,1120, ","  38.9"," ,0,1019, ","   35.0","0,0824,+","-0.6","0,1006","-5.6","0,1031","-5.6","0,1031","-6.7","0,1208","-8.9","0,1209","-3.9","0,0507","-3.9","0,0507","-7.8","0,0406","-7.8","0,0406","-13.3","0,0314","    3564.9","9","    3564.9","0","    907.1"," ,0","     1777"," ,0","      9.78","0","     16.14","0","      3.42","0"
"USC00363526","1969","41.41667","-80.36667","344.4","GREENVILLE 2 NE, PA US","    368.7","","     368.7","0","       138","0","        77","0","         7","0","       44","","        20","0","         5","0","       152","0","        39","0","       165","0","        14","0","","","        14"," ","  -18.9","0,1225,+","   229"," ,0,1223, ","   147"," ,0,1216, ","  63.8"," ,0,0705, ","   33.9","0,0627, ","0.0","0,0929","-2.8","0,1023","-6.7","0,1024","-6.7","0,1024","-9.4","0,1122","-0.6","0,0527","-4.4","0,0420","-4.4","0,0420","-7.8","0,0401","-9.4","0,0331","    3394.7","7","    3394.7","0","    834.4"," ,0","     1500"," ,0","      9.72","0","     16.01","0","      3.44","0"
"USC00363526","1970","41.41667","-80.36667","344.4","GREENVILLE 2 NE, PA US","    423.5","","     423.5","0","       156","0","        86","0","         6","0","       60","","        25","0","        10","0","       125","0","        40","0","       165","0","         4","0","","","        32"," ","  -25.6","0,0124, ","   203"," ,0,0124,+","   183"," ,0,1124, ","  53.1"," ,0,0615, ","   35.6","0,0701, ","-1.1","0,1017","-2.2","0,1108","-8.3","0,1123","-8.3","0,1123","-10.0","0,1124","-5.0","0,0507","-5.0","0,0507","-5.0","0,0507","-6.7","0,0411","-8.9","0,0330","    3608.9","9","    3608.9","0","    927.0"," ,0","     1542"," ,0","     10.22","0","     16.28","0","      4.16","0"
"USC00363526","1971","41.41667","-80.36667","344.4","GREENVILLE 2 NE, PA US","    373.1","","     373.1","0","       137","0","        78","0","         6","0","       62","","        29","0","         7","0","       141","0","        28","0","       166","0","        14","0","","","        17"," ","  -22.8","0,0119, ","   254"," ,0,0209, ","   165"," ,0,0303, ","  48.3"," ,0,0606, ","   36.1","0,0628, ","0.0","0,1104","-3.9","0,1105","-6.1","0,1107","-6.7","0,1109","-15.6","0,1123","-2.2","0,0504","-2.2","0,0504","-5.0","0,0427","-6.7","0,0408","-8.9","0,0331","    3418.7","7","    3418.7","0","    762.2"," ,0","     2066"," ,0","     10.17","0","     16.57","0","      3.78","0"
"USC00363526","1972","41.41667","-80.36667","344.4","GREENVILLE 2 NE, PA US","    301.4","","     301.4","0","       164","0","        88","0","         5","0","       48","","        18","0","         6","0","       142","0","        28","0","       144","0","         7","0","","","        20"," ","  -23.9","0,0210,+","   203"," ,0,0206, ","   173"," ,0,0206, ","  42.9"," ,0,0703, ","   33.9","0,0722,+","-2.8","0,1010","-2.8","0,1010","-6.7","0,1020","-6.7","0,1020","-8.9","0,1207","-0.6","0,0611","-2.8","0,0428","-6.7","0,0409","-6.7","0,0409","-10.0","0,0408","    3295.1","1","    3295.1","0","    963.7"," ,0","     1598"," ,0","      9.35","0","     15.13","0","      3.57","0"
"USC00363526","1973","41.41667","-80.36667","344.4","GREENVILLE 2 NE, PA US","    398.5","","     398.5","0","       150","0","        84","0","         3","0","       27","","         8","0","         2","0","       113","0","        26","0","       152","0","        13","0","","","        22"," ","  -25.0","0,0217, ","   279"," ,0,0318, ","   292"," ,0,0318, ","  36.6"," ,0,0821, ","   35.0","0,0828, ","0.0","0,0921","-2.8","0,1106","-4.4","0,1118","-6.7","0,1208","-11.1","0,1216","-1.1","0,0506","-3.9","0,0415","-7.8","0,0414","-7.8","0,0414","-8.9","0,0321","    3198.6","6","    3198.6","0","    796.1"," ,0","      966"," ,0","     11.05","0","     16.83","0","      5.28","0"
"USC00363526","1974","41.41667","-80.36667","344.4","GREENVILLE 2 NE, PA US","    255.4","","     255.4","0","       151","0","        95","0","         4","0","       46","","        15","0","         1","0","       136","0","        22","0","       145","0","         3","0","","","        28"," ","  -17.8","0,0325, ","   203"," ,0,0112, ","   132"," ,0,0324, ","  51.6"," ,0,0512, ","   33.9","0,0714, ","-1.7","0,0924","-3.3","0,1004","-4.4","0,1116","-7.2","0,1126","-8.9","0,1205","-2.8","0,0508","-2.8","0,0508","-4.4","0,0420","-9.4","0,0410","-9.4","0,0410","    3126.5","5","    3126.5","0","    983.6"," ,0","     1247"," ,0","      9.92","0","     15.79","0","      4.06","0"
"USC00363526","1975","41.41667","-80.36667","344.4","GREENVILLE 2 NE, PA US","    344.5","","     344.5","0","       151","0","        80","0","         5","0","       42","","        21","0","         1","0","       137","0","        25","0","       152","0","         5","0","","","        26"," ","  -24.4","0,0210, ","   203"," ,0,0314, ","   216"," ,0,0314, ","  41.1"," ,0,0605, ","   34.4","0,0802,+","-1.1","0,1003","-7.8","0,1031","-7.8","0,1031","-7.8","0,1031","-10.6","0,1218","-2.2","0,0427","-2.2","0,0427","-7.2","0,0414","-7.2","0,0414","-8.9","0,0327","    3372.6","6","    3372.6","0","    857.1"," ,0","     1399"," ,0","     10.32","0","     15.98","0","      4.66","0"
"USC00363526","1976","41.41667","-80.36667","344.4","GREENVILLE 2 NE, PA US","","","","","","","","","","","","","","","","","","","","","","","","","","","        19"," ","","","","","","","","","","","","","","","","","","","","","","","","","","","","","","","    3170.3","3","    3170.3","0","","","","","","","","","",""
"USC00363526","1977","41.41667","-80.36667","344.4","GREENVILLE 2 NE, PA US","    257.2","","     257.2","0","       129","0","        88","0","         9","0","","","","","        26","0","       157","0","        55","0","       156","0","         9","0","","","        23"," ","  -27.2","0,0118,+","","","","","  52.3"," ,0,0707, ","   35.0","0,0706, ","-0.6","0,1012","-5.0","0,1014","-5.0","0,1014","-9.4","0,1113","-9.4","0,1113","-1.1","0,0608","-2.8","0,0511","-4.4","0,0430","-6.7","0,0429","-12.2","0,0409","","","","","   1059.6"," ,0","","","      8.40","0","     15.55","0","      1.25","0"
"USC00363526","1978","41.41667","-80.36667","344.4","GREENVILLE 2 NE, PA US","    279.1","","     279.1","0","       134","0","        88","0","         4","0","","","","","        27","0","       164","0","        61","0","       136","0","         5","0","","","        25"," ","  -26.1","0,0204, ","","","","","  36.6"," ,0,1013, ","   33.9","0,0721, ","-0.6","0,0929","-5.6","0,1016","-5.6","0,1016","-7.2","0,1129","-11.1","0,1210","-2.2","0,0503","-2.2","0,0503","-4.4","0,0501","-8.9","0,0318","-8.9","0,0318","    4168.8","8","    4168.8","0","    936.8"," ,0","","","      7.73","0","     14.10","0","      1.36","0"
"USC00363526","1979","41.41667","-80.36667","344.4","GREENVILLE 2 NE, PA US","    245.1","","     245.1","0","       179","0","       102","0","         7","0","","","        11","0","        23","0","       148","0","        53","0","       133","0","         0","0","","","        16"," ","  -27.8","0,0211, ","","","   127"," ,0,1217, ","  80.8"," ,0,0914, ","   31.7","0,0716,+","-0.6","0,1011","-3.9","0,1027","-4.4","0,1105","-10.0","0,1203","-10.0","0,1203","-0.6","0,0506","-2.2","0,0502","-4.4","0,0408","-8.9","0,0328","-8.9","0,0328","    3936.7","7","    3936.7","0","   1184.7"," ,0","      808"," ,0","      8.14","0","     14.05","0","      2.23","0"
"USC00363526","1980","41.41667","-80.36667","344.4","GREENVILLE 2 NE, PA US","    301.7","","     301.7","0","       152","0","        90","0","        11","0","","","        13","0","         8","0","       154","0","        61","0","       132","0","         5","0","","","        38"," ","  -23.3","0,0302, ","","","   152"," ,0,0216, ","  55.1"," ,0,0803,+","   34.4","0,0721, ","0.0","0,1005","-2.2","0,1014","-6.7","0,1117","-6.7","0,1117","-10.6","0,1204","-0.6","0,0508","-2.2","0,0424","-6.7","0,0417","-6.7","0,0417","-10.0","0,0315","    3837.1","1","    3837.1","0","   1133.1"," ,0","      945"," ,0","      8.14","0","     13.95","0","      2.32","0"
"USC00363526","1981","41.41667","-80.36667","344.4","GREENVILLE 2 NE, PA US","    274.4","","     274.4","0","       159","0","       100","0","        11","0","","","        32","0","        14","0","       153","0","        52","0","       132","0","         4","0","","","        34"," ","  -22.8","0,0108, ","","","   178"," ,0,1210, ","  78.5"," ,0,0902, ","   32.2","0,0713,+","-0.6","0,1009","-2.8","0,1017","-6.1","0,1110","-7.8","0,1210","-10.0","0,1218","-0.6","0,0507","-5.6","0,0421","-5.6","0,0421","-10.6","0,0322","-10.6","0,0322","    3860.7","7","    3860.7","0","   1239.9"," ,0","     1963"," ,0","      8.61","0","     14.26","0","      2.97","0"
"USC00363526","1982","41.41667","-80.36667","344.4","GREENVILLE 2 NE, PA US","    230.9","","     230.9","0","       162","0","        93","0","         6","0","","","","","         8","0","       142","0","        48","0","       141","0","         1","0","        45"," ","        16"," ","  -28.3","0,0117, ","","","","","  94.5"," ,0,0629, ","   32.8","0,0719, ","0.0","0,0829","-4.4","0,1024","-4.4","0,1024","-6.7","0,1125","-11.7","0,1210","-1.7","0,0429","-2.8","0,0415","-5.6","0,0410","-7.2","0,0409","-11.1","0,0408","    3861.8","8","    3861.8","0","   1143.0"," ,0","","","      8.86","0","     14.86","0","      2.85","0"
"USC00363526","1983","41.41667","-80.36667","344.4","GREENVILLE 2 NE, PA US","    370.2","","     370.2","0","       151","0","        95","0","         9","0","","","        19","0","         8","0","       131","0","        36","0","       131","0","        14","0","        16"," ","        15"," ","  -24.4","0,1225, ","","","   102"," ,0,0311, ","  47.2"," ,0,0629, ","   33.3","0,0716,+","-6.1","0,1030","-6.1","0,1030","-6.1","0,1030","-7.2","0,1208","-9.4","0,1218","-0.6","0,0518","-3.3","0,0510","-7.2","0,0419","-7.2","0,0419","-8.9","0,0330","    3380.6","6","    3380.6","0","   1126.6"," ,0","      902"," ,0","      9.36","0","     15.18","0","      3.54","0"
"USC00363526","1984","41.41667","-80.36667","344.4","GREENVILLE 2 NE, PA US","    263.8","","     263.8","0","       156","0","       100","0","         8","0","","","        24","0","        14","0","       136","0","        42","0","       136","0","         3","0","        31"," ","        25"," ","  -26.1","0,0121, ","","","   152"," ,0,1206,+","  38.6"," ,0,0512, ","   32.2","0,0811,+","-4.4","0,1103","-4.4","0,1103","-4.4","0,1103","-7.8","0,1120","-9.4","0,1122","-1.1","0,0517","-2.2","0,0410","-7.8","0,0325","-7.8","0,0325","-11.1","0,0324","    3892.1","1","    3892.1","0","   1148.0"," ,0","     1638"," ,0","      8.94","0","     14.78","0","      3.11","0"
"USC00363526","1985","41.41667","-80.36667","344.4","GREENVILLE 2 NE, PA US","    248.6","","     248.6","0","       170","0","       108","0","         9","0","","","        37","0","        13","0","       135","0","        56","0","       159","0","         2","0","        10"," ","        23"," ","  -28.9","0,0121, ","","","   127"," ,0,0122, ","  55.6"," ,0,0908, ","   33.3","0,0908, ","-1.1","0,1017","-4.4","0,1029","-4.4","0,1029","-7.2","0,1203","-9.4","0,1214","-1.1","0,0509","-3.3","0,0411","-7.2","0,0410","-7.2","0,0410","-11.1","0,0319","    3442.5","5","    3442.5","0","   1203.3"," ,0","     2173"," ,0","      9.04","0","     15.05","0","      3.03","0"
"USC00363526","1986","41.41667","-80.36667","344.4","GREENVILLE 2 NE, PA US","    284.2","","     284.2","0","       152","0","        91","0","         6","0","","","        16","0","         4","0","       144","0","        40","0","       141","0","         4","0","        23"," ","        23"," ","  -21.1","0,0308, ","","","   102"," ,0,1213, ","  51.8"," ,0,0612, ","   32.8","0,0719, ","-0.6","0,0917","-2.2","0,1010","-7.8","0,1113","-7.8","0,1113","-10.0","0,1114","-1.1","0,0504","-2.8","0,0503","-5.6","0,0323","-11.7","0,0322","-11.7","0,0322","    3465.6","6","    3465.6","0","   1033.9"," ,0","      898"," ,0","      9.37","0","     15.04","0","      3.71","0"
"USC00363526","1987","41.41667","-80.36667","344.4","GREENVILLE 2 NE, PA US","    358.4","","     358.4","0","       157","0","        93","0","         7","0","","","        27","0","         4","0","       148","0","        26","0","       137","0","        12","0","        34"," ","        40"," ","  -20.6","0,0125,+","","","   203"," ,0,0404, ","  53.3"," ,0,0912, ","   33.9","0,0723, ","-1.1","0,1009","-2.2","0,1014","-5.6","0,1026","-11.1","0,1121","-11.1","0,1121","-1.7","0,0501","-2.2","0,0404","-6.7","0,0402","-6.7","0,0402","-8.9","0,0401","    3520.4","4","    3520.4","0","   1004.5"," ,0","     1689"," ,0","      9.56","0","     15.53","0","      3.60","0"
"USC00363526","1988","41.41667","-80.36667","344.4","GREENVILLE 2 NE, PA US","    355.3","","     355.3","0","       157","0","        77","0","         6","0","       43","","        25","0","        11","0","       155","0","        47","0","       133","0","        30","0","        15"," ","        29"," ","  -20.6","0,1213,+","   203"," ,0,0213, ","   127"," ,0,0213, ","  57.2"," ,0,0721, ","   38.3","0,0717,+","0.0","0,1004","-2.8","0,1014","-8.3","0,1031","-8.3","0,1031","-13.3","0,1211","-1.1","0,0526","-2.2","0,0426","-10.6","0,0323","-10.6","0,0323","-10.6","0,0323","    3746.6","6","    3746.6","0","    925.6"," ,0","     1390"," ,0","      8.76","0","     15.21","0","      2.31","0"
"USC00363526","1989","41.41667","-80.36667","344.4","GREENVILLE 2 NE, PA US","    262.1","","     262.1","0","       173","0","        81","0","         5","0","       56","","        25","0","         8","0","       157","0","        54","0","       136","0","         5","0","        21"," ","        26"," ","  -25.6","0,1224, ","   229"," ,0,1229,+","   178"," ,0,1216, ","  57.2"," ,0,0615, ","   33.3","0,0726,+","-0.6","0,0927","-6.1","0,1104","-6.1","0,1104","-10.0","0,1119","-10.0","0,1119","0.0","0,0507","-2.2","0,0425","-6.7","0,0411","-6.7","0,0411","-10.0","0,0322","    3714.2","2","    3714.2","0","   1005.6"," ,0","     1599"," ,0","      8.28","0","     14.27","0","      2.29","0"
"USC00363526","1990","41.41667","-80.36667","344.4","GREENVILLE 2 NE, PA US","","","","","","","","","","","       17","","        15","0","         2","0","       124","0","","","","","","","        35"," ","        20"," ","  -21.1","0,0226, ","   127"," ,0,0130, ","   102"," ,0,0130,+","","","","","-2.2","0,1020","-2.2","0,1020","-4.4","0,1114","-14.4","0,1226","-14.4","0,1226","-0.6","0,0512","-2.8","0,0419","-4.4","0,0407","-7.2","0,0328","-10.0","0,0327","    3617.4","4","    3617.4","0","   1172.4"," ,0","      778"," ,0","","","","","      4.32","0"
"USC00363526","1991","41.41667","-80.36667","344.4","GREENVILLE 2 NE, PA US","","","","","       136","0","        66","0","         2","0","       26","","        12","0","         5","0","       142","0","","","","","","","        14"," ","        23"," ","  -19.4","0,1219, ","   178"," ,0,0217, ","    76"," ,0,1216, ","  38.9"," ,0,0708, ","","","-1.1","0,0922","-2.2","0,0928","-4.4","0,1017","-10.6","0,1104","-10.6","0,1104","0.0","0,0423","-3.3","0,0412","-6.7","0,0403","-6.7","0,0403","-9.4","0,0312","","","","","    628.2"," ,0","      620"," ,0","","","","","      3.43","0"
"USC00363526","1992","41.41667","-80.36667","344.4","GREENVILLE 2 NE, PA US","    149.8","","     149.8","0","       162","0","        96","0","        11","0","       44","","        26","0","         6","0","       170","0","        24","0","       135","0","         1","0","        22"," ","        33"," ","  -20.6","0,0210, ","   203"," ,0,0120, ","   127"," ,0,1205, ","  57.2"," ,0,0809, ","   32.2","0,0703, ","-0.6","0,0924","-2.2","0,1006","-4.4","0,1020","-8.3","0,1115","-11.1","0,1116","0.0","0,0529","-3.9","0,0429","-5.6","0,0414","-6.7","0,0413","-8.9","0,0329","    3701.6","6","    3701.6","0","   1170.0"," ,0","     1292"," ,0","      8.17","0","     14.91","0","      1.42","0"
"USC00363526","1993","41.41667","-80.36667","344.4","GREENVILLE 2 NE, PA US","    343.5","","     343.5","0","       149","0","        81","0","         5","0","       61","","        17","0","        16","0","       170","0","        38","0","       136","0","        18","0","        21"," ","        20"," ","  -23.9","0,0315, ","   356"," ,0,0315, ","   203"," ,0,0314, ","  52.1"," ,0,0609, ","   35.6","0,0729, ","-1.7","0,1001","-4.4","0,1011","-4.4","0,1011","-6.7","0,1109","-11.1","0,1212","-0.6","0,0521","-2.8","0,0428","-6.7","0,0427","-6.7","0,0427","-10.6","0,0320","    3894.1","1","    3894.1","0","    906.8"," ,0","     1142"," ,0","      8.60","0","     15.33","0","      1.87","0"
"USC00363526","1994","41.41667","-80.36667","344.4","GREENVILLE 2 NE, PA US","    258.3","","     258.3","0","       149","0","        85","0","         8","0","       69","","        23","0","        17","0","       172","0","        41","0","       142","0","        12","0","        20"," ","        38"," ","  -32.2","0,0120,+","   381"," ,0,0121,+","   102"," ,0,0226,+","  85.9"," ,0,0814, ","   35.0","0,0619, ","-0.6","0,1003","-2.8","0,1011","-6.1","0,1111","-6.7","0,1112","-11.1","0,1124","0.0","0,0528","-2.8","0,0513","-10.6","0,0423","-10.6","0,0423","-10.6","0,0423","    4038.5","5","    4038.5","0","   1000.9"," ,0","     1218"," ,0","      8.14","0","     15.32","0","      0.96","0"
"USC00363526","1995","41.41667","-80.36667","344.4","GREENVILLE 2 NE, PA US","    359.2","","     359.2","0","       147","0","        80","0","         1","0","       58","","        21","0","        11","0","       170","0","        45","0","       152","0","        21","0","        10"," ","        26"," ","  -21.7","0,0213,+","   381"," ,0,1221, ","   211"," ,0,1109, ","  26.2"," ,0,1006, ","   36.1","0,0716,+","-1.7","0,0923","-3.9","0,1017","-5.6","0,1105","-8.9","0,1106","-8.9","0,1106","-2.2","0,0508","-2.2","0,0508","-4.4","0,0425","-6.7","0,0415","-11.1","0,0406","    3726.0","0","    3726.0","0","    752.6"," ,0","     1571"," ,0","      8.46","0","     15.61","0","      1.30","0"
"USC00363526","1996","41.41667","-80.36667","344.4","GREENVILLE 2 NE, PA US","    230.7","","     230.7","0","       154","0","        96","0","        13","0","       61","","        27","0","        15","0","       177","0","        43","0","       140","0","         6","0","        25"," ","        30"," ","  -24.4","0,0205,+","   381"," ,0,0113, ","   132"," ,0,0110, ","  42.2"," ,0,0619, ","   33.3","0,0629, ","0.0","0,1006","-3.9","0,1012","-7.2","0,1104","-7.2","0,1104","-8.9","0,1113","0.0","0,0530","-4.4","0,0514","-4.4","0,0514","-11.1","0,0409","-11.1","0,0409","    3947.2","2","    3947.2","0","   1235.5"," ,0","     1347"," ,0","      7.85","0","     14.75","0","      0.94","0"
"USC00363526","1997","41.41667","-80.36667","344.4","GREENVILLE 2 NE, PA US","","","","","","","","","","","","","","","","","","","","","","","","","         1"," ","","","","","","","","","","","","","","","","","","","","","","","","","","","","","","","","","","","","","","","","","","","","","",""
