"STATION","DATE","LATITUDE","LONGITUDE","ELEVATION","NAME","CDSD","CDSD_ATTRIBUTES","CLDD","CLDD_ATTRIBUTES","DP01","DP01_ATTRIBUTES","DP10","DP10_ATTRIBUTES","DP1X","DP1X_ATTRIBUTES","DT00","DT00_ATTRIBUTES","DT32","DT32_ATTRIBUTES","DX32","DX32_ATTRIBUTES","DX70","DX70_ATTRIBUTES","DX90","DX90_ATTRIBUTES","EMNT","EMNT_ATTRIBUTES","EMXP","EMXP_ATTRIBUTES","EMXT","EMXT_ATTRIBUTES","FZF0","FZF0_ATTRIBUTES","FZF1","FZF1_ATTRIBUTES","FZF2","FZF2_ATTRIBUTES","FZF3","FZF3_ATTRIBUTES","FZF4","FZF4_ATTRIBUTES","FZF5","FZF5_ATTRIBUTES","FZF6","FZF6_ATTRIBUTES","FZF7","FZF7_ATTRIBUTES","FZF8","FZF8_ATTRIBUTES","FZF9","FZF9_ATTRIBUTES","HDSD","HDSD_ATTRIBUTES","HTDD","HTDD_ATTRIBUTES","PRCP","PRCP_ATTRIBUTES","TAVG","TAVG_ATTRIBUTES","TMAX","TMAX_ATTRIBUTES","TMIN","TMIN_ATTRIBUTES"
"USC00469078","1906","38.525099","-81.117889","312.1","VALLEY FORK, WV US","","","","","","","","","","","","","","","","","","","","","","","","","","","","","","","","","","","","","","","","","","","","","","","    2585.0","0","    2585.0","6","","","","","","","",""
"USC00469078","1908","38.525099","-81.117889","312.1","VALLEY FORK, WV US","    434.8","","     434.8","6","        72","6","        62","6","        10","6","         0","6","       125","6","         0","6","       208","6","        29","6","  -13.3","6,0202, ","  52.1"," ,6,0724, ","   37.2","6,0923, ","-4.4","6,1003","-4.4","6,1003","-4.4","6,1003","-6.7","6,1031","-8.9","6,1101","-0.6","6,0422","-3.9","6,0412","-5.6","6,0321","-6.7","6,0310","-12.2","6,0221","    2420.8","8","    2420.8","6","    865.0"," ,6","     12.85","6","     21.05","6","      4.64","6"
"USC00469078","1909","38.525099","-81.117889","312.1","VALLEY FORK, WV US","","","","","        65","6","        56","6","         6","6","         0","6","       143","6","         6","6","       207","6","        32","6","  -14.4","6,1230, ","  62.2"," ,6,0724, ","   36.7","6,0629, ","-1.7","6,0928","-4.4","6,1026","-4.4","6,1026","-6.7","6,1104","-11.1","6,1209","-1.1","6,0503","-5.6","6,0411","-5.6","6,0411","-6.7","6,0327","-9.4","6,0318","","","","","    785.8"," ,6","     12.82","6","     21.64","6","      4.00","6"
