"STATION","DATE","LATITUDE","LONGITUDE","ELEVATION","NAME","DP01","DP01_ATTRIBUTES","DP10","DP10_ATTRIBUTES","DP1X","DP1X_ATTRIBUTES","EMXP","EMXP_ATTRIBUTES","PRCP","PRCP_ATTRIBUTES"
"USC00358675","1918","42.05","-121.583333","1236.0","TULELAKE, OR US","        55","6","        24","6","         0","6","  14.5"," ,6,1003, ","    181.2"," ,6"
"USC00358675","1919","42.05","-121.583333","1236.0","TULELAKE, OR US","        73","6","        32","6","         0","6","  14.0"," ,6,1211, ","    205.4"," ,6"
"USC00358675","1920","42.05","-121.583333","1236.0","TULELAKE, OR US","        79","6","        37","6","         0","6","  16.5"," ,6,0825, ","    256.4"," ,6"
