"STATION","DATE","LATITUDE","LONGITUDE","ELEVATION","NAME","CDSD","CDSD_ATTRIBUTES","CLDD","CLDD_ATTRIBUTES","DP01","DP01_ATTRIBUTES","DP10","DP10_ATTRIBUTES","DP1X","DP1X_ATTRIBUTES","DSND","DSND_ATTRIBUTES","DSNW","DSNW_ATTRIBUTES","DT00","DT00_ATTRIBUTES","DT32","DT32_ATTRIBUTES","DX32","DX32_ATTRIBUTES","DX70","DX70_ATTRIBUTES","DX90","DX90_ATTRIBUTES","DYFG","DYFG_ATTRIBUTES","DYTS","DYTS_ATTRIBUTES","EMNT","EMNT_ATTRIBUTES","EMSD","EMSD_ATTRIBUTES","EMSN","EMSN_ATTRIBUTES","EMXP","EMXP_ATTRIBUTES","EMXT","EMXT_ATTRIBUTES","FZF0","FZF0_ATTRIBUTES","FZF1","FZF1_ATTRIBUTES","FZF2","FZF2_ATTRIBUTES","FZF3","FZF3_ATTRIBUTES","FZF4","FZF4_ATTRIBUTES","FZF5","FZF5_ATTRIBUTES","FZF6","FZF6_ATTRIBUTES","FZF7","FZF7_ATTRIBUTES","FZF8","FZF8_ATTRIBUTES","FZF9","FZF9_ATTRIBUTES","HDSD","HDSD_ATTRIBUTES","HTDD","HTDD_ATTRIBUTES","PRCP","PRCP_ATTRIBUTES","SNOW","SNOW_ATTRIBUTES","TAVG","TAVG_ATTRIBUTES","TMAX","TMAX_ATTRIBUTES","TMIN","TMIN_ATTRIBUTES"
"USC00130608","1941","42.2611","-90.4231","183.8","BELLEVUE L AND D 12, IA US","    490.2","","     490.2","6","       121","6","        74","6","         5","6","","","","","         7","6","       129","6","        38","6","       153","6","        23","6","","","","","  -22.8","6,0219, ","","","","","  78.5"," ,6,0908, ","   37.8","6,0811, ","-4.4","6,1028","-4.4","6,1028","-4.4","6,1028","-8.9","6,1124","-8.9","6,1124","-1.1","6,0425","-2.2","6,0422","-4.4","6,0329","-20.0","6,0318","-20.0","6,0318","","","","","    899.5"," ,6","","","     10.37","6","     15.87","6","      4.86","6"
"USC00130608","1942","42.2611","-90.4231","183.8","BELLEVUE L AND D 12, IA US","    445.1","","     445.1","6","       123","6","        68","6","         6","6","","","         8","6","        19","6","       135","6","        51","6","       145","6","        11","6","","","","","  -33.3","6,0108,+","","","   165"," ,6,0102, ","  44.7"," ,6,0919, ","   35.0","6,0717,+","-2.8","6,0925","-2.8","6,0925","-4.4","6,0928","-7.2","6,1026","-10.0","6,1126","-1.7","6,0420","-3.3","6,0401","-5.6","6,0330","-7.2","6,0301","-11.7","6,0221","    3331.9","9","    3331.9","6","    812.1"," ,6","      583"," ,6","      9.27","6","     14.70","6","      3.83","6"
"USC00130608","1943","42.2611","-90.4231","183.8","BELLEVUE L AND D 12, IA US","    487.7","","     487.7","6","       105","6","        59","6","         9","6","","","","","        20","6","       153","6","        44","6","       123","6","        21","6","","","","","  -28.9","6,0120, ","","","","","  58.9"," ,6,1021, ","   35.0","6,0627,+","0.0","6,0926","-2.2","6,1017","-7.8","6,1111","-7.8","6,1111","-10.6","6,1116","-1.7","6,0501","-3.3","6,0421","-4.4","6,0415","-7.8","6,0322","-11.1","6,0321","    3962.5","5","    3962.5","6","    785.7"," ,6","","","      8.66","6","     14.47","6","      2.84","6"
"USC00130608","1944","42.2611","-90.4231","183.8","BELLEVUE L AND D 12, IA US","","","","","       124","6","        72","6","         5","6","","","        11","6","        15","6","       148","6","","","","","","","","","","","  -27.2","6,1226, ","","","   165"," ,6,0304, ","  51.3"," ,6,0613, ","","","-1.1","6,1012","-2.8","6,1016","-5.0","6,1128","-8.3","6,1130","-13.9","6,1202","0.0","6,0505","-3.3","6,0417","-4.4","6,0406","-6.7","6,0403","-20.0","6,0310","    3717.8","8","    3717.8","6","    892.3"," ,6","      827"," ,6","","","","","      4.08","6"
"USC00130608","1945","42.2611","-90.4231","183.8","BELLEVUE L AND D 12, IA US","","","","","","","","","","","","","","","        19","6","       135","6","","","","","","","","","","","  -26.1","6,0110, ","","","","","","","","","-0.6","6,1003","-3.9","6,1015","-8.3","6,1104","-8.3","6,1104","-8.9","6,1115","-2.8","6,0509","-2.8","6,0509","-4.4","6,0309","-6.7","6,0308","-8.9","6,0307","","","","","","","","","","","","","      2.90","6"
"USC00130608","1946","42.2611","-90.4231","183.8","BELLEVUE L AND D 12, IA US","    332.6","","     332.6","6","       101","6","        60","6","         7","6","","","","","         7","6","       123","6","        26","6","       154","6","        12","6","","","","","  -22.2","6,0126, ","","","","","  38.4"," ,6,0817, ","   35.0","6,0718, ","-0.6","6,1001","-2.8","6,1105","-4.4","6,1112","-6.7","6,1117","-9.4","6,1122","0.0","6,0513","-3.3","6,0427","-4.4","6,0412","-9.4","6,0311","-9.4","6,0311","    3485.9","9","    3485.9","6","    761.0"," ,6","","","     10.35","6","     16.68","6","      4.01","6"
"USC00130608","1947","42.2611","-90.4231","183.8","BELLEVUE L AND D 12, IA US","    490.0","","     490.0","6","       104","6","        67","6","        10","6","","","","","        13","6","       142","6","        47","6","       142","6","        29","6","","","","","  -28.9","6,0104, ","","","","","  56.4"," ,6,0921, ","   37.2","6,0824, ","0.0","6,0927","-2.2","6,1108","-7.2","6,1111","-7.2","6,1111","-11.7","6,1113","-2.2","6,0509","-2.2","6,0509","-6.7","6,0330","-6.7","6,0330","-9.4","6,0317","    3720.7","7","    3720.7","6","    869.6"," ,6","","","      9.18","6","     14.99","6","      3.37","6"
"USC00130608","1948","42.2611","-90.4231","183.8","BELLEVUE L AND D 12, IA US","    447.6","","     447.6","0","        98","0","        59","0","         3","0","","","         5","0","        18","0","       130","0","        52","0","       140","0","        20","0","         7"," ","        15"," ","  -25.6","0,0117, ","","","   152"," ,0,0102, ","  50.5"," ,0,0228, ","   36.1","0,0824, ","0.0","0,1003","-6.7","0,1018","-6.7","0,1018","-6.7","0,1018","-8.9","0,1129","-3.3","0,0409","-3.3","0,0409","-5.6","6,0330","-13.9","6,0313","-13.9","6,0313","    3330.2","2","    3330.2","0","    663.9"," ,0","      627"," ,0","      9.48","0","     15.24","0","      3.73","0"
"USC00130608","1949","42.2611","-90.4231","183.8","BELLEVUE L AND D 12, IA US","    504.1","","     504.1","0","        93","0","        63","0","         8","0","       57","","        14","0","        12","0","       143","0","        42","0","       151","0","        17","0","","","         7"," ","  -27.8","0,0120, ","   152"," ,0,0216,+","   127"," ,0,0119, ","  67.6"," ,0,0707, ","   36.1","0,0701, ","0.0","0,0924","-3.3","0,0929","-5.0","0,1026","-7.8","0,1103","-11.1","0,1122","-0.6","0,0420","-2.2","0,0419","-9.4","0,0416","-9.4","0,0416","-9.4","0,0416","    3575.9","9","    3575.9","0","    811.5"," ,0","      645"," ,0","      9.76","0","     15.72","0","      3.79","0"
"USC00130608","1950","42.2611","-90.4231","183.8","BELLEVUE L AND D 12, IA US","    210.8","","     210.8","0","       104","0","        63","0","         9","0","       63","","","","        25","0","       161","0","        63","0","       147","0","         2","0","         2"," ","         1"," ","  -32.2","0,1227, ","   152"," ,0,1231,+","","","  90.4"," ,0,0921, ","   32.2","0,0816,+","-1.1","0,0924","-2.8","0,1005","-6.7","0,1105","-6.7","0,1105","-8.9","0,1111","-1.1","0,0501","-3.9","0,0428","-5.0","0,0421","-6.7","0,0413","-9.4","0,0318","    3817.0","0","    3817.0","0","    911.2"," ,0","","","      7.65","0","     13.69","0","      1.61","0"
"USC00130608","1951","42.2611","-90.4231","183.8","BELLEVUE L AND D 12, IA US","    293.0","","     293.0","0","       123","0","        85","0","         9","0","       85","","","","        27","0","       156","0","        64","0","       142","0","         2","0","         4"," ","         2"," ","  -34.4","0,0130, ","   381"," ,0,1227,+","","","  58.9"," ,0,0709, ","   33.3","0,0727, ","0.0","0,0928","-5.6","0,1101","-5.6","0,1101","-10.6","0,1102","-10.6","0,1102","0.0","0,0426","-2.8","0,0423","-5.0","0,0417","-7.2","0,0326","-9.4","0,0325","    4088.6","6","    4088.6","0","   1145.2"," ,0","","","      7.75","0","     13.05","0","      2.44","0"
"USC00130608","1952","42.2611","-90.4231","183.8","BELLEVUE L AND D 12, IA US","    477.3","","     477.3","0","        91","0","        53","0","         7","0","       65","","        10","0","         8","0","       159","0","        38","0","       147","0","        23","0","","","","","  -25.0","0,0124, ","   305"," ,0,0105, ","   114"," ,0,0105, ","  65.5"," ,0,1117, ","   35.0","0,0721,+","-2.8","0,1003","-2.8","0,1003","-6.1","0,1006","-8.9","0,1018","-8.9","0,1018","0.0","0,0425","-2.2","0,0416","-5.6","0,0407","-7.2","0,0327","-10.0","0,0325","    3855.6","6","    3855.6","0","    697.4"," ,0","      714"," ,0","      9.52","0","     15.42","0","      3.62","0"
"USC00130608","1953","42.2611","-90.4231","183.8","BELLEVUE L AND D 12, IA US","    472.9","","     472.9","0","        99","0","        61","0","         3","0","       57","","        11","0","         6","0","       142","0","        37","0","       153","0","        24","0","","","","","  -25.0","0,1217, ","   178"," ,0,1210, ","   165"," ,0,1210, ","  33.5"," ,0,0613, ","   36.7","0,0901,+","-2.2","0,1007","-2.2","0,1007","-5.0","0,1105","-10.0","0,1106","-10.0","0,1106","-3.3","0,0421","-3.3","0,0421","-4.4","0,0329","-13.3","0,0309","-13.3","0,0309","    3649.7","7","    3649.7","0","    727.1"," ,0","      740"," ,0","     10.08","0","     15.86","0","      4.31","0"
"USC00130608","1954","42.2611","-90.4231","183.8","BELLEVUE L AND D 12, IA US","    504.7","","     504.7","0","       105","0","        63","0","         7","0","       32","","","","         5","0","       146","0","        29","0","       142","0","        21","0","","","","","  -24.4","0,0117, ","   152"," ,0,1231,+","","","  53.6"," ,0,0601, ","   36.1","0,0625, ","-1.1","0,1018","-2.2","0,1019","-5.0","0,1031","-7.2","0,1105","-10.6","0,1206","-0.6","0,0520","-2.2","0,0506","-6.1","0,0404","-8.9","0,0403","-8.9","0,0403","    3395.6","6","    3395.6","0","    817.4"," ,0","","","     10.13","0","     15.70","0","      4.56","0"
"USC00130608","1955","42.2611","-90.4231","183.8","BELLEVUE L AND D 12, IA US","    594.3","","     594.3","0","        93","0","        57","0","         7","0","       72","","","","        11","0","       142","0","        52","0","       159","0","        33","0","","","","","  -25.0","0,0127, ","   152"," ,0,0101, ","","","  56.1"," ,0,0806, ","   38.3","0,0727, ","0.0","0,1016","-3.3","0,1025","-4.4","0,1103","-6.7","0,1104","-9.4","0,1116","-1.1","0,0408","-2.2","0,0331","-6.7","0,0329","-6.7","0,0329","-10.0","0,0328","    3479.1","1","    3479.1","0","    706.8"," ,0","","","      9.78","0","     15.46","0","      4.10","0"
"USC00130608","1956","42.2611","-90.4231","183.8","BELLEVUE L AND D 12, IA US","    466.6","","     466.6","0","        91","0","        50","0","         7","0","       55","","         7","0","         6","0","       148","0","        41","0","       155","0","        17","0","","","","","  -25.0","0,0121, ","   102"," ,0,1213,+","   102"," ,0,1213, ","  93.5"," ,0,0831, ","   35.0","0,0804,+","-0.6","0,0920","-2.2","0,1010","-4.4","0,1109","-10.6","0,1122","-10.6","0,1122","-1.7","0,0430","-6.7","0,0424","-6.7","0,0424","-6.7","0,0424","-10.0","0,0320","    3806.0","0","    3806.0","0","    712.8"," ,0","      422"," ,0","      9.82","0","     15.57","0","      4.07","0"
"USC00130608","1957","42.2611","-90.4231","183.8","BELLEVUE L AND D 12, IA US","    439.7","","     439.7","0","       104","0","        71","0","         2","0","","","","","        11","0","       144","0","        36","0","       136","0","        13","0","","","","","  -26.7","0,0114, ","","","","","  29.5"," ,0,0713, ","   35.0","0,0707, ","-0.6","0,0928","-2.8","0,1020","-5.0","0,1106","-7.2","0,1109","-8.9","0,1125","0.0","0,0505","-3.3","0,0415","-6.7","0,0414","-6.7","0,0414","-12.2","0,0308","    3486.1","1","    3486.1","0","    741.0"," ,0","","","      9.53","0","     14.85","0","      4.20","0"
"USC00130608","1958","42.2611","-90.4231","183.8","BELLEVUE L AND D 12, IA US","    305.5","","     305.5","0","        86","0","        55","0","         9","0","       74","","         6","0","        23","0","       149","0","        56","0","       152","0","         6","0","","","","","  -27.8","0,1210, ","   152"," ,0,1211,+","   140"," ,0,1208, ","  69.9"," ,0,0821, ","   33.9","0,0830,+","-1.7","0,1001","-2.2","0,1106","-5.6","0,1107","-9.4","0,1126","-9.4","0,1126","-1.1","0,0507","-3.3","0,0429","-4.4","0,0329","-6.7","0,0323","-20.6","0,0220","    3792.5","5","    3792.5","0","    750.9"," ,0","      532"," ,0","      8.58","0","     14.34","0","      2.82","0"
"USC00130608","1959","42.2611","-90.4231","183.8","BELLEVUE L AND D 12, IA US","    548.2","","     548.2","0","       114","0","        74","0","        11","0","","","","","        21","0","       147","0","        52","0","       137","0","        15","0","","","","","  -31.1","0,0202, ","","","","","  79.0"," ,0,0923, ","   35.0","0,0824, ","-2.2","0,1012","-2.2","0,1012","-7.8","0,1106","-7.8","0,1106","-9.4","0,1107","-2.8","0,0422","-2.8","0,0422","-6.1","0,0328","-10.6","0,0322","-10.6","0,0322","    3889.4","4","    3889.4","0","   1138.2"," ,0","","","      9.00","0","     14.36","0","      3.64","0"
"USC00130608","1960","42.2611","-90.4231","183.8","BELLEVUE L AND D 12, IA US","    390.3","","     390.3","0","       108","0","        60","0","        12","0","       88","","        17","0","        23","0","       145","0","        72","0","       143","0","        15","0","","","","","  -26.7","0,1223, ","   457"," ,0,0317, ","   178"," ,0,0210, ","  68.3"," ,0,0507, ","   35.6","0,0907, ","-3.3","0,1020","-3.3","0,1020","-6.7","0,1021","-6.7","0,1021","-8.9","0,1123","-0.6","0,0512","-2.8","0,0418","-7.2","0,0410","-7.2","0,0410","-10.6","0,0326","    4005.9","9","    4005.9","0","    912.7"," ,0","     1157"," ,0","      8.55","0","     14.16","0","      2.95","0"
"USC00130608","1961","42.2611","-90.4231","183.8","BELLEVUE L AND D 12, IA US","    397.1","","     397.1","0","       109","0","        73","0","         8","0","       54","","         9","0","        13","0","       147","0","        44","0","       140","0","         8","0","","","","","  -24.4","0,1228,+","   229"," ,0,1231,+","   178"," ,0,0308, "," 103.1"," ,0,0913, ","   33.3","0,0629, ","-1.1","0,1002","-2.2","0,1027","-6.7","0,1118","-6.7","0,1118","-9.4","0,1128","-0.6","0,0502","-3.3","0,0416","-5.6","0,0408","-6.7","0,0402","-11.7","0,0310","    3717.8","8","    3717.8","0","   1004.9"," ,0","      696"," ,0","      9.08","0","     14.61","0","      3.54","0"
"USC00130608","1962","42.2611","-90.4231","183.8","BELLEVUE L AND D 12, IA US","    408.0","","     408.0","0","       105","0","        61","0","         8","0","       89","","        14","0","        27","0","       149","0","        64","0","       148","0","         5","0","         6"," ","         2"," ","  -29.4","0,0301, ","   356"," ,0,0304, ","   152"," ,0,0218, ","  41.9"," ,0,0702, ","   33.9","0,0823, ","0.0","0,0920","-2.2","0,1024","-8.9","0,1026","-8.9","0,1026","-8.9","0,1026","-5.0","0,0416","-5.0","0,0416","-5.0","0,0416","-6.7","0,0403","-10.0","0,0318","    3957.5","5","    3957.5","0","    793.4"," ,0","      886"," ,0","      8.59","0","     14.06","0","      3.11","0"
"USC00130608","1963","42.2611","-90.4231","183.8","BELLEVUE L AND D 12, IA US","    438.6","","     438.6","0","        97","0","        50","0","         4","0","       85","","         9","0","        40","0","       136","0","        68","0","       172","0","        18","0","         9"," ","        16"," ","  -30.6","0,0128, ","   203"," ,0,0202,+","   140"," ,0,0112, ","  75.9"," ,0,0719, ","   36.1","0,0607, ","0.0","0,1028","-5.6","0,1102","-5.6","0,1102","-7.2","0,1124","-10.0","0,1201","-1.7","0,0523","-2.2","0,0501","-7.2","0,0322","-7.2","0,0322","-8.9","0,0310","    3932.7","7","    3932.7","0","    653.1"," ,0","      658"," ,0","      8.87","0","     14.94","0","      2.81","0"
"USC00130608","1964","42.2611","-90.4231","183.8","BELLEVUE L AND D 12, IA US","    482.6","","     482.6","0","        94","0","        60","0","         3","0","       60","","        16","0","         7","0","       150","0","        46","0","       150","0","        23","0","","","","","  -21.1","0,1217, ","   127"," ,0,0213, ","   127"," ,0,0213, ","  35.6"," ,0,0821, ","   35.0","0,0724, ","0.0","0,0928","-2.2","0,1006","-6.1","0,1010","-9.4","0,1120","-9.4","0,1120","-1.7","0,0415","-3.9","0,0409","-4.4","0,0404","-12.2","0,0330","-12.2","0,0330","    3478.6","6","    3478.6","0","    667.1"," ,0","      709"," ,0","      9.78","0","     15.52","0","      4.04","0"
"USC00130608","1965","42.2611","-90.4231","183.8","BELLEVUE L AND D 12, IA US","    350.4","","     350.4","0","       118","0","        76","0","        10","0","       53","","        12","0","        16","0","       141","0","        44","0","       141","0","         8","0","","","","","  -28.3","0,0202, ","   178"," ,0,0323, ","   142"," ,0,0317, ","  65.3"," ,0,0920, ","   36.1","0,0723,+","-1.1","0,1024","-3.3","0,1028","-5.0","0,1114","-8.9","0,1128","-8.9","0,1128","-0.6","0,0529","-2.8","0,0331","-6.1","0,0330","-14.4","0,0327","-14.4","0,0327","    3962.1","1","    3962.1","0","   1098.4"," ,0","      694"," ,0","      8.95","0","     14.41","0","      3.50","0"
"USC00130608","1966","42.2611","-90.4231","183.8","BELLEVUE L AND D 12, IA US","    380.3","","     380.3","0","        83","0","        52","0","         6","0","       38","","         7","0","        19","0","       150","0","        53","0","       139","0","        17","0","","","","","  -29.4","0,0129, ","   254"," ,0,1229, ","   229"," ,0,0113, ","  50.3"," ,0,0524, ","   35.6","0,0711, ","0.0","0,1002","-2.2","0,1017","-5.6","0,1025","-9.4","0,1102","-9.4","0,1102","-3.3","0,0510","-3.3","0,0510","-6.7","0,0328","-6.7","0,0328","-10.0","0,0325","    3696.1","1","    3696.1","0","    709.4"," ,0","      615"," ,0","      8.61","0","     14.57","0","      2.64","0"
"USC00130608","1967","42.2611","-90.4231","183.8","BELLEVUE L AND D 12, IA US","    274.0","","     274.0","0","       112","0","        67","0","         8","0","       60","","        11","0","        17","0","       148","0","        45","0","       138","0","         7","0","","","","","  -30.0","0,0118, ","   229"," ,0,0105, ","   152"," ,0,0320, ","  48.3"," ,0,0807, ","   33.3","0,0726,+","-2.2","0,0929","-2.2","0,0929","-6.1","0,1104","-10.6","0,1106","-10.6","0,1106","-0.6","0,0516","-4.4","0,0424","-4.4","0,0424","-6.7","0,0322","-13.9","0,0318","    3823.2","2","    3823.2","0","    803.5"," ,0","      722"," ,0","      8.29","0","     14.24","0","      2.34","0"
"USC00130608","1968","42.2611","-90.4231","183.8","BELLEVUE L AND D 12, IA US","    427.2","","     427.2","0","       113","0","        65","0","         7","0","       30","","         6","0","        13","0","       133","0","        46","0","       142","0","        16","0","","","","","  -26.1","0,0107,+","   203"," ,0,0114,+","    84"," ,0,1228, ","  54.9"," ,0,0625, ","   35.0","0,0823,+","-1.1","0,1005","-3.9","0,1025","-4.4","0,1104","-7.2","0,1112","-8.9","0,1206","-0.6","0,0425","-4.4","0,0405","-4.4","0,0405","-8.3","0,0313","-11.7","0,0303","    3712.1","1","    3712.1","0","    794.5"," ,0","      428"," ,0","      9.63","0","     15.10","0","      4.15","0"
"USC00130608","1969","42.2611","-90.4231","183.8","BELLEVUE L AND D 12, IA US","    416.9","","     416.9","0","       107","0","        61","0","         8","0","       85","","        11","0","        15","0","       156","0","        58","0","       133","0","         6","0","","","","","  -25.0","0,0104, ","   330"," ,0,1225, ","   191"," ,0,1223, ","  72.6"," ,0,0608, ","   33.9","0,0712, ","-1.1","0,1014","-2.2","0,1015","-6.1","0,1023","-6.7","0,1028","-10.0","0,1114","0.0","0,0512","-2.2","0,0429","-12.8","0,0331","-12.8","0,0331","-12.8","0,0331","    3771.9","9","    3771.9","0","    833.0"," ,0","      700"," ,0","      8.78","0","     14.23","0","      3.33","0"
"USC00130608","1970","42.2611","-90.4231","183.8","BELLEVUE L AND D 12, IA US","    509.5","","     509.5","0","       104","0","        61","0","         8","0","       77","","        10","0","        25","0","       143","0","        52","0","       147","0","        16","0","","","","","  -30.6","0,0121, ","   330"," ,0,0124,+","   102"," ,0,0402, ","  65.8"," ,0,0808, ","   35.6","0,0629, ","-2.8","0,1016","-2.8","0,1016","-6.7","0,1116","-6.7","0,1116","-13.9","0,1123","-0.6","0,0502","-2.8","0,0412","-6.7","0,0330","-6.7","0,0330","-9.4","0,0329","    3940.8","8","    3940.8","0","    915.5"," ,0","      512"," ,0","      9.13","0","     14.58","0","      3.67","0"
"USC00130608","1971","42.2611","-90.4231","183.8","BELLEVUE L AND D 12, IA US","    457.1","","     457.1","0","        89","0","        56","0","         6","0","       71","","        10","0","        20","0","       143","0","        43","0","       156","0","        14","0","","","","","  -26.7","0,0107, ","   229"," ,0,0211,+","   254"," ,0,0104, ","  53.8"," ,0,1215, ","   36.1","0,0619, ","-0.6","0,1012","-4.4","0,1104","-4.4","0,1104","-8.9","0,1107","-8.9","0,1107","0.0","0,0513","-2.8","0,0410","-4.4","0,0406","-7.2","0,0404","-8.9","0,0324","    3842.7","7","    3842.7","0","    765.1"," ,0","      711"," ,0","      9.42","0","     15.14","0","      3.70","0"
"USC00130608","1972","42.2611","-90.4231","183.8","BELLEVUE L AND D 12, IA US","    430.9","","     430.9","0","       123","0","        73","0","        13","0","       73","","        15","0","        24","0","       151","0","        55","0","       136","0","        11","0","","","","","  -28.3","0,0115, ","   203"," ,0,0212,+","   102"," ,0,1210,+","  51.8"," ,0,0929, ","   34.4","0,0818,+","-2.8","0,1015","-2.8","0,1015","-7.8","0,1019","-7.8","0,1019","-12.2","0,1115","-1.7","0,0426","-3.3","0,0425","-9.4","0,0408","-9.4","0,0408","-9.4","0,0408","    3740.9","9","    3740.9","0","   1049.3"," ,0","     1028"," ,0","      8.30","0","     13.55","0","      3.05","0"
"USC00130608","1973","42.2611","-90.4231","183.8","BELLEVUE L AND D 12, IA US","    473.6","","     473.6","0","       120","0","        68","0","        12","0","       47","","         8","0","        13","0","       118","0","        36","0","       139","0","        13","0","","","","","  -23.9","0,0217, ","   178"," ,0,0410, ","   178"," ,0,0409, ","  49.5"," ,0,0927, ","   36.7","0,0827, ","0.0","0,1030","-5.0","0,1105","-5.0","0,1105","-6.7","0,1106","-9.4","0,1110","0.0","0,0515","-5.0","0,0413","-5.0","0,0413","-8.3","0,0411","-23.9","0,0217","    3573.9","9","    3573.9","0","   1039.3"," ,0","      555"," ,0","     10.30","0","     15.25","0","      5.35","0"
"USC00130608","1974","42.2611","-90.4231","183.8","BELLEVUE L AND D 12, IA US","    348.8","","     348.8","0","       116","0","        74","0","        12","0","       66","","        15","0","        14","0","       146","0","        37","0","       132","0","        13","0","","","","","  -32.8","0,0112, ","   254"," ,0,0114,+","   165"," ,0,0111, ","  61.0"," ,0,0621, ","   36.1","0,0713, ","-0.6","0,0922","-2.2","0,0923","-4.4","0,1002","-7.2","0,1128","-8.9","0,1203","-1.7","0,0506","-2.8","0,0424","-6.1","0,0408","-10.0","0,0325","-10.0","0,0325","    3627.5","5","    3627.5","0","   1022.0"," ,0","      874"," ,0","      9.10","0","     14.56","0","      3.64","0"
"USC00130608","1975","42.2611","-90.4231","183.8","BELLEVUE L AND D 12, IA US","    503.2","","     503.2","0","       118","0","        66","0","         6","0","       76","","        21","0","        10","0","       146","0","        48","0","       142","0","        21","0","","","","","  -25.0","0,0209, ","   305"," ,0,0313,+","   203"," ,0,0307, ","  56.4"," ,0,0706, ","   34.4","0,0821, ","-1.1","0,1002","-3.3","0,1030","-7.8","0,1114","-7.8","0,1114","-13.9","0,1128","0.0","0,0422","-2.2","0,0421","-6.1","0,0405","-11.1","0,0404","-11.1","0,0404","    3781.9","9","    3781.9","0","    797.4"," ,0","     1259"," ,0","      9.52","0","     15.04","0","      4.00","0"
"USC00130608","1976","42.2611","-90.4231","183.8","BELLEVUE L AND D 12, IA US","    382.3","","     382.3","0","        80","0","        52","0","         3","0","       59","","         8","0","        21","0","       155","0","        44","0","       143","0","        16","0","","","","","  -28.3","0,0127, ","   152"," ,0,1212,+","   127"," ,0,0126, ","  43.2"," ,0,0305, ","   36.7","0,0710, ","-1.1","0,0924","-3.3","0,1008","-5.0","0,1018","-7.2","0,1028","-11.7","0,1108","-1.7","0,0508","-3.9","0,0413","-6.1","0,0412","-7.8","0,0322","-9.4","0,0317","    3349.0","0","    3349.0","0","    563.7"," ,0","      479"," ,0","      8.84","0","     15.34","0","      2.33","0"
"USC00130608","1977","42.2611","-90.4231","183.8","BELLEVUE L AND D 12, IA US","    507.0","","     507.0","0","       121","0","        77","0","         9","0","       81","","        15","0","        31","0","       125","0","        62","0","       157","0","        17","0","","","        15"," ","  -28.9","0,0116, ","   330"," ,0,1212,+","   102"," ,0,1220, ","  43.2"," ,0,0816, ","   37.2","0,0714, ","-2.2","0,1013","-2.2","0,1013","-6.7","0,1113","-6.7","0,1113","-13.3","0,1125","-1.7","0,0429","-2.8","0,0406","-7.2","0,0322","-7.2","0,0322","-8.9","0,0302","    3974.2","2","    3974.2","0","    887.7"," ,0","      841"," ,0","      9.50","0","     15.12","0","      3.89","0"
"USC00130608","1978","42.2611","-90.4231","183.8","BELLEVUE L AND D 12, IA US","    493.5","","     493.5","0","       103","0","        60","0","         5","0","      116","","        17","0","        37","0","       148","0","        73","0","       143","0","        17","0","","","","","  -25.0","0,0218,+","   305"," ,0,0203,+","   152"," ,0,0101, ","  71.1"," ,0,0913, ","   35.0","0,0908,+","-0.6","0,1008","-2.2","0,1017","-5.0","0,1107","-6.7","0,1119","-12.2","0,1128","0.0","0,0506","-6.7","0,0327","-6.7","0,0327","-6.7","0,0327","-11.1","0,0318","    4156.9","9","    4156.9","0","    746.2"," ,0","     1094"," ,0","      8.26","0","     14.16","0","      2.37","0"
"USC00130608","1979","42.2611","-90.4231","183.8","BELLEVUE L AND D 12, IA US","    428.8","","     428.8","0","       102","0","        63","0","         8","0","       84","","        18","0","        32","0","       146","0","        64","0","       141","0","         5","0","","","        11"," ","  -32.2","0,0115, ","   610"," ,0,0213,+","   102"," ,0,0119,+","  67.3"," ,0,0610, ","   33.9","0,0807, ","0.0","0,1007","-2.2","0,1014","-5.6","0,1026","-6.7","0,1110","-9.4","0,1111","-1.1","0,0501","-5.0","0,0410","-5.0","0,0410","-9.4","0,0406","-9.4","0,0406","    4231.3","3","    4231.3","0","    875.4"," ,0","      888"," ,0","      8.08","0","     13.86","0","      2.30","0"
"USC00130608","1980","42.2611","-90.4231","183.8","BELLEVUE L AND D 12, IA US","    523.7","","     523.7","0","       114","0","        71","0","         7","0","       54","","        15","0","        15","0","       147","0","        58","0","       146","0","        22","0","","","         1"," ","  -24.4","0,0217, ","   203"," ,0,0206, ","    76"," ,0,1202,+","  64.8"," ,0,0913, ","   36.7","0,0707, ","-2.8","0,1005","-2.8","0,1005","-6.7","0,1029","-6.7","0,1029","-8.9","0,1125","-1.1","0,0509","-2.8","0,0416","-5.0","0,0326","-10.6","0,0314","-10.6","0,0314","    3717.6","6","    3717.6","0","    916.2"," ,0","      691"," ,0","      9.26","0","     14.93","0","      3.59","0"
"USC00130608","1981","42.2611","-90.4231","183.8","BELLEVUE L AND D 12, IA US","    392.5","","     392.5","0","        99","0","        65","0","        12","0","       30","","         7","0","        12","0","       139","0","        42","0","       143","0","         4","0","","","","","  -24.4","0,0212, ","   102"," ,0,0213,+","    76"," ,0,1221, ","  71.9"," ,0,0815, ","   36.1","0,0712, ","-1.1","0,1003","-2.8","0,1019","-7.2","0,1024","-7.2","0,1024","-11.7","0,1205","0.0","0,0512","-2.2","0,0415","-4.4","0,0406","-8.3","0,0318","-9.4","0,0303","    3480.8","8","    3480.8","0","   1106.8"," ,0","      311"," ,0","      9.78","0","     15.57","0","      3.98","0"
"USC00130608","1982","42.2611","-90.4231","183.8","BELLEVUE L AND D 12, IA US","    383.2","","     383.2","0","       125","0","        71","0","         8","0","       81","","        17","0","        27","0","       143","0","        57","0","       143","0","         8","0","         6"," ","         3"," ","  -31.7","0,0110, ","   305"," ,0,0214,+","   203"," ,0,0406, ","  40.9"," ,0,1101, ","   33.9","0,0803,+","0.0","0,1016","-3.9","0,1021","-5.6","0,1022","-6.7","0,1106","-10.6","0,1113","0.0","0,0427","-3.3","0,0421","-7.2","0,0411","-7.2","0,0411","-15.0","0,0407","    3881.4","4","    3881.4","0","    928.7"," ,0","     1024"," ,0","      8.64","0","     14.27","0","      3.00","0"
"USC00130608","1983","42.2611","-90.4231","183.8","BELLEVUE L AND D 12, IA US","    610.7","","     610.7","0","       127","0","        68","0","         3","0","       55","","        14","0","        16","0","       134","0","        51","0","       136","0","        42","0","        15"," ","        17"," ","  -30.0","0,1224, ","   229"," ,0,1223,+","   102"," ,0,0203, ","  36.3"," ,0,0916, ","   37.8","0,0819, ","0.0","0,0923","-5.0","0,1105","-5.0","0,1105","-6.7","0,1129","-8.9","0,1130","-1.1","0,0509","-3.9","0,0420","-6.1","0,0419","-6.7","0,0418","-10.6","0,0324","    3440.6","6","    3440.6","0","    741.2"," ,0","      767"," ,0","      9.70","0","     14.89","0","      4.51","0"
"USC00130608","1984","42.2611","-90.4231","183.8","BELLEVUE L AND D 12, IA US","    492.7","","     492.7","0","       106","0","        65","0","         9","0","","","        13","0","        12","0","       141","0","        41","0","       145","0","        22","0","        39"," ","        16"," ","  -30.0","0,0121, ","","","   127"," ,0,0318,+","  83.8"," ,0,1019, ","   37.8","0,0829, ","-1.1","0,0926","-2.8","0,0929","-6.1","0,1102","-6.7","0,1112","-10.6","0,1120","-1.1","0,0424","-4.4","0,0401","-4.4","0,0401","-6.7","0,0313","-9.4","0,0312","    3864.3","3","    3864.3","0","    919.8"," ,0","      721"," ,0","      9.60","0","     15.33","0","      3.87","0"
"USC00130608","1985","42.2611","-90.4231","183.8","BELLEVUE L AND D 12, IA US","    469.7","","     469.7","0","       114","0","        69","0","         5","0","       94","","        19","0","        33","0","       122","0","        74","0","       148","0","        17","0","        19"," ","        10"," ","  -31.7","0,0120, ","   305"," ,0,0103,+","   305"," ,0,0101, ","  43.2"," ,0,1101, ","   37.2","0,0907, ","-1.1","0,1006","-2.8","0,1105","-9.4","0,1120","-9.4","0,1120","-9.4","0,1120","-6.7","0,0409","-6.7","0,0409","-6.7","0,0409","-6.7","0,0409","-10.6","0,0306","    3382.3","3","    3382.3","0","    820.2"," ,0","     1001"," ,0","      8.71","0","     14.38","0","      3.05","0"
"USC00130608","1986","42.2611","-90.4231","183.8","BELLEVUE L AND D 12, IA US","    351.7","","     351.7","0","       103","0","        71","0","        10","0","       93","","        13","0","        15","0","       151","0","        50","0","       137","0","        13","0","        27"," ","        12"," ","  -30.0","0,0108, ","   381"," ,0,0210,+","   127"," ,0,0206,+","  68.6"," ,0,0925, ","   35.0","0,0719, ","0.0","0,0830","-2.2","0,1102","-6.1","0,1110","-10.6","0,1111","-10.6","0,1111","0.0","0,0504","-5.0","0,0423","-5.0","0,0423","-11.1","0,0321","-11.1","0,0321","    3842.8","8","    3842.8","0","   1072.1"," ,0","      806"," ,0","      8.80","0","     14.34","0","      3.26","0"
"USC00130608","1987","42.2611","-90.4231","183.8","BELLEVUE L AND D 12, IA US","","","","","       110","0","        67","0","        10","0","       30","","         8","0","         2","0","       138","0","        33","0","       151","0","        27","0","        14"," ","        11"," ","  -20.6","0,0124, ","   229"," ,0,1218,+","   127"," ,0,1228, ","  58.9"," ,0,0730, ","   38.3","0,0802, ","-2.8","0,1003","-2.8","0,1003","-5.0","0,1011","-6.7","0,1112","-9.4","0,1121","0.0","0,0410","-6.7","0,0405","-6.7","0,0405","-6.7","0,0405","-11.1","0,0209","","","","","    855.7"," ,0","      561"," ,0","     10.27","0","     15.97","0","      4.56","0"
"USC00130608","1988","42.2611","-90.4231","183.8","BELLEVUE L AND D 12, IA US","    536.0","","     536.0","0","        76","0","        44","0","         4","0","","","","","        20","0","       156","0","        57","0","       157","0","        48","0","         4"," ","         2"," ","  -28.3","0,0111,+","","","","","  35.6"," ,0,1227, ","   39.4","0,0818, ","-2.8","0,1006","-2.8","0,1006","-4.4","0,1012","-9.4","0,1030","-9.4","0,1030","-1.7","0,0425","-2.8","0,0422","-5.6","0,0420","-8.3","0,0316","-11.7","0,0226","    3839.7","7","    3839.7","0","    518.9"," ,0","","","      8.80","0","     15.52","0","      2.09","0"
"USC00130608","1989","42.2611","-90.4231","183.8","BELLEVUE L AND D 12, IA US","    352.1","","     352.1","0","        88","0","        47","0","         6","0","","","        13","0","        22","0","       171","0","        67","0","       145","0","        13","0","        26"," ","         2"," ","  -29.4","0,1224,+","","","   127"," ,0,0213, ","  81.3"," ,0,0901, ","   37.8","0,0711, ","-1.1","0,0924","-3.3","0,1004","-8.3","0,1103","-8.3","0,1103","-11.7","0,1117","-2.8","0,0508","-2.8","0,0508","-6.1","0,0414","-7.2","0,0322","-9.4","0,0320","    4000.0","0","    4000.0","0","    639.0"," ,0","      636"," ,0","      7.70","0","     13.82","0","      1.57","0"
"USC00130608","1990","42.2611","-90.4231","183.8","BELLEVUE L AND D 12, IA US","    388.1","","     388.1","0","       111","0","        79","0","         9","0","       57","","        10","0","        10","0","       156","0","        32","0","       137","0","        11","0","        25"," ","         9"," ","  -24.4","0,1223, ","   254"," ,0,1204, ","   152"," ,0,1203, ","  53.3"," ,0,0729, ","   37.8","0,0705, ","-2.2","0,1011","-2.2","0,1011","-7.8","0,1108","-7.8","0,1108","-8.9","0,1202","-5.6","0,0419","-5.6","0,0419","-5.6","0,0419","-7.8","0,0408","-10.0","0,0301","    3868.4","4","    3868.4","0","    976.6"," ,0","      585"," ,0","      9.11","0","     15.02","0","      3.20","0"
"USC00130608","1991","42.2611","-90.4231","183.8","BELLEVUE L AND D 12, IA US","    462.1","","     462.1","0","       108","0","        73","0","         5","0","       81","","        13","0","        21","0","       163","0","        59","0","       149","0","        19","0","        26"," ","         3"," ","  -27.2","0,0122, ","   279"," ,0,0314,+","   279"," ,0,0313, ","  62.2"," ,0,1027, ","   35.0","0,0701, ","-0.6","0,0920","-2.2","0,1007","-5.0","0,1019","-6.7","0,1102","-11.1","0,1103","0.0","0,0503","-3.3","0,0402","-6.7","0,0330","-6.7","0,0330","-10.0","0,0316","    3943.5","5","    3943.5","0","    861.2"," ,0","      931"," ,0","      8.44","0","     14.39","0","      2.49","0"
"USC00130608","1992","42.2611","-90.4231","183.8","BELLEVUE L AND D 12, IA US","    152.7","","     152.7","0","       112","0","        73","0","         7","0","       66","","        10","0","         8","0","       157","0","        48","0","       123","0","         1","0","        33"," ","         7"," ","  -23.3","0,0119,+","   203"," ,0,1211,+","   178"," ,0,1210, ","  74.2"," ,0,0917, ","   33.3","0,0810, ","-0.6","0,0929","-5.0","0,1017","-5.0","0,1017","-7.2","0,1019","-10.0","0,1127","-0.6","0,0528","-2.2","0,0507","-4.4","0,0406","-8.9","0,0324","-8.9","0,0324","    3917.9","9","    3917.9","0","    872.8"," ,0","      685"," ,0","      7.75","0","     13.27","0","      2.23","0"
"USC00130608","1993","42.2611","-90.4231","183.8","BELLEVUE L AND D 12, IA US","    291.1","","     291.1","0","       139","0","        81","0","        12","0","       58","","        12","0","        14","0","       166","0","        63","0","       120","0","         2","0","        42"," ","        11"," ","  -26.1","0,0225, ","   178"," ,0,0322, ","   165"," ,0,0322, ","  72.9"," ,0,0608, ","   32.8","0,0827,+","-1.1","0,0930","-2.8","0,1010","-7.8","0,1101","-7.8","0,1101","-9.4","0,1107","-1.7","0,0423","-2.2","0,0422","-4.4","0,0406","-10.6","0,0403","-10.6","0,0403","    4235.4","4","    4235.4","0","   1144.6"," ,0","      826"," ,0","      7.33","0","     12.46","0","      2.20","0"
"USC00130608","1994","42.2611","-90.4231","183.8","BELLEVUE L AND D 12, IA US","    347.9","","     347.9","0","       104","0","        74","0","        10","0","       86","","        20","0","        31","0","       156","0","        62","0","       140","0","        13","0","        42"," ","         5"," ","  -33.3","0,0119, ","   457"," ,0,0214,+","   305"," ,0,1207, ","  49.5"," ,0,0705,+","   35.0","0,0619, ","-0.6","0,1010","-2.2","0,1027","-4.4","0,1116","-7.2","0,1130","-10.0","0,1208","0.0","0,0504","-7.8","0,0408","-7.8","0,0408","-7.8","0,0408","-10.0","0,0304","    4379.7","7","    4379.7","0","    904.8"," ,0","     1562"," ,0","      8.12","0","     14.21","0","      2.03","0"
"USC00130608","1995","42.2611","-90.4231","183.8","BELLEVUE L AND D 12, IA US","    501.6","","     501.6","0","       105","0","        62","0","         6","0","       75","","        10","0","        17","0","       151","0","        70","0","       133","0","        23","0","        31"," ","         4"," ","  -21.1","0,0109,+","   203"," ,0,0201,+","   127"," ,0,0120, ","  46.5"," ,0,0510, ","   38.9","0,0714, ","-2.2","0,0923","-2.2","0,0923","-4.4","0,1103","-7.2","0,1108","-9.4","0,1109","-0.6","0,0425","-9.4","0,0405","-9.4","0,0405","-9.4","0,0405","-9.4","0,0405","    3670.6","6","    3670.6","0","    730.8"," ,0","      576"," ,0","      8.37","0","     14.14","0","      2.59","0"
"USC00130608","1996","42.2611","-90.4231","183.8","BELLEVUE L AND D 12, IA US","    280.9","","     280.9","0","        92","0","        64","0","         8","0","       70","","        20","0","        25","0","       163","0","        72","0","       127","0","         8","0","        35"," ","         9"," ","  -36.7","0,0204, ","   356"," ,0,0207,+","   254"," ,0,0128,+","  48.3"," ,0,0909, ","   35.6","0,0630, ","-1.1","0,1011","-3.3","0,1019","-4.4","0,1031","-7.2","0,1103","-11.7","0,1112","0.0","0,0503","-3.3","0,0411","-6.7","0,0410","-6.7","0,0410","-12.2","0,0327","    4318.3","3","    4318.3","0","    879.0"," ,0","     1528"," ,0","      7.11","0","     12.89","0","      1.33","0"
"USC00130608","1997","42.2611","-90.4231","183.8","BELLEVUE L AND D 12, IA US","    309.3","","     309.3","0","       106","0","        62","0","        10","0","       65","","        13","0","        15","0","       157","0","        57","0","       140","0","        11","0","        27"," ","         3"," ","  -25.6","0,0129, ","   254"," ,0,0216, ","   127"," ,0,0125, ","  61.0"," ,0,0616, ","   35.6","0,0727, ","-1.1","0,1015","-3.3","0,1022","-4.4","0,1023","-8.9","0,1112","-8.9","0,1112","-1.1","0,0517","-3.3","0,0415","-7.8","0,0414","-7.8","0,0414","-8.9","0,0410","    4173.3","3","    4173.3","0","    766.0"," ,0","      975"," ,0","      8.03","0","     13.53","0","      2.52","0"
"USC00130608","1998","42.2611","-90.4231","183.8","BELLEVUE L AND D 12, IA US","    430.8","","     430.8","0","       121","0","        74","0","         9","0","       38","","         4","0","         4","0","       120","0","        38","0","       147","0","        18","0","        36"," ","         6"," ","  -20.0","0,0114, ","   102"," ,0,0126,+","    51"," ,0,0309, ","  61.0"," ,0,0825, ","   35.6","0,0628, ","0.0","0,1014","-2.2","0,1023","-5.0","0,1105","-8.3","0,1121","-10.0","0,1221","0.0","0,0419","-2.2","0,0406","-5.0","0,0326","-8.3","0,0315","-16.7","0,0313","    3450.0","0","    3450.0","0","   1079.6"," ,0","      224"," ,0","     10.55","0","     15.97","0","      5.12","0"
"USC00130608","1999","42.2611","-90.4231","183.8","BELLEVUE L AND D 12, IA US","    409.4","","     409.4","0","       105","0","        69","0","         7","0","       61","","         8","0","        14","0","       142","0","        37","0","       144","0","        20","0","        34"," ","         3"," ","  -32.2","0,0105, ","   330"," ,0,0114, ","   152"," ,0,0103, ","  38.1"," ,0,0423, ","   37.8","0,0731, ","-1.1","0,1014","-2.2","0,1018","-5.0","0,1024","-6.7","0,1104","-10.0","0,1130","0.0","0,0426","-4.4","0,0328","-4.4","0,0328","-7.2","0,0327","-8.9","0,0314","    3454.6","6","    3454.6","0","    747.4"," ,0","      575"," ,0","      9.37","0","     15.60","0","      3.14","0"
"USC00130608","2000","42.2611","-90.4231","183.8","BELLEVUE L AND D 12, IA US","    380.4","","     380.4","0","       120","0","        73","0","         8","0","       62","","        17","0","        21","0","       145","0","        60","0","       153","0","        11","0","        24"," ","         2"," ","  -30.6","0,1226, ","   635"," ,0,1231,+","   203"," ,0,1212, ","  55.9"," ,0,0624, ","   35.6","0,0902, ","-1.7","0,1007","-3.9","0,1009","-5.6","0,1011","-7.2","0,1115","-12.8","0,1121","-0.6","0,0423","-5.0","0,0413","-5.0","0,0413","-6.7","0,0304","-11.7","0,0222","    3442.2","2","    3442.2","0","    910.9"," ,0","     1397"," ,0","      8.73","0","     14.93","0","      2.54","0"
"USC00130608","2001","42.2611","-90.4231","183.8","BELLEVUE L AND D 12, IA US","    391.4","","     391.4","0","       119","0","        77","0","         7","0","       56","","         4","0","        11","0","       134","0","        45","0","       140","0","        21","0","         8"," ","         1"," ","  -27.2","0,0103, ","   660"," ,0,0105,+","    51"," ,0,0203, ","  74.9"," ,0,0919, ","   38.9","0,0810, ","-1.1","0,1006","-2.2","0,1007","-4.4","0,1120","-6.7","0,1203","-10.0","0,1224","-3.9","0,0419","-3.9","0,0419","-4.4","0,0329","-8.9","0,0328","-8.9","0,0328","    4005.1","1","    4005.1","0","    944.1"," ,0","      173"," ,0","      9.34","0","     15.37","0","      3.31","0"
"USC00130608","2002","42.2611","-90.4231","183.8","BELLEVUE L AND D 12, IA US","","","","","        99","0","        67","0","         8","0","       19","","         8","0","","","","","        31","0","       134","0","        37","0","        16"," ","","","","","   152"," ,0,0305, ","   152"," ,0,0305, "," 115.6"," ,0,0822, ","   36.7","0,0722, ","","","","","","","","","","","","","","","","","","","","","    3306.0","0","    3306.0","0","    902.8"," ,0","      753"," ,0","","","     15.80","0","",""
"USC00130608","2003","42.2611","-90.4231","183.8","BELLEVUE L AND D 12, IA US","","","","","        88","0","        54","0","         7","0","       26","","         6","0","","","","","        57","0","       146","0","        21","0","        11"," ","","","","","   127"," ,0,0311,+","   127"," ,0,0215, ","  62.0"," ,0,0914, ","   36.1","0,0827, ","","","","","","","","","","","","","","","","","","","","","","","","","    725.1"," ,0","      404"," ,0","","","     15.08","0","",""
"USC00130608","2004","42.2611","-90.4231","183.8","BELLEVUE L AND D 12, IA US","","","","","       110","0","        68","0","         9","0","       39","","         6","0","","","","","        40","0","       157","0","         5","0","        15"," ","         1"," ","","","   356"," ,0,0207,+","   127"," ,0,0127, ","  52.1"," ,0,0804, ","   33.9","0,0721, ","","","","","","","","","","","","","","","","","","","","","","","","","    930.5"," ,0","      404"," ,0","","","     15.23","0","",""
"USC00130608","2005","42.2611","-90.4231","183.8","BELLEVUE L AND D 12, IA US","","","","","        92","0","        52","0","         3","0","       73","","        12","0","        14","0","       131","0","        51","0","       160","0","        33","0","         8"," ","","","  -24.4","0,1208, ","   356"," ,0,1221,+","   254"," ,0,0106, ","  52.3"," ,0,0819, ","   37.8","0,0725, ","-2.2","0,1027","-2.2","0,1027","-11.7","0,1117","-11.7","0,1117","-11.7","0,1117","0.0","0,0506","-2.2","0,0505","-5.0","0,0504","-8.9","0,0316","-8.9","0,0316","","","","","    585.3"," ,0","      930"," ,0","      9.78","0","     15.93","0","      3.63","0"
"USC00130608","2006","42.2611","-90.4231","183.8","BELLEVUE L AND D 12, IA US","    454.5","","     454.5","0","       104","0","        70","0","        10","0","       16","","         3","0","         1","0","       131","0","        17","0","       140","0","        20","0","        14"," ","         1"," ","  -24.4","0,0218, ","   102"," ,0,0306,+","   102"," ,0,0121, ","  38.6"," ,0,0430, ","   36.1","0,0801, ","-1.1","0,1012","-2.2","0,1015","-5.6","0,1101","-8.9","0,1103","-8.9","0,1103","-0.6","0,0427","-2.8","0,0410","-4.4","0,0327","-6.7","0,0323","-13.3","0,0227","    3232.7","7","    3232.7","0","    978.3"," ,0","      229"," ,0","     10.23","0","     15.80","0","      4.66","0"
"USC00130608","2007","42.2611","-90.4231","183.8","BELLEVUE L AND D 12, IA US","    455.7","","     455.7","0","       106","0","        71","0","         9","0","       77","","        19","0","        18","0","       134","0","        63","0","       160","0","        19","0","        13"," ","         1"," ","  -26.7","0,0205, ","   305"," ,0,0219,+","   178"," ,0,1229, ","  64.5"," ,0,0704, ","   34.4","0,0709,+","-1.1","0,1028","-2.8","0,1103","-5.0","0,1107","-7.8","0,1129","-10.0","0,1203","0.0","0,0420","-2.2","0,0416","-5.0","0,0410","-7.2","0,0408","-11.1","0,0309","    3532.3","3","    3532.3","0","   1002.2"," ,0","     1475"," ,0","      9.49","0","     15.37","0","      3.61","0"
"USC00130608","2008","42.2611","-90.4231","183.8","BELLEVUE L AND D 12, IA US","    350.0","","     350.0","0","       135","0","        95","0","        16","0","      105","","        23","0","        40","0","       141","0","        62","0","       144","0","         6","0","        13"," ","         3"," ","  -28.3","0,0126, ","   584"," ,0,0214,+","   356"," ,0,0207, ","  72.6"," ,0,0609, ","   33.3","0,0903, ","-0.6","0,1022","-3.3","0,1028","-5.0","0,1110","-6.7","0,1118","-9.4","0,1121","-1.1","0,0429","-2.8","0,0415","-5.0","0,0330","-8.9","0,0329","-8.9","0,0329","    3829.2","2","    3829.2","0","   1258.9"," ,0","     1538"," ,0","      7.86","0","     13.90","0","      1.82","0"
"USC00130608","2009","42.2611","-90.4231","183.8","BELLEVUE L AND D 12, IA US","","","","","","","","","","","","","","","","","","","","","","","","","        28"," ","         1"," ","","","","","","","","","","","","","","","","","","","","","","","","","","","","","","","    3713.6","6","    3713.6","0","","","","","","","","","",""
"USC00130608","2010","42.2611","-90.4231","183.8","BELLEVUE L AND D 12, IA US","","","","","       122","0","        64","0","        11","0","       93","","        15","0","","","","","        64","0","       144","0","        20","0","        14"," ","","","","","   559"," ,0,1221, ","   191"," ,0,1210,+","  97.8"," ,0,0723, ","   34.4","0,0813,+","","","","","","","","","","","","","","","","","","","","","","","","","   1057.2"," ,0","     1329"," ,0","","","     15.15","0","",""
"USC00130608","2011","42.2611","-90.4231","183.8","BELLEVUE L AND D 12, IA US","","","","","","","","","","","","","","","","","","","","","","","","","        11"," ","         1"," ","","","","","","","","","","","","","","","","","","","","","","","","","","","","","","","","","","","","","","","","","","","",""
"USC00130608","2012","42.2611","-90.4231","183.8","BELLEVUE L AND D 12, IA US","    563.9","","     563.9","7","        78","7","        56","7","         2","7","       38","","         6","7","         5","7","       132","7","        31","7","       158","7","        42","7","        13"," ","         1"," ","  -18.9","7,0119,+","   152"," ,7,0122,+","   152"," ,7,1221,+","  29.0"," ,7,0630, ","   39.4","7,0707, ","-0.6","7,0924","-3.9","7,1027","-4.4","7,1028","-7.2","7,1113","-11.7","7,1127","-2.8","K,0413","-2.8","K,0413","-7.8","K,0306","-7.8","K,0306","-10.0","K,0226","    3042.8","8","    3042.8","7","    615.6"," ,7","      625"," ,7","     10.95","7","     17.19","7","      4.71","7"
"USC00130608","2013","42.2611","-90.4231","183.8","BELLEVUE L AND D 12, IA US","    442.9","","     442.9","7","       120","7","        77","7","         8","7","","","        14","7","        11","7","       151","7","        63","7","       146","7","        18","7","        14"," ","         4"," ","  -27.2","7,1225, ","","","   152"," ,7,0306, ","  88.9"," ,7,0418, ","   37.2","7,0831, ","-3.3","7,1022","-3.3","7,1022","-4.4","7,1109","-6.7","7,1112","-8.9","7,1113","0.0","7,0513","-2.2","7,0421","-6.1","7,0404","-10.6","7,0323","-10.6","7,0323","    3851.2","2","    3851.2","7","    925.8"," ,7","     1070"," ,7","      8.30","7","     14.15","7","      2.46","7"
"USC00130608","2014","42.2611","-90.4231","183.8","BELLEVUE L AND D 12, IA US","    405.4","","     405.4","7","       118","7","        64","7","        11","7","       90","","        12","7","        38","7","       150","7","        75","7","       141","7","         2","7","        15"," ","","","  -30.6","7,0212, ","   508"," ,7,0218, ","   140"," ,7,0218, ","  65.3"," ,7,0617, ","   34.4","7,0723, ","0.0","7,1011","-5.0","7,1101","-5.0","7,1101","-8.9","7,1114","-8.9","7,1114","-4.4","7,0416","-4.4","7,0416","-4.4","7,0416","-11.1","7,0327","-11.1","7,0327","    4476.2","2","    4476.2","7","    919.3"," ,7","      921"," ,7","      7.31","7","     13.20","7","      1.41","7"
"USC00130608","2015","42.2611","-90.4231","183.8","BELLEVUE L AND D 12, IA US","    427.4","","     427.4","7","        92","7","        65","7","        15","7","","","        10","7","        28","7","       134","7","        50","7","       155","7","        13","7","","","","","  -30.6","7,0301, ","","","   168"," ,7,0202, ","  84.6"," ,7,0612, ","   36.1","7,0718, ","-2.2","7,1017","-2.2","7,1017","-13.9","7,1122","-13.9","7,1122","-13.9","7,1122","-0.6","7,0425","-2.2","7,0424","-4.4","7,0404","-8.3","7,0330","-22.2","7,0307","    4026.2","2","    4026.2","7","   1116.7"," ,7","      854"," ,7","      9.48","7","     15.29","7","      3.66","7"
"USC00130608","2016","42.2611","-90.4231","183.8","BELLEVUE L AND D 12, IA US","    542.5","","     542.5","7","","","","","","","","","         7","7","        12","7","       122","7","        43","7","       160","7","        18","7","","","","","  -26.7","7,1219, ","","","    97"," ,7,1205, ","","","   34.4","7,0611, ","0.0","7,1110","-3.3","7,1112","-4.4","7,1120","-7.2","7,1121","-9.4","7,1208","0.0","7,0515","-3.9","7,0413","-7.2","7,0305","-7.2","7,0305","-12.2","7,0303","    3211.1","1","    3211.1","7","","","      411"," ,7","     10.56","7","     15.99","7","      5.12","7"
"USC00130608","2017","42.2611","-90.4231","183.8","BELLEVUE L AND D 12, IA US","    373.9","","     373.9","7","       112","7","        64","7","         9","7","       14","","         4","7","         8","7","       129","7","        36","7","       155","7","        13","7","","","","","  -22.8","7,1228,+","   102"," ,7,1231,+","    56"," ,7,1230, ","  69.9"," ,7,0722, ","   34.4","7,0616,+","-3.9","7,1029","-3.9","7,1029","-5.6","7,1108","-8.3","7,1111","-8.9","7,1123","0.0","7,0503","-3.3","7,0324","-11.7","7,0317","-11.7","7,0317","-11.7","7,0317","    3170.2","2","    3170.2","7","    883.0"," ,7","      217"," ,7","     10.09","7","     15.77","7","      4.40","7"
"USC00130608","2018","42.2611","-90.4231","183.8","BELLEVUE L AND D 12, IA US","    523.4","","     523.4","7","       109","7","        80","7","        14","7","       32","","        10","7","        18","7","       162","7","        50","7","       144","7","        20","7","","","","","  -26.7","7,0102, ","   254"," ,7,0212,+","    76"," ,7,0209, ","  81.3"," ,7,0806, ","   36.1","7,0724, ","-0.6","7,1013","-2.2","7,1018","-4.4","7,1023","-10.0","7,1110","-10.0","7,1110","-1.7","7,0430","-3.9","7,0421","-5.0","7,0411","-8.3","7,0409","-9.4","7,0408","    3801.2","2","    3801.2","7","   1172.8"," ,7","      468"," ,7","      9.00","7","     14.46","7","      3.55","7"
"USC00130608","2019","42.2611","-90.4231","183.8","BELLEVUE L AND D 12, IA US","    448.7","","     448.7","7","       129","7","        95","7","        11","7","","","        16","7","        17","7","       154","7","        62","7","       133","7","        18","7","","","","","  -35.6","7,0201, ","","","   203"," ,7,0119, ","  55.4"," ,7,1002, ","   35.0","7,0721, ","0.0","7,1013","-2.8","7,1030","-7.2","7,1101","-7.2","7,1101","-10.0","7,1108","-1.1","7,0429","-3.9","7,0416","-6.1","7,0327","-8.3","7,0313","-11.1","7,0308","    4000.6","6","    4000.6","7","   1171.6"," ,7","     1423"," ,7","      8.50","7","     13.81","7","      3.19","7"
"USC00130608","2020","42.2611","-90.4231","183.8","BELLEVUE L AND D 12, IA US","","","","","","","","","","","","","","","","","","","","","","","","","","","","","","","","","","","","","","","","","","","","","","","","","","","","","","","","","","","    3554.2","2","    3554.2","H","","","","","","","","","",""
