"STATION","DATE","LATITUDE","LONGITUDE","ELEVATION","NAME","CDSD","CDSD_ATTRIBUTES","CLDD","CLDD_ATTRIBUTES","DP01","DP01_ATTRIBUTES","DP10","DP10_ATTRIBUTES","DP1X","DP1X_ATTRIBUTES","DT00","DT00_ATTRIBUTES","DT32","DT32_ATTRIBUTES","DX32","DX32_ATTRIBUTES","DX70","DX70_ATTRIBUTES","DX90","DX90_ATTRIBUTES","EMNT","EMNT_ATTRIBUTES","EMXP","EMXP_ATTRIBUTES","EMXT","EMXT_ATTRIBUTES","FZF0","FZF0_ATTRIBUTES","FZF1","FZF1_ATTRIBUTES","FZF2","FZF2_ATTRIBUTES","FZF5","FZF5_ATTRIBUTES","FZF6","FZF6_ATTRIBUTES","FZF7","FZF7_ATTRIBUTES","HDSD","HDSD_ATTRIBUTES","HTDD","HTDD_ATTRIBUTES","PRCP","PRCP_ATTRIBUTES","TAVG","TAVG_ATTRIBUTES","TMAX","TMAX_ATTRIBUTES","TMIN","TMIN_ATTRIBUTES"
"USC00049226","2017","33.22157","-117.03817","393.2","VALLEY CENTER 1 N, CA US","    836.9","","     836.9","7","        25","7","        19","7","         7","7","         0","7","        11","7","         0","7","       300","7","       110","7","   -4.4","7,1222, ","  51.3"," ,7,0227, ","   43.3","7,0828, ","0.0","7,1217","-3.3","7,1221","-4.4","7,1222","0.0","7,0225","","","","","","","","","    423.5"," ,7","     18.45","7","     27.34","7","      9.55","7"
"USC00049226","2018","33.22157","-117.03817","393.2","VALLEY CENTER 1 N, CA US","    747.5","","     747.5","7","        40","7","        22","7","         2","7","         0","7","        18","7","         0","7","       299","7","        90","7","   -4.4","7,0224,+","  52.6"," ,7,0109, ","   45.6","7,0706, ","0.0","7,1205","-3.3","7,1228","","","0.0","7,0327","-3.9","7,0225","-4.4","7,0224","     783.7","7","     783.7","7","    320.5"," ,7","     18.03","7","     26.79","7","      9.27","7"
"USC00049226","2019","33.22157","-117.03817","393.2","VALLEY CENTER 1 N, CA US","    600.1","","     600.1","7","        77","7","        41","7","         7","7","         0","7","        24","7","         0","7","       250","7","        76","7","   -5.0","7,0102, "," 113.0"," ,7,0214, ","   40.0","7,0610, ","-0.6","7,1031","","","","","0.0","7,0224","-2.2","7,0223","-5.0","7,0102","    1079.6","6","    1079.6","7","    660.1"," ,7","     16.81","7","     25.11","7","      8.51","7"
"USC00049226","2020","33.22157","-117.03817","393.2","VALLEY CENTER 1 N, CA US","","","","","","","","","","","","","","","","","","","","","","","","","","","","","","","","","","","","","","","    1012.0","0","    1012.0","H","","","","","","","",""
