"STATION","DATE","LATITUDE","LONGITUDE","ELEVATION","NAME","CDSD","CDSD_ATTRIBUTES","CLDD","CLDD_ATTRIBUTES","DP01","DP01_ATTRIBUTES","DP10","DP10_ATTRIBUTES","DP1X","DP1X_ATTRIBUTES","DSND","DSND_ATTRIBUTES","DSNW","DSNW_ATTRIBUTES","DT00","DT00_ATTRIBUTES","DT32","DT32_ATTRIBUTES","DX32","DX32_ATTRIBUTES","DX70","DX70_ATTRIBUTES","DX90","DX90_ATTRIBUTES","DYFG","DYFG_ATTRIBUTES","DYTS","DYTS_ATTRIBUTES","EMNT","EMNT_ATTRIBUTES","EMSD","EMSD_ATTRIBUTES","EMSN","EMSN_ATTRIBUTES","EMXP","EMXP_ATTRIBUTES","EMXT","EMXT_ATTRIBUTES","FZF0","FZF0_ATTRIBUTES","FZF1","FZF1_ATTRIBUTES","FZF2","FZF2_ATTRIBUTES","FZF3","FZF3_ATTRIBUTES","FZF4","FZF4_ATTRIBUTES","FZF5","FZF5_ATTRIBUTES","FZF6","FZF6_ATTRIBUTES","FZF7","FZF7_ATTRIBUTES","FZF8","FZF8_ATTRIBUTES","FZF9","FZF9_ATTRIBUTES","HDSD","HDSD_ATTRIBUTES","HTDD","HTDD_ATTRIBUTES","PRCP","PRCP_ATTRIBUTES","SNOW","SNOW_ATTRIBUTES","TAVG","TAVG_ATTRIBUTES","TMAX","TMAX_ATTRIBUTES","TMIN","TMIN_ATTRIBUTES"
"USC00032366","1923","36.0803","-91.6146","156.7","EVENING SHADE 1 NNE, AR US","","","","","        76","6","        71","6","        13","6","","","","","","","","","","","","","","","","","","","","","","","","","  50.8"," ,6,0121, ","","","","","","","","","","","","","","","","","","","","","","","","","","","   1163.1"," ,6","","","","","","","",""
"USC00032366","1939","36.0803","-91.6146","156.7","EVENING SHADE 1 NNE, AR US","","","","","","","","","","","","","","","","","","","","","","","","","         1"," ","","","","","","","","","","","","","","","","","","","","","","","","","","","","","","","","","","","","","","","","","","","","","",""
"USC00032366","1940","36.0803","-91.6146","156.7","EVENING SHADE 1 NNE, AR US","","","","","       106","6","        69","6","        12","6","","","","","","","","","","","","","","","         2"," ","","","","","","","","","  61.0"," ,6,0717, ","","","","","","","","","","","","","","","","","","","","","","","","","","","   1019.2"," ,6","","","","","","","",""
"USC00032366","1941","36.0803","-91.6146","156.7","EVENING SHADE 1 NNE, AR US","","","","","       109","6","        65","6","        10","6","","","","","","","","","","","","","","","         5"," ","         1"," ","","","","","","","  52.6"," ,6,1031, ","","","","","","","","","","","","","","","","","","","","","","","","","","","    957.5"," ,6","","","","","","","",""
"USC00032366","1942","36.0803","-91.6146","156.7","EVENING SHADE 1 NNE, AR US","","","","","       118","6","        76","6","        15","6","","","","","","","","","","","","","","","","","","","","","","","",""," 107.7"," ,6,1227, ","","","","","","","","","","","","","","","","","","","","","","","","","","","   1372.9"," ,6","","","","","","","",""
"USC00032366","1943","36.0803","-91.6146","156.7","EVENING SHADE 1 NNE, AR US","","","","","        81","6","        54","6","         7","6","","","","","","","","","","","","","","","","","","","","","","","",""," 143.3"," ,6,0511, ","","","","","","","","","","","","","","","","","","","","","","","","","","","    853.7"," ,6","","","","","","","",""
"USC00032366","1944","36.0803","-91.6146","156.7","EVENING SHADE 1 NNE, AR US","","","","","       106","6","        66","6","        11","6","","","","","","","","","","","","","","","","","","","","","","","","","  62.2"," ,6,1108, ","","","","","","","","","","","","","","","","","","","","","","","","","","","   1101.9"," ,6","","","","","","","",""
"USC00032366","1945","36.0803","-91.6146","156.7","EVENING SHADE 1 NNE, AR US","","","","","","","","","","","","","","","","","","","","","","","","","         1"," ","","","","","","","","","","","","","","","","","","","","","","","","","","","","","","","","","","","","","","","","","","","","","",""
"USC00032366","1946","36.0803","-91.6146","156.7","EVENING SHADE 1 NNE, AR US","","","","","        76","6","        64","6","        20","6","","","","","","","","","","","","","","","         3"," ","","","","","","","","","  80.5"," ,6,0306, ","","","","","","","","","","","","","","","","","","","","","","","","","","","   1356.6"," ,6","","","","","","","",""
"USC00032366","1948","36.0803","-91.6146","156.7","EVENING SHADE 1 NNE, AR US","","","","","        88","0","        75","0","        15","0","        3","","         3","0","","","","","","","","","","","","","","","","","    51"," ,0,0127, ","    46"," ,0,0127, ","  88.9"," ,0,1215, ","","","","","","","","","","","","","","","","","","","","","","","","","","","   1283.8"," ,0","      117"," ,0","","","","","",""
"USC00032366","1950","36.0803","-91.6146","156.7","EVENING SHADE 1 NNE, AR US","","","","","       103","0","        92","0","        17","0","        2","","         1","0","","","","","","","","","","","","","","","","","    25"," ,0,0131,+","    25"," ,0,0103, ","  69.3"," ,0,0104, ","","","","","","","","","","","","","","","","","","","","","","","","","","","   1464.8"," ,0","       58"," ,0","","","","","",""
"USC00032366","1951","36.0803","-91.6146","156.7","EVENING SHADE 1 NNE, AR US","","","","","        98","0","        80","0","        19","0","        1","","         1","0","","","","","","","","","","","","","","","","","   127"," ,0,0201, ","   114"," ,0,0201, ","  89.7"," ,0,0816, ","","","","","","","","","","","","","","","","","","","","","","","","","","","   1501.6"," ,0","      135"," ,0","","","","","",""
"USC00032366","1952","36.0803","-91.6146","156.7","EVENING SHADE 1 NNE, AR US","","","","","        67","0","        60","0","        10","0","        0","","         2","0","","","","","","","","","","","","","","","","","     0"," ,0,1231,+","   203"," ,0,0216, ","  94.0"," ,0,1125, ","","","","","","","","","","","","","","","","","","","","","","","","","","","   1031.5"," ,0","      269"," ,0","","","","","",""
"USC00032366","1953","36.0803","-91.6146","156.7","EVENING SHADE 1 NNE, AR US","","","","","        63","0","        57","0","         6","0","        0","","         0","0","","","","","","","","","","","","","","","","","     0"," ,0,1231,+","     0"," ,0,1231,+","  54.9"," ,0,0318, ","","","","","","","","","","","","","","","","","","","","","","","","","","","    750.9"," ,0","        0"," ,0","","","","","",""
"USC00032366","1954","36.0803","-91.6146","156.7","EVENING SHADE 1 NNE, AR US","","","","","        60","0","        51","0","        12","0","        1","","         0","0","","","","","","","","","","","","","","","","","    51"," ,0,0122, ","     0","T,0,1215, ","  82.3"," ,0,1001,+","","","","","","","","","","","","","","","","","","","","","","","","","","","   1017.3"," ,0","        0","T,0","","","","","",""
"USC00032366","1955","36.0803","-91.6146","156.7","EVENING SHADE 1 NNE, AR US","","","","","        72","0","        58","0","        11","0","        0","","         3","0","","","","","","","","","","","","","","","","","     0","T,0,1201, ","    64"," ,0,0110, ","  82.0"," ,0,0521, ","","","","","","","","","","","","","","","","","","","","","","","","","","","    969.5"," ,0","      140"," ,0","","","","","",""
"USC00032366","1956","36.0803","-91.6146","156.7","EVENING SHADE 1 NNE, AR US","","","","","        67","0","        64","0","        16","0","","","         1","0","","","","","","","","","","","","","","","","","","","    89"," ,0,0208, ","  94.2"," ,0,0625, ","","","","","","","","","","","","","","","","","","","","","","","","","","","   1129.1"," ,0","       89"," ,0","","","","","",""
"USC00032366","1957","36.0803","-91.6146","156.7","EVENING SHADE 1 NNE, AR US","","","","","       103","0","        92","0","        18","0","        0","","         0","0","","","","","","","","","","","","","","","","","     0"," ,0,1231,+","     5"," ,0,1209, ","  85.9"," ,0,0404, ","","","","","","","","","","","","","","","","","","","","","","","","","","","   1620.3"," ,0","        5"," ,0","","","","","",""
"USC00032366","1958","36.0803","-91.6146","156.7","EVENING SHADE 1 NNE, AR US","","","","","        83","0","        69","0","        18","0","        5","","         1","0","","","","","","","","","","","","","","","","","   127"," ,0,0215, ","    76"," ,0,1128, ","  66.0"," ,0,0802, ","","","","","","","","","","","","","","","","","","","","","","","","","","","   1196.2"," ,0","       76"," ,0","","","","","",""
"USC00032366","1959","36.0803","-91.6146","156.7","EVENING SHADE 1 NNE, AR US","","","","","        86","0","        72","0","        11","0","        1","","         0","0","","","","","","","","","","","","","","","","","   127"," ,0,0206, ","     0"," ,0,1231,+","  88.4"," ,0,1104, ","","","","","","","","","","","","","","","","","","","","","","","","","","","   1111.0"," ,0","        0"," ,0","","","","","",""
"USC00032366","1960","36.0803","-91.6146","156.7","EVENING SHADE 1 NNE, AR US","","","","","        79","0","        72","0","        13","0","","","         3","0","","","","","","","","","","","","","","","","","","","   152"," ,0,0106, ","  61.0"," ,0,0627, ","","","","","","","","","","","","","","","","","","","","","","","","","","","    996.7"," ,0","      297"," ,0","","","","","",""
"USC00032366","1961","36.0803","-91.6146","156.7","EVENING SHADE 1 NNE, AR US","","","","","        86","0","        74","0","        15","0","        0","","         1","0","","","","","","","","","","","","","","","","","     0"," ,0,1231,+","    76"," ,0,0101, ","  53.8"," ,0,0505, ","","","","","","","","","","","","","","","","","","","","","","","","","","","   1156.3"," ,0","       76"," ,0","","","","","",""
"USC00032366","1962","36.0803","-91.6146","156.7","EVENING SHADE 1 NNE, AR US","","","","","        79","0","        68","0","        10","0","        2","","         0","0","","","","","","","","","","","","","","","","","    25"," ,0,0119,+","     0","T,0,1224,+","  68.1"," ,0,0411, ","","","","","","","","","","","","","","","","","","","","","","","","","","","   1029.5"," ,0","        0","T,0","","","","","",""
"USC00032366","1963","36.0803","-91.6146","156.7","EVENING SHADE 1 NNE, AR US","","","","","        56","0","        47","0","         8","0","        1","","         0","0","","","","","","","","","","","","","","","","","   203"," ,0,1222, ","     0"," ,0,1231,+","  94.5"," ,0,0526, ","","","","","","","","","","","","","","","","","","","","","","","","","","","    761.6"," ,0","        0"," ,0","","","","","",""
"USC00032366","1964","36.0803","-91.6146","156.7","EVENING SHADE 1 NNE, AR US","","","","","        69","0","        55","0","        16","0","        0","","         0","0","","","","","","","","","","","","","","","","","     0"," ,0,1231,+","     0"," ,0,1231,+"," 113.0"," ,0,0309, ","","","","","","","","","","","","","","","","","","","","","","","","","","","   1111.6"," ,0","        0"," ,0","","","","","",""
"USC00032366","1965","36.0803","-91.6146","156.7","EVENING SHADE 1 NNE, AR US","","","","","        77","0","        60","0","        15","0","        1","","         1","0","","","","","         3","0","       222","0","        56","0","","","","","","","    76"," ,0,0303, ","    76"," ,0,0303, "," 102.1"," ,0,0911, ","   37.8","0,0724, ","","","","","","","","","","","","","","","","","","","","","    2299.3","3","    2299.3","0","   1150.6"," ,0","       76"," ,0","","","     22.84","0","",""
"USC00032366","1966","36.0803","-91.6146","156.7","EVENING SHADE 1 NNE, AR US","    730.9","","     730.9","0","        80","0","        63","0","        13","0","","","         6","0","         2","0","       108","0","         5","0","       219","0","        44","0","","","","","  -17.8","0,1224,+","","","   178"," ,0,1223, ","  94.0"," ,0,0102, ","   45.0","0,0715, ","-2.8","0,1007","-2.8","0,1007","-10.0","0,1103","-10.0","0,1103","-10.0","0,1103","-2.2","0,0410","-2.2","0,0410","-5.6","0,0406","-8.3","0,0325","-10.6","0,0307","","","","","    990.1"," ,0","      432"," ,0","     14.28","0","     21.87","0","      6.69","0"
"USC00032366","1967","36.0803","-91.6146","156.7","EVENING SHADE 1 NNE, AR US","    665.3","","     665.3","0","        84","0","        73","0","        14","0","        0","","         4","0","         0","0","       103","0","         2","0","       221","0","        39","0","","","","","  -16.7","0,0307,+","     0"," ,0,1231,+","   203"," ,0,0306, ","  72.4"," ,0,0630, ","   36.1","0,0711, ","-0.6","0,0929","-2.2","0,1028","-5.0","0,1104","-7.8","0,1106","-11.1","0,1128","-1.7","0,0322","-4.4","0,0318","-4.4","0,0318","-6.7","0,0309","-16.7","0,0307","    1970.5","5","    1970.5","0","   1187.3"," ,0","      394"," ,0","     14.59","0","     22.23","0","      6.94","0"
"USC00032366","1968","36.0803","-91.6146","156.7","EVENING SHADE 1 NNE, AR US","    748.6","","     748.6","0","        80","0","        61","0","        18","0","","","         4","0","         0","0","       109","0","         4","0","       216","0","        55","0","","","","","  -16.7","0,0107, ","","","    76"," ,0,0229, ","  80.3"," ,0,1222, ","   36.7","0,0807,+","0.0","0,1004","-2.8","0,1025","-4.4","0,1109","-7.2","0,1120","-8.9","0,1206","-0.6","0,0415","-4.4","0,0406","-4.4","0,0406","-7.8","0,0324","-10.6","0,0304","    2274.9","9","    2274.9","0","   1288.0"," ,0","      190"," ,0","     14.03","0","     21.35","0","      6.70","0"
"USC00032366","1969","36.0803","-91.6146","156.7","EVENING SHADE 1 NNE, AR US","    856.1","","     856.1","0","        79","0","        65","0","        11","0","","","         5","0","         0","0","       103","0","         2","0","       214","0","        81","0","","","","","  -13.3","0,0110,+","","","   102"," ,0,1231, ","  82.6"," ,0,0130, ","   40.6","0,0809,+","-0.6","0,1021","-4.4","0,1028","-4.4","0,1028","-7.2","0,1115","-10.6","0,1129","-0.6","0,0425","-2.2","0,0331","-4.4","0,0317","-7.8","0,0314","-9.4","0,0313","    2303.3","3","    2303.3","0","    956.5"," ,0","      330"," ,0","     14.36","0","     22.05","0","      6.68","0"
"USC00032366","1970","36.0803","-91.6146","156.7","EVENING SHADE 1 NNE, AR US","    836.2","","     836.2","0","        83","0","        68","0","        19","0","","","","","         3","0","       101","0","         7","0","       217","0","        63","0","","","","","  -20.6","0,0109, ","","","","","  87.4"," ,0,0919, ","   37.8","0,0802,+","0.0","0,1010","-3.9","0,1106","-8.3","0,1116","-8.3","0,1116","-13.3","0,1124","0.0","0,0414","-3.9","0,0403","-6.1","0,0327","-8.9","0,0323","-8.9","0,0323","    2323.4","4","    2323.4","0","   1268.5"," ,0","","","     14.58","0","     22.18","0","      6.99","0"
"USC00032366","1971","36.0803","-91.6146","156.7","EVENING SHADE 1 NNE, AR US","    863.0","","     863.0","0","        79","0","        71","0","         9","0","","","         4","0","         0","0","        99","0","         2","0","       232","0","        81","0","","","","","  -16.1","0,0209, ","","","   102"," ,0,1123, ","  77.7"," ,0,1210, ","   39.4","0,0717,+","-3.9","0,1104","-3.9","0,1104","-6.1","0,1107","-8.3","0,1108","","","-0.6","0,0503","-3.3","0,0408","-5.0","0,0407","-10.6","0,0308","-10.6","0,0308","    2069.0","0","    2069.0","0","    920.2"," ,0","      343"," ,0","     15.26","0","     23.37","0","      7.15","0"
"USC00032366","1972","36.0803","-91.6146","156.7","EVENING SHADE 1 NNE, AR US","    925.0","","     925.0","0","        84","0","        78","0","        13","0","","","","","         0","0","        96","0","         3","0","       211","0","       101","0","","","","","  -16.1","0,0116,+","","","","","  72.4"," ,0,1101, ","   40.6","0,0820, ","-1.7","0,1020","-5.6","0,1026","-5.6","0,1026","-6.7","0,1124","-9.4","0,1206","-3.3","0,0409","-3.3","0,0409","-6.1","0,0330","-8.9","0,0309","-8.9","0,0309","    1829.4","4","    1829.4","0","   1100.9"," ,0","","","     15.10","0","     23.07","0","      7.14","0"
"USC00032366","1973","36.0803","-91.6146","156.7","EVENING SHADE 1 NNE, AR US","","","","","        91","0","        82","0","        20","0","","","         3","0","         1","0","        78","0","","","","","","","","","","","  -17.8","0,0112, ","","","   203"," ,0,0107, ","  87.6"," ,0,1204, ","","","-1.1","0,1030","-3.3","0,1106","-5.0","0,1111","-9.4","0,1208","-9.4","0,1208","0.0","0,0428","-6.1","0,0411","-6.1","0,0411","-6.7","0,0228","-9.4","0,0222","","","","","   1674.0"," ,0","      253"," ,0","","","","","      8.23","0"
"USC00032366","1974","36.0803","-91.6146","156.7","EVENING SHADE 1 NNE, AR US","    725.4","","     725.4","0","        85","0","        76","0","        15","0","        0","","         1","0","         0","0","        91","0","         4","0","       231","0","        57","0","","","","","  -15.0","0,0101, ","     0","T,0,0208, ","    25"," ,0,0101, ","  94.0"," ,0,1104, ","   40.0","0,0722, ","0.0","0,1003","-2.8","0,1022","-7.2","0,1115","-7.2","0,1115","-10.0","0,1204","-1.1","0,0417","-5.0","0,0409","-5.0","0,0409","-7.8","0,0324","-8.9","0,0226","    1807.3","3","    1807.3","0","   1103.6"," ,0","       25"," ,0","     15.04","0","     22.41","0","      7.67","0"
"USC00032366","1975","36.0803","-91.6146","156.7","EVENING SHADE 1 NNE, AR US","    804.8","","     804.8","0","        80","0","        76","0","        15","0","","","         4","0","         0","0","       107","0","         0","0","       219","0","        51","0","","","","","  -13.9","0,0113, ","","","   229"," ,0,0314, "," 106.7"," ,0,0819, ","   37.8","0,0705, ","-1.1","0,1003","-8.9","0,1114","-8.9","0,1114","-8.9","0,1114","-8.9","0,1114","0.0","0,0413","-2.2","0,0412","-5.6","0,0404","-8.9","0,0315","-8.9","0,0315","    2121.1","1","    2121.1","0","   1446.3"," ,0","      432"," ,0","     14.67","0","     21.89","0","      7.45","0"
"USC00032366","1976","36.0803","-91.6146","156.7","EVENING SHADE 1 NNE, AR US","","","","","","","","","","","","","","","","","","","","","","","","","","","","","","","","","","","","","","","","","","","","","","","","","","","","","","","","","","","    1932.0","0","    1932.0","0","","","","","","","","","",""
"USC00032366","1978","36.0803","-91.6146","156.7","EVENING SHADE 1 NNE, AR US","","","","","        88","0","        67","0","        13","0","","","         7","0","","","","","","","","","","","","","","","","","","","   127"," ,0,0218, "," 114.3"," ,0,0830, ","","","","","","","","","","","","","","","","","","","","","","","","","","","   1184.5"," ,0","      531"," ,0","","","","","",""
"USC00032366","1979","36.0803","-91.6146","156.7","EVENING SHADE 1 NNE, AR US","    701.5","","     701.5","0","       102","0","        85","0","        22","0","","","         6","0","         4","0","       103","0","        16","0","       207","0","        39","0","","","","","  -20.0","0,0109, ","","","   160"," ,0,0207, "," 104.4"," ,0,0223, ","   36.7","0,0820, ","0.0","0,1005","-2.2","0,1014","-4.4","0,1111","-6.7","0,1114","-9.4","0,1130","0.0","0,0428","-2.2","0,0405","-6.1","0,0311","-11.7","0,0219","-11.7","0,0219","    2394.6","6","    2394.6","0","   1525.0"," ,0","      415"," ,0","     13.60","0","     20.43","0","      6.76","0"
"USC00032366","1980","36.0803","-91.6146","156.7","EVENING SHADE 1 NNE, AR US","   1163.5","","    1163.5","0","","","","","","","","","","","         0","0","       100","0","         7","0","       208","0","        92","0","","","","","  -15.0","0,1225, ","","","","","","","   42.8","0,0730,+","-2.2","0,1025","-2.2","0,1025","-4.4","0,1030","-6.7","0,1119","-12.8","0,1220","-1.1","0,0415","-3.9","0,0322","-5.6","0,0318","-9.4","0,0303","-9.4","0,0303","    2221.8","8","    2221.8","0","","","","","     15.30","0","     22.57","0","      8.04","0"
"USC00032366","1981","36.0803","-91.6146","156.7","EVENING SHADE 1 NNE, AR US","    913.0","","     913.0","0","        78","0","        64","0","         9","0","        0","","         1","0","         1","0","        99","0","         3","0","       227","0","        58","0","","","","","  -18.3","0,0211, ","     0"," ,0,1231,+","    38"," ,0,0120, ","  63.8"," ,0,0531, ","   38.3","0,0815,+","-1.1","0,1003","-6.7","0,1024","-6.7","0,1024","-6.7","0,1024","-15.0","0,1218","0.0","0,0406","-2.2","0,0320","-5.6","0,0309","-8.3","0,0214","-16.1","0,0212","    2049.1","1","    2049.1","0","    924.7"," ,0","       58"," ,0","     15.15","0","     22.12","0","      8.18","0"
"USC00032366","1982","36.0803","-91.6146","156.7","EVENING SHADE 1 NNE, AR US","","","","","        82","0","        73","0","        15","0","","","         6","0","","","","","         9","0","       218","0","        54","0","","","","","","","","","   140"," ,0,0203, "," 120.1"," ,0,1203, ","   37.8","0,0824, ","","","","","","","","","","","","","","","","","","","","","","","","","   1538.0"," ,0","      598"," ,0","","","     21.63","0","",""
"USC00032366","1983","36.0803","-91.6146","156.7","EVENING SHADE 1 NNE, AR US","    955.6","","     955.6","0","        79","0","        66","0","        10","0","","","         5","0","         5","0","        92","0","        11","0","       196","0","        76","0","","","","","  -22.8","0,1230, ","","","    64"," ,0,0121, ","  66.0"," ,0,0503, ","   40.0","0,0828,+","-2.2","0,1105","-2.2","0,1105","-6.1","0,1201","-7.8","0,1207","-12.2","0,1217","-0.6","0,0421","-2.8","0,0419","-7.8","0,0322","-7.8","0,0322","-9.4","0,0118","    2082.0","0","    2082.0","0","    985.5"," ,0","      221"," ,0","     14.57","0","     21.28","0","      7.86","0"
"USC00032366","1985","36.0803","-91.6146","156.7","EVENING SHADE 1 NNE, AR US","    829.3","","     829.3","0","","","","","","","","","        10","0","         8","0","        96","0","        11","0","       219","0","        59","0","","","","","  -26.1","0,0120, ","","","   102"," ,0,0201,+","","","   38.9","0,0715,+","-1.7","0,1002","-3.9","0,1105","-5.0","0,1120","-11.7","0,1202","-11.7","0,1202","-2.2","0,0409","-2.2","0,0409","-6.1","0,0228","-9.4","0,0215","-9.4","0,0215","    2028.6","6","    2028.6","0","","","      671"," ,0","     14.37","0","     21.41","0","      7.33","0"
"USC00032366","1986","36.0803","-91.6146","156.7","EVENING SHADE 1 NNE, AR US","    868.6","","     868.6","0","        84","0","        66","0","         8","0","","","         1","0","         0","0","        88","0","         1","0","       221","0","        82","0","","","","","  -16.7","0,0211, ","","","    89"," ,0,0211, ","  45.0"," ,0,0501, ","   42.8","0,0730,+","-1.7","0,1014","-3.3","0,1015","-5.0","0,1016","-7.2","0,1112","-15.0","0,1113","-1.7","0,0423","-2.2","0,0328","-6.1","0,0322","-10.6","0,0321","-10.6","0,0321","    2016.5","5","    2016.5","0","    924.7"," ,0","      127"," ,0","     15.23","0","     23.14","0","      7.32","0"
"USC00032366","1987","36.0803","-91.6146","156.7","EVENING SHADE 1 NNE, AR US","    962.1","","     962.1","0","        96","0","        77","0","        17","0","","","         3","0","         0","0","        77","0","         0","0","       221","0","        79","0","","","","","  -11.7","0,0121, ","","","   165"," ,0,0104, ","  63.8"," ,0,1116, ","   40.0","0,0803, ","-1.1","0,1004","-3.9","0,1012","-7.2","0,1121","-7.2","0,1121","-9.4","0,1216","-3.9","0,0405","-3.9","0,0405","-4.4","0,0404","-7.2","0,0331","-9.4","0,0210","    1970.7","7","    1970.7","0","   1305.8"," ,0","      248"," ,0","     15.70","0","     23.07","0","      8.33","0"
"USC00032366","1988","36.0803","-91.6146","156.7","EVENING SHADE 1 NNE, AR US","    789.1","","     789.1","0","        85","0","        62","0","        18","0","","","","","         3","0","       102","0","         3","0","       224","0","        80","0","","","","","  -21.7","0,0108, ","","","","","  64.8"," ,0,1119, ","   40.0","0,0623, ","0.0","0,1005","-2.2","0,1031","-5.6","0,1117","-7.2","0,1122","-8.9","0,1205","-3.9","0,0428","-3.9","0,0428","-9.4","0,0316","-9.4","0,0316","-9.4","0,0316","    2139.3","3","    2139.3","0","   1203.0"," ,0","","","     14.48","0","     22.71","0","      6.25","0"
"USC00032366","1989","36.0803","-91.6146","156.7","EVENING SHADE 1 NNE, AR US","    773.8","","     773.8","0","        85","0","        71","0","        15","0","        0","","         2","0","         6","0","       104","0","         9","0","       228","0","        60","0","","","","","  -25.0","0,1222, ","     0"," ,0,1231,+","    25"," ,0,0304,+","  92.5"," ,0,0215, ","   38.9","0,0824, ","-1.1","0,0924","-3.3","0,1020","-7.8","0,1103","-7.8","0,1103","-12.2","0,1117","0.0","0,0413","-6.7","0,0411","-6.7","0,0411","-6.7","0,0411","-13.3","0,0223","    2050.0","0","    2050.0","0","   1206.5"," ,0","       71"," ,0","     14.26","0","     22.00","0","      6.51","0"
"USC00032366","1990","36.0803","-91.6146","156.7","EVENING SHADE 1 NNE, AR US","    927.0","","     927.0","0","       108","0","        84","0","        19","0","        0","","         2","0","         0","0","        89","0","         3","0","       223","0","        77","0","","","","","  -16.1","0,1224, ","     0"," ,0,1231,+","    89"," ,0,1227, ","  73.2"," ,0,0417, ","   41.1","0,0829,+","-1.7","0,1011","-2.2","0,1019","-4.4","0,1106","-7.2","0,1130","-10.0","0,1222","-5.0","0,0412","-5.0","0,0412","-5.0","0,0412","-6.7","0,0407","-13.3","0,0113","    2009.1","1","    2009.1","0","   1459.7"," ,0","      166"," ,0","     15.66","0","     23.45","0","      7.87","0"
"USC00032366","1991","36.0803","-91.6146","156.7","EVENING SHADE 1 NNE, AR US","","","","","        99","0","        76","0","        21","0","        0","","         1","0","","","","","","","","","","","","","","","","","     0"," ,0,1231,+","    58"," ,0,0225, "," 116.6"," ,0,1120, ","","","","","","","","","","","","","","","","","","","","","","","    1940.5","5","    1940.5","0","   1641.7"," ,0","       58"," ,0","","","","","",""
"USC00032366","1992","36.0803","-91.6146","156.7","EVENING SHADE 1 NNE, AR US","    714.0","","     714.0","0","        99","0","        77","0","        11","0","        0","","         1","0","         0","0","        89","0","         0","0","       215","0","        44","0","","","","","  -16.7","0,0116, ","     0"," ,0,1231,+","    76"," ,0,0114, ","  95.5"," ,0,0420, ","   36.7","0,0826,+","-0.6","0,0930","-2.2","0,1019","-5.6","0,1107","-8.3","0,1128","-8.9","0,1129","-0.6","0,0507","-5.0","0,0403","-5.0","0,0403","-8.3","0,0311","-8.9","0,0210","","","","","   1182.8"," ,0","       76"," ,0","     14.75","0","     22.04","0","      7.47","0"
"USC00032366","1993","36.0803","-91.6146","156.7","EVENING SHADE 1 NNE, AR US","    875.0","","     875.0","0","       104","0","        85","0","        19","0","","","         5","0","         0","0","       108","0","         3","0","       197","0","        70","0","","","","","  -16.1","0,0218, ","","","   152"," ,0,0214, ","  60.2"," ,0,0925, ","   40.0","0,0726, ","-1.1","0,0928","-2.2","0,1022","-5.0","0,1028","-10.0","0,1101","-10.0","0,1101","-1.7","0,0422","-2.8","0,0409","-4.4","0,0324","-7.2","0,0313","-9.4","0,0227","    2267.1","1","    2267.1","0","   1403.1"," ,0","      430"," ,0","     14.07","0","     21.32","0","      6.81","0"
"USC00032366","1994","36.0803","-91.6146","156.7","EVENING SHADE 1 NNE, AR US","    629.2","","     629.2","0","        97","0","        69","0","        16","0","","","         3","0","         3","0","       103","0","         5","0","       226","0","        76","0","","","","","  -25.6","0,0120, ","","","   457"," ,0,0309, "," 123.4"," ,0,1105, ","   37.2","0,0705, ","-0.6","0,0923","-6.7","0,1026","-6.7","0,1026","-6.7","0,1026","-9.4","0,1124","0.0","0,0502","-6.7","0,0407","-6.7","0,0407","-6.7","0,0407","-9.4","0,0310","    2311.6","6","    2311.6","0","   1263.8"," ,0","      591"," ,0","     14.04","0","     22.72","0","      5.36","0"
"USC00032366","1995","36.0803","-91.6146","156.7","EVENING SHADE 1 NNE, AR US","    898.7","","     898.7","0","        82","0","        70","0","        17","0","        0","","         0","0","         0","0","        95","0","         1","0","       228","0","        74","0","","","","","  -17.2","0,0214, ","     0","T,0,1115,+","     8"," ,0,0106, ","  53.3"," ,0,0705, ","   41.7","0,0820, ","0.0","0,0924","-6.7","0,1104","-6.7","0,1104","-6.7","0,1104","-13.9","0,1209","-0.6","0,0405","-3.3","0,0401","-6.7","0,0310","-6.7","0,0310","-17.2","0,0214","    1995.1","1","    1995.1","0","   1119.8"," ,0","       11"," ,0","     14.95","0","     22.58","0","      7.32","0"
"USC00032366","1996","36.0803","-91.6146","156.7","EVENING SHADE 1 NNE, AR US","    874.2","","     874.2","0","        92","0","        78","0","         9","0","","","         2","0","         1","0","        88","0","        10","0","       218","0","        73","0","","","","","  -17.8","0,0204, ","","","    38"," ,0,0107,+","  78.7"," ,0,1125, ","   38.9","0,0720, ","0.0","0,1011","-2.2","0,1019","-5.0","0,1103","-6.7","0,1128","-9.4","0,1218","-0.6","0,0416","-2.2","0,0407","-4.4","0,0326","-7.2","0,0311","-9.4","0,0310","    2150.5","5","    2150.5","0","   1274.8"," ,0","      140"," ,0","     14.83","0","     21.95","0","      7.71","0"
"USC00032366","1997","36.0803","-91.6146","156.7","EVENING SHADE 1 NNE, AR US","    830.7","","     830.7","0","       104","0","        84","0","         6","0","","","         5","0","         1","0","        82","0","         7","0","       205","0","        71","0","","","","","  -17.8","0,0117, ","","","   102"," ,0,0213,+"," 111.0"," ,0,0405, ","   40.0","0,0725, ","-0.6","0,1018","-2.2","0,1028","-5.6","0,1116","-10.0","0,1117","-10.0","0,1117","-1.1","0,0418","-2.8","0,0414","-5.6","0,0316","-8.3","0,0130","-12.8","0,0129","    2047.3","3","    2047.3","0","   1154.3"," ,0","      334"," ,0","     14.60","0","     21.65","0","      7.55","0"
"USC00032366","1998","36.0803","-91.6146","156.7","EVENING SHADE 1 NNE, AR US","   1170.0","","    1170.0","0","        99","0","        77","0","        16","0","","","         0","0","         0","0","        67","0","         3","0","       221","0","        95","0","","","","","  -12.8","0,1225,+","","","    13"," ,0,0416, "," 147.6"," ,0,1006, ","   40.0","0,0907,+","-1.1","0,1023","-2.8","0,1106","-5.6","0,1209","-10.6","0,1222","-10.6","0,1222","-2.8","0,0322","-2.8","0,0322","-5.0","0,0313","-12.8","0,0312","-12.8","0,0312","    1988.4","4","    1988.4","0","   1232.0"," ,0","       13"," ,0","     16.41","0","     23.27","0","      9.54","0"
"USC00032366","1999","36.0803","-91.6146","156.7","EVENING SHADE 1 NNE, AR US","    857.0","","     857.0","0","        78","0","        59","0","         6","0","        1","","         2","0","         0","0","        98","0","         5","0","       226","0","        85","0","","","","","  -16.7","0,0105, ","    51"," ,0,0315, ","    38"," ,0,0314, ","  47.2"," ,0,0102, ","   40.6","0,0818, ","0.0","0,1005","-2.8","0,1024","-4.4","0,1126","-7.2","0,1130","-10.6","0,1222","-1.1","0,0418","-3.9","0,0327","-5.6","0,0305","-6.7","0,0304","-8.9","0,0223","    1977.7","7","    1977.7","0","    894.8"," ,0","       79"," ,0","     15.25","0","     23.36","0","      7.13","0"
"USC00032366","2000","36.0803","-91.6146","156.7","EVENING SHADE 1 NNE, AR US","    937.9","","     937.9","0","        91","0","        75","0","        15","0","        0","","         3","0","         0","0","        99","0","        14","0","       222","0","        79","0","","","","","  -14.4","0,1223,+","     0","T,0,1203,+","    64"," ,0,0128, "," 115.1"," ,0,0527, ","   41.7","0,0901,+","-0.6","0,1008","-2.8","0,1009","-5.0","0,1115","-10.0","0,1118","-10.0","0,1118","-0.6","0,0410","-3.3","0,0409","-5.6","0,0312","-6.7","0,0207","-8.9","0,0206","    1953.8","8","    1953.8","0","   1314.5"," ,0","      171"," ,0","     14.53","0","     22.08","0","      6.97","0"
"USC00032366","2001","36.0803","-91.6146","156.7","EVENING SHADE 1 NNE, AR US","    888.6","","     888.6","0","        92","0","        82","0","        16","0","        0","","         1","0","         0","0","       100","0","         4","0","       213","0","        77","0","","","","","  -16.7","0,0103, ","     0","T,0,0222,+","    46"," ,0,0112, ","  72.9"," ,0,1217, ","   38.3","0,0722,+","0.0","0,1007","-3.3","0,1027","-4.4","0,1028","-7.2","0,1225","-11.1","0,1230","-1.7","0,0419","-6.7","0,0328","-6.7","0,0328","-6.7","0,0328","-9.4","0,0203","    2411.1","1","    2411.1","0","   1322.2"," ,0","       62"," ,0","     14.89","0","     22.52","0","      7.27","0"
"USC00032366","2002","36.0803","-91.6146","156.7","EVENING SHADE 1 NNE, AR US","    899.5","","     899.5","0","        95","0","        76","0","        20","0","        0","","         3","0","         0","0","       118","0","         2","0","       199","0","        77","0","","","","","  -14.4","0,0101, ","     0","T,0,1214,+","    84"," ,0,0206, ","  65.0"," ,0,0326, ","   37.8","0,0711,+","-1.1","0,1014","-2.8","0,1113","-4.4","0,1123","-8.9","0,1128","-8.9","0,1128","-2.8","0,0406","-2.8","0,0406","-7.2","0,0323","-7.2","0,0323","-13.3","0,0305","    2197.5","5","    2197.5","0","   1378.6"," ,0","      184"," ,0","     14.40","0","     21.82","0","      6.98","0"
"USC00032366","2003","36.0803","-91.6146","156.7","EVENING SHADE 1 NNE, AR US","    717.8","","     717.8","0","","","","","","","","","         7","0","         3","0","        99","0","        10","0","       219","0","        52","0","","","","","  -17.8","0,0208,+","","","    76"," ,0,0207,+","","","   37.8","0,0822, ","0.0","0,1027","-3.3","0,1125","-6.7","0,1126","-6.7","0,1126","","","-1.1","0,0410","-3.9","0,0331","-4.4","0,0311","-6.7","0,0304","-16.7","0,0209","    2365.3","3","    2365.3","0","","","      362"," ,0","     13.96","0","     21.16","0","      6.75","0"
"USC00032366","2004","36.0803","-91.6146","156.7","EVENING SHADE 1 NNE, AR US","    809.9","","     809.9","0","       105","0","        84","0","        11","0","","","         3","0","         3","0","        92","0","         6","0","       214","0","        51","0","","","","","  -18.3","0,1226,+","","","   152"," ,0,1223, ","  72.9"," ,0,0514, ","   36.7","0,0724,+","0.0","0,1106","-2.8","0,1125","-5.6","0,1202","-11.7","0,1215","-11.7","0,1215","0.0","0,0406","-2.8","0,0323","-4.4","0,0311","-8.9","0,0214","-8.9","0,0214","    2067.5","5","    2067.5","0","   1218.4"," ,0","      228"," ,0","     14.74","0","     21.92","0","      7.57","0"
"USC00032366","2005","36.0803","-91.6146","156.7","EVENING SHADE 1 NNE, AR US","","","","","","","","","","","","","","","","","","","","","","","","","","","","","","","","","","","","","","","","","","","","","","","","","","","","","","","","","","","    1989.6","6","    1989.6","0","","","","","","","","","",""
"USC00032366","2006","36.0803","-91.6146","156.7","EVENING SHADE 1 NNE, AR US","    967.3","","     967.3","0","        79","0","        68","0","        18","0","        0","","         1","0","         0","0","        81","0","         2","0","       212","0","        86","0","","","","","  -14.4","0,1208,+","     0","T,0,1225, ","    76"," ,0,0218, ","  74.9"," ,0,0430, ","   40.6","0,0721, ","-1.1","0,1013","-2.2","0,1023","-6.7","0,1102","-6.7","0,1102","-11.1","0,1204","-1.1","0,0410","-5.0","0,0326","-5.0","0,0326","-7.2","0,0221","-14.4","0,0220","","","","","   1248.1"," ,0","       89"," ,0","     15.66","0","     23.04","0","      8.28","0"
"USC00032366","2007","36.0803","-91.6146","156.7","EVENING SHADE 1 NNE, AR US","","","","","","","","","","","        1","","         1","0","","","","","","","","","","","","","","","","","    51"," ,0,0201, ","    51"," ,0,0201, ","","","","","","","","","","","","","","","","","","","","","","","","","    1978.2","2","    1978.2","0","   1039.2"," ,0","       64"," ,0","","","","","",""
"USC00032366","2008","36.0803","-91.6146","156.7","EVENING SHADE 1 NNE, AR US","    819.0","","     819.0","0","        75","0","        70","0","        22","0","        4","","         2","0","         0","0","       111","0","         4","0","       203","0","        59","0","","","","","  -15.6","0,1223, ","   254"," ,0,0307, ","   254"," ,0,0307, "," 121.9"," ,0,0319, ","   38.3","0,0806,+","-2.8","0,1028","-2.8","0,1028","-6.7","0,1121","-6.7","0,1121","-9.4","0,1122","-0.6","0,0429","-2.2","0,0415","-4.4","0,0324","-6.7","0,0308","-9.4","0,0213","","","","","   1494.9"," ,0","      521"," ,0","     14.45","0","     21.61","0","      7.29","0"
"USC00032366","2009","36.0803","-91.6146","156.7","EVENING SHADE 1 NNE, AR US","","","","","","","","","","","","","","","","","","","","","","","","","","","         1"," ","","","","","","","","","","","","","","","","","","","","","","","","","","","","","","","","","","","","","","","","","","","",""
"USC00032366","2010","36.0803","-91.6146","156.7","EVENING SHADE 1 NNE, AR US","    935.9","","     935.9","0","        99","0","        67","0","        14","0","       12","","         5","0","         1","0","       111","0","        13","0","       214","0","        80","0","","","","","  -20.0","0,0110, ","   305"," ,0,0130, ","   229"," ,0,0130, ","  82.6"," ,0,0910, ","   38.9","0,0805,+","0.0","0,1004","-2.8","0,1029","-5.0","0,1030","-8.3","0,1201","-8.9","0,1207","0.0","0,0409","-4.4","0,0306","-4.4","0,0306","-8.3","0,0305","-10.6","0,0226","    2415.6","6","    2415.6","0","   1222.0"," ,0","      580"," ,0","     14.05","0","     21.52","0","      6.57","0"
"USC00032366","2011","36.0803","-91.6146","156.7","EVENING SHADE 1 NNE, AR US","    912.2","","     912.2","K","       111","K","        87","K","        21","K","","","","","         2","K","        98","K","         9","K","       204","K","        79","K","","","         2"," ","  -21.1","K,0211,+","","","","","  88.9"," ,K,1115, ","   43.3","K,0804, ","-1.7","7,1022","-2.2","7,1110","-4.4","7,1112","-6.7","7,1130","","","0.0","7,0417","-3.9","7,0406","-5.6","7,0312","-16.1","K,0212","-16.1","K,0212","    2419.1","1","    2419.1","K","   1721.9"," ,K","","","     14.44","K","     21.55","K","      7.33","K"
"USC00032366","2012","36.0803","-91.6146","156.7","EVENING SHADE 1 NNE, AR US","    926.7","","     926.7","7","        80","7","        61","7","        11","7","","","","","         0","7","       100","7","         2","7","       222","7","        70","7","","","         3"," ","  -12.2","7,1227, ","","","","","  74.9"," ,7,0309, ","   42.2","7,0630,+","-0.6","7,1028","-3.3","7,1029","-5.6","7,1113","-6.7","7,1115","-10.0","7,1211","-0.6","7,0412","-2.8","7,0311","-5.0","7,0304","-8.9","7,0213","-8.9","7,0213","    1890.7","7","    1890.7","7","   1004.3"," ,7","","","     15.44","7","     23.11","7","      7.77","7"
"USC00032366","2013","36.0803","-91.6146","156.7","EVENING SHADE 1 NNE, AR US","","","","","","","","","","","","","","","","","","","","","","","","","         1"," ","         3"," ","","","","","","","","","","","","","","","","","","","","","","","","","","","","","","","","","","","","","","","","","","","",""
"USC00032366","2014","36.0803","-91.6146","156.7","EVENING SHADE 1 NNE, AR US","    715.9","","     715.9","7","       109","7","        61","7","        12","7","       17","","         3","7","         3","7","       125","7","        18","7","       195","7","        31","7","         6"," ","        14"," ","  -18.9","7,0107, ","   127"," ,7,0203, ","   114"," ,7,0203, "," 135.6"," ,7,0428, ","   37.8","7,0825,+","-3.9","7,1102","-3.9","7,1102","-4.4","7,1113","-10.0","7,1114","-10.0","7,1114","-1.7","7,0417","-2.2","7,0416","-5.6","7,0327","-7.2","7,0326","-11.1","7,0306","    2766.0","0","    2766.0","7","   1058.0"," ,7","      246"," ,7","     12.89","7","     19.78","7","      6.01","7"
"USC00032366","2015","36.0803","-91.6146","156.7","EVENING SHADE 1 NNE, AR US","    726.9","","     726.9","7","       123","7","        83","7","        20","7","       11","","         4","7","         1","7","        99","7","        13","7","       200","7","        42","7","        16"," ","        39"," ","  -17.8","7,0110, ","   152"," ,7,0305, ","   140"," ,7,0305, "," 111.8"," ,7,1228, ","   35.6","7,0804, ","0.0","7,1018","-2.2","7,1109","-8.3","7,1122","-8.3","7,1122","","","-1.7","7,0405","-2.8","7,0329","-8.3","7,0307","-8.3","7,0307","-16.1","7,0306","    2543.7","7","    2543.7","7","   1748.0"," ,7","      241"," ,7","     14.03","7","     20.77","7","      7.28","7"
"USC00032366","2016","36.0803","-91.6146","156.7","EVENING SHADE 1 NNE, AR US","","","","","       105","7","        65","7","        13","7","        1","","         1","7","","","","","","","","","","","         8"," ","        29"," ","","","    25"," ,7,0122, ","    25"," ,7,0122, ","  81.3"," ,7,0815, ","","","","","","","","","","","","","","","","","","","","","","","","","","","   1131.5"," ,7","       25"," ,7","","","","","",""
"USC00032366","2017","36.0803","-91.6146","156.7","EVENING SHADE 1 NNE, AR US","    755.1","","     755.1","7","       119","7","        76","7","        15","7","        4","","         1","7","         0","7","        73","7","         6","7","       205","7","        23","7","         8"," ","        33"," ","  -15.0","7,0107, ","    76"," ,7,0312, ","    76"," ,7,0312, "," 101.6"," ,7,0430, ","   35.6","7,0726,+","-3.3","7,1028","-3.3","7,1028","-5.6","7,1029","-9.4","7,1208","-9.4","7,1208","-3.9","7,0316","-3.9","7,0316","-5.0","7,0315","-7.2","7,0205","-8.9","7,0204","    1858.2","2","    1858.2","7","   1321.6"," ,7","       94"," ,7","     15.05","7","     21.25","7","      8.84","7"
"USC00032366","2018","36.0803","-91.6146","156.7","EVENING SHADE 1 NNE, AR US","    975.9","","     975.9","7","       128","7","        84","7","        18","7","        1","","         1","7","         0","7","       104","7","        13","7","       182","7","        53","7","         7"," ","        24"," ","  -16.7","7,0117, ","    25"," ,7,1115, ","    25"," ,7,1115, ","  85.6"," ,7,1101, ","   37.2","7,0715,+","-0.6","7,1022","-5.0","7,1110","-5.0","7,1110","-6.7","7,1114","","","-0.6","7,0420","-4.4","7,0408","-4.4","7,0408","-7.2","7,0212","-8.9","7,0208","    2293.9","9","    2293.9","7","   1419.6"," ,7","       28"," ,7","     14.17","7","     20.23","7","      8.11","7"
"USC00032366","2019","36.0803","-91.6146","156.7","EVENING SHADE 1 NNE, AR US","","","","","       126","7","        91","7","        25","7","        2","","         1","7","","","","","","","","","","","        23"," ","        22"," ","","","    76"," ,7,0120, ","    64"," ,7,0120, ","  61.0"," ,7,0211, ","","","","","","","","","","","","","","","","","","","","","","","    2376.8","8","    2376.8","7","   1690.4"," ,7","       64"," ,7","","","","","",""
"USC00032366","2020","36.0803","-91.6146","156.7","EVENING SHADE 1 NNE, AR US","","","","","","","","","","","","","","","","","","","","","","","","","         9"," ","        27"," ","","","","","","","","","","","","","","","","","","","","","","","","","","","","","","","","","","","","","","","","","","","",""
