"STATION","DATE","LATITUDE","LONGITUDE","ELEVATION","NAME","CDSD","CDSD_ATTRIBUTES","CLDD","CLDD_ATTRIBUTES","DP01","DP01_ATTRIBUTES","DP10","DP10_ATTRIBUTES","DP1X","DP1X_ATTRIBUTES","DSND","DSND_ATTRIBUTES","DSNW","DSNW_ATTRIBUTES","DT00","DT00_ATTRIBUTES","DT32","DT32_ATTRIBUTES","DX32","DX32_ATTRIBUTES","DX70","DX70_ATTRIBUTES","DX90","DX90_ATTRIBUTES","DYFG","DYFG_ATTRIBUTES","DYTS","DYTS_ATTRIBUTES","EMNT","EMNT_ATTRIBUTES","EMSD","EMSD_ATTRIBUTES","EMSN","EMSN_ATTRIBUTES","EMXP","EMXP_ATTRIBUTES","EMXT","EMXT_ATTRIBUTES","FZF0","FZF0_ATTRIBUTES","FZF1","FZF1_ATTRIBUTES","FZF2","FZF2_ATTRIBUTES","FZF3","FZF3_ATTRIBUTES","FZF4","FZF4_ATTRIBUTES","FZF5","FZF5_ATTRIBUTES","FZF6","FZF6_ATTRIBUTES","FZF7","FZF7_ATTRIBUTES","FZF8","FZF8_ATTRIBUTES","FZF9","FZF9_ATTRIBUTES","HDSD","HDSD_ATTRIBUTES","HTDD","HTDD_ATTRIBUTES","PRCP","PRCP_ATTRIBUTES","SNOW","SNOW_ATTRIBUTES","TAVG","TAVG_ATTRIBUTES","TMAX","TMAX_ATTRIBUTES","TMIN","TMIN_ATTRIBUTES"
"USC00041806","1954","38.9238","-122.5672","411.2","CLEARLAKE 4 SE, CA US","","","","","","","","","","","","","","","","","","","","","","","","","         2"," ","","","","","","","","","","","","","","","","","","","","","","","","","","","","","","","","","","","","","","","","","","","","","",""
"USC00041806","1955","38.9238","-122.5672","411.2","CLEARLAKE 4 SE, CA US","    359.4","","     359.4","0","        61","0","        40","0","         6","0","        0","","         2","0","         0","0","        90","0","         0","0","       190","0","        69","0","         4"," ","         2"," ","   -7.8","0,0204,+","     0","T,0,1113, ","    51"," ,0,1113,+","  84.3"," ,0,1219, ","   43.9","0,0904,+","0.0","0,1007","-2.2","0,1031","-5.0","0,1207","","","","","-0.6","0,0429","-2.8","0,0427","-5.6","0,0321","-6.7","0,0228","","","","","","","    585.6"," ,0","      102"," ,0","     13.28","0","     22.14","0","      4.41","0"
"USC00041806","1956","38.9238","-122.5672","411.2","CLEARLAKE 4 SE, CA US","    383.2","","     383.2","0","        54","0","        35","0","         8","0","        0","","         1","0","         0","0","        85","0","         0","0","       197","0","        71","0","","","         1"," ","  -10.6","0,1227,+","     0","T,0,0219, ","    51"," ,0,0219, ","  43.4"," ,0,0114, ","   41.1","0,0723,+","-1.1","0,1015","-2.8","0,1024","-5.0","0,1115","-6.7","0,1123","-10.6","0,1208","-1.1","0,0413","-2.2","0,0406","-5.6","0,0218","-7.8","0,0202","","","    2045.4","4","    2045.4","0","    519.1"," ,0","       51"," ,0","     13.48","0","     22.52","0","      4.45","0"
"USC00041806","1957","38.9238","-122.5672","411.2","CLEARLAKE 4 SE, CA US","","","","","","","","","","","","","","","","","","","","","","","","","         3"," ","         1"," ","","","","","","","","","","","","","","","","","","","","","","","","","","","","","","","    2154.7","7","    2154.7","0","","","","","","","","","",""
"USC00041806","1958","38.9238","-122.5672","411.2","CLEARLAKE 4 SE, CA US","","","","","","","","","","","","","","","","","","","","","","","","","         7"," ","         6"," ","","","","","","","","","","","","","","","","","","","","","","","","","","","","","","","","","","","","","","","","","","","",""
"USC00041806","1959","38.9238","-122.5672","411.2","CLEARLAKE 4 SE, CA US","","","","","","","","","","","        0","","         0","0","","","","","","","","","","","","","","","","","     0"," ,0,1231,+","     0"," ,0,1231,+","","","","","","","","","","","","","","","","","","","","","","","","","","","","","","","        0"," ,0","","","","","",""
"USC00041806","1960","38.9238","-122.5672","411.2","CLEARLAKE 4 SE, CA US","","","","","","","","","","","","","","","","","","","","","","","","","","","         1"," ","","","","","","","","","","","","","","","","","","","","","","","","","","","","","","","","","","","","","","","","","","","",""
"USC00041806","1961","38.9238","-122.5672","411.2","CLEARLAKE 4 SE, CA US","    496.2","","     496.2","0","        43","0","        29","0","         5","0","","","         0","0","         0","0","        89","0","         0","0","       186","0","        88","0","","","","","   -8.3","0,0104,+","","","     0"," ,0,1231,+","  50.8"," ,0,1125, ","   41.7","0,0615, ","-3.9","0,1022","-3.9","0,1022","-5.0","0,1108","-7.8","0,1211","","","-0.6","0,0425","-2.2","0,0307","-4.4","0,0121","-7.8","0,0105","","","","","","","    454.9"," ,0","        0"," ,0","     13.84","0","     22.68","0","      4.99","0"
"USC00041806","1962","38.9238","-122.5672","411.2","CLEARLAKE 4 SE, CA US","","","","","        40","0","        33","0","         8","0","        0","","         0","0","","","","","","","","","","","","","","","","","     0"," ,0,1231,+","     0"," ,0,1231,+","  76.2"," ,0,1012, ","","","","","","","","","","","","","","","","","","","","","","","","","","","    619.1"," ,0","        0"," ,0","","","","","",""
"USC00041806","1964","38.9238","-122.5672","411.2","CLEARLAKE 4 SE, CA US","    383.3","","     383.3","0","        53","0","        39","0","         5","0","        0","","         0","0","         0","0","       118","0","         0","0","       201","0","        78","0","","","","","   -7.8","0,1217,+","     0"," ,0,1231,+","     0"," ,0,1231,+","  47.0"," ,0,1109, ","   42.2","0,0726,+","0.0","0,1016","-5.0","0,1114","-5.0","0,1114","-6.7","0,1117","","","0.0","0,0515","-2.2","0,0504","-5.0","0,0424","-6.7","0,0310","","","    2280.5","5","    2280.5","0","    491.1"," ,0","        0"," ,0","     13.18","0","     23.09","0","      3.27","0"
"USC00041806","1965","38.9238","-122.5672","411.2","CLEARLAKE 4 SE, CA US","    294.9","","     294.9","0","        46","0","        40","0","         8","0","","","         0","0","         0","0","       113","0","         0","0","       195","0","        72","0","","","","","  -10.0","0,1221, ","","","     0"," ,0,1231,+","  78.0"," ,0,1114, ","   39.4","0,0717, ","-1.1","0,0919","-2.2","0,1122","-5.6","0,1128","-8.9","0,1215","-8.9","0,1215","-0.6","0,0507","-3.9","0,0407","-4.4","0,0224","-7.2","0,0101","","","    2112.0","0","    2112.0","0","    659.5"," ,0","        0"," ,0","     12.92","0","     22.65","0","      3.18","0"
"USC00041806","1966","38.9238","-122.5672","411.2","CLEARLAKE 4 SE, CA US","    381.5","","     381.5","0","        46","0","        34","0","         7","0","        0","","         0","0","         0","0","       112","0","         0","0","       212","0","        86","0","","","","","   -8.9","0,0121, ","     0"," ,0,1231,+","     0"," ,0,1231,+","  58.9"," ,0,1120, ","   41.1","0,0808,+","0.0","0,1014","-2.8","0,1015","-4.4","0,1125","","","","","0.0","0,0505","-2.8","0,0429","-6.7","0,0317","-6.7","0,0317","-8.9","0,0121","    2237.6","6","    2237.6","0","    526.9"," ,0","        0"," ,0","     13.42","0","     23.55","0","      3.28","0"
"USC00041806","1967","38.9238","-122.5672","411.2","CLEARLAKE 4 SE, CA US","    544.8","","     544.8","0","        46","0","        40","0","         6","0","        0","","         0","0","         0","0","       110","0","         0","0","       189","0","       102","0","","","","","   -7.8","0,0106, ","     0"," ,0,1231,+","     0","T,0,0331, ","  43.2"," ,0,0316, ","   42.2","0,0816, ","-0.6","0,1016","-2.2","0,1125","-6.1","0,1206","-7.2","0,1216","","","0.0","0,0513","-3.3","0,0428","-5.0","0,0305","-6.7","0,0221","","","    2295.9","9","    2295.9","0","    623.6"," ,0","        0","T,0","     13.68","0","     23.22","0","      4.15","0"
"USC00041806","1969","38.9238","-122.5672","411.2","CLEARLAKE 4 SE, CA US","    481.2","","     481.2","0","        63","0","        49","0","        12","0","        0","","         0","0","         0","0","       104","0","         0","0","       202","0","        93","0","","","","","   -7.2","0,1201, ","     0"," ,0,1231,+","     0"," ,0,1231,+","  53.3"," ,0,0120, ","   41.7","0,0803, ","-1.1","0,1005","-5.0","0,1117","-5.0","0,1117","-6.7","0,1129","","","0.0","0,0416","-2.8","0,0319","-4.4","0,0313","-6.7","0,0109","","","","","","","    813.6"," ,0","        0"," ,0","     13.76","0","     22.99","0","      4.53","0"
"USC00041806","1970","38.9238","-122.5672","411.2","CLEARLAKE 4 SE, CA US","    443.7","","     443.7","0","        67","0","        47","0","        11","0","        0","","         0","0","         0","0","        82","0","         0","0","       195","0","       107","0","","","","","   -8.9","0,0103, ","     0"," ,0,1231,+","     0","T,0,1218, ","  73.7"," ,0,0109, ","   40.6","0,0812,+","-1.7","0,1026","-3.9","0,1027","-5.0","0,1212","-6.7","0,1225","","","-1.1","0,0512","-2.8","0,0429","-4.4","0,0128","-6.7","0,0106","-8.9","0,0103","    1941.9","9","    1941.9","0","    816.6"," ,0","        0","T,0","     13.89","0","     23.18","0","      4.60","0"
"USC00041806","1971","38.9238","-122.5672","411.2","CLEARLAKE 4 SE, CA US","    455.7","","     455.7","0","        53","0","        32","0","         3","0","        1","","         1","0","         0","0","       131","0","         0","0","       186","0","        79","0","","","","","   -8.3","0,0226, ","    76"," ,0,0113, ","    76"," ,0,0113, ","  44.7"," ,0,1222, ","   43.3","0,0811, ","-1.7","0,1001","-2.2","0,1017","-4.4","0,1031","-6.7","0,1216","","","-0.6","0,0421","-2.2","0,0401","-5.6","0,0306","-6.7","0,0302","","","    2201.8","8","    2201.8","0","    415.1"," ,0","       76"," ,0","     13.02","0","     22.07","0","      3.97","0"
"USC00041806","1972","38.9238","-122.5672","411.2","CLEARLAKE 4 SE, CA US","    527.4","","     527.4","0","        72","0","        42","0","         4","0","        1","","         3","0","         0","0","        92","0","         0","0","       187","0","        88","0","","","","","  -12.8","0,1211,+","   152"," ,0,0127, ","   152"," ,0,0127, ","  53.3"," ,0,1114, ","   45.0","0,0716, ","-0.6","0,1028","-2.2","0,1106","-8.9","0,1205","-8.9","0,1205","-8.9","0,1205","-0.6","0,0430","-2.2","0,0330","-4.4","0,0327","-6.7","0,0326","","","    2264.1","1","    2264.1","0","    450.9"," ,0","      215"," ,0","     13.58","0","     22.46","0","      4.70","0"
"USC00041806","1973","38.9238","-122.5672","411.2","CLEARLAKE 4 SE, CA US","    558.1","","     558.1","0","        96","0","        63","0","        12","0","        4","","         2","0","         0","0","        63","0","         0","0","       195","0","        89","0","","","","","  -10.0","0,0107, ","   254"," ,0,0109, ","   254"," ,0,0109, ","  55.1"," ,0,1201, ","   42.8","0,0727, ","0.0","0,1029","-2.8","0,1104","","","","","","","-1.1","0,0329","-2.8","0,0322","-4.4","0,0128","-10.0","0,0107","-10.0","0,0107","    2242.9","9","    2242.9","0","   1034.9"," ,0","      356"," ,0","     14.19","0","     22.56","0","      5.81","0"
"USC00041806","1974","38.9238","-122.5672","411.2","CLEARLAKE 4 SE, CA US","    513.2","","     513.2","0","        66","0","        45","0","         7","0","       10","","         4","0","         0","0","       100","0","         0","0","       191","0","        93","0","","","         1"," ","  -13.3","0,0105, ","   457"," ,0,0104, ","   406"," ,0,0104, ","  41.4"," ,0,1204, ","   40.6","0,0731,+","0.0","0,1102","-2.2","0,1119","-4.4","0,1219","","","","","-2.2","0,0518","-2.2","0,0518","-5.6","0,0224","-6.7","0,0111","-11.1","0,0110","    2210.2","2","    2210.2","0","    573.2"," ,0","      622"," ,0","     13.59","0","     22.78","0","      4.40","0"
"USC00041806","1975","38.9238","-122.5672","411.2","CLEARLAKE 4 SE, CA US","    406.6","","     406.6","0","        74","0","        49","0","         8","0","        0","","         0","0","         0","0","        99","0","         0","0","       177","0","        76","0","","","","","  -10.6","0,0130, ","     0","T,0,0201, ","     0","T,0,0201,+","  55.9"," ,0,0201, ","   42.2","0,0726, ","-0.6","0,1024","-2.2","0,1109","-5.6","0,1214","","","","","0.0","0,0429","-3.3","0,0417","-4.4","0,0224","-9.4","0,0131","-9.4","0,0131","    2289.6","6","    2289.6","0","    578.9"," ,0","        0","T,0","     13.01","0","     21.80","0","      4.21","0"
"USC00041806","1976","38.9238","-122.5672","411.2","CLEARLAKE 4 SE, CA US","    419.3","","     419.3","0","        48","0","        27","0","         1","0","        3","","         2","0","         0","0","       106","0","         0","0","       211","0","        64","0","","","         5"," ","   -8.9","0,0102, ","    51"," ,0,0303,+","   102"," ,0,0303, ","  37.1"," ,0,0408, ","   40.6","0,0727, ","0.0","0,1019","-2.2","0,1128","-4.4","0,1129","-6.7","0,1219","","","0.0","0,0413","-2.8","0,0411","-4.4","0,0402","-6.7","0,0305","-8.9","0,0102","    2202.7","7","    2202.7","0","    207.5"," ,0","      166"," ,0","     13.70","0","     22.87","0","      4.52","0"
"USC00041806","1977","38.9238","-122.5672","411.2","CLEARLAKE 4 SE, CA US","","","","","        61","0","        39","0","         6","0","        1","","         1","0","","","","","","","","","","","","","         1"," ","","","    51"," ,0,0316, ","    76"," ,0,0316, ","  42.9"," ,0,0316, ","","","","","","","","","","","","","","","","","","","","","","","    2036.3","3","    2036.3","0","    463.4"," ,0","       76"," ,0","","","","","",""
"USC00041806","1978","38.9238","-122.5672","411.2","CLEARLAKE 4 SE, CA US","    448.4","","     448.4","0","        60","0","        42","0","         9","0","        0","","         0","0","         0","0","        69","0","         0","0","       199","0","        67","0","","","","","   -9.4","0,1216, ","     0"," ,0,1231,+","     0"," ,0,1231,+","  56.4"," ,0,0115, ","   44.4","0,0809, ","-1.7","0,1101","-5.0","0,1114","-5.0","0,1114","-6.7","0,1115","-9.4","0,1216","-1.1","0,0422","-2.2","0,0127","","","","","","","","","","","    739.3"," ,0","        0"," ,0","     13.79","0","     22.47","0","      5.11","0"
"USC00041806","1979","38.9238","-122.5672","411.2","CLEARLAKE 4 SE, CA US","    485.0","","     485.0","0","        73","0","        56","0","        11","0","        0","","         0","0","         0","0","        83","0","         0","0","       189","0","        85","0","","","","","   -9.4","0,0129, ","     0"," ,0,1231,+","     0"," ,0,1231,+","  60.5"," ,0,1224, ","   41.7","0,0731, ","0.0","0,1021","-2.2","0,1114","-5.6","0,1121","-7.2","0,1212","","","-1.1","0,0419","-2.2","0,0215","-4.4","0,0204","-8.9","0,0130","-8.9","0,0130","    2194.1","1","    2194.1","0","    874.7"," ,0","        0"," ,0","     13.85","0","     22.39","0","      5.31","0"
"USC00041806","1980","38.9238","-122.5672","411.2","CLEARLAKE 4 SE, CA US","    419.5","","     419.5","0","        63","0","        43","0","         7","0","        0","","         0","0","         0","0","        87","0","         0","0","       187","0","        78","0","","","","","   -9.4","0,0130, ","     0"," ,0,1231,+","     0"," ,0,1231,+","  59.9"," ,0,1203, ","   41.7","0,0728,+","-0.6","0,1017","-4.4","0,1112","-4.4","0,1112","-7.2","0,1211","","","0.0","0,0412","-2.2","0,0407","-4.4","0,0213","-7.8","0,0131","-9.4","0,0130","    2078.4","4","    2078.4","0","    596.3"," ,0","        0"," ,0","     13.85","0","     22.81","0","      4.89","0"
"USC00041806","1981","38.9238","-122.5672","411.2","CLEARLAKE 4 SE, CA US","    642.3","","     642.3","0","        83","0","        53","0","         8","0","        0","","         0","0","         0","0","        62","0","         0","0","       184","0","        94","0","","","","","   -5.0","0,0131, ","     0"," ,0,1231,+","     0"," ,0,1231,+","  53.3"," ,0,1114, ","   44.4","0,0809, ","0.0","0,1015","-2.8","0,1129","","","","","","","0.0","0,0415","-2.2","0,0306","-4.4","0,0203","","","","","    1942.2","2","    1942.2","0","    775.0"," ,0","        0"," ,0","     14.76","0","     23.23","0","      6.28","0"
"USC00041806","1982","38.9238","-122.5672","411.2","CLEARLAKE 4 SE, CA US","    418.1","","     418.1","0","        86","0","        58","0","         9","0","","","","","         0","0","       102","0","         0","0","       175","0","        71","0","","","","","   -7.2","0,0108,+","","","","","  63.5"," ,0,0104, ","   40.6","0,0823, ","0.0","0,1027","-3.3","0,1111","-4.4","0,1114","-6.7","0,1230","","","-1.1","0,0416","-2.2","0,0409","-5.0","0,0212","-6.7","0,0205","","","    2194.0","0","    2194.0","0","    829.6"," ,0","","","     12.93","0","     21.38","0","      4.48","0"
"USC00041806","1983","38.9238","-122.5672","411.2","CLEARLAKE 4 SE, CA US","    273.1","","     273.1","0","       116","0","        88","0","        19","0","","","         0","0","         0","0","        67","0","         0","0","       170","0","        47","0","","","","","   -6.7","0,0102,+","","","     0","T,0,1223, "," 105.7"," ,0,0127, ","   38.3","0,0807, ","-1.1","0,1108","-2.2","0,1221","","","","","","","-0.6","0,0510","-2.8","0,0205","-4.4","0,0121","-6.7","0,0102","","","    2287.8","8","    2287.8","0","   1572.1"," ,0","        0","T,0","     13.00","0","     20.72","0","      5.28","0"
"USC00041806","1984","38.9238","-122.5672","411.2","CLEARLAKE 4 SE, CA US","","","","","        67","0","        41","0","         3","0","","","","","","","","","         0","0","       186","0","        77","0","","","","","","","","","","","  45.0"," ,0,1128, ","   41.1","0,0704, ","","","","","","","","","","","","","","","","","","","","","","","","","    512.6"," ,0","","","","","     22.49","0","",""
"USC00041806","1985","38.9238","-122.5672","411.2","CLEARLAKE 4 SE, CA US","","","","","","","","","","","","","","","","","","","","","","","","","         1"," ","","","","","","","","","","","","","","","","","","","","","","","","","","","","","","","","","","","","","","","","","","","","","",""
"USC00041806","1987","38.9238","-122.5672","411.2","CLEARLAKE 4 SE, CA US","","","","","        82","0","        53","0","         7","0","","","         0","0","","","","","         0","0","       200","0","        72","0","","","","","","","","","     0","T,0,1227,+","  44.5"," ,0,0305, ","   40.0","0,0830, ","","","","","","","","","","","","","","","","","","","","","","","","","    707.8"," ,0","        0","T,0","","","     22.63","0","",""
"USC00041806","1988","38.9238","-122.5672","411.2","CLEARLAKE 4 SE, CA US","","","","","        59","0","        36","0","         2","0","","","         1","0","","","","","         0","0","       207","0","        72","0","","","","","","","","","    25"," ,0,1224, ","  56.1"," ,0,0104, ","   43.3","0,0720,+","","","","","","","","","","","","","","","","","","","","","","","","","    436.2"," ,0","       25"," ,0","","","     23.19","0","",""
"USC00041806","1989","38.9238","-122.5672","411.2","CLEARLAKE 4 SE, CA US","","","","","        67","0","        36","0","         5","0","","","         2","0","","","","","         0","0","       199","0","        48","0","","","","","","","","","    25"," ,0,0205,+","  78.2"," ,0,1023, ","   37.8","0,0706, ","","","","","","","","","","","","","","","","","","","","","","","","","    535.1"," ,0","       50"," ,0","","","     22.30","0","",""
"USC00041806","1990","38.9238","-122.5672","411.2","CLEARLAKE 4 SE, CA US","","","","","        56","0","        29","0","         3","0","        0","","         1","0","","","","","         0","0","       210","0","        52","0","","","","","","","     0"," ,0,1231,+","    51"," ,0,0217, ","  61.2"," ,0,0113, ","   41.7","0,0807, ","","","","","","","","","","","","","","","","","","","","","","","","","    413.6"," ,0","       51"," ,0","","","     22.57","0","",""
"USC00041806","1991","38.9238","-122.5672","411.2","CLEARLAKE 4 SE, CA US","","","","","        57","0","        35","0","         6","0","        0","","         0","0","","","","","         0","0","       196","0","        67","0","","","","","","","     0"," ,0,1231,+","     0"," ,0,1231,+","  73.9"," ,0,0303, ","   41.1","0,0703, ","","","","","","","","","","","","","","","","","","","","","","","","","    609.3"," ,0","        0"," ,0","","","     22.87","0","",""
"USC00041806","1993","38.9238","-122.5672","411.2","CLEARLAKE 4 SE, CA US","","","","","        83","0","        51","0","        13","0","        0","","         0","0","","","","","         0","0","       182","0","        46","0","","","         1"," ","","","     0"," ,0,1231,+","     0"," ,0,1231,+","  65.5"," ,0,0101, ","   38.9","0,0801, ","","","","","","","","","","","","","","","","","","","","","","","","","    944.7"," ,0","        0"," ,0","","","     21.23","0","",""
"USC00041806","1994","38.9238","-122.5672","411.2","CLEARLAKE 4 SE, CA US","","","","","        66","0","        39","0","         6","0","        0","","         0","0","","","","","","","","","","","","","","","","","     0"," ,0,1231,+","     0"," ,0,1231,+","  43.4"," ,0,0207, ","","","","","","","","","","","","","","","","","","","","","","","","","","","    533.9"," ,0","        0"," ,0","","","","","",""
"USC00041806","1995","38.9238","-122.5672","411.2","CLEARLAKE 4 SE, CA US","","","","","        95","0","        66","0","        12","0","        0","","         0","0","","","","","         0","0","       200","0","        50","0","","","","","","","     0"," ,0,1231,+","    13"," ,0,0323, "," 164.3"," ,0,0109, ","   38.9","0,0803,+","","","","","","","","","","","","","","","","","","","","","","","","","   1458.1"," ,0","       13"," ,0","","","     22.24","0","",""
"USC00041806","1996","38.9238","-122.5672","411.2","CLEARLAKE 4 SE, CA US","","","","","        83","0","        55","0","         8","0","        0","","         1","0","","","","","","","","","","","         1"," ","","","","","     0"," ,0,1231,+","    38"," ,0,0227, ","  58.9"," ,0,1210, ","","","","","","","","","","","","","","","","","","","","","","","","","","","    947.0"," ,0","       38"," ,0","","","","","",""
"USC00041806","1997","38.9238","-122.5672","411.2","CLEARLAKE 4 SE, CA US","","","","","        68","0","        44","0","         7","0","        0","","         1","0","","","","","         0","0","       202","0","        40","0","","","","","","","     0"," ,0,1231,+","    25"," ,0,0115, "," 112.5"," ,0,0101, ","   38.9","0,0808,+","","","","","","","","","","","","","","","","","","","","","","","","","    767.6"," ,0","       25"," ,0","","","     22.20","0","",""
"USC00041806","1998","38.9238","-122.5672","411.2","CLEARLAKE 4 SE, CA US","","","","","       124","0","        78","0","        16","0","","","         0","0","","","","","         0","0","       151","0","        46","0","","","","","","","","","     0"," ,0,1231,+"," 119.4"," ,0,0203, ","   41.7","0,0903, ","","","","","","","","","","","","","","","","","","","","","","","","","   1358.0"," ,0","        0"," ,0","","","     20.00","0","",""
"USC00041806","1999","38.9238","-122.5672","411.2","CLEARLAKE 4 SE, CA US","","","","","        68","0","        40","0","         7","0","        0","","         0","0","","","","","         0","0","       191","0","        43","0","","","","","","","     0"," ,0,1231,+","     0"," ,0,1231,+","  61.5"," ,0,0209, ","   39.4","0,0713, ","","","","","","","","","","","","","","","","","","","","","","","","","    598.8"," ,0","        0"," ,0","","","     21.82","0","",""
"USC00041806","2000","38.9238","-122.5672","411.2","CLEARLAKE 4 SE, CA US","","","","","        82","0","        57","0","         7","0","        0","","         0","0","","","","","         0","0","       184","0","        67","0","","","","","","","     0"," ,0,1231,+","     0"," ,0,1231,+","  46.2"," ,0,0223, ","   40.6","0,0615, ","","","","","","","","","","","","","","","","","","","","","","","","","    701.2"," ,0","        0"," ,0","","","     21.78","0","",""
"USC00041806","2002","38.9238","-122.5672","411.2","CLEARLAKE 4 SE, CA US","","","","","        55","0","        31","0","         9","0","        0","","         1","0","","","","","         0","0","       213","0","        88","0","","","","","","","     0"," ,0,1231,+","    51"," ,0,0128, "," 109.0"," ,0,1216, ","   42.8","0,0711, ","","","","","","","","","","","","","","","","","","","","","","","","","    745.5"," ,0","       64"," ,0","","","     23.42","0","",""
"USC00041806","2003","38.9238","-122.5672","411.2","CLEARLAKE 4 SE, CA US","","","","","        79","0","        47","0","        10","0","        0","","         0","0","","","","","         0","0","       178","0","        69","0","","","","","","","     0"," ,0,1231,+","     0"," ,0,1231,+","  59.9"," ,0,0315, ","   38.9","0,0730,+","","","","","","","","","","","","","","","","","","","","","","","","","    853.7"," ,0","        0"," ,0","","","     21.96","0","",""
"USC00041806","2004","38.9238","-122.5672","411.2","CLEARLAKE 4 SE, CA US","","","","","        74","0","        42","0","        11","0","        0","","         0","0","","","","","         0","0","       197","0","        52","0","","","","","","","     0"," ,0,1231,+","     0"," ,0,1231,+","  81.5"," ,0,0217, ","   37.2","0,0813, ","","","","","","","","","","","","","","","","","","","","","","","","","    871.2"," ,0","        0"," ,0","","","     22.32","0","",""
"USC00041806","2005","38.9238","-122.5672","411.2","CLEARLAKE 4 SE, CA US","","","","","        90","0","        57","0","        10","0","        0","","         0","0","","","","","         0","0","       182","0","        55","0","         4"," ","","","","","     0"," ,0,1231,+","     0"," ,0,1231,+","  81.3"," ,0,1231, ","   38.9","0,0718, ","","","","","","","","","","","","","","","","","","","","","","","","","    996.2"," ,0","        0"," ,0","","","     21.57","0","",""
"USC00041806","2006","38.9238","-122.5672","411.2","CLEARLAKE 4 SE, CA US","","","","","        96","0","        61","0","         8","0","        0","","         0","0","","","","","         0","0","       179","0","        63","0","         1"," ","","","","","     0"," ,0,1231,+","    13"," ,0,0312, ","  68.8"," ,0,0412, ","   43.9","0,0723, ","","","","","","","","","","","","","","","","","","","","","","","","","    883.0"," ,0","       13"," ,0","","","     21.59","0","",""
"USC00041806","2007","38.9238","-122.5672","411.2","CLEARLAKE 4 SE, CA US","","","","","","","","","","","","","","","","","","","","","","","","","         1"," ","","","","","","","","","","","","","","","","","","","","","","","","","","","","","","","","","","","","","","","","","","","","","",""
"USC00041806","2010","38.9238","-122.5672","411.2","CLEARLAKE 4 SE, CA US","","","","","","","","","","","        0","","         0","0","","","","","","","","","","","","","","","","","     0"," ,0,1231,+","     0"," ,0,1231,+","","","","","","","","","","","","","","","","","","","","","","","","","","","","","    946.4"," ,0","        0"," ,0","","","","","",""
