"STATION","DATE","LATITUDE","LONGITUDE","ELEVATION","NAME","CDSD","CDSD_ATTRIBUTES","CLDD","CLDD_ATTRIBUTES","DP01","DP01_ATTRIBUTES","DP10","DP10_ATTRIBUTES","DP1X","DP1X_ATTRIBUTES","DSND","DSND_ATTRIBUTES","DSNW","DSNW_ATTRIBUTES","DT00","DT00_ATTRIBUTES","DT32","DT32_ATTRIBUTES","DX32","DX32_ATTRIBUTES","DX70","DX70_ATTRIBUTES","DX90","DX90_ATTRIBUTES","DYFG","DYFG_ATTRIBUTES","DYTS","DYTS_ATTRIBUTES","EMNT","EMNT_ATTRIBUTES","EMSD","EMSD_ATTRIBUTES","EMSN","EMSN_ATTRIBUTES","EMXP","EMXP_ATTRIBUTES","EMXT","EMXT_ATTRIBUTES","FZF0","FZF0_ATTRIBUTES","FZF1","FZF1_ATTRIBUTES","FZF2","FZF2_ATTRIBUTES","FZF3","FZF3_ATTRIBUTES","FZF4","FZF4_ATTRIBUTES","FZF5","FZF5_ATTRIBUTES","FZF6","FZF6_ATTRIBUTES","FZF7","FZF7_ATTRIBUTES","FZF8","FZF8_ATTRIBUTES","FZF9","FZF9_ATTRIBUTES","HDSD","HDSD_ATTRIBUTES","HTDD","HTDD_ATTRIBUTES","PRCP","PRCP_ATTRIBUTES","SNOW","SNOW_ATTRIBUTES","TAVG","TAVG_ATTRIBUTES","TMAX","TMAX_ATTRIBUTES","TMIN","TMIN_ATTRIBUTES"
"USC00418415","1917","30.0093","-97.1644","96.6","SMITHVILLE, TX US","","","","","","","","","","","","","","","","","","","","","","","","","","","         1"," ","","","","","","","","","","","","","","","","","","","","","","","","","","","","","","","","","","","","","","","","","","","",""
"USC00418415","1918","30.0093","-97.1644","96.6","SMITHVILLE, TX US","","","","","        53","0","        48","0","         8","0","        1","","         1","0","","","","","","","","","","","","","        31"," ","","","    51"," ,0,0111, ","    76"," ,0,0111, ","  91.7"," ,0,0429, ","","","","","","","","","","","","","","","","","","","","","","","","","","","    761.3"," ,0","       76"," ,0","","","","","",""
"USC00418415","1919","30.0093","-97.1644","96.6","SMITHVILLE, TX US","","","","","        98","0","        79","0","        18","0","        0","","         0","0","","","","","","","","","","","         1"," ","        30"," ","","","     0"," ,0,1231,+","     0","T,0,1213, "," 104.4"," ,0,0507, ","","","","","","","","","","","","","","","","","","","","","","","","","","","   1390.9"," ,0","        0","T,0","","","","","",""
"USC00418415","1920","30.0093","-97.1644","96.6","SMITHVILLE, TX US","","","","","","","","","","","","","","","","","","","","","","","","","","","         9"," ","","","","","","","","","","","","","","","","","","","","","","","","","","","","","","","","","","","","","","","","","","","",""
"USC00418415","1921","30.0093","-97.1644","96.6","SMITHVILLE, TX US","","","","","","","","","","","","","","","","","","","","","","","","","         5"," ","        28"," ","","","","","","","","","","","","","","","","","","","","","","","","","","","","","","","","","","","","","","","","","","","",""
"USC00418415","1922","30.0093","-97.1644","96.6","SMITHVILLE, TX US","","","","","        80","0","        54","0","        10","0","        0","","         0","0","         0","0","        11","0","","","","","","","","","        32"," ","   -4.4","0,0302,+","     0"," ,0,1231,+","     0","T,0,0301, ","  72.4"," ,0,0404, ","","","0.0","0,1219","","","","","","","","","-0.6","0,0304","-2.8","0,0303","-4.4","0,0302","","","","","","","","","    852.9"," ,0","        0","T,0","","","","","     16.45","0"
"USC00418415","1923","30.0093","-97.1644","96.6","SMITHVILLE, TX US","   1676.8","","    1676.8","0","        88","0","        70","0","        13","0","        0","","         1","0","         0","0","         7","0","         0","0","       273","0","        98","0","         1"," ","        34"," ","   -4.4","0,0205, ","     0"," ,0,1231,+","    51"," ,0,0204, ","  85.9"," ,0,0327, ","   37.8","0,0819,+","0.0","0,1214","","","","","","","","","-2.8","0,0319","-2.8","0,0319","-4.4","0,0205","","","","","","","","","   1192.7"," ,0","       51"," ,0","     21.08","0","     25.76","0","     16.40","0"
"USC00418415","1924","30.0093","-97.1644","96.6","SMITHVILLE, TX US","","","","","        54","0","        40","0","         9","0","        0","","         0","0","         0","0","        23","0","","","","","","","         6"," ","        16"," ","   -8.3","0,1220, ","     0","T,0,1221, ","    13"," ,0,1221, "," 105.4"," ,0,0530, ","","","0.0","0,1125","-5.6","0,1219","-5.6","0,1219","-8.3","0,1220","","","-0.6","0,0309","-5.0","0,0121","-5.0","0,0121","","","","","","","","","    828.9"," ,0","       89"," ,0","","","","","     14.87","0"
"USC00418415","1925","30.0093","-97.1644","96.6","SMITHVILLE, TX US","   1867.0","","    1867.0","0","        60","0","        44","0","         7","0","        1","","         1","0","         0","0","        20","0","         1","0","       269","0","       121","0","         2"," ","         9"," ","   -8.9","0,1228, ","    25"," ,0,1228, ","    25"," ,0,1228, "," 110.5"," ,0,1013, ","   40.6","0,0715,+","0.0","0,1116","-3.3","0,1222","-5.6","0,1223","-8.9","0,1228","-8.9","0,1228","-5.0","0,0128","-5.0","0,0128","-5.0","0,0128","","","","","     792.2","2","     792.2","0","    698.9"," ,0","       25"," ,0","     20.88","0","     26.36","0","     15.40","0"
"USC00418415","1926","30.0093","-97.1644","96.6","SMITHVILLE, TX US","   1535.3","","    1535.3","0","        84","0","        72","0","        16","0","        2","","         2","0","         0","0","        27","0","         0","0","       278","0","       131","0","         5"," ","        32"," ","   -6.7","0,0125, ","   102"," ,0,0123, ","   152"," ,0,0123, "," 167.4"," ,0,0421, ","   39.4","0,0808, ","-1.1","0,1110","-2.8","0,1118","-4.4","0,1230","","","","","0.0","0,0331","-2.8","0,0126","-6.7","0,0125","-6.7","0,0125","","","    1059.0","0","    1059.0","0","   1334.6"," ,0","      279"," ,0","     19.88","0","     26.74","0","     13.01","0"
"USC00418415","1927","30.0093","-97.1644","96.6","SMITHVILLE, TX US","   1660.2","","    1660.2","0","        65","0","        45","0","         7","0","        0","","         0","0","         0","0","        28","0","         0","0","       309","0","       100","0","","","        10"," ","   -6.1","0,1231,+","     0"," ,0,1231,+","     0","T,0,1220,+","  61.0"," ,0,1002, ","   41.1","0,0831, ","0.0","0,1118","-3.9","0,1203","-6.1","0,1208","","","","","0.0","0,0322","-2.2","0,0302","-4.4","0,0219","","","","","     802.0","0","     802.0","0","    702.8"," ,0","        0","T,0","     20.79","0","     27.61","0","     13.97","0"
"USC00418415","1928","30.0093","-97.1644","96.6","SMITHVILLE, TX US","   1598.6","","    1598.6","0","        64","0","        43","0","        10","0","        0","","         0","0","         0","0","        35","0","         1","0","       283","0","       139","0","","","         7"," ","  -11.7","0,0102, ","     0"," ,0,1231,+","     0","T,0,0410, ","  76.2"," ,0,0625, ","   40.0","0,0822,+","0.0","0,1104","-2.8","0,1120","-4.4","0,1223","","","","","0.0","0,0320","-2.2","0,0226","-5.0","0,0105","-8.9","0,0104","-8.9","0,0104","     884.9","9","     884.9","0","    738.0"," ,0","        0","T,0","     20.04","0","     27.60","0","     12.48","0"
"USC00418415","1929","30.0093","-97.1644","96.6","SMITHVILLE, TX US","   1561.9","","    1561.9","0","        63","0","        54","0","        11","0","        3","","         1","0","         0","0","        46","0","         0","0","       285","0","       139","0","         1"," ","         9"," ","  -16.1","0,1222, ","   178"," ,0,1221, ","   203"," ,0,1221, "," 101.9"," ,0,0528, ","   38.9","0,0908,+","0.0","0,1114","-2.8","0,1123","-7.8","0,1203","-7.8","0,1203","-16.1","0,1222","-2.8","0,0302","-2.8","0,0302","-4.4","0,0220","-6.7","0,0212","","","     973.3","3","     973.3","0","   1037.2"," ,0","      203"," ,0","     19.72","0","     27.02","0","     12.42","0"
"USC00418415","1930","30.0093","-97.1644","96.6","SMITHVILLE, TX US","   1522.3","","    1522.3","0","        80","0","        59","0","        12","0","        0","","         0","0","         1","0","        39","0","         5","0","       275","0","       117","0","","","         8"," ","  -18.3","0,0118, ","     0"," ,0,1231,+","     0","T,0,0121,+","  76.2"," ,0,0517, ","   41.1","0,0820, ","-3.9","0,1125","-3.9","0,1125","-4.4","0,1127","","","","","0.0","0,0330","-4.4","0,0130","-4.4","0,0130","-8.3","0,0124","-12.2","0,0123","    1131.5","5","    1131.5","0","   1043.4"," ,0","        0","T,0","     19.44","0","     26.65","0","     12.23","0"
"USC00418415","1931","30.0093","-97.1644","96.6","SMITHVILLE, TX US","   1625.2","","    1625.2","0","        69","0","        56","0","        12","0","        0","","         0","0","         0","0","        21","0","         0","0","       286","0","       142","0","         1"," ","         5"," ","   -3.9","0,0114,+","     0"," ,0,1231,+","     0","T,0,1218,+","  53.6"," ,0,0713, ","   39.4","0,0711, ","-2.8","0,1204","-2.8","0,1204","","","","","","","-1.1","0,0329","-2.2","0,0309","","","","","","","    1034.1","1","    1034.1","0","    878.2"," ,0","        0","T,0","     20.35","0","     27.81","0","     12.90","0"
"USC00418415","1932","30.0093","-97.1644","96.6","SMITHVILLE, TX US","   1431.2","","    1431.2","0","        84","0","        58","0","        12","0","        0","","         0","0","         0","0","        44","0","         1","0","       303","0","       125","0","","","         6"," ","  -10.6","0,1217, ","     0","T,0,0310, ","    13"," ,0,0310, "," 114.3"," ,0,0104, ","   41.7","0,0718,+","-1.1","0,1109","-3.9","0,1112","-5.0","0,1116","-6.7","0,1213","-10.6","0,1217","-0.6","0,0412","-5.0","0,0314","-5.0","0,0314","-7.2","0,0313","","","     760.7","7","     760.7","0","   1028.1"," ,0","       13"," ,0","     19.47","0","     27.26","0","     11.69","0"
"USC00418415","1933","30.0093","-97.1644","96.6","SMITHVILLE, TX US","","","","","        70","0","        52","0","         6","0","        0","","         0","0","","","","","         0","0","       322","0","       160","0","         2"," ","        17"," ","","","     0"," ,0,1231,+","     0"," ,0,1231,+"," 166.1"," ,0,0525, ","   41.1","0,0712, ","","","","","","","","","","","","","","","","","","","","","","","","","    761.1"," ,0","        0"," ,0","","","     29.27","0","",""
"USC00418415","1934","30.0093","-97.1644","96.6","SMITHVILLE, TX US","   2024.4","","    2024.4","0","        66","0","        52","0","        10","0","        0","","         0","0","         0","0","        13","0","         0","0","       309","0","       162","0","         1"," ","        17"," ","   -3.3","0,0109, ","     0"," ,0,1231,+","     0","T,0,0318, ","  77.5"," ,0,1227, ","   42.8","0,0724, ","-1.1","0,1201","-2.8","0,1208","","","","","","","-1.7","0,0319","-2.8","0,0226","","","","","","","","","","","    850.9"," ,0","        0","T,0","     22.05","0","     29.27","0","     14.83","0"
"USC00418415","1935","30.0093","-97.1644","96.6","SMITHVILLE, TX US","   1803.0","","    1803.0","0","        86","0","        70","0","        13","0","        0","","         0","0","         0","0","        16","0","         0","0","       302","0","       123","0","         5"," ","        12"," ","   -7.8","0,0122, ","     0"," ,0,1231,+","     0","T,0,1230,+","  77.5"," ,0,0518, ","   40.6","0,0824,+","-0.6","0,1112","-2.2","0,1230","","","","","","","-2.8","0,0228","-2.8","0,0228","-5.0","0,0227","-7.8","0,0122","","","     572.2","2","     572.2","0","   1107.6"," ,0","        0","T,0","     21.38","0","     27.74","0","     15.02","0"
"USC00418415","1936","30.0093","-97.1644","96.6","SMITHVILLE, TX US","   1602.4","","    1602.4","0","        71","0","        54","0","        11","0","        0","","         0","0","         0","0","        32","0","         0","0","       299","0","       119","0","         5"," ","         9"," ","   -8.9","0,0218, ","     0"," ,0,1231,+","     0","T,0,1213,+"," 152.4"," ,0,0701, ","   43.3","0,0810, ","-0.6","0,1104","","","","","","","","","0.0","0,0403","-5.6","0,0219","-5.6","0,0219","-8.9","0,0218","-8.9","0,0218","     887.6","6","     887.6","0","   1111.3"," ,0","        0","T,0","     20.18","0","     27.17","0","     13.19","0"
"USC00418415","1937","30.0093","-97.1644","96.6","SMITHVILLE, TX US","   1878.2","","    1878.2","0","        70","0","        50","0","         9","0","        0","","         0","0","         0","0","        29","0","         3","0","       280","0","       160","0","        14"," ","        10"," ","   -4.4","0,1209,+","     0"," ,0,1231,+","     0","T,0,1123,+","  63.5"," ,0,0605, ","   42.2","0,0809, ","-1.7","0,1117","-3.9","0,1120","-4.4","0,1209","","","","","-1.7","0,0331","-2.8","0,0301","-4.4","0,0110","","","","","     946.3","3","     946.3","0","    695.2"," ,0","        0","T,0","     20.83","0","     28.06","0","     13.61","0"
"USC00418415","1938","30.0093","-97.1644","96.6","SMITHVILLE, TX US","   1844.3","","    1844.3","0","        69","0","        57","0","        13","0","        0","","         0","0","         0","0","        20","0","         0","0","       311","0","       152","0","         4"," ","        34"," ","   -6.7","0,1125, ","     0"," ,0,1231,+","     0"," ,0,1231,+","  95.3"," ,0,0424, ","   40.6","0,1002,+","-1.7","0,1108","-2.2","0,1109","-6.7","0,1125","-6.7","0,1125","","","0.0","0,0410","-5.0","0,0201","-5.0","0,0201","","","","","     711.5","5","     711.5","0","    987.3"," ,0","        0"," ,0","     21.47","0","     29.03","0","     13.92","0"
"USC00418415","1939","30.0093","-97.1644","96.6","SMITHVILLE, TX US","   2061.4","","    2061.4","0","        67","0","        51","0","         9","0","        0","","         0","0","         0","0","        18","0","         0","0","       309","0","       167","0","         7"," ","        18"," ","   -3.9","0,1229, ","     0"," ,0,1231,+","     0"," ,0,1231,+","  71.1"," ,0,0619, ","   42.8","0,0709,+","0.0","0,1214","-3.9","0,1229","","","","","","","0.0","0,0226","-2.2","0,0223","","","","","","","     751.5","5","     751.5","0","    696.1"," ,0","        0"," ,0","     22.10","0","     29.60","0","     14.60","0"
"USC00418415","1940","30.0093","-97.1644","96.6","SMITHVILLE, TX US","   1650.0","","    1650.0","0","        76","0","        66","0","        11","0","        1","","         1","0","         0","0","        30","0","         0","0","       284","0","       125","0","         8"," ","        14"," ","  -11.7","0,0119, ","    25"," ,0,0122, ","    51"," ,0,0122, "," 407.7"," ,0,0630, ","   41.7","0,0829,+","-0.6","0,1113","-2.8","0,1114","","","","","","","0.0","0,0413","-2.2","0,0210","-5.0","0,0128","-7.8","0,0127","-11.1","0,0123","     919.2","2","     919.2","0","   1461.8"," ,0","       51"," ,0","     20.29","0","     27.10","0","     13.48","0"
"USC00418415","1941","30.0093","-97.1644","96.6","SMITHVILLE, TX US","","","","","","","","","","","","","","","","","","","","","","","","","         5"," ","        24"," ","","","","","","","","","","","","","","","","","","","","","","","","","","","","","","","     719.9","9","     719.9","0","","","","","","","","","",""
"USC00418415","1942","30.0093","-97.1644","96.6","SMITHVILLE, TX US","   1834.1","","    1834.1","0","        75","0","        53","0","        10","0","        0","","         0","0","         0","0","        18","0","         0","0","       310","0","       129","0","        22"," ","        12"," ","   -7.2","0,0108, ","     0"," ,0,1231,+","     0","T,0,0211,+"," 127.0"," ,0,0705, ","   40.6","0,0613,+","0.0","0,1209","","","","","","","","","-1.1","0,0303","-2.2","0,0218","-5.0","0,0111","-7.2","0,0108","","","","","","","    877.6"," ,0","        0","T,0","     21.32","0","     28.25","0","     14.39","0"
"USC00418415","1943","30.0093","-97.1644","96.6","SMITHVILLE, TX US","   1914.1","","    1914.1","0","        53","0","        51","0","         8","0","        0","","         0","0","         0","0","        25","0","         0","0","       301","0","       147","0","        18"," ","        11"," ","  -10.0","0,0119, ","     0"," ,0,1231,+","     0","T,0,0126,+","  54.1"," ,0,0529, ","   43.3","0,0817, ","-1.1","0,1130","-5.0","0,1215","-5.0","0,1215","","","","","-0.6","0,0308","-3.9","0,0307","-7.2","0,0303","-7.2","0,0303","-10.0","0,0119","     613.7","7","     613.7","0","    685.0"," ,0","        0","T,0","     21.49","0","     28.63","0","     14.35","0"
"USC00418415","1944","30.0093","-97.1644","96.6","SMITHVILLE, TX US","   1893.7","","    1893.7","0","        80","0","        68","0","        13","0","        2","","         1","0","         0","0","        20","0","         0","0","       287","0","       142","0","        27"," ","        11"," ","  -11.7","0,0115, ","   152"," ,0,0114, ","   152"," ,0,0114, ","  78.7"," ,0,0830, ","   42.8","0,0801,+","-0.6","0,1127","-2.2","0,1210","","","","","","","-0.6","0,0330","-11.7","0,0115","-11.7","0,0115","-11.7","0,0115","-11.7","0,0115","     765.2","2","     765.2","0","   1171.4"," ,0","      152"," ,0","     21.41","0","     28.31","0","     14.51","0"
"USC00418415","1945","30.0093","-97.1644","96.6","SMITHVILLE, TX US","   1901.2","","    1901.2","0","        71","0","        60","0","        14","0","        0","","         0","0","         0","0","        11","0","         0","0","       306","0","       143","0","        30"," ","        16"," ","   -4.4","0,1219, ","     0"," ,0,1231,+","     0","T,0,1203, ","  81.3"," ,0,0330, ","   42.8","0,0817, ","0.0","0,1122","-2.8","0,1215","-4.4","0,1219","","","","","-1.1","0,0110","","","","","","","","","     687.9","9","     687.9","0","   1004.5"," ,0","        0","T,0","     21.84","0","     28.77","0","     14.91","0"
"USC00418415","1946","30.0093","-97.1644","96.6","SMITHVILLE, TX US","   1744.5","","    1744.5","0","        83","0","        64","0","        18","0","        0","","         0","0","         0","0","        14","0","         2","0","       308","0","       102","0","         9"," ","        13"," ","   -3.9","0,1231,+","     0"," ,0,1231,+","     0","T,0,1231, ","  91.4"," ,0,0829, ","   41.1","0,0819, ","-1.7","0,1203","-2.2","0,1229","","","","","","","-1.7","0,0215","-2.8","0,0127","","","","","","","     646.0","0","     646.0","0","   1284.2"," ,0","        0","T,0","     21.34","0","     27.59","0","     15.08","0"
"USC00418415","1947","30.0093","-97.1644","96.6","SMITHVILLE, TX US","   1639.6","","    1639.6","0","        71","0","        53","0","         6","0","        0","","         0","0","         0","0","        36","0","         2","0","       280","0","       162","0","        32"," ","        17"," ","   -9.4","0,0104, ","     0"," ,0,1231,+","     0"," ,0,1231,+"," 152.7"," ,0,0826, ","   43.3","0,0811,+","-2.8","0,1108","-2.8","0,1108","","","","","","","-1.7","0,0316","-3.3","0,0302","-5.0","0,0210","-6.7","0,0105","-9.4","0,0104","     932.6","6","     932.6","0","    774.9"," ,0","        0"," ,0","     19.85","0","     27.79","0","     11.90","0"
"USC00418415","1948","30.0093","-97.1644","96.6","SMITHVILLE, TX US","","","","","        62","0","        45","0","         7","0","        0","","         0","0","         0","0","        49","0","","","","","","","        39"," ","        21"," ","   -8.3","0,0124, ","     0"," ,0,1231,+","     0","T,0,0312, ","  71.1"," ,0,0629, ","","","-2.8","0,1110","-2.8","0,1110","","","","","","","-1.1","0,0315","-4.4","0,0314","-4.4","0,0314","-6.7","0,0313","","","","","","","    611.2"," ,0","        0","T,0","","","","","     12.39","0"
"USC00418415","1949","30.0093","-97.1644","96.6","SMITHVILLE, TX US","","","","","","","","","","","","","","","","","","","","","","","","","        10"," ","        11"," ","","","","","","","","","","","","","","","","","","","","","","","","","","","","","","","","","","","","","","","","","","","",""
"USC00418415","1950","30.0093","-97.1644","96.6","SMITHVILLE, TX US","   1673.4","","    1673.4","0","        93","0","        42","0","        11","0","        0","","         0","0","         0","0","        22","0","         0","0","       300","0","       139","0","","","","","   -9.4","0,1207, ","     0"," ,0,1231,+","     0"," ,0,1231,+","  82.3"," ,0,0417, ","   40.0","0,0807,+","-2.8","0,1111","-2.8","0,1111","-5.6","0,1112","-7.2","0,1206","-9.4","0,1207","-0.6","0,0314","-2.2","0,0108","","","","","","","     803.4","4","     803.4","0","    809.4"," ,0","        0"," ,0","     20.53","0","     27.61","0","     13.45","0"
"USC00418415","1951","30.0093","-97.1644","96.6","SMITHVILLE, TX US","","","","","        60","0","        42","0","         7","0","        0","","         0","0","","","","","","","","","","","","","","","","","     0"," ,0,1231,+","     0"," ,0,1231,+","  63.5"," ,0,0914, ","","","","","","","","","","","","","","","","","","","","","","","","","","","    755.0"," ,0","        0"," ,0","","","","","",""
"USC00418415","1952","30.0093","-97.1644","96.6","SMITHVILLE, TX US","   1343.4","","    1343.4","0","        53","0","        45","0","        11","0","        0","","         0","0","         0","0","        25","0","         0","0","       290","0","       114","0","","","","","   -5.0","0,1215, ","     0"," ,0,1231,+","     0"," ,0,1231,+","  61.0"," ,0,1230, ","   41.7","0,0819, ","-0.6","0,1111","-5.0","0,1215","-5.0","0,1215","","","","","-3.9","0,0324","-3.9","0,0324","","","","","","","","","","","    811.9"," ,0","        0"," ,0","     19.40","0","     26.71","0","     12.08","0"
"USC00418415","1953","30.0093","-97.1644","96.6","SMITHVILLE, TX US","   1601.2","","    1601.2","0","        71","0","        48","0","        12","0","        0","","         0","0","         0","0","        24","0","         0","0","       291","0","       117","0","","","","","   -6.1","0,1224, ","     0"," ,0,1231,+","     0"," ,0,1231,+"," 142.2"," ,0,0429, ","   41.1","0,0811,+","0.0","0,1123","-3.9","0,1210","-4.4","0,1223","","","","","-0.6","0,0223","-2.2","0,0118","","","","","","","     922.3","3","     922.3","0","    973.4"," ,0","        0"," ,0","     20.18","0","     27.06","0","     13.30","0"
"USC00418415","1955","30.0093","-97.1644","96.6","SMITHVILLE, TX US","   1766.9","","    1766.9","0","        55","0","        40","0","         9","0","        0","","         0","0","         0","0","        33","0","         0","0","       287","0","       148","0","","","","","   -5.6","0,1216, ","     0"," ,0,1231,+","     0","T,0,0514, ","  52.3"," ,0,0518, ","   40.6","0,0713, ","-1.1","0,1128","-3.9","0,1129","-5.6","0,1216","","","","","-1.1","0,0329","-3.3","0,0328","-5.0","0,0212","","","","","     909.2","2","     909.2","0","    641.8"," ,0","        0","T,0","     20.47","0","     27.59","0","     13.34","0"
"USC00418415","1956","30.0093","-97.1644","96.6","SMITHVILLE, TX US","   1802.2","","    1802.2","0","        48","0","        35","0","         8","0","        0","","         0","0","         0","0","        31","0","         0","0","       299","0","       154","0","","","","","   -4.4","0,0114, ","     0"," ,0,1231,+","     0"," ,0,1231,+","  40.6"," ,0,0502, ","   40.0","0,0922,+","-0.6","0,1110","-3.3","0,1127","","","","","","","-1.7","0,0309","-2.8","0,0308","-4.4","0,0114","","","","","     993.6","6","     993.6","0","    455.7"," ,0","        0"," ,0","     20.82","0","     28.35","0","     13.28","0"
"USC00418415","1957","30.0093","-97.1644","96.6","SMITHVILLE, TX US","   1425.9","","    1425.9","0","        87","0","        70","0","        22","0","        0","","         0","0","         0","0","        16","0","         0","0","       282","0","       100","0","","","","","   -8.3","0,1212, ","     0"," ,0,1231,+","     0"," ,0,1231,+"," 110.5"," ,0,0427, ","   40.0","0,0731, ","0.0","0,1028","-2.2","0,1130","-8.3","0,1212","-8.3","0,1212","","","0.0","0,0308","-6.7","0,0119","-6.7","0,0119","-6.7","0,0119","","","     835.7","7","     835.7","0","   1507.4"," ,0","        0"," ,0","     19.84","0","     25.93","0","     13.75","0"
"USC00418415","1958","30.0093","-97.1644","96.6","SMITHVILLE, TX US","   1611.2","","    1611.2","0","        71","0","        58","0","         8","0","        0","","         1","0","         0","0","        32","0","         0","0","       263","0","       117","0","","","","","   -6.1","0,0213, ","     0"," ,0,1231,+","    25"," ,0,0212, ","  55.1"," ,0,0907, ","   40.0","0,0813, ","-2.2","0,1129","-2.2","0,1129","-5.0","0,1214","","","","","0.0","0,0319","-2.2","0,0217","-4.4","0,0214","","","","","    1193.2","2","    1193.2","0","    792.8"," ,0","       25"," ,0","     19.34","0","     25.63","0","     13.04","0"
"USC00418415","1959","30.0093","-97.1644","96.6","SMITHVILLE, TX US","   1475.2","","    1475.2","0","        76","0","        62","0","        16","0","        0","","         0","0","         0","0","        36","0","         1","0","       258","0","       117","0","","","","","  -12.2","0,0104, ","     0","T,0,1114, ","     0","T,0,1114, ","  78.7"," ,0,0827, ","   38.3","0,0808,+","-0.6","0,1106","-2.8","0,1107","","","","","","","0.0","0,0207","-6.1","0,0123","-6.1","0,0123","-6.7","0,0122","-11.7","0,0105","    1152.6","6","    1152.6","0","   1077.7"," ,0","        0","T,0","     19.07","0","     25.45","0","     12.70","0"
"USC00418415","1960","30.0093","-97.1644","96.6","SMITHVILLE, TX US","   1530.9","","    1530.9","0","        90","0","        69","0","        10","0","        0","","         0","0","         0","0","        37","0","         1","0","       255","0","       115","0","","","","","   -5.6","0,0225, ","     0","T,0,0225,+","     0","T,0,0225,+"," 141.0"," ,0,0430, ","   37.8","0,0730,+","-0.6","0,1130","-2.2","0,1221","","","","","","","-0.6","0,0318","-3.3","0,0304","-5.0","0,0226","","","","","    1285.3","3","    1285.3","0","   1170.9"," ,0","        0","T,0","     19.24","0","     25.26","0","     13.23","0"
"USC00418415","1961","30.0093","-97.1644","96.6","SMITHVILLE, TX US","","","","","        79","0","        58","0","        13","0","        0","","         0","0","         0","0","        34","0","","","","","","","","","","","   -4.4","0,0130, ","     0"," ,0,1231,+","     0","T,0,0128,+"," 167.6"," ,0,0912, ","","","-3.9","0,1213","-3.9","0,1213","","","","","","","-0.6","0,0401","-2.2","0,0208","-4.4","0,0130","","","","","","","","","   1274.7"," ,0","        0","T,0","","","","","     12.95","0"
"USC00418415","1962","30.0093","-97.1644","96.6","SMITHVILLE, TX US","   1649.4","","    1649.4","0","        66","0","        57","0","        11","0","        0","","         0","0","         0","0","        35","0","         3","0","       288","0","       128","0","","","","","  -12.2","0,0112, ","     0"," ,0,1231,+","     0","T,0,0302,+","  63.8"," ,0,1029, ","   43.3","0,0810, ","-1.1","0,1206","-3.9","0,1212","","","","","","","-0.6","0,0316","-2.2","0,0303","-5.0","0,0114","-11.1","0,0113","-11.1","0,0113","    1071.4","4","    1071.4","0","    845.3"," ,0","        0","T,0","     20.00","0","     26.70","0","     13.29","0"
"USC00418415","1963","30.0093","-97.1644","96.6","SMITHVILLE, TX US","   1825.0","","    1825.0","0","        51","0","        41","0","         9","0","        0","","         0","0","         0","0","        48","0","         4","0","       278","0","       147","0","         4"," ","","","   -9.4","0,0125,+","     0"," ,0,1231,+","     0"," ,0,1231,+","  89.4"," ,0,0913, ","   39.4","0,0908,+","-0.6","0,1124","-2.8","0,1215","-6.1","0,1223","","","","","-2.2","0,0306","-2.2","0,0306","-5.0","0,0213","-9.4","0,0125","-9.4","0,0125","    1130.4","4","    1130.4","0","    618.9"," ,0","        0"," ,0","     20.07","0","     27.13","0","     13.02","0"
"USC00418415","1964","30.0093","-97.1644","96.6","SMITHVILLE, TX US","","","","","        65","0","        47","0","        12","0","        0","","         1","0","         0","0","        38","0","","","","","","","","","         1"," ","  -11.1","0,0114, ","     0"," ,0,1231,+","    64"," ,0,0221, "," 169.4"," ,0,0917, ","","","0.0","0,1122","-3.3","0,1206","","","","","","","-0.6","0,0224","-2.2","0,0223","-4.4","0,0117","-10.6","0,0115","-10.6","0,0115","","","","","    943.0"," ,0","       64"," ,0","","","","","     13.17","0"
"USC00418415","1965","30.0093","-97.1644","96.6","SMITHVILLE, TX US","   1500.4","","    1500.4","0","        88","0","        69","0","        16","0","        1","","         0","0","         0","0","        30","0","         0","0","       273","0","       100","0","","","","","   -4.4","0,0320,+","    25"," ,0,0224, ","    15"," ,0,0224, ","  73.7"," ,0,0529, ","   38.3","0,0901,+","0.0","0,1130","","","","","","","","","-2.8","0,0321","-2.8","0,0321","-4.4","0,0320","","","","","    1012.0","0","    1012.0","0","   1244.0"," ,0","       15"," ,0","     19.89","0","     25.84","0","     13.94","0"
"USC00418415","1966","30.0093","-97.1644","96.6","SMITHVILLE, TX US","   1398.4","","    1398.4","0","        75","0","        51","0","         8","0","        0","","         0","0","         0","0","        38","0","         1","0","       276","0","        94","0","","","","","   -8.3","0,0130, ","     0"," ,0,1231,+","     0","T,0,0223,+","  61.0"," ,0,1015, ","   36.1","0,0802,+","-1.7","0,1103","-3.9","0,1211","-4.4","0,1212","","","","","-0.6","0,0308","-2.2","0,0225","-7.8","0,0131","-7.8","0,0131","","","    1004.7","7","    1004.7","0","    763.0"," ,0","        0","T,0","     19.11","0","     25.34","0","     12.87","0"
"USC00418415","1967","30.0093","-97.1644","96.6","SMITHVILLE, TX US","   1527.2","","    1527.2","0","        65","0","        42","0","        15","0","        0","","         0","0","         0","0","        37","0","         0","0","       286","0","        89","0","","","","","   -5.0","0,0207,+","     0"," ,0,1231,+","     3"," ,0,0207, ","  68.6"," ,0,0921, ","   37.8","0,0811, ","-1.1","0,1204","-2.8","0,1223","","","","","","","-0.6","0,0309","-2.2","0,0224","-4.4","0,0223","","","","","     938.3","3","     938.3","0","    861.2"," ,0","        3"," ,0","     19.78","0","     26.20","0","     13.37","0"
"USC00418415","1968","30.0093","-97.1644","96.6","SMITHVILLE, TX US","   1278.8","","    1278.8","0","       100","0","        73","0","        17","0","        0","","         0","0","         0","0","        37","0","         1","0","       263","0","        69","0","","","","","   -5.6","0,0108,+","     0"," ,0,1231,+","     0"," ,0,1231,+","  85.1"," ,0,0409, ","   35.0","0,0823,+","-1.7","0,1112","-2.2","0,1204","","","","","","","-1.1","0,0323","-2.2","0,0313","-5.6","0,0108","","","","","    1193.7","7","    1193.7","0","   1440.3"," ,0","        0"," ,0","     18.48","0","     24.32","0","     12.64","0"
"USC00418415","1969","30.0093","-97.1644","96.6","SMITHVILLE, TX US","   1436.4","","    1436.4","0","        85","0","        53","0","        10","0","        0","","         0","0","         0","0","        24","0","         0","0","       270","0","       101","0","","","","","   -7.2","0,0106,+","     0"," ,0,1231,+","     0"," ,0,1231,+","  97.8"," ,0,1030, ","   40.6","0,0812, ","-2.8","0,1115","-2.8","0,1115","","","","","","","-0.6","0,0310","-3.9","0,0107","-7.2","0,0106","-7.2","0,0106","","","    1066.7","7","    1066.7","0","    907.7"," ,0","        0"," ,0","     19.45","0","     25.70","0","     13.20","0"
"USC00418415","1970","30.0093","-97.1644","96.6","SMITHVILLE, TX US","   1346.1","","    1346.1","0","        72","0","        44","0","        12","0","        0","","         0","0","         0","0","        38","0","         0","0","       262","0","        95","0","","","","","   -8.3","0,0107, ","     0","T,0,0119, ","     0","T,0,0119, "," 104.9"," ,0,0516, ","   37.8","0,0811,+","-3.3","0,1116","-3.3","0,1116","","","","","","","0.0","0,0322","-2.8","0,0204","-8.3","0,0107","-8.3","0,0107","","","    1129.7","7","    1129.7","0","    881.1"," ,0","        0","T,0","     19.08","0","     25.45","0","     12.71","0"
"USC00418415","1971","30.0093","-97.1644","96.6","SMITHVILLE, TX US","   1400.1","","    1400.1","0","        67","0","        47","0","        10","0","        0","","         0","0","         0","0","        23","0","         0","0","       288","0","        84","0","","","","","   -6.1","0,0208, ","     0"," ,0,1231,+","     0"," ,0,1231,+","  50.8"," ,0,0925, ","   37.8","0,0729,+","","","","","","","","","","","-1.7","0,0308","-3.9","0,0304","-5.0","0,0210","","","","","     927.8","8","     927.8","0","    689.3"," ,0","        0"," ,0","     19.79","0","     25.93","0","     13.64","0"
"USC00418415","1972","30.0093","-97.1644","96.6","SMITHVILLE, TX US","   1463.0","","    1463.0","0","        74","0","        51","0","         8","0","        0","","         0","0","         0","0","        34","0","         0","0","       269","0","       111","0","","","","","   -8.3","0,1217, ","     0","T,0,0104, ","     0","T,0,0104, "," 119.4"," ,0,0611, ","   38.3","0,0801,+","-1.1","0,1126","-2.2","0,1201","-8.3","0,1217","-8.3","0,1217","","","-2.2","0,0209","-2.2","0,0209","-5.6","0,0205","-6.7","0,0204","","","     707.8","8","     707.8","0","    851.2"," ,0","        0","T,0","     19.61","0","     26.52","0","     12.70","0"
"USC00418415","1976","30.0093","-97.1644","96.6","SMITHVILLE, TX US","   1229.3","","    1229.3","0","        88","0","        66","0","        21","0","        0","","         0","0","         0","0","        49","0","         0","0","       270","0","        85","0","","","","","   -8.9","0,0109,+","     0"," ,0,1231,+","     0"," ,0,1231,+","  99.6"," ,0,0405, ","   39.4","0,0809, ","-2.2","0,1115","-2.2","0,1115","-6.7","0,1129","-6.7","0,1129","","","-0.6","0,0317","-2.2","0,0224","-4.4","0,0129","-7.2","0,0110","-8.9","0,0109","","","","","   1353.7"," ,0","        0"," ,0","     18.52","0","     25.35","0","     11.69","0"
"USC00418415","1977","30.0093","-97.1644","96.6","SMITHVILLE, TX US","","","","","        74","0","        54","0","         7","0","        0","","         0","0","         0","0","        44","0","         0","0","       279","0","       126","0","","","","","   -9.4","0,0111,+","     0"," ,0,1231,+","     0"," ,0,1231,+","  92.7"," ,0,0420, ","   39.4","0,0824,+","-1.1","0,1110","-2.8","0,1207","-6.7","0,1222","-6.7","0,1222","","","0.0","0,0308","-5.0","0,0130","-5.0","0,0130","-6.7","0,0120","-9.4","0,0111","    1363.0","0","    1363.0","0","    788.0"," ,0","        0"," ,0","     19.84","0","     26.78","0","     12.89","0"
"USC00418415","1978","30.0093","-97.1644","96.6","SMITHVILLE, TX US","   1591.2","","    1591.2","0","        81","0","        54","0","        13","0","        0","","         0","0","         0","0","        52","0","         1","0","       266","0","       116","0","","","         1"," ","   -8.3","0,1211,+","     0"," ,0,1231,+","     0","T,0,0112,+","  72.4"," ,0,0607, ","   40.6","0,0717, ","-1.1","0,1208","-3.9","0,1209","-8.3","0,1210","-8.3","0,1210","","","0.0","0,0311","-2.8","0,0306","-4.4","0,0222","-7.2","0,0120","","","","","","","    865.0"," ,0","        0","T,0","     18.97","0","     25.52","0","     12.43","0"
"USC00418415","1979","30.0093","-97.1644","96.6","SMITHVILLE, TX US","   1315.7","","    1315.7","0","       100","0","        64","0","        11","0","        0","","         0","0","         0","0","        46","0","         3","0","       266","0","        99","0","","","         3"," ","  -11.1","0,0102, ","     0"," ,0,1231,+","     0","T,0,0102,+","  88.9"," ,0,0606, ","   36.1","0,0907,+","-1.7","0,1114","-5.6","0,1130","-5.6","0,1130","","","","","-1.1","0,0219","-2.2","0,0218","-5.6","0,0210","-7.2","0,0114","-11.1","0,0102","    1188.2","2","    1188.2","0","   1109.7"," ,0","        0","T,0","     18.44","0","     24.89","0","     11.99","0"
"USC00418415","1980","30.0093","-97.1644","96.6","SMITHVILLE, TX US","","","","","","","","","","","        0","","         0","0","","","","","","","","","","","","","","","","","     0"," ,0,1231,+","     0"," ,0,1231,+","","","","","","","","","","","","","","","","","","","","","","","","","","","","","","","        0"," ,0","","","","","",""
"USC00418415","1981","30.0093","-97.1644","96.6","SMITHVILLE, TX US","   1444.9","","    1444.9","0","        91","0","        65","0","        14","0","        0","","         0","0","         0","0","        24","0","         0","0","       277","0","        99","0","","","","","   -8.3","0,0212,+","     0"," ,0,1231,+","     0"," ,0,1231,+"," 176.0"," ,0,0831, ","   38.3","0,0817, ","0.0","0,1202","-3.3","0,1218","-5.0","0,1219","","","","","-0.6","0,0216","-5.6","0,0213","-5.6","0,0213","-8.3","0,0212","","","    1045.5","5","    1045.5","0","   1338.2"," ,0","        0"," ,0","     19.63","0","     25.99","0","     13.27","0"
"USC00418415","1982","30.0093","-97.1644","96.6","SMITHVILLE, TX US","   1577.1","","    1577.1","0","        71","0","        53","0","         5","0","","","         0","0","         0","0","        30","0","         3","0","       265","0","       124","0","         4"," ","         4"," ","  -12.8","0,0112,+","","","     0"," ,0,1231,+","  55.9"," ,0,0514, ","   40.6","0,0818, ","-1.7","0,1212","-4.4","0,1213","-4.4","0,1213","","","","","-2.2","0,0308","-2.2","0,0308","-6.1","0,0207","-7.8","0,0118","-9.4","0,0115","    1049.7","7","    1049.7","0","    739.8"," ,0","        0"," ,0","     19.74","0","     26.04","0","     13.43","0"
"USC00418415","1983","30.0093","-97.1644","96.6","SMITHVILLE, TX US","   1334.7","","    1334.7","0","        72","0","        58","0","        11","0","        0","","         0","0","         0","0","        34","0","         4","0","       262","0","        90","0","","","         1"," ","  -12.2","0,1226,+","     0"," ,0,1231,+","     0"," ,0,1231,+","  78.2"," ,0,0521, ","   38.3","0,0901, ","-1.7","0,1128","-2.8","0,1207","-5.0","0,1219","-11.1","0,1223","-11.1","0,1223","0.0","0,0214","-2.2","0,0101","","","","","","","    1139.0","0","    1139.0","0","    957.7"," ,0","        0"," ,0","     18.51","0","     25.10","0","     11.93","0"
"USC00418415","1984","30.0093","-97.1644","96.6","SMITHVILLE, TX US","","","","","        70","0","        52","0","        12","0","","","         0","0","         0","0","        32","0","         0","0","       289","0","       125","0","         8"," ","","","   -8.9","0,0120, ","","","     0"," ,0,1231,+","  50.3"," ,0,0916, ","   41.1","0,0820, ","-1.1","0,1122","-5.0","0,1207","-5.0","0,1207","","","","","0.0","0,0308","-2.8","0,0301","-6.7","0,0122","-6.7","0,0122","-8.9","0,0120","    1112.9","9","    1112.9","0","    770.2"," ,0","        0"," ,0","     19.95","0","     26.91","0","     12.99","0"
"USC00418415","1985","30.0093","-97.1644","96.6","SMITHVILLE, TX US","   1460.0","","    1460.0","0","        66","0","        48","0","        12","0","","","","","         0","0","        41","0","         4","0","       273","0","       107","0","","","","","  -10.6","0,0203,+","","","","","  76.2"," ,0,0514, ","   40.0","0,0902, ","-2.8","0,1202","-2.8","0,1202","-5.6","0,1214","","","","","0.0","0,0217","-3.3","0,0213","-4.4","0,0204","-10.6","0,0203","-10.6","0,0203","","","","","    944.2"," ,0","","","     19.16","0","     25.91","0","     12.41","0"
"USC00418415","1986","30.0093","-97.1644","96.6","SMITHVILLE, TX US","   1426.2","","    1426.2","0","        80","0","        59","0","        16","0","        0","","         0","0","         0","0","        29","0","         0","0","       278","0","       120","0","","","","","   -3.9","0,1212,+","     0"," ,0,1231,+","     0"," ,0,1231,+"," 108.0"," ,0,1022, ","   40.6","0,0820, ","-2.8","0,1113","-2.8","0,1113","","","","","","","-1.1","0,0302","-3.3","0,0212","","","","","","","     817.0","0","     817.0","0","   1306.9"," ,0","        0"," ,0","     19.47","0","     26.65","0","     12.30","0"
"USC00418415","1987","30.0093","-97.1644","96.6","SMITHVILLE, TX US","","","","","        64","0","        53","0","        14","0","        0","","         0","0","","","","","         1","0","       278","0","       111","0","","","","","","","     0"," ,0,1231,+","     0"," ,0,1231,+","  95.8"," ,0,0917, ","   38.3","0,0818, ","","","","","","","","","","","","","","","","","","","","","    1294.0","0","    1294.0","0","   1138.5"," ,0","        0"," ,0","","","     26.51","0","",""
"USC00418415","1988","30.0093","-97.1644","96.6","SMITHVILLE, TX US","   1426.0","","    1426.0","0","        57","0","        38","0","         7","0","        0","","         0","0","         0","0","        49","0","         0","0","       284","0","       125","0","         2"," ","","","   -7.2","0,0213,+","     0"," ,0,1231,+","     0"," ,0,1231,+","  94.0"," ,0,0521, ","   41.1","0,0810,+","-0.6","0,1123","-2.2","0,1218","","","","","","","-1.7","0,0320","-2.2","0,0319","-7.2","0,0213","-7.2","0,0213","","","","","","","    674.0"," ,0","        0"," ,0","     19.34","0","     27.18","0","     11.50","0"
"USC00418415","1989","30.0093","-97.1644","96.6","SMITHVILLE, TX US","","","","","","","","","","","        0","","         0","0","","","","","","","","","","","         2"," ","","","","","     0"," ,0,1231,+","     0"," ,0,1231,+","","","","","","","","","","","","","","","","","","","","","","","","","     980.9","9","     980.9"," ","","","        0"," ,0","","","","","",""
"USC00418415","1990","30.0093","-97.1644","96.6","SMITHVILLE, TX US","   1695.0","","    1695.0","0","        83","0","        57","0","         5","0","        0","","         0","0","         0","0","        25","0","         1","0","       299","0","       139","0","","","","","   -8.9","0,1223, ","     0"," ,0,1231,+","     0"," ,0,1231,+","  58.4"," ,0,0427, ","   42.2","0,0828, ","-0.6","0,1105","-4.4","0,1205","-4.4","0,1205","-7.2","0,1222","-8.9","0,1223","-1.1","0,0206","-2.2","0,0115","","","","","","","","","","","    749.3"," ,0","        0"," ,0","     20.67","0","     27.96","0","     13.38","0"
"USC00418415","1991","30.0093","-97.1644","96.6","SMITHVILLE, TX US","","","","","","","","","","","","","","","","","","","","","","","","","","","","","","","","","","","","","","","","","","","","","","","","","","","","","","","","","","","     977.7","7","     977.7","0","","","","","","","","","",""
"USC00418415","1992","30.0093","-97.1644","96.6","SMITHVILLE, TX US","","","","","        90","0","        63","0","        24","0","        0","","         0","0","","","","","         0","0","       272","0","       110","0","","","","","","","     0"," ,0,1231,+","     0"," ,0,1231,+"," 100.3"," ,0,0922, ","   38.3","0,0827, ","","","","","","","","","","","","","","","","","","","","","","","","","   1428.2"," ,0","        0"," ,0","","","     26.68","0","",""
"USC00418415","1993","30.0093","-97.1644","96.6","SMITHVILLE, TX US","","","","","        81","0","        61","0","         9","0","        0","","         0","0","","","","","         0","0","       265","0","       121","0","","","","","","","     0"," ,0,1231,+","     0"," ,0,1231,+","  92.7"," ,0,1020, ","   40.0","0,0810, ","","","","","","","","","","","","","","","","","","","","","","","","","    910.5"," ,0","        0"," ,0","","","     26.55","0","",""
"USC00418415","1994","30.0093","-97.1644","96.6","SMITHVILLE, TX US","   1444.8","","    1444.8","0","        83","0","        50","0","        14","0","        0","","         0","0","         0","0","        31","0","         0","0","       281","0","       117","0","","","","","   -7.2","0,0109, ","     0"," ,0,1231,+","     0"," ,0,1231,+"," 163.8"," ,0,1018, ","   40.0","0,0727, ","-2.8","0,1201","-2.8","0,1201","-4.4","0,1225","","","","","0.0","0,0311","-2.2","0,0310","-5.0","0,0215","-7.2","0,0109","","","    1065.5","5","    1065.5","0","   1235.6"," ,0","        0"," ,0","     19.73","0","     27.21","0","     12.26","0"
"USC00418415","1997","30.0093","-97.1644","96.6","SMITHVILLE, TX US","","","","","","","","","","","","","","","","","","","","","","","","","","","","","","","","","","","","","","","","","","","","","","","","","","","","","","","","","","","     906.9","9","     906.9","0","","","","","","","","","",""
"USC00418415","1998","30.0093","-97.1644","96.6","SMITHVILLE, TX US","","","","","        77","0","        49","0","        18","0","","","         0","0","","","","","         1","0","       271","0","       130","0","","","         4"," ","","","","","     0"," ,0,1231,+"," 242.1"," ,0,1018, ","   40.6","0,0615, ","","","","","","","","","","","","","","","","","","","","","","","","","   1218.6"," ,0","        0"," ,0","","","     27.31","0","",""
"USC00418415","1999","30.0093","-97.1644","96.6","SMITHVILLE, TX US","","","","","        60","0","        40","0","         5","0","        0","","         0","0","","","","","         0","0","       307","0","       129","0","","","","","","","     0"," ,0,1231,+","     0"," ,0,1231,+","  43.4"," ,0,0721, ","   41.1","0,0821, ","","","","","","","","","","","","","","","","","","","","","","","","","    558.5"," ,0","        0"," ,0","","","     28.11","0","",""
"USC00418415","2000","30.0093","-97.1644","96.6","SMITHVILLE, TX US","   1755.3","","    1755.3","0","        47","0","        41","0","         8","0","        0","","         0","0","         0","0","        28","0","         0","0","       290","0","       127","0","","","","","   -7.2","0,0105, ","     0"," ,0,1231,+","     0"," ,0,1231,+","  74.2"," ,0,1104, ","   43.9","0,0905, ","0.0","0,1109","-2.2","0,1212","-5.0","0,1222","","","","","0.0","0,0313","-2.8","0,0130","-7.2","0,0105","-7.2","0,0105","","","     617.7","7","     617.7","0","    662.2"," ,0","        0"," ,0","     21.01","0","     27.83","0","     14.19","0"
"USC00418415","2001","30.0093","-97.1644","96.6","SMITHVILLE, TX US","   1500.2","","    1500.2","0","        53","0","        49","0","        14","0","        0","","         0","0","         0","0","        30","0","         0","0","       275","0","       105","0","","","","","   -5.6","0,0110, ","     0"," ,0,1231,+","     0"," ,0,1231,+","  53.3"," ,0,0622, ","   38.9","0,0819,+","-1.7","0,1128","-3.3","0,1227","","","","","","","-0.6","0,0218","-2.8","0,0124","-5.6","0,0110","","","","","    1072.1","1","    1072.1","0","    891.0"," ,0","        0"," ,0","     19.75","0","     26.32","0","     13.18","0"
"USC00418415","2002","30.0093","-97.1644","96.6","SMITHVILLE, TX US","","","","","        52","0","        48","0","        16","0","","","         0","0","","","","","","","","","","","","","","","","","","","     0"," ,0,1231,+","  88.9"," ,0,1105, ","","","","","","","","","","","","","","","","","","","","","","","     971.9","9","     971.9","0","   1008.9"," ,0","        0"," ,0","","","","","",""
"USC00418415","2003","30.0093","-97.1644","96.6","SMITHVILLE, TX US","   1684.3","","    1684.3","0","        40","0","        39","0","         8","0","        0","","         0","0","         0","0","        33","0","         1","0","       288","0","       122","0","","","","","   -5.6","0,0118, ","     0"," ,0,1231,+","     0"," ,0,1231,+"," 114.3"," ,0,0911, ","   42.2","0,0809, ","-1.1","0,1124","-2.2","0,1125","","","","","","","-1.1","0,0331","-3.3","0,0226","-5.6","0,0118","","","","","","","","","    810.1"," ,0","        0"," ,0","     20.38","0","     27.03","0","     13.72","0"
"USC00418415","2004","30.0093","-97.1644","96.6","SMITHVILLE, TX US","","","","","","","","","","","","","","","","","","","         0","0","       278","0","       116","0","","","","","","","","","","","","","   38.9","0,0806, ","","","","","","","","","","","","","","","","","","","","","     833.2","2","     833.2"," ","","","","","","","     26.72","0","",""
"USC00418415","2005","30.0093","-97.1644","96.6","SMITHVILLE, TX US","   1698.1","","    1698.1","0","        41","0","        39","0","         8","0","        0","","         0","0","         0","0","        22","0","         1","0","       295","0","       132","0","","","","","   -5.6","0,1206, ","     0"," ,0,1231,+","     0"," ,0,1231,+","  78.7"," ,0,0509, ","   42.2","0,0926, ","-2.8","0,1117","-2.8","0,1117","-5.6","0,1206","","","","","-1.1","0,0125","-2.2","0,0123","","","","","","","","","","","    669.7"," ,0","        0"," ,0","     20.67","0","     27.75","0","     13.60","0"
"USC00418415","2006","30.0093","-97.1644","96.6","SMITHVILLE, TX US","   1780.2","","    1780.2","0","        34","0","        31","0","        10","0","        0","","         0","0","         0","0","        30","0","         0","0","       310","0","       145","0","","","","","   -5.0","0,0212, ","     0"," ,0,1231,+","     0"," ,0,1231,+"," 114.3"," ,0,0918, ","   40.0","0,0818, ","-0.6","0,1117","-4.4","0,1201","-4.4","0,1201","","","","","-1.7","0,0325","-3.3","0,0214","-5.0","0,0212","","","","","     766.0","0","     766.0","0","    767.3"," ,0","        0"," ,0","     21.18","0","     28.50","0","     13.86","0"
"USC00418415","2007","30.0093","-97.1644","96.6","SMITHVILLE, TX US","","","","","","","","","","","        0","","         0","0","","","","","","","","","","","","","","","","","     0"," ,0,1231,+","     0"," ,0,1231,+","","","","","","","","","","","","","","","","","","","","","","","","","     928.2","2","     928.2","0","","","        0"," ,0","","","","","",""
"USC00418415","2008","30.0093","-97.1644","96.6","SMITHVILLE, TX US","   1635.3","","    1635.3","0","        65","0","        39","0","         4","0","        0","","         0","0","         0","0","        47","0","         0","0","       296","0","       137","0","","","","","   -5.6","0,0119,+","     0"," ,0,1231,+","     0"," ,0,1231,+","  50.8"," ,0,0428, ","   39.4","0,0806,+","-3.9","0,1028","-3.9","0,1028","-5.0","0,1206","","","","","-1.1","0,0419","-4.4","0,0415","-4.4","0,0415","","","","","","","","","    456.1"," ,0","        0"," ,0","     20.46","0","     28.30","0","     12.62","0"
"USC00418415","2009","30.0093","-97.1644","96.6","SMITHVILLE, TX US","   1659.0","","    1659.0","0","        79","0","        56","0","        12","0","        0","","         0","0","         0","0","        41","0","         0","0","       281","0","       119","0","","","","","   -6.1","0,0114, ","     0"," ,0,1231,+","     0"," ,0,1231,+","  73.7"," ,0,0418, ","   41.1","0,0626, ","-0.6","0,1204","-5.6","0,1205","-5.6","0,1205","","","","","-3.3","0,0407","-3.3","0,0407","-4.4","0,0204","","","","","     867.9","9","     867.9","0","    984.2"," ,0","        0"," ,0","     20.34","0","     27.47","0","     13.21","0"
"USC00418415","2010","30.0093","-97.1644","96.6","SMITHVILLE, TX US","   1540.3","","    1540.3","0","        72","0","        54","0","        11","0","        0","","         0","0","         0","0","        47","0","         1","0","       266","0","       112","0","","","","","  -11.1","0,0109, ","     0"," ,0,1231,+","     0"," ,0,1231,+","  50.8"," ,0,0515, ","   40.0","0,0825, ","0.0","0,1104","-4.4","0,1127","-4.4","0,1127","","","","","0.0","0,0228","-2.8","0,0225","-5.0","0,0112","-8.3","0,0111","-11.1","0,0109","    1238.9","9","    1238.9","0","    851.7"," ,0","        0"," ,0","     19.40","0","     26.09","0","     12.71","0"
"USC00418415","2011","30.0093","-97.1644","96.6","SMITHVILLE, TX US","   1892.4","","    1892.4","K","        38","K","        32","K","         5","K","","","","","         0","K","        43","K","         2","K","       285","K","       155","K","","","","","   -8.3","K,0202, ","","","","","  40.9"," ,K,0109, ","   43.3","K,0829, ","-2.2","K,1104","-2.2","K,1104","-4.4","K,1207","","","","","-5.6","K,0405","-5.6","K,0405","-5.6","K,0405","-7.2","K,0212","","","    1001.4","4","    1001.4","K","    414.6"," ,K","","","     20.76","K","     28.43","K","     13.10","K"
"USC00418415","2012","30.0093","-97.1644","96.6","SMITHVILLE, TX US","","","","","        65","7","        48","7","        10","7","","","","","","","","","         0","7","       296","7","       118","7","","","","","","","","","","","  76.2"," ,7,0320, ","   40.6","7,0628,+","","","","","","","","","","","","","","","","","","","","","","","","","    808.4"," ,7","","","","","     27.62","7","",""
"USC00418415","2013","30.0093","-97.1644","96.6","SMITHVILLE, TX US","   1592.5","","    1592.5","7","        73","7","        43","7","         6","7","","","","","         0","7","        45","7","         0","7","       280","7","       119","7","","","","","   -3.9","7,1224, ","","","",""," 129.5"," ,7,0403, ","   41.7","7,0630, ","0.0","7,1113","-2.2","7,1128","","","","","","","-1.1","7,0504","-2.2","7,0303","","","","","","","     918.9","9","     918.9","7","    830.8"," ,7","","","     19.67","7","     26.48","7","     12.87","7"
"USC00418415","2014","30.0093","-97.1644","96.6","SMITHVILLE, TX US","   1557.5","","    1557.5","7","        59","7","        43","7","        11","7","","","","","         0","7","        41","7","         1","7","       268","7","       109","7","","","","","   -7.8","7,0106, ","","","",""," 111.0"," ,7,0513, ","   38.3","7,0823,+","0.0","7,1114","-2.2","7,1119","","","","","","","0.0","7,0313","-6.1","7,0304","-6.1","7,0304","-6.7","7,0107","","","    1268.2","2","    1268.2","7","    840.0"," ,7","","","     19.42","7","     26.02","7","     12.81","7"
"USC00418415","2015","30.0093","-97.1644","96.6","SMITHVILLE, TX US","","","","","","","","","","","","","","","","","","","","","","","","","         1"," ","         1"," ","","","","","","","","","","","","","","","","","","","","","","","","","","","","","","","","","","","","","","","","","","","",""
"USC00418415","2016","30.0093","-97.1644","96.6","SMITHVILLE, TX US","   1773.4","","    1773.4","7","        83","7","        60","7","        17","7","        0","","         0","7","         0","7","        23","7","         0","7","       302","7","       111","7","         1"," ","         2"," ","   -5.0","7,1220,+","     0"," ,7,1231,+","     0"," ,7,1231,+"," 165.1"," ,7,0418, ","   40.0","7,0813, ","0.0","7,1201","-3.3","7,1218","-5.0","7,1219","","","","","-0.6","7,0321","-2.2","7,0207","","","","","","","     735.8","8","     735.8","7","   1359.5"," ,7","        0"," ,7","     21.23","7","     27.47","7","     14.98","7"
"USC00418415","2017","30.0093","-97.1644","96.6","SMITHVILLE, TX US","   1853.0","","    1853.0","7","        58","7","        47","7","        11","7","        0","","         0","7","         0","7","        16","7","         1","7","       307","7","       124","7","         1"," ","         1"," ","   -8.3","7,0108, ","     0"," ,7,1231,+","     0"," ,7,1231,+"," 327.7"," ,7,0827, ","   40.6","7,0730, ","0.0","7,1029","-2.8","7,1209","","","","","","","0.0","7,0129","-8.3","7,0108","-8.3","7,0108","-8.3","7,0108","","","     538.7","7","     538.7","7","   1328.7"," ,7","        0"," ,7","     21.54","7","     28.12","7","     14.96","7"
"USC00418415","2018","30.0093","-97.1644","96.6","SMITHVILLE, TX US","","","","","","","","","","","","","","","","","","","","","","","","","         1"," ","         1"," ","","","","","","","","","","","","","","","","","","","","","","","","","","","","","","","","","","","","","","","","","","","",""
"USC00418415","2019","30.0093","-97.1644","96.6","SMITHVILLE, TX US","","","","","","","","","","","","","","","","","","","","","","","","","","","         1"," ","","","","","","","","","","","","","","","","","","","","","","","","","","","","","","","","","","","","","","","","","","","",""
