"STATION","DATE","LATITUDE","LONGITUDE","ELEVATION","NAME","DP01","DP01_ATTRIBUTES","DP10","DP10_ATTRIBUTES","DP1X","DP1X_ATTRIBUTES","DSNW","DSNW_ATTRIBUTES","DYTS","DYTS_ATTRIBUTES","EMSN","EMSN_ATTRIBUTES","EMXP","EMXP_ATTRIBUTES","PRCP","PRCP_ATTRIBUTES","SNOW","SNOW_ATTRIBUTES"
"USC00300655","1963","42.65","-74.16667","378.0","BERNE 2 NW, NY US","","","","","","","","","         5"," ","","","","","","","",""
"USC00300655","1964","42.65","-74.16667","378.0","BERNE 2 NW, NY US","        85","0","        52","0","         4","0","        15","0","        16"," ","   356"," ,0,0216, ","  42.7"," ,0,0310, ","    602.9"," ,0","     1875"," ,0"
"USC00300655","1965","42.65","-74.16667","378.0","BERNE 2 NW, NY US","        99","0","        61","0","         3","0","        14","0","        16"," ","   152"," ,0,0103, ","  38.9"," ,0,0919, ","    661.6"," ,0","      976"," ,0"
"USC00300655","1966","42.65","-74.16667","378.0","BERNE 2 NW, NY US","","","","","","","","","         1"," ","","","","","","","",""
