"STATION","DATE","LATITUDE","LONGITUDE","ELEVATION","NAME","CDSD","CDSD_ATTRIBUTES","CLDD","CLDD_ATTRIBUTES","DP01","DP01_ATTRIBUTES","DP10","DP10_ATTRIBUTES","DP1X","DP1X_ATTRIBUTES","DSND","DSND_ATTRIBUTES","DSNW","DSNW_ATTRIBUTES","DT00","DT00_ATTRIBUTES","DT32","DT32_ATTRIBUTES","DX32","DX32_ATTRIBUTES","DX70","DX70_ATTRIBUTES","DX90","DX90_ATTRIBUTES","DYFG","DYFG_ATTRIBUTES","DYTS","DYTS_ATTRIBUTES","EMNT","EMNT_ATTRIBUTES","EMSD","EMSD_ATTRIBUTES","EMSN","EMSN_ATTRIBUTES","EMXP","EMXP_ATTRIBUTES","EMXT","EMXT_ATTRIBUTES","FZF0","FZF0_ATTRIBUTES","FZF1","FZF1_ATTRIBUTES","FZF2","FZF2_ATTRIBUTES","FZF3","FZF3_ATTRIBUTES","FZF4","FZF4_ATTRIBUTES","FZF5","FZF5_ATTRIBUTES","FZF6","FZF6_ATTRIBUTES","FZF7","FZF7_ATTRIBUTES","FZF8","FZF8_ATTRIBUTES","FZF9","FZF9_ATTRIBUTES","HDSD","HDSD_ATTRIBUTES","HTDD","HTDD_ATTRIBUTES","PRCP","PRCP_ATTRIBUTES","SNOW","SNOW_ATTRIBUTES","TAVG","TAVG_ATTRIBUTES","TMAX","TMAX_ATTRIBUTES","TMIN","TMIN_ATTRIBUTES"
"USC00414525","1953","31.9622","-95.2736","170.7","JACKSONVILLE, TX US","","","","","","","","","","","","","","","","","","","","","","","","","         3"," ","         3"," ","","","","","","","","","","","","","","","","","","","","","","","","","","","","","","","","","","","","","","","","","","","",""
"USC00414525","1954","31.9622","-95.2736","170.7","JACKSONVILLE, TX US","   1651.8","","    1651.8","0","        51","0","        40","0","         8","0","        2","","         0","0","         0","0","        23","0","         1","0","       267","0","       117","0","         5"," ","         9"," ","  -10.6","0,0122, ","    51"," ,0,0305, ","     0","T,0,1022,+"," 142.2"," ,0,1022, ","   43.3","0,0725, ","-1.7","0,1207","","","","","","","","","0.0","0,0316","-2.8","0,0314","-5.6","0,0123","-10.6","0,0122","-10.6","0,0122","","","","","    822.6"," ,0","        0","T,0","     20.19","0","     26.66","0","     13.72","0"
"USC00414525","1955","31.9622","-95.2736","170.7","JACKSONVILLE, TX US","","","","","        50","0","        32","0","        11","0","        0","","         0","0","         0","0","        35","0","         1","0","       263","0","        84","0","         4"," ","         7"," ","   -8.9","0,0211, ","     0"," ,0,1231,+","     0","T,0,0412, ","  58.4"," ,0,0411, ","   36.7","0,0712,+","0.0","0,1110","-5.0","0,1128","-5.0","0,1128","-8.3","0,1216","","","0.0","0,0329","-3.3","0,0328","-7.2","0,0326","-7.2","0,0326","-8.9","0,0211","","","","","    769.4"," ,0","        0","T,0","     19.07","0","     25.27","0","     12.88","0"
"USC00414525","1956","31.9622","-95.2736","170.7","JACKSONVILLE, TX US","   1516.4","","    1516.4","0","        47","0","        34","0","         8","0","        1","","         0","0","         0","0","        31","0","         1","0","       273","0","       114","0","         2"," ","         2"," ","   -5.0","0,0119, ","    25"," ,0,0118, ","    15"," ,0,0118, ","  67.1"," ,0,0501, ","   40.6","0,0818, ","-1.1","0,1109","-3.3","0,1127","","","","","","","-2.8","0,0308","-2.8","0,0308","-4.4","0,0120","","","","","    1058.7","7","    1058.7","0","    708.2"," ,0","       25"," ,0","     19.62","0","     26.40","0","     12.83","0"
"USC00414525","1957","31.9622","-95.2736","170.7","JACKSONVILLE, TX US","","","","","        97","0","        71","0","        21","0","        0","","         0","0","","","","","","","","","","","         9"," ","         5"," ","","","     0"," ,0,1231,+","     0"," ,0,1231,+"," 195.6"," ,0,1014, ","","","","","","","","","","","","","","","","","","","","","","","","","","","   1596.8"," ,0","        0"," ,0","","","","","",""
"USC00414525","1958","31.9622","-95.2736","170.7","JACKSONVILLE, TX US","   1166.0","","    1166.0","0","","","","","","","        0","","         0","0","         0","0","        39","0","         0","0","       221","0","        73","0","         3"," ","","","   -8.9","0,1214,+","     0"," ,0,1231,+","     0"," ,0,1231,+","","","   36.7","0,0807,+","0.0","0,1119","-6.1","0,1129","-6.1","0,1129","-8.9","0,1214","-8.9","0,1214","0.0","0,0314","-3.3","0,0218","-5.0","0,0216","-8.9","0,0213","-8.9","0,0213","","","","","    963.2"," ,0","        0"," ,0","     17.38","0","     22.83","0","     11.93","0"
"USC00414525","1960","31.9622","-95.2736","170.7","JACKSONVILLE, TX US","","","","","","","","","","","","","","","","","","","","","","","","","        18"," ","         2"," ","","","","","","","","","","","","","","","","","","","","","","","","","","","","","","","","","","","","","","","","","","","",""
"USC00414525","1961","31.9622","-95.2736","170.7","JACKSONVILLE, TX US","","","","","","","","","","","","","","","","","","","","","","","","","         1"," ","         8"," ","","","","","","","","","","","","","","","","","","","","","","","","","","","","","","","","","","","","","","","","","","","",""
"USC00414525","1962","31.9622","-95.2736","170.7","JACKSONVILLE, TX US","","","","","","","","","","","","","","","","","","","","","","","","","","","         1"," ","","","","","","","","","","","","","","","","","","","","","","","","","","","","","","","","","","","","","","","","","","","",""
"USC00414525","1964","31.9622","-95.2736","170.7","JACKSONVILLE, TX US","   1432.0","","    1432.0","0","        49","0","        42","0","        10","0","        0","","         0","0","         0","0","        39","0","         1","0","       267","0","        83","0","","","","","  -10.0","0,0114, ","     0"," ,0,1231,+","     0"," ,0,1231,+","  65.3"," ,0,0531, ","   41.1","0,0810, ","-1.1","0,1121","-2.8","0,1130","-5.6","0,1218","-6.7","0,1219","","","0.0","0,0223","-2.8","0,0222","-4.4","0,0118","-9.4","0,0115","-9.4","0,0115","","","","","    785.3"," ,0","        0"," ,0","     19.09","0","     25.28","0","     12.90","0"
"USC00414525","1966","31.9622","-95.2736","170.7","JACKSONVILLE, TX US","","","","","        70","0","        61","0","         8","0","        0","","         0","0","         0","0","        38","0","","","","","","","","","","","  -10.6","0,0129, ","     0"," ,0,1231,+","     0"," ,0,1231,+","  71.9"," ,0,0425, ","","","-1.7","0,1102","-2.2","0,1203","-5.6","0,1212","-6.7","0,1225","","","-0.6","0,0308","-2.2","0,0217","-8.3","0,0131","-8.3","0,0131","-9.4","0,0130","","","","","    949.8"," ,0","        0"," ,0","","","","","     12.55","0"
"USC00414525","1967","31.9622","-95.2736","170.7","JACKSONVILLE, TX US","   1399.4","","    1399.4","0","        55","0","        51","0","        12","0","        0","","         0","0","         0","0","        36","0","         0","0","       277","0","        71","0","","","","","   -5.6","0,0207,+","     0"," ,0,1231,+","     0"," ,0,1231,+","  75.7"," ,0,0602, ","   38.3","0,0805, ","-1.1","0,1204","-3.3","0,1222","","","","","","","-1.1","0,0308","-2.8","0,0225","-5.6","0,0207","","","","","    1019.3","3","    1019.3","0","    906.3"," ,0","        0"," ,0","     19.32","0","     25.64","0","     12.99","0"
"USC00414525","1969","31.9622","-95.2736","170.7","JACKSONVILLE, TX US","   1449.7","","    1449.7","0","        85","0","        58","0","        18","0","        0","","         0","0","         0","0","        23","0","         0","0","       252","0","       108","0","","","","","   -8.3","0,0105, ","     0"," ,0,1231,+","     0","T,0,1230,+"," 210.8"," ,0,1118, ","   40.6","0,0813,+","-3.9","0,1115","-3.9","0,1115","-5.6","0,1231","","","","","-3.9","0,0311","-3.9","0,0311","-6.7","0,0309","-6.7","0,0309","","","","","","","   1431.2"," ,0","        0","T,0","     19.06","0","     25.51","0","     12.61","0"
"USC00414525","1970","31.9622","-95.2736","170.7","JACKSONVILLE, TX US","   1407.8","","    1407.8","0","        88","0","        58","0","         9","0","        0","","         0","0","         0","0","        33","0","         1","0","       258","0","        93","0","","","","","  -10.6","0,0107, ","     0","T,0,0106, ","     0","T,0,0322,+","  73.9"," ,0,0903, ","   38.9","0,0819,+","-1.1","0,1104","-4.4","0,1116","-4.4","0,1116","","","","","-0.6","0,0322","-2.8","0,0226","-6.1","0,0203","-9.4","0,0109","-9.4","0,0109","    1253.9","9","    1253.9","0","    844.8"," ,0","        0","T,0","     18.82","0","     24.99","0","     12.66","0"
"USC00414525","1971","31.9622","-95.2736","170.7","JACKSONVILLE, TX US","   1441.0","","    1441.0","0","       101","0","        57","0","         9","0","        1","","         1","0","         0","0","        21","0","         0","0","       290","0","        95","0","","","","","   -8.3","0,0208, ","    25"," ,0,0303, ","    25"," ,0,0303, "," 119.6"," ,0,0511, ","   39.4","0,0714, ","","","","","","","","","","","-1.1","0,0308","-5.0","0,0304","-5.0","0,0304","-8.3","0,0208","","","    1022.0","0","    1022.0","0","    817.8"," ,0","       41"," ,0","     19.73","0","     26.04","0","     13.42","0"
"USC00414525","1972","31.9622","-95.2736","170.7","JACKSONVILLE, TX US","   1422.3","","    1422.3","0","       102","0","        66","0","        14","0","        0","","         0","0","         0","0","        38","0","         0","0","       270","0","        96","0","","","","","  -10.0","0,0105, ","     0","T,0,0104, ","     0","T,0,1129,+","  68.8"," ,0,0104, ","   37.2","0,0806, ","0.0","0,1116","-3.9","0,1206","-7.8","0,1216","-7.8","0,1216","","","0.0","0,0331","-2.2","0,0213","-6.7","0,0204","-6.7","0,0204","-10.0","0,0105","     847.1","1","     847.1","0","   1045.3"," ,0","        0","T,0","     19.06","0","     25.32","0","     12.81","0"
"USC00414525","1973","31.9622","-95.2736","170.7","JACKSONVILLE, TX US","   1287.1","","    1287.1","0","       115","0","        84","0","        19","0","        2","","         1","0","         0","0","        32","0","         3","0","       267","0","        71","0","","","","","  -10.6","0,0112, ","    76"," ,0,0112,+","    66"," ,0,0111, "," 142.5"," ,0,0906, ","   36.7","0,0726, ","-0.6","0,1207","-2.2","0,1208","-5.0","0,1220","-6.7","0,1221","","","-1.7","0,0410","-3.3","0,0216","-7.8","0,0210","-7.8","0,0210","-10.6","0,0112","    1345.5","5","    1345.5","0","   1634.7"," ,0","       74"," ,0","     18.85","0","     24.75","0","     12.95","0"
"USC00414525","1974","31.9622","-95.2736","170.7","JACKSONVILLE, TX US","   1373.7","","    1373.7","0","       102","0","        72","0","        16","0","        0","","         0","0","         0","0","        28","0","         2","0","       268","0","        84","0","","","","","   -7.8","0,0101, ","     0"," ,0,1231,+","     0"," ,0,1231,+","  91.9"," ,0,0913, ","   40.0","0,0723, ","-1.1","0,1115","-3.3","0,1130","-6.7","0,1209","-6.7","0,1209","","","-2.8","0,0226","-2.8","0,0226","-6.7","0,0225","-6.7","0,0225","","","     902.1","1","     902.1","0","   1206.9"," ,0","        0"," ,0","     19.20","0","     25.35","0","     13.05","0"
"USC00414525","1975","31.9622","-95.2736","170.7","JACKSONVILLE, TX US","   1331.7","","    1331.7","0","       104","0","        71","0","        14","0","        0","","         0","0","         0","0","        34","0","         0","0","       269","0","        89","0","","","","","   -9.4","0,0113, ","     0"," ,0,1231,+","     0","T,0,1122,+","  72.6"," ,0,1025, ","   37.8","0,0903,+","0.0","0,1114","-5.0","0,1123","-5.0","0,1123","-6.7","0,1219","","","-0.6","0,0403","-3.9","0,0314","-8.3","0,0207","-8.3","0,0207","-9.4","0,0113","    1139.1","1","    1139.1","0","   1051.8"," ,0","        0","T,0","     18.95","0","     25.20","0","     12.70","0"
"USC00414525","1976","31.9622","-95.2736","170.7","JACKSONVILLE, TX US","   1103.6","","    1103.6","0","       106","0","        65","0","        15","0","        0","","         0","0","         0","0","        39","0","         0","0","       260","0","        65","0","","","","","  -12.2","0,0108, ","     0"," ,0,1231,+","     0","T,0,0326,+","  80.0"," ,0,0619, ","   36.7","0,0827,+","-0.6","0,1020","-5.0","0,1128","-5.0","0,1128","-10.0","0,1129","-10.0","0,1129","0.0","0,0317","-2.2","0,0208","-5.0","0,0207","-8.3","0,0109","-12.2","0,0108","     946.8","8","     946.8","0","   1159.4"," ,0","        0","T,0","     18.12","0","     24.50","0","     11.75","0"
"USC00414525","1977","31.9622","-95.2736","170.7","JACKSONVILLE, TX US","   1553.3","","    1553.3","0","        88","0","        51","0","        11","0","","","         1","0","         0","0","        34","0","         0","0","       268","0","       117","0","","","        42"," ","  -12.8","0,0110, ","","","   102"," ,0,0131, ","  66.5"," ,0,0920, ","   39.4","0,0724,+","-1.7","0,1110","-3.3","0,1206","-5.0","0,1222","","","","","-1.7","0,0227","-2.2","0,0216","-7.2","0,0131","-7.2","0,0131","-8.9","0,0119","    1422.1","1","    1422.1","0","    886.5"," ,0","      115"," ,0","     19.49","0","     25.82","0","     13.17","0"
"USC00414525","1978","31.9622","-95.2736","170.7","JACKSONVILLE, TX US","   1553.9","","    1553.9","0","        89","0","        63","0","        10","0","","","         4","0","         0","0","        53","0","         6","0","       255","0","       104","0","","","        46"," ","  -10.0","0,0120, ","","","    64"," ,0,0122, ","  56.6"," ,0,0728, ","   40.6","0,0715, ","-2.2","0,1204","-2.2","0,1204","-6.1","0,1209","-8.3","0,1210","","","-1.1","0,0310","-3.9","0,0305","-5.0","0,0304","-6.7","0,0222","-8.9","0,0121","    1402.1","1","    1402.1","0","    936.4"," ,0","      212"," ,0","     18.59","0","     24.86","0","     12.33","0"
"USC00414525","1979","31.9622","-95.2736","170.7","JACKSONVILLE, TX US","   1212.9","","    1212.9","0","       103","0","        72","0","        26","0","","","","","         0","0","        42","0","         1","0","       252","0","        83","0","","","        49"," ","  -13.3","0,0102, ","","","",""," 104.1"," ,0,0920, ","   35.6","0,0830,+","-0.6","0,1114","-2.8","0,1129","-6.7","0,1130","-6.7","0,1130","","","-2.2","0,0305","-2.2","0,0305","-4.4","0,0210","-10.0","0,0209","-10.0","0,0209","    1298.7","7","    1298.7","0","   1515.8"," ,0","","","     17.89","0","     23.94","0","     11.83","0"
"USC00414525","1980","31.9622","-95.2736","170.7","JACKSONVILLE, TX US","   1537.9","","    1537.9","0","        79","0","        47","0","        13","0","        0","","         1","0","         0","0","        36","0","         0","0","       266","0","       118","0","","","        30"," ","   -9.4","0,0302, ","     0"," ,0,1231,+","    25"," ,0,1126, ","  63.0"," ,0,0413, ","   41.7","0,0717, ","0.0","0,1025","-3.3","0,1127","-5.0","0,1221","","","","","0.0","0,0414","-6.7","0,0303","-6.7","0,0303","-6.7","0,0303","-9.4","0,0302","    1170.1","1","    1170.1","0","    904.4"," ,0","       25"," ,0","     19.37","0","     26.06","0","     12.68","0"
"USC00414525","1981","31.9622","-95.2736","170.7","JACKSONVILLE, TX US","","","","","","","","","","","        0","","         0","0","","","","","","","","","","","","","         3"," ","","","     0","T,0,0211, ","    13"," ,0,0211, ","","","","","","","","","","","","","","","","","","","","","","","","","","","","","","","       13"," ,0","","","","","",""
"USC00414525","1982","31.9622","-95.2736","170.7","JACKSONVILLE, TX US","","","","","","","","","","","","","","","","","","","","","","","","","         4"," ","","","","","","","","","","","","","","","","","","","","","","","","","","","","","","","","","","","","","","","","","","","","","",""
"USC00414525","1983","31.9622","-95.2736","170.7","JACKSONVILLE, TX US","","","","","        60","0","        53","0","        18","0","        0","","         0","0","         0","0","        39","0","","","","","","","","","","","  -15.0","0,1226, ","     0"," ,0,1231,+","     0","T,0,1227, ","  61.5"," ,0,0210, ","","","0.0","0,1125","-2.2","0,1128","-6.7","0,1219","-6.7","0,1219","-13.3","0,1222","-1.1","0,0326","-2.8","0,0203","-5.6","0,0116","","","","","","","","","   1119.9"," ,0","        0","T,0","","","","","     11.75","0"
"USC00414525","1984","31.9622","-95.2736","170.7","JACKSONVILLE, TX US","","","","","","","","","","","","","","","","","","","","","","","","","","","","","","","","","","","","","","","","","","","","","","","","","","","","","","","","","","","    1277.8","8","    1277.8","0","","","","","","","","","",""
"USC00414525","1986","31.9622","-95.2736","170.7","JACKSONVILLE, TX US","","","","","","","","","","","","","","","         0","0","        21","0","","","","","","","","","","","   -5.0","0,1202, ","","","","","","","","","-2.2","0,1113","-2.2","0,1113","-4.4","0,1114","","","","","-2.8","0,0301","-2.8","0,0301","-4.4","0,0211","","","","","","","","","","","","","","","","","     13.10","0"
"USC00414525","1987","31.9622","-95.2736","170.7","JACKSONVILLE, TX US","","","","","","","","","","","","","","","","","","","","","","","","","","","         1"," ","","","","","","","","","","","","","","","","","","","","","","","","","","","","","","","","","","","","","","","","","","","",""
"USC00414525","1989","31.9622","-95.2736","170.7","JACKSONVILLE, TX US","","","","","","","","","","","","","","","","","","","","","","","","","         4"," ","        15"," ","","","","","","","","","","","","","","","","","","","","","","","","","","","","","","","","","","","","","","","","","","","",""
"USC00414525","1990","31.9622","-95.2736","170.7","JACKSONVILLE, TX US","","","","","        85","0","        68","0","        23","0","","","         0","0","","","","","","","","","","","        10"," ","        48"," ","","","","","     0"," ,0,1231,+"," 157.5"," ,0,1009, ","","","","","","","","","","","","","","","","","","","","","","","","","","","   1838.6"," ,0","        0"," ,0","","","","","",""
"USC00414525","1991","31.9622","-95.2736","170.7","JACKSONVILLE, TX US","","","","","","","","","","","        0","","         0","0","","","","","","","","","","","        26"," ","        57"," ","","","     0"," ,0,1231,+","     0"," ,0,1231,+","","","","","","","","","","","","","","","","","","","","","","","","","","","","","","","        0"," ,0","","","","","",""
"USC00414525","1992","31.9622","-95.2736","170.7","JACKSONVILLE, TX US","","","","","","","","","","","        0","","         0","0","","","","","","","","","","","        29"," ","        50"," ","","","     0"," ,0,1231,+","     0"," ,0,1231,+","","","","","","","","","","","","","","","","","","","","","","","","","","","","","","","        0"," ,0","","","","","",""
"USC00414525","1993","31.9622","-95.2736","170.7","JACKSONVILLE, TX US","","","","","        78","0","        65","0","        14","0","        0","","         0","0","","","","","","","","","","","         4"," ","        51"," ","","","     0"," ,0,1231,+","     0","T,0,1125, "," 157.5"," ,0,0620, ","","","","","","","","","","","","","","","","","","","","","","","","","","","   1287.5"," ,0","        0","T,0","","","","","",""
"USC00414525","1994","31.9622","-95.2736","170.7","JACKSONVILLE, TX US","","","","","        77","0","        60","0","        22","0","        0","","         0","0","","","","","","","","","","","         5"," ","        64"," ","","","     0"," ,0,1231,+","     0"," ,0,1231,+"," 167.6"," ,0,1008, ","","","","","","","","","","","","","","","","","","","","","","","","","","","   1573.1"," ,0","        0"," ,0","","","","","",""
"USC00414525","1995","31.9622","-95.2736","170.7","JACKSONVILLE, TX US","   1340.7","","    1340.7","0","        69","0","        57","0","        12","0","        0","","         0","0","         0","0","        27","0","         0","0","       264","0","        81","0","         7"," ","        44"," ","   -6.7","0,1210, ","     0"," ,0,1231,+","     0"," ,0,1231,+","  84.6"," ,0,0611, ","   37.8","0,0901,+","-1.7","0,1112","-2.8","0,1129","-6.7","0,1210","-6.7","0,1210","","","-2.2","0,0309","-2.2","0,0309","","","","","","","     873.6","6","     873.6","0","    998.3"," ,0","        0"," ,0","     19.22","0","     25.23","0","     13.20","0"
"USC00414525","1996","31.9622","-95.2736","170.7","JACKSONVILLE, TX US","","","","","","","","","","","        0","","         0","0","","","","","","","","","","","        17"," ","        45"," ","","","     0"," ,0,1231,+","     3"," ,0,1217, ","","","","","","","","","","","","","","","","","","","","","","","","","","","","","","","        3"," ,0","","","","","",""
"USC00414525","1997","31.9622","-95.2736","170.7","JACKSONVILLE, TX US","","","","","","","","","","","","","","","","","","","","","","","","","        18"," ","        29"," ","","","","","","","","","","","","","","","","","","","","","","","","","","","","","","","    1060.5","5","    1060.5"," ","","","","","","","","","",""
"USC00414525","1998","31.9622","-95.2736","170.7","JACKSONVILLE, TX US","","","","","","","","","","","","","","","","","","","","","","","","","         6"," ","         1"," ","","","","","","","","","","","","","","","","","","","","","","","","","","","","","","","","","","","","","","","","","","","",""
"USC00414525","2000","31.9622","-95.2736","170.7","JACKSONVILLE, TX US","","","","","        76","0","        61","0","        21","0","        3","","         1","0","","","","","","","","","","","         8"," ","         7"," ","","","    25"," ,0,0130,+","    25"," ,0,0128, ","  89.4"," ,0,0520, ","","","","","","","","","","","","","","","","","","","","","","","","","","","   1295.3"," ,0","       25"," ,0","","","","","",""
"USC00414525","2001","31.9622","-95.2736","170.7","JACKSONVILLE, TX US","","","","","        92","0","        80","0","        28","0","        1","","         1","0","","","","","","","","","","","         3"," ","         8"," ","","","    51"," ,0,0101, ","    51"," ,0,0101, ","  55.9"," ,0,0608, ","","","","","","","","","","","","","","","","","","","","","","","","","","","   1536.7"," ,0","       51"," ,0","","","","","",""
"USC00414525","2002","31.9622","-95.2736","170.7","JACKSONVILLE, TX US","","","","","","","","","","","        0","","         0","0","","","","","","","","","","","         1"," ","","","","","     0"," ,0,1231,+","     0"," ,0,1231,+","","","","","","","","","","","","","","","","","","","","","","","","","","","","","","","        0"," ,0","","","","","",""
"USC00414525","2003","31.9622","-95.2736","170.7","JACKSONVILLE, TX US","","","","","","","","","","","        0","","         0","0","","","","","","","","","","","         1"," ","         1"," ","","","     0"," ,0,1231,+","     0"," ,0,1231,+","","","","","","","","","","","","","","","","","","","","","","","","","","","","","","","        0"," ,0","","","","","",""
"USC00414525","2004","31.9622","-95.2736","170.7","JACKSONVILLE, TX US","","","","","","","","","","","","","","","","","","","","","","","","","         1"," ","","","","","","","","","","","","","","","","","","","","","","","","","","","","","","","","","","","","","","","","","","","","","",""
"USC00414525","2006","31.9622","-95.2736","170.7","JACKSONVILLE, TX US","","","","","        64","0","        48","0","        12","0","        0","","         0","0","","","","","","","","","","","","","","","","","     0"," ,0,1231,+","     0"," ,0,1231,+","  66.0"," ,0,0123, ","","","","","","","","","","","","","","","","","","","","","","","","","","","    864.2"," ,0","        0"," ,0","","","","","",""
"USC00414525","2007","31.9622","-95.2736","170.7","JACKSONVILLE, TX US","","","","","","","","","","","","","","","","","","","","","","","","","         2"," ","         1"," ","","","","","","","","","","","","","","","","","","","","","","","","","","","","","","","","","","","","","","","","","","","",""
"USC00414525","2008","31.9622","-95.2736","170.7","JACKSONVILLE, TX US","","","","","","","","","","","","","","","","","","","","","","","","","         6"," ","        10"," ","","","","","","","","","","","","","","","","","","","","","","","","","","","","","","","","","","","","","","","","","","","",""
"USC00414525","2009","31.9622","-95.2736","170.7","JACKSONVILLE, TX US","","","","","","","","","","","","","","","","","","","","","","","","","        18"," ","        11"," ","","","","","","","","","","","","","","","","","","","","","","","","","","","","","","","","","","","","","","","","","","","",""
"USC00414525","2010","31.9622","-95.2736","170.7","JACKSONVILLE, TX US","","","","","","","","","","","","","","","","","","","","","","","","","         5"," ","         1"," ","","","","","","","","","","","","","","","","","","","","","","","","","","","","","","","","","","","","","","","","","","","",""
"USC00414525","2011","31.9622","-95.2736","170.7","JACKSONVILLE, TX US","   1744.2","","    1744.2","7","        60","7","        49","7","         9","7","","","","","         0","7","        35","7","         2","7","       260","7","       133","7","         3"," ","         5"," ","   -8.9","7,0203,+","","","","","  48.3"," ,7,0117, ","   42.2","7,0805,+","-0.6","7,1128","-2.2","7,1207","","","","","","","-0.6","7,0307","-2.2","7,0213","-7.2","7,0211","-7.2","7,0211","-8.9","7,0203","","","","","    691.8"," ,7","","","     19.84","7","     27.00","7","     12.68","7"
"USC00414525","2012","31.9622","-95.2736","170.7","JACKSONVILLE, TX US","","","","","","","","","","","","","","","","","","","","","","","","","         1"," ","         3"," ","","","","","","","","","","","","","","","","","","","","","","","","","","","","","","","","","","","","","","","","","","","",""
"USC00414525","2013","31.9622","-95.2736","170.7","JACKSONVILLE, TX US","   1335.7","","    1335.7","7","        71","7","        61","7","        15","7","","","","","         0","7","        45","7","         0","7","       239","7","        96","7","         1"," ","         2"," ","   -4.4","7,1212,+","","","",""," 152.4"," ,7,1031, ","   38.9","7,0630, ","-1.7","7,1113","-2.2","7,1114","-4.4","7,1210","","","","","0.0","7,0329","-2.2","7,0327","","","","","","","    1163.8","8","    1163.8","7","   1172.7"," ,7","","","     18.40","7","     24.99","7","     11.82","7"
"USC00414525","2014","31.9622","-95.2736","170.7","JACKSONVILLE, TX US","","","","","        72","7","        57","7","        12","7","","","","","","","","","","","","","","","         1"," ","","","","","","","",""," 106.7"," ,7,0801, ","","","","","","","","","","","","","","","","","","","","","","","    1421.4","4","    1421.4","7","    993.5"," ,7","","","","","","","",""
"USC00414525","2015","31.9622","-95.2736","170.7","JACKSONVILLE, TX US","","","","","","","","","","","","","","","","","","","","","","","","","         9"," ","         1"," ","","","","","","","","","","","","","","","","","","","","","","","","","","","","","","","","","","","","","","","","","","","",""
"USC00414525","2016","31.9622","-95.2736","170.7","JACKSONVILLE, TX US","","","","","","","","","","","","","","","","","","","","","","","","","        14"," ","         3"," ","","","","","","","","","","","","","","","","","","","","","","","","","","","","","","","","","","","","","","","","","","","",""
"USC00414525","2017","31.9622","-95.2736","170.7","JACKSONVILLE, TX US","","","","","","","","","","","","","","","","","","","","","","","","","         8"," ","         1"," ","","","","","","","","","","","","","","","","","","","","","","","","","","","","","","","","","","","","","","","","","","","",""
"USC00414525","2018","31.9622","-95.2736","170.7","JACKSONVILLE, TX US","","","","","","","","","","","","","","","","","","","","","","","","","         7"," ","         4"," ","","","","","","","","","","","","","","","","","","","","","","","","","","","","","","","","","","","","","","","","","","","",""
"USC00414525","2019","31.9622","-95.2736","170.7","JACKSONVILLE, TX US","","","","","","","","","","","","","","","","","","","","","","","","","        11"," ","         7"," ","","","","","","","","","","","","","","","","","","","","","","","","","","","","","","","","","","","","","","","","","","","",""
"USC00414525","2020","31.9622","-95.2736","170.7","JACKSONVILLE, TX US","","","","","","","","","","","","","","","","","","","","","","","","","         7"," ","         1"," ","","","","","","","","","","","","","","","","","","","","","","","","","","","","","","","","","","","","","","","","","","","",""
