"STATION","DATE","LATITUDE","LONGITUDE","ELEVATION","NAME","CDSD","CDSD_ATTRIBUTES","CLDD","CLDD_ATTRIBUTES","DP01","DP01_ATTRIBUTES","DP10","DP10_ATTRIBUTES","DP1X","DP1X_ATTRIBUTES","DT00","DT00_ATTRIBUTES","DT32","DT32_ATTRIBUTES","DX32","DX32_ATTRIBUTES","DX70","DX70_ATTRIBUTES","DX90","DX90_ATTRIBUTES","DYFG","DYFG_ATTRIBUTES","DYTS","DYTS_ATTRIBUTES","EMNT","EMNT_ATTRIBUTES","EMXP","EMXP_ATTRIBUTES","EMXT","EMXT_ATTRIBUTES","FZF0","FZF0_ATTRIBUTES","FZF1","FZF1_ATTRIBUTES","FZF2","FZF2_ATTRIBUTES","FZF3","FZF3_ATTRIBUTES","FZF4","FZF4_ATTRIBUTES","FZF5","FZF5_ATTRIBUTES","FZF6","FZF6_ATTRIBUTES","FZF7","FZF7_ATTRIBUTES","FZF8","FZF8_ATTRIBUTES","FZF9","FZF9_ATTRIBUTES","HDSD","HDSD_ATTRIBUTES","HTDD","HTDD_ATTRIBUTES","PRCP","PRCP_ATTRIBUTES","TAVG","TAVG_ATTRIBUTES","TMAX","TMAX_ATTRIBUTES","TMIN","TMIN_ATTRIBUTES"
"USC00301170","1929","42.383333","-78.183333","451.1","CANEADEA DAM, NY US","","","","","","","","","","","","","","","","","","","","","         2"," ","","","","","","","","","","","","","","","","","","","","","","","","","","","","","","","","","","","","","","","",""
"USC00301170","1930","42.383333","-78.183333","451.1","CANEADEA DAM, NY US","","","","","       101","6","        75","6","         2","6","","","","","        53","6","       131","6","         5","6","         2"," ","","","","","  43.2"," ,6,0610, ","   33.9","6,0808,+","","","","","","","","","","","","","","","","","","","","","","","","","    665.6"," ,6","","","     13.83","6","",""
"USC00301170","1931","42.383333","-78.183333","451.1","CANEADEA DAM, NY US","    178.8","","     178.8","6","       119","6","        88","6","         6","6","         9","6","       164","6","        25","6","       130","6","         3","6","         2"," ","","","  -26.7","6,0203, ","  61.0"," ,6,0809, ","   35.0","6,0702, ","-0.6","6,0925","-2.8","6,1010","-5.0","6,1126","-6.7","6,1128","-10.0","6,1205","-1.7","6,0523","-3.3","6,0504","-5.6","6,0501","-6.7","6,0416","-11.7","6,0321","    4176.3","3","    4176.3","6","    862.1"," ,6","      8.24","6","     14.47","6","      2.02","6"
"USC00301170","1932","42.383333","-78.183333","451.1","CANEADEA DAM, NY US","","","","","","","","","","","","","","","","","","","","","         2"," ","","","","","","","","","","","","","","","","","","","","","","","","","","","","","","","","","","","","","","","",""
"USC00301170","1933","42.383333","-78.183333","451.1","CANEADEA DAM, NY US","    163.1","","     163.1","6","       135","6","        88","6","         7","6","        12","6","       169","6","        30","6","       126","6","         4","6","         2"," ","","","  -29.4","6,1229, ","  40.1"," ,6,0824, ","   33.3","6,0723, ","-1.7","6,1003","-2.2","6,1013","-4.4","6,1025","-8.3","6,1026","-9.4","6,1105","-1.1","6,0615","-3.9","6,0505","-6.7","6,0428","-6.7","6,0428","-10.6","6,0325","","","","","    838.8"," ,6","      7.62","6","     13.97","6","      1.27","6"
"USC00301170","1934","42.383333","-78.183333","451.1","CANEADEA DAM, NY US","    190.5","","     190.5","6","       113","6","        70","6","         5","6","        31","6","       179","6","        56","6","       132","6","        12","6","","","","","  -42.2","6,0209, ","  42.2"," ,6,0923, ","   33.3","6,0602, ","0.0","6,0830","-2.8","6,1002","-6.7","6,1014","-6.7","6,1014","-14.4","6,1115","-3.3","6,0526","-3.3","6,0526","-5.6","6,0429","-7.8","6,0428","-8.9","6,0329","    4463.2","2","    4463.2","6","    655.4"," ,6","      6.68","6","     13.70","6","     -0.34","6"
"USC00301170","1935","42.383333","-78.183333","451.1","CANEADEA DAM, NY US","    184.1","","     184.1","6","       144","6","        80","6","         0","6","        21","6","       162","6","        60","6","       104","6","         0","6","         5"," ","","","  -32.8","6,0206, ","  22.1"," ,6,0708, ","   31.7","6,0706, ","-1.7","6,0930","-5.6","6,1007","-5.6","6,1007","-7.2","6,1123","-9.4","6,1124","-2.2","6,0524","-2.2","6,0524","-4.4","6,0417","-7.8","6,0416","-14.4","6,0318","    4222.9","9","    4222.9","6","    700.1"," ,6","      6.91","6","     12.59","6","      1.23","6"
"USC00301170","1936","42.383333","-78.183333","451.1","CANEADEA DAM, NY US","    238.5","","     238.5","6","       141","6","        77","6","         2","6","        24","6","       174","6","        59","6","       134","6","        10","6","         6"," ","","","  -26.7","6,1201, ","  43.4"," ,6,0317, ","   35.6","6,0709, ","0.0","6,0926","-2.8","6,0930","-6.7","6,1027","-6.7","6,1027","-8.9","6,1028","0.0","6,0530","-2.8","6,0516","-4.4","6,0427","-7.2","6,0408","-14.4","6,0307","    4273.2","2","    4273.2","6","    689.5"," ,6","      7.34","6","     13.40","6","      1.28","6"
"USC00301170","1937","42.383333","-78.183333","451.1","CANEADEA DAM, NY US","    177.5","","     177.5","6","       144","6","        78","6","         6","6","         6","6","       167","6","        46","6","       115","6","         0","6","         2"," ","         1"," ","  -20.6","6,0228, ","  37.6"," ,6,0618, ","   30.6","6,0710,+","-1.7","6,0918","-4.4","6,1010","-4.4","6,1010","-7.2","6,1016","-11.7","6,1202","-0.6","6,0420","-3.3","6,0417","-5.6","6,0410","-8.3","6,0403","-9.4","6,0331","    3945.5","5","    3945.5","6","    927.2"," ,6","      7.38","6","     12.79","6","      1.96","6"
"USC00301170","1938","42.383333","-78.183333","451.1","CANEADEA DAM, NY US","    177.8","","     177.8","6","       133","6","        71","6","         2","6","        10","6","       154","6","        53","6","       127","6","         0","6","         2"," ","","","  -30.6","6,0119, ","  76.2"," ,6,0811, ","   31.7","6,0803, ","-1.7","6,1002","-2.8","6,1007","-5.0","6,1101","-11.7","6,1116","-11.7","6,1116","-1.1","6,0525","-2.2","6,0514","-7.2","6,0411","-7.2","6,0411","-10.0","6,0328","    3984.7","7","    3984.7","6","    793.0"," ,6","      8.16","6","     14.29","6","      2.03","6"
"USC00301170","1939","42.383333","-78.183333","451.1","CANEADEA DAM, NY US","","","","","       146","6","        86","6","         4","6","        10","6","       169","6","","","","","","","","","","","  -26.7","6,0126, ","  33.8"," ,6,0623, ","","","-0.6","6,1002","-3.3","6,1015","-6.7","6,1018","-6.7","6,1018","-9.4","6,1104","-3.9","6,0514","-3.9","6,0514","-4.4","6,0416","-7.2","6,0413","-9.4","6,0410","    4017.1","1","    4017.1"," ","    743.6"," ,6","","","","","      1.37","6"
