"STATION","DATE","LATITUDE","LONGITUDE","ELEVATION","NAME","DP01","DP01_ATTRIBUTES","DP10","DP10_ATTRIBUTES","DP1X","DP1X_ATTRIBUTES","EMXP","EMXP_ATTRIBUTES","PRCP","PRCP_ATTRIBUTES"
"USC00333042","1949","40.38333","-82.4","331.9","GAMBIER, OH US","       135","0","        90","0","         5","0","  42.2"," ,0,0827, ","    893.0"," ,0"
"USC00333042","1950","40.38333","-82.4","331.9","GAMBIER, OH US","       118","0","        87","0","         7","0","  46.2"," ,0,1207, ","   1050.0"," ,0"
