"STATION","DATE","LATITUDE","LONGITUDE","ELEVATION","NAME","DP01","DP01_ATTRIBUTES","DP10","DP10_ATTRIBUTES","DP1X","DP1X_ATTRIBUTES","DSND","DSND_ATTRIBUTES","DSNW","DSNW_ATTRIBUTES","DT00","DT00_ATTRIBUTES","DT32","DT32_ATTRIBUTES","DX32","DX32_ATTRIBUTES","DX70","DX70_ATTRIBUTES","DX90","DX90_ATTRIBUTES","DYFG","DYFG_ATTRIBUTES","DYTS","DYTS_ATTRIBUTES","EMNT","EMNT_ATTRIBUTES","EMSD","EMSD_ATTRIBUTES","EMSN","EMSN_ATTRIBUTES","EMXP","EMXP_ATTRIBUTES","EMXT","EMXT_ATTRIBUTES","FZF0","FZF0_ATTRIBUTES","FZF1","FZF1_ATTRIBUTES","FZF2","FZF2_ATTRIBUTES","FZF3","FZF3_ATTRIBUTES","FZF4","FZF4_ATTRIBUTES","FZF5","FZF5_ATTRIBUTES","FZF6","FZF6_ATTRIBUTES","FZF7","FZF7_ATTRIBUTES","FZF8","FZF8_ATTRIBUTES","FZF9","FZF9_ATTRIBUTES","HDSD","HDSD_ATTRIBUTES","HTDD","HTDD_ATTRIBUTES","PRCP","PRCP_ATTRIBUTES","SNOW","SNOW_ATTRIBUTES","TMAX","TMAX_ATTRIBUTES","TMIN","TMIN_ATTRIBUTES"
"USC00353058","1949","44.65","-119.15","1339.0","FOX, OR US","","","","","","","","","","","","","","","","","","","","","","","         4"," ","","","","","","","","","","","","","","","","","","","","","","","","","","","","","","","","","","","","","","","","","",""
"USC00353058","1950","44.65","-119.15","1339.0","FOX, OR US","","","","","","","","","","","","","","","","","","","","","         1"," ","         2"," ","","","","","","","","","","","","","","","","","","","","","","","","","","","","","","","","","","","","","","","","","",""
"USC00353058","1951","44.65","-119.15","1339.0","FOX, OR US","","","","","","","","","","","","","","","        28","0","       123","0","        14","0","         4"," ","","","","","","","","","","","   35.6","0,0723, ","","","","","","","","","","","","","","","","","","","","","","","","","","","","","     14.35","0","",""
"USC00353058","1952","44.65","-119.15","1339.0","FOX, OR US","","","","","","","","","","","","","","","","","","","","","         9"," ","         3"," ","","","","","","","","","","","","","","","","","","","","","","","","","","","","","","","","","","","","","","","","","",""
"USC00353058","1953","44.65","-119.15","1339.0","FOX, OR US","       112","0","        66","0","         0","0","       50","","        18","0","         2","0","       220","0","","","","","","","","","","","  -19.4","0,0224,+","   203"," ,0,1208, ","   102"," ,0,0218, ","  23.4"," ,0,0519, ","","","-1.7","0,0903","-2.2","0,0917","-5.6","0,0924","-6.7","0,1003","-8.9","0,1103","-0.6","0,0724","-3.3","0,0530","-4.4","0,0512","-7.2","0,0415","-8.9","0,0402","","","","","    512.5"," ,0","     1112"," ,0","","","     -1.37","0"
"USC00353058","1954","44.65","-119.15","1339.0","FOX, OR US","","","","","","","","","","","","","","","","","","","","","","","         1"," ","","","","","","","","","","","","","","","","","","","","","","","","","","","","","","","    4033.1","1","    4033.1","0","","","","","","","",""
"USC00353058","1955","44.65","-119.15","1339.0","FOX, OR US","       110","0","        55","0","         0","0","      125","","        23","0","","","","","","","","","","","","","","","","","   279"," ,0,0305,+","   188"," ,0,1223, ","  20.1"," ,0,0722, ","","","","","","","","","","","","","","","","","","","","","","","","","","","    407.3"," ,0","     1718"," ,0","","","",""
