"STATION","DATE","LATITUDE","LONGITUDE","ELEVATION","NAME","DP01","DP01_ATTRIBUTES","DP10","DP10_ATTRIBUTES","DP1X","DP1X_ATTRIBUTES","DSND","DSND_ATTRIBUTES","DSNW","DSNW_ATTRIBUTES","DYFG","DYFG_ATTRIBUTES","DYTS","DYTS_ATTRIBUTES","EMSD","EMSD_ATTRIBUTES","EMSN","EMSN_ATTRIBUTES","EMXP","EMXP_ATTRIBUTES","PRCP","PRCP_ATTRIBUTES","SNOW","SNOW_ATTRIBUTES"
"USC00419169","1947","33.88333","-101.85","1022.0","TUCO STATION, TX US","","","","","","","","","","","         4"," ","         2"," ","","","","","","","","","",""
"USC00419169","1948","33.88333","-101.85","1022.0","TUCO STATION, TX US","","","","","","","","","","","         9"," ","        33"," ","","","","","","","","","",""
"USC00419169","1949","33.88333","-101.85","1022.0","TUCO STATION, TX US","","","","","","","","","","","        18"," ","        16"," ","","","","","","","","","",""
"USC00419169","1950","33.88333","-101.85","1022.0","TUCO STATION, TX US","","","","","","","","","","","","","         2"," ","","","","","","","","","",""
"USC00419169","1951","33.88333","-101.85","1022.0","TUCO STATION, TX US","        55","0","        37","0","         7","0","        1","","         2","0","","","","","    51"," ,0,0102, ","    38"," ,0,0102, "," 150.9"," ,0,0517, ","    625.8"," ,0","       89"," ,0"
"USC00419169","1952","33.88333","-101.85","1022.0","TUCO STATION, TX US","","","","","","","","","","","","","         1"," ","","","","","","","","","",""
