"STATION","DATE","LATITUDE","LONGITUDE","ELEVATION","NAME","DP01","DP01_ATTRIBUTES","DP10","DP10_ATTRIBUTES","DP1X","DP1X_ATTRIBUTES","DSNW","DSNW_ATTRIBUTES","DYFG","DYFG_ATTRIBUTES","EMSN","EMSN_ATTRIBUTES","EMXP","EMXP_ATTRIBUTES","PRCP","PRCP_ATTRIBUTES","SNOW","SNOW_ATTRIBUTES"
"USC00448695","1939","37.916667","-79.15","518.2","VESUVIUS, VA US","","","","","","","","","         2"," ","","","","","","","",""
"USC00448695","1940","37.916667","-79.15","518.2","VESUVIUS, VA US","","","","","","","","","        15"," ","","","","","","","",""
"USC00448695","1941","37.916667","-79.15","518.2","VESUVIUS, VA US","","","","","","","","","         9"," ","","","","","","","",""
"USC00448695","1942","37.916667","-79.15","518.2","VESUVIUS, VA US","       110","6","        79","6","        16","6","","","        16"," ","","","  94.2"," ,6,0516, ","   1308.1"," ,6","",""
"USC00448695","1943","37.916667","-79.15","518.2","VESUVIUS, VA US","","","","","","","         7","6","         8"," ","   127"," ,6,0322, ","","","","","      457"," ,6"
"USC00448695","1944","37.916667","-79.15","518.2","VESUVIUS, VA US","","","","","","","","","         5"," ","","","","","","","",""
"USC00448695","1945","37.916667","-79.15","518.2","VESUVIUS, VA US","","","","","","","","","         9"," ","","","","","","","",""
"USC00448695","1946","37.916667","-79.15","518.2","VESUVIUS, VA US","","","","","","","","","         2"," ","","","","","","","",""
