"STATION","DATE","LATITUDE","LONGITUDE","ELEVATION","NAME","DP01","DP01_ATTRIBUTES","DP10","DP10_ATTRIBUTES","DP1X","DP1X_ATTRIBUTES","DYFG","DYFG_ATTRIBUTES","EMXP","EMXP_ATTRIBUTES","PRCP","PRCP_ATTRIBUTES"
"USC00292117","1915","36.98333","-105.53333","2347.0","COSTILLA, NM US","        44","6","        43","6","         0","6","","","  17.8"," ,6,0725, ","    319.4"," ,6"
"USC00292117","1916","36.98333","-105.53333","2347.0","COSTILLA, NM US","        56","6","        52","6","         1","6","","","  25.4"," ,6,0710, ","    317.0"," ,6"
"USC00292117","1917","36.98333","-105.53333","2347.0","COSTILLA, NM US","        38","6","        28","6","         0","6","         1"," ","  20.3"," ,6,0505, ","    192.9"," ,6"
