"STATION","DATE","LATITUDE","LONGITUDE","ELEVATION","NAME","DP01","DP01_ATTRIBUTES","DP10","DP10_ATTRIBUTES","DP1X","DP1X_ATTRIBUTES","DSND","DSND_ATTRIBUTES","DSNW","DSNW_ATTRIBUTES","DYFG","DYFG_ATTRIBUTES","DYTS","DYTS_ATTRIBUTES","EMSD","EMSD_ATTRIBUTES","EMSN","EMSN_ATTRIBUTES","EMXP","EMXP_ATTRIBUTES","PRCP","PRCP_ATTRIBUTES","SNOW","SNOW_ATTRIBUTES"
"USC00258215","1947","40.5323","-100.3855","757.1","STOCKVILLE, NE US","","","","","","","","","","","         6"," ","","","","","","","","","","","",""
"USC00258215","1948","40.5323","-100.3855","757.1","STOCKVILLE, NE US","        54","0","        42","0","         5","0","","","","","","","","","","","","","  97.3"," ,0,0622, ","    541.4"," ,0","",""
"USC00258215","1950","40.5323","-100.3855","757.1","STOCKVILLE, NE US","        46","0","        38","0","         7","0","","","         6","0","","","","","","","   203"," ,0,0212, ","  45.7"," ,0,0717, ","    540.5"," ,0","      578"," ,0"
"USC00258215","1951","40.5323","-100.3855","757.1","STOCKVILLE, NE US","        70","0","        61","0","         6","0","","","         4","0","","","","","","","   102"," ,0,0320, ","  34.3"," ,0,0708, ","    717.0"," ,0","      437"," ,0"
"USC00258215","1952","40.5323","-100.3855","757.1","STOCKVILLE, NE US","        57","0","        46","0","         0","0","","","","","","","","","","","","","  20.3"," ,0,0714,+","    415.5"," ,0","",""
"USC00258215","1953","40.5323","-100.3855","757.1","STOCKVILLE, NE US","        50","0","        43","0","         2","0","","","","","","","","","","","","","  28.4"," ,0,0713, ","    451.9"," ,0","",""
"USC00258215","1956","40.5323","-100.3855","757.1","STOCKVILLE, NE US","        57","0","        28","0","         4","0","       35","","         9","0","","","","","   152"," ,0,0404,+","   152"," ,0,0403, ","  64.8"," ,0,0713, ","    404.8"," ,0","      645"," ,0"
"USC00258215","1957","40.5323","-100.3855","757.1","STOCKVILLE, NE US","        82","0","        46","0","         7","0","       25","","        10","0","","","","","   127"," ,0,0404,+","   114"," ,0,0324, ","  62.0"," ,0,0914, ","    672.6"," ,0","      655"," ,0"
"USC00258215","1958","40.5323","-100.3855","757.1","STOCKVILLE, NE US","        84","0","        45","0","         4","0","       58","","        13","0","","","","","   254"," ,0,0314,+","   165"," ,0,0228, ","  39.4"," ,0,0812, ","    516.6"," ,0","      980"," ,0"
"USC00258215","1959","40.5323","-100.3855","757.1","STOCKVILLE, NE US","        66","0","        39","0","         4","0","       29","","         8","0","","","","","   102"," ,0,0220, ","    89"," ,0,0127, ","  35.3"," ,0,0326, ","    437.5"," ,0","      464"," ,0"
"USC00258215","1960","40.5323","-100.3855","757.1","STOCKVILLE, NE US","        82","0","        51","0","         1","0","       78","","        14","0","","","","","   203"," ,0,0315,+","   102"," ,0,0302, ","  35.6"," ,0,0519, ","    395.3"," ,0","      858"," ,0"
"USC00258215","1961","40.5323","-100.3855","757.1","STOCKVILLE, NE US","        77","0","        43","0","         3","0","       39","","        11","0","","","","","   178"," ,0,0409,+","   178"," ,0,0408, ","  30.7"," ,0,0521, ","    428.7"," ,0","      766"," ,0"
"USC00258215","1962","40.5323","-100.3855","757.1","STOCKVILLE, NE US","        85","0","        53","0","         6","0","       39","","         6","0","","","","","    76"," ,0,1226,+","    51"," ,0,1220,+","  72.4"," ,0,0518, ","    749.6"," ,0","      357"," ,0"
"USC00258215","1963","40.5323","-100.3855","757.1","STOCKVILLE, NE US","        65","0","        39","0","         4","0","       43","","         9","0","","","","","   102"," ,0,0121,+","    81"," ,0,0111, ","  66.0"," ,0,0921, ","    465.5"," ,0","      367"," ,0"
"USC00258215","1964","40.5323","-100.3855","757.1","STOCKVILLE, NE US","        61","0","        28","0","         2","0","       16","","         7","0","","","","","   102"," ,0,0215, ","   102"," ,0,0215, ","  57.2"," ,0,0607, ","    411.3"," ,0","      343"," ,0"
"USC00258215","1965","40.5323","-100.3855","757.1","STOCKVILLE, NE US","        86","0","        55","0","         5","0","       41","","         7","0","","","","","   127"," ,0,0326,+","    76"," ,0,1214,+","  49.0"," ,0,0830, ","    673.9"," ,0","      522"," ,0"
"USC00258215","1966","40.5323","-100.3855","757.1","STOCKVILLE, NE US","        60","0","        35","0","         3","0","       42","","        10","0","","","","","   229"," ,0,1228, ","   112"," ,0,1228, ","  33.5"," ,0,0609, ","    444.2"," ,0","      655"," ,0"
"USC00258215","1967","40.5323","-100.3855","757.1","STOCKVILLE, NE US","        67","0","        34","0","         6","0","       26","","         7","0","","","","","   127"," ,0,0101, ","    76"," ,0,0503, ","  63.5"," ,0,0621, ","    522.8"," ,0","      387"," ,0"
"USC00258215","1968","40.5323","-100.3855","757.1","STOCKVILLE, NE US","        73","0","        36","0","         5","0","       22","","         6","0","","","","","   254"," ,0,1228,+","   102"," ,0,1223,+","  57.2"," ,0,0625, ","    508.8"," ,0","      531"," ,0"
"USC00258215","1969","40.5323","-100.3855","757.1","STOCKVILLE, NE US","        87","0","        55","0","         5","0","       90","","        11","0","","","","","   229"," ,0,0104,+","   178"," ,0,0215, ","  56.4"," ,0,0611, ","    668.0"," ,0","      895"," ,0"
"USC00258215","1970","40.5323","-100.3855","757.1","STOCKVILLE, NE US","        74","0","        38","0","         2","0","       15","","         6","0","","","","","    51"," ,0,0320,+","    51"," ,0,0316, ","  36.1"," ,0,0612, ","    360.8"," ,0","      295"," ,0"
"USC00258215","1971","40.5323","-100.3855","757.1","STOCKVILLE, NE US","        85","0","        47","0","         7","0","       27","","         7","0","","","","","   152"," ,0,0325, ","   127"," ,0,0325, ","  48.8"," ,0,0614, ","    643.9"," ,0","      444"," ,0"
"USC00258215","1972","40.5323","-100.3855","757.1","STOCKVILLE, NE US","        73","0","        41","0","         2","0","       33","","         5","0","","","","","   254"," ,0,1213, ","   152"," ,0,1213, ","  58.4"," ,0,0604, ","    491.3"," ,0","      478"," ,0"
"USC00258215","1977","40.5323","-100.3855","757.1","STOCKVILLE, NE US","","","","","","","","","","","","","         8"," ","","","","","","","","","",""
"USC00258215","1978","40.5323","-100.3855","757.1","STOCKVILLE, NE US","","","","","","","","","        15","0","","","","","","","   254"," ,0,0213, ","","","","","     1092"," ,0"
"USC00258215","1979","40.5323","-100.3855","757.1","STOCKVILLE, NE US","        47","0","        43","0","         8","0","","","         6","0","","","         1"," ","","","   127"," ,0,1121, ","  79.0"," ,0,0825, ","    669.8"," ,0","      432"," ,0"
"USC00258215","1981","40.5323","-100.3855","757.1","STOCKVILLE, NE US","        49","0","        46","0","         8","0","","","         6","0","","","         1"," ","","","   330"," ,0,0307, ","  63.5"," ,0,0806, ","    679.6"," ,0","      812"," ,0"
"USC00258215","1982","40.5323","-100.3855","757.1","STOCKVILLE, NE US","        43","0","        42","0","         5","0","","","","","         1"," ","         1"," ","","","","","  58.4"," ,0,0814, ","    620.1"," ,0","",""
"USC00258215","1983","40.5323","-100.3855","757.1","STOCKVILLE, NE US","","","","","","","       68","","        12","0","        10"," ","         5"," ","   610"," ,0,1231,+","   381"," ,0,1127, ","","","","","     1015"," ,0"
"USC00258215","1984","40.5323","-100.3855","757.1","STOCKVILLE, NE US","","","","","","","","","","","        38"," ","        13"," ","","","","","","","","","",""
"USC00258215","1985","40.5323","-100.3855","757.1","STOCKVILLE, NE US","","","","","","","","","","","        29"," ","        11"," ","","","","","","","","","",""
"USC00258215","1986","40.5323","-100.3855","757.1","STOCKVILLE, NE US","        41","0","        33","0","         3","0","       24","","         5","0","        30"," ","        15"," ","   102"," ,0,0213,+","   102"," ,0,0205, ","  44.5"," ,0,0516, ","    366.1"," ,0","      254"," ,0"
"USC00258215","1987","40.5323","-100.3855","757.1","STOCKVILLE, NE US","        58","0","        48","0","         6","0","","","","","        33"," ","        28"," ","","","","","  64.8"," ,0,0609, ","    617.0"," ,0","",""
"USC00258215","1988","40.5323","-100.3855","757.1","STOCKVILLE, NE US","        37","0","        30","0","         7","0","","","","","        11"," ","        12"," ","","","",""," 108.7"," ,0,0812, ","    629.1"," ,0","",""
"USC00258215","1989","40.5323","-100.3855","757.1","STOCKVILLE, NE US","        38","0","        30","0","         5","0","       25","","        10","0","        37"," ","         8"," ","    76"," ,0,1223,+","    76"," ,0,1218,+","  50.8"," ,0,0624, ","    438.9"," ,0","      443"," ,0"
"USC00258215","1990","40.5323","-100.3855","757.1","STOCKVILLE, NE US","        45","0","        38","0","         1","0","       38","","         7","0","        37"," ","        15"," ","   254"," ,0,0119, ","   254"," ,0,0119, ","  33.0"," ,0,0811, ","    442.4"," ,0","      596"," ,0"
"USC00258215","1991","40.5323","-100.3855","757.1","STOCKVILLE, NE US","        52","0","        39","0","         3","0","       23","","         8","0","        38"," ","        11"," ","   152"," ,0,1103,+","   152"," ,0,1031, ","  39.4"," ,0,0723, ","    466.0"," ,0","      468"," ,0"
"USC00258215","1992","40.5323","-100.3855","757.1","STOCKVILLE, NE US","","","","","","","       34","","        11","0","        59"," ","        44"," ","   178"," ,0,1215, ","   127"," ,0,1215, ","","","","","      814"," ,0"
"USC00258215","1993","40.5323","-100.3855","757.1","STOCKVILLE, NE US","        82","0","        63","0","         8","0","       71","","        12","0","        56"," ","        42"," ","   508"," ,0,0115,+","   356"," ,0,0109, ","  49.5"," ,0,0711, ","    806.0"," ,0","     1143"," ,0"
"USC00258215","1994","40.5323","-100.3855","757.1","STOCKVILLE, NE US","        54","0","        39","0","         5","0","       56","","        15","0","        29"," ","        32"," ","   305"," ,0,0428, ","   305"," ,0,0428, ","  52.1"," ,0,0525,+","    516.6"," ,0","     1257"," ,0"
"USC00258215","1995","40.5323","-100.3855","757.1","STOCKVILLE, NE US","","","","","","","       24","","         7","0","        44"," ","        15"," ","   102"," ,0,0308,+","   102"," ,0,0306, ","","","","","      432"," ,0"
"USC00258215","1996","40.5323","-100.3855","757.1","STOCKVILLE, NE US","        60","0","        45","0","         6","0","","","         4","0","        59"," ","        41"," ","","","    51"," ,0,0324, ","  57.2"," ,0,0917, ","    612.9"," ,0","      167"," ,0"
"USC00258215","1997","40.5323","-100.3855","757.1","STOCKVILLE, NE US","","","","","","","       23","","         9","0","        35"," ","        16"," ","   229"," ,0,0208,+","   127"," ,0,0203, ","","","","","      675"," ,0"
"USC00258215","1998","40.5323","-100.3855","757.1","STOCKVILLE, NE US","        54","0","        39","0","         2","0","","","         6","0","        48"," ","        17"," ","","","    51"," ,0,0308, ","  38.6"," ,0,0522, ","    422.6"," ,0","      176"," ,0"
"USC00258215","1999","40.5323","-100.3855","757.1","STOCKVILLE, NE US","        49","0","        40","0","         7","0","       11","","         6","0","        29"," ","        18"," ","   127"," ,0,0312, ","    76"," ,0,0312,+","  61.0"," ,0,0811, ","    556.5"," ,0","      330"," ,0"
"USC00258215","2000","40.5323","-100.3855","757.1","STOCKVILLE, NE US","        50","0","        42","0","         6","0","       31","","         7","0","        25"," ","        26"," ","   254"," ,0,1114,+","   254"," ,0,1112, ","  66.0"," ,0,1029, ","    550.4"," ,0","      597"," ,0"
"USC00258215","2001","40.5323","-100.3855","757.1","STOCKVILLE, NE US","        59","0","        43","0","         5","0","       21","","         9","0","        31"," ","        32"," ","   102"," ,0,0301,+","    76"," ,0,0227, ","  44.5"," ,0,0505, ","    520.9"," ,0","      419"," ,0"
"USC00258215","2002","40.5323","-100.3855","757.1","STOCKVILLE, NE US","        37","0","        24","0","         1","0","       19","","        10","0","         8"," ","        20"," ","   152"," ,0,0201, ","   102"," ,0,0302,+","  27.9"," ,0,0618, ","    251.4"," ,0","      472"," ,0"
"USC00258215","2003","40.5323","-100.3855","757.1","STOCKVILLE, NE US","        50","0","        41","0","         4","0","       24","","         7","0","         5"," ","        25"," ","   102"," ,0,0407,+","    89"," ,0,0223, ","  39.9"," ,0,0416, ","    442.5"," ,0","      367"," ,0"
"USC00258215","2004","40.5323","-100.3855","757.1","STOCKVILLE, NE US","        56","0","        45","0","         6","0","       40","","         9","0","","","","","   152"," ,0,0104, ","   152"," ,0,0104, ","  47.0"," ,0,0616, ","    576.3"," ,0","      532"," ,0"
"USC00258215","2005","40.5323","-100.3855","757.1","STOCKVILLE, NE US","        60","0","        48","0","         7","0","","","","","        11"," ","        29"," ","","","","","  48.3"," ,0,0603, ","    580.9"," ,0","",""
"USC00258215","2006","40.5323","-100.3855","757.1","STOCKVILLE, NE US","        52","0","        43","0","         3","0","","","","","         7"," ","        32"," ","","","","","  45.7"," ,0,1230, ","    487.8"," ,0","",""
"USC00258215","2007","40.5323","-100.3855","757.1","STOCKVILLE, NE US","        62","0","        46","0","         8","0","       74","","        11","0","        19"," ","        36"," ","   254"," ,0,1218,+","   114"," ,0,0121, ","  59.2"," ,0,0530, ","    632.9"," ,0","      558"," ,0"
"USC00258215","2008","40.5323","-100.3855","757.1","STOCKVILLE, NE US","        69","0","        56","0","         6","0","       42","","         4","0","        19"," ","        37"," ","   152"," ,0,0206,+","   102"," ,0,0205, "," 138.4"," ,0,0523, ","    805.4"," ,0","      270"," ,0"
"USC00258215","2009","40.5323","-100.3855","757.1","STOCKVILLE, NE US","        73","0","        55","0","         7","0","       13","","         7","0","        20"," ","        34"," ","   178"," ,0,1030, ","   178"," ,0,1030, ","  55.9"," ,0,0716, ","    762.1"," ,0","      573"," ,0"
"USC00258215","2010","40.5323","-100.3855","757.1","STOCKVILLE, NE US","","","","","","","","","","","        20"," ","        30"," ","","","","","","","","","",""
"USC00258215","2011","40.5323","-100.3855","757.1","STOCKVILLE, NE US","        66","K","        46","K","         6","K","       39","","        11","K","        24"," ","        27"," ","   203"," ,K,1205,+","   152"," ,K,1203, ","  85.1"," ,K,0525, ","    590.0"," ,K","      634"," ,K"
"USC00258215","2012","40.5323","-100.3855","757.1","STOCKVILLE, NE US","        36","7","        26","7","         0","7","       22","","         3","7","         6"," ","         4"," ","   127"," ,7,1229,+","   102"," ,7,1219, ","  22.9"," ,7,0708, ","    220.8"," ,7","      217"," ,7"
"USC00258215","2015","40.5323","-100.3855","757.1","STOCKVILLE, NE US","        55","7","        46","7","         7","7","        1","","         2","7","","","","","    25"," ,7,1215, ","    51"," ,7,0131, ","  45.7"," ,7,0710, ","    583.6"," ,7","      168"," ,7"
"USC00258215","2017","40.5323","-100.3855","757.1","STOCKVILLE, NE US","        50","7","        43","7","         5","7","","","         5","7","","","","","","","   203"," ,7,0430, ","  37.1"," ,7,0816, ","    476.0"," ,7","      440"," ,7"
"USC00258215","2018","40.5323","-100.3855","757.1","STOCKVILLE, NE US","        66","7","        53","7","         6","7","","","        13","7","","","","","","","   178"," ,7,0121, ","  75.4"," ,7,0619, ","    672.6"," ,7","     1198"," ,7"
