"STATION","DATE","LATITUDE","LONGITUDE","ELEVATION","NAME","CDSD","CDSD_ATTRIBUTES","CLDD","CLDD_ATTRIBUTES","DP01","DP01_ATTRIBUTES","DP10","DP10_ATTRIBUTES","DP1X","DP1X_ATTRIBUTES","DSND","DSND_ATTRIBUTES","DSNW","DSNW_ATTRIBUTES","DT00","DT00_ATTRIBUTES","DT32","DT32_ATTRIBUTES","DX32","DX32_ATTRIBUTES","DX70","DX70_ATTRIBUTES","DX90","DX90_ATTRIBUTES","DYFG","DYFG_ATTRIBUTES","EMNT","EMNT_ATTRIBUTES","EMSD","EMSD_ATTRIBUTES","EMSN","EMSN_ATTRIBUTES","EMXP","EMXP_ATTRIBUTES","EMXT","EMXT_ATTRIBUTES","FZF0","FZF0_ATTRIBUTES","FZF1","FZF1_ATTRIBUTES","FZF2","FZF2_ATTRIBUTES","FZF3","FZF3_ATTRIBUTES","FZF4","FZF4_ATTRIBUTES","FZF5","FZF5_ATTRIBUTES","FZF6","FZF6_ATTRIBUTES","FZF7","FZF7_ATTRIBUTES","FZF8","FZF8_ATTRIBUTES","FZF9","FZF9_ATTRIBUTES","HDSD","HDSD_ATTRIBUTES","HTDD","HTDD_ATTRIBUTES","PRCP","PRCP_ATTRIBUTES","SNOW","SNOW_ATTRIBUTES","TAVG","TAVG_ATTRIBUTES","TMAX","TMAX_ATTRIBUTES","TMIN","TMIN_ATTRIBUTES"
"USC00207826","1893","43.283333","-85.083333","268.2","STANTON, MI US","","","","","","","","","","","","","","","","","","","","","","","","","         4"," ","","","","","","","","","","","","","","","","","","","","","","","","","","","","","","","","","","","","","","","","","","","",""
"USC00207826","1894","43.283333","-85.083333","268.2","STANTON, MI US","","","","","        80","6","        63","6","         7","6","","","","","","","","","        48","6","       134","6","        31","6","         1"," ","","","","","","","  74.9"," ,6,0908, ","   37.8","6,0719, ","","","","","","","","","","","","","","","","","","","","","    3841.3","3","    3841.3","6","    662.4"," ,6","","","","","     14.52","6","",""
"USC00207826","1895","43.283333","-85.083333","268.2","STANTON, MI US","    343.6","","     343.6","6","        70","6","        54","6","         7","6","","","","","        18","6","       173","6","        78","6","       138","6","        26","6","","","  -30.0","6,0205, ","","","","","  43.2"," ,6,1107, ","   36.1","6,0610, ","0.0","6,1001","-2.8","6,1010","-6.7","6,1020","-6.7","6,1020","-10.0","6,1021","-2.2","6,0521","-2.2","6,0521","-6.7","6,0412","-6.7","6,0412","-8.9","6,0319","","","","","    585.8"," ,6","","","      6.90","6","     13.26","6","      0.54","6"
"USC00207826","1896","43.283333","-85.083333","268.2","STANTON, MI US","","","","","","","","","","","","","","","        11","6","       156","6","        64","6","       137","6","        12","6","","","  -25.0","6,0217, ","","","","","","","   35.0","6,0702, ","-1.1","6,0920","-3.3","6,0923","-4.4","6,1008","-10.0","6,1114","-10.0","6,1114","-0.6","6,0422","-5.0","6,0408","-5.0","6,0408","-6.7","6,0405","-10.0","6,0402","    4030.8","8","    4030.8","6","","","","","      8.05","6","     13.60","6","      2.50","6"
"USC00207826","1897","43.283333","-85.083333","268.2","STANTON, MI US","","","","","","","","","","","","","","","         5","6","       147","6","        64","6","       120","6","        14","6","","","  -23.9","6,0125, ","","","","","","","   37.8","6,0704, ","-1.1","6,0921","-2.2","6,1009","-6.1","6,1113","-6.7","6,1118","-11.1","6,1123","-1.1","6,0525","-10.0","6,0427","-10.0","6,0427","-10.0","6,0427","-10.0","6,0427","","","","","","","","","      7.69","6","     13.24","6","      2.14","6"
"USC00207826","1899","43.283333","-85.083333","268.2","STANTON, MI US","","","","","","","","","","","","","","","","","","","","","","","","","         2"," ","","","","","","","","","","","","","","","","","","","","","","","","","","","","","","","","","","","","","","","","","","","",""
"USC00207826","1900","43.283333","-85.083333","268.2","STANTON, MI US","","","","","","","","","","","","","","","","","","","","","","","","","         1"," ","","","","","","","","","","","","","","","","","","","","","","","","","","","","","","","","","","","","","","","","","","","",""
"USC00207826","1905","43.283333","-85.083333","268.2","STANTON, MI US","","","","","","","","","","","","","","","","","","","","","","","","","         1"," ","","","","","","","","","","","","","","","","","","","","","","","","","","","","","","","    4134.0","0","    4134.0","6","","","","","","","","","",""
"USC00207826","1906","43.283333","-85.083333","268.2","STANTON, MI US","    291.5","","     291.5","6","        74","6","        38","6","        10","6","       33","","        11","6","        11","6","       161","6","        53","6","       147","6","        17","6","","","  -23.3","6,0215,+","   152"," ,6,0120, ","    76"," ,6,1028,+","  63.5"," ,6,0527, ","   33.9","6,0910, ","0.0","6,1004","-6.7","6,1011","-6.7","6,1011","-6.7","6,1011","-9.4","6,1031","-1.1","6,0520","-5.0","6,0510","-5.0","6,0510","-6.7","6,0329","-17.8","6,0323","","","","","    605.2"," ,6","      657"," ,6","      8.08","6","     14.50","6","      1.65","6"
"USC00207826","1907","43.283333","-85.083333","268.2","STANTON, MI US","","","","","        76","6","        63","6","        14","6","       61","","        23","6","","","","","","","","","","","         1"," ","","","   305"," ,6,0113,+","   305"," ,6,0111, ","  45.7"," ,6,0119,+","","","","","","","","","","","","","","","","","","","","","","","","","","","    815.5"," ,6","     1682"," ,6","","","","","",""
"USC00207826","1908","43.283333","-85.083333","268.2","STANTON, MI US","","","","","","","","","","","","","","","","","","","","","","","","","         1"," ","","","","","","","","","","","","","","","","","","","","","","","","","","","","","","","","","","","","","","","","","","","",""
