"STATION","DATE","LATITUDE","LONGITUDE","ELEVATION","NAME","CDSD","CDSD_ATTRIBUTES","CLDD","CLDD_ATTRIBUTES","DP01","DP01_ATTRIBUTES","DP10","DP10_ATTRIBUTES","DP1X","DP1X_ATTRIBUTES","DT00","DT00_ATTRIBUTES","DT32","DT32_ATTRIBUTES","DX32","DX32_ATTRIBUTES","DX70","DX70_ATTRIBUTES","DX90","DX90_ATTRIBUTES","EMNT","EMNT_ATTRIBUTES","EMXP","EMXP_ATTRIBUTES","EMXT","EMXT_ATTRIBUTES","FZF0","FZF0_ATTRIBUTES","FZF1","FZF1_ATTRIBUTES","FZF2","FZF2_ATTRIBUTES","FZF3","FZF3_ATTRIBUTES","FZF4","FZF4_ATTRIBUTES","FZF5","FZF5_ATTRIBUTES","FZF6","FZF6_ATTRIBUTES","FZF7","FZF7_ATTRIBUTES","FZF8","FZF8_ATTRIBUTES","FZF9","FZF9_ATTRIBUTES","HDSD","HDSD_ATTRIBUTES","HTDD","HTDD_ATTRIBUTES","PRCP","PRCP_ATTRIBUTES","TAVG","TAVG_ATTRIBUTES","TMAX","TMAX_ATTRIBUTES","TMIN","TMIN_ATTRIBUTES"
"USC00334700","1893","41.15","-80.866667","304.8","LORDSTOWN, OH US","    222.6","","     222.6","6","","","","","","","        10","6","       152","6","        50","6","       136","6","        11","6","  -22.8","6,0111, ","","","   34.4","6,0725, ","0.0","6,0926","-3.3","6,1017","-6.1","6,1031","-8.3","6,1124","-11.1","6,1125","-1.1","6,0519","-3.9","6,0424","-11.7","6,0329","-11.7","6,0329","-11.7","6,0329","","","","","","","      8.09","6","     14.28","6","      1.91","6"
"USC00334700","1894","41.15","-80.866667","304.8","LORDSTOWN, OH US","    295.4","","     295.4","6","","","","","","","         5","6","       131","6","        23","6","       142","6","        15","6","  -22.8","6,0225, ","","","   35.6","6,0719, ","-1.1","6,0926","-2.8","6,1015","-5.6","6,1107","-11.7","6,1112","-11.7","6,1112","-0.6","6,0426","-2.8","6,0413","-6.7","6,0409","-6.7","6,0409","-12.2","6,0327","    3335.9","9","    3335.9","6","","","      9.70","6","     15.98","6","      3.41","6"
"USC00334700","1895","41.15","-80.866667","304.8","LORDSTOWN, OH US","","","","","","","","","","","        17","6","       163","6","        50","6","       143","6","        27","6","  -25.6","6,0206, ","","","   35.6","6,0604, ","-0.6","6,0915","-3.3","6,1009","-5.6","6,1010","-6.7","6,1103","-9.4","6,1203","-1.1","6,0528","-3.3","6,0522","-4.4","6,0521","-6.7","6,0411","-12.2","6,0322","","","","","","","      8.13","6","     14.65","6","      1.60","6"
"USC00334700","1896","41.15","-80.866667","304.8","LORDSTOWN, OH US","    325.8","","     325.8","6","","","","","","","         5","6","       136","6","        49","6","       151","6","         6","6","  -21.1","6,0217, ","","","   33.9","6,0809, ","-1.1","6,1003","-3.3","6,1009","-4.4","6,1019","-9.4","6,1130","-9.4","6,1130","-0.6","6,0423","-5.0","6,0408","-5.0","6,0408","-6.7","6,0403","-11.7","6,0324","    3512.9","9","    3512.9","6","","","      9.43","6","     14.71","6","      4.16","6"
"USC00334700","1897","41.15","-80.866667","304.8","LORDSTOWN, OH US","","","","","","","","","","","         8","6","       130","6","        39","6","       137","6","        11","6","  -27.2","6,0125, ","","","   36.1","6,0705,+","0.0","6,0922","-3.3","6,1008","-5.0","6,1123","-8.3","6,1124","-9.4","6,1202","0.0","6,0526","-5.0","6,0421","-5.0","6,0421","-7.8","6,0327","-13.3","6,0228","    3383.9","9","    3383.9","6","","","      9.37","6","     14.99","6","      3.75","6"
"USC00334700","1898","41.15","-80.866667","304.8","LORDSTOWN, OH US","    411.0","","     411.0","6","","","","","","","         4","6","       128","6","        45","6","       139","6","        11","6","  -23.3","6,0203, ","","","   34.4","6,0703, ","-0.6","6,1016","-3.3","6,1027","-5.6","6,1028","-6.7","6,1125","-8.9","6,1126","0.0","6,0428","-5.6","6,0408","-5.6","6,0408","-7.8","6,0406","-12.8","6,0301","","","","","","","      9.79","6","     15.10","6","      4.49","6"
"USC00334700","1899","41.15","-80.866667","304.8","LORDSTOWN, OH US","    326.7","","     326.7","6","       115","6","        74","6","         4","6","        18","6","       144","6","        45","6","       156","6","        19","6","  -30.0","6,0210, ","  38.9"," ,6,0628, ","   35.6","6,0901, ","0.0","6,0915","-3.9","6,1001","-5.0","6,1002","-8.3","6,1205","-13.9","6,1207","0.0","6,0416","-4.4","6,0410","-4.4","6,0410","-6.7","6,0405","-12.2","6,0321","    3589.3","3","    3589.3","6","    820.3"," ,6","      9.08","6","     15.45","6","      2.71","6"
