"STATION","DATE","LATITUDE","LONGITUDE","ELEVATION","NAME","DP01","DP01_ATTRIBUTES","DP10","DP10_ATTRIBUTES","DP1X","DP1X_ATTRIBUTES","DSND","DSND_ATTRIBUTES","DSNW","DSNW_ATTRIBUTES","EMSD","EMSD_ATTRIBUTES","EMSN","EMSN_ATTRIBUTES","EMXP","EMXP_ATTRIBUTES","PRCP","PRCP_ATTRIBUTES","SNOW","SNOW_ATTRIBUTES"
"USC00471790","2016","43.3261","-89.0081","252.7","COLUMBUS, WI US","       118","7","        78","7","         9","7","","","","","","","","","  72.9"," ,7,0907, ","   1008.6"," ,7","",""
"USC00471790","2017","43.3261","-89.0081","252.7","COLUMBUS, WI US","       120","7","        81","7","         7","7","","","","","","","","","  48.0"," ,7,0629, ","    920.2"," ,7","",""
"USC00471790","2018","43.3261","-89.0081","252.7","COLUMBUS, WI US","       124","7","        81","7","        12","7","       49","","        11","7","   203"," ,7,0211, ","   114"," ,7,0416,+","  69.9"," ,7,0821,+","   1280.6"," ,7","      935"," ,7"
"USC00471790","2019","43.3261","-89.0081","252.7","COLUMBUS, WI US","       150","7","        95","7","         7","7","       67","","        20","7","   305"," ,7,0129, ","   163"," ,7,0212, ","  95.5"," ,7,1002, ","   1167.8"," ,7","     1505"," ,7"
