"STATION","DATE","LATITUDE","LONGITUDE","ELEVATION","NAME","DP01","DP01_ATTRIBUTES","DP10","DP10_ATTRIBUTES","DP1X","DP1X_ATTRIBUTES","DSND","DSND_ATTRIBUTES","DSNW","DSNW_ATTRIBUTES","EMSD","EMSD_ATTRIBUTES","EMSN","EMSN_ATTRIBUTES","EMXP","EMXP_ATTRIBUTES","PRCP","PRCP_ATTRIBUTES","SNOW","SNOW_ATTRIBUTES"
"USC00011810","1983","31.75615","-88.12876","14.0","COFFEEVILLE LOCK AND DAM, AL US","       124","0","        89","0","        29","0","        0","","         0","0","     0"," ,0,1231,+","     0"," ,0,1231,+"," 140.5"," ,0,0520, ","   2128.6"," ,0","        0"," ,0"
"USC00011810","1984","31.75615","-88.12876","14.0","COFFEEVILLE LOCK AND DAM, AL US","       109","0","        68","0","        21","0","        0","","         0","0","     0"," ,0,1231,+","     0"," ,0,1231,+","  75.7"," ,0,0522, ","   1327.7"," ,0","        0"," ,0"
"USC00011810","1985","31.75615","-88.12876","14.0","COFFEEVILLE LOCK AND DAM, AL US","       116","0","        70","0","        11","0","        0","","         0","0","     0"," ,0,1231,+","     0"," ,0,1231,+","  95.3"," ,0,0924, ","   1239.5"," ,0","        0"," ,0"
"USC00011810","1986","31.75615","-88.12876","14.0","COFFEEVILLE LOCK AND DAM, AL US","       105","0","        76","0","        17","0","        0","","         0","0","     0"," ,0,1231,+","     0"," ,0,1231,+","  89.2"," ,0,0718, ","   1335.8"," ,0","        0"," ,0"
"USC00011810","1988","31.75615","-88.12876","14.0","COFFEEVILLE LOCK AND DAM, AL US","       122","0","        83","0","        23","0","        0","","         0","0","     0"," ,0,1231,+","     0"," ,0,1231,+","  73.7"," ,0,1127, ","   1555.9"," ,0","        0"," ,0"
"USC00011810","1989","31.75615","-88.12876","14.0","COFFEEVILLE LOCK AND DAM, AL US","       120","0","        86","0","        20","0","        0","","         0","0","     0"," ,0,1231,+","     0"," ,0,1231,+","  62.5"," ,0,0330, ","   1501.8"," ,0","        0"," ,0"
"USC00011810","1990","31.75615","-88.12876","14.0","COFFEEVILLE LOCK AND DAM, AL US","        93","0","        71","0","        16","0","        0","","         0","0","     0"," ,0,1231,+","     0"," ,0,1231,+"," 198.1"," ,0,0316, ","   1432.6"," ,0","        0"," ,0"
"USC00011810","1991","31.75615","-88.12876","14.0","COFFEEVILLE LOCK AND DAM, AL US","       123","0","        86","0","        24","0","        0","","         0","0","     0"," ,0,1231,+","     0"," ,0,1231,+","  80.5"," ,0,0925,+","   1759.1"," ,0","        0"," ,0"
"USC00011810","1992","31.75615","-88.12876","14.0","COFFEEVILLE LOCK AND DAM, AL US","       112","0","        83","0","        14","0","        0","","         0","0","     0"," ,0,1231,+","     0"," ,0,1231,+","  64.3"," ,0,0119, ","   1404.4"," ,0","        0"," ,0"
"USC00011810","1993","31.75615","-88.12876","14.0","COFFEEVILLE LOCK AND DAM, AL US","       102","0","        66","0","        13","0","        0","","         1","0","     0"," ,0,1231,+","   114"," ,0,0313, "," 112.5"," ,0,0121, ","   1164.2"," ,0","      114"," ,0"
"USC00011810","1994","31.75615","-88.12876","14.0","COFFEEVILLE LOCK AND DAM, AL US","       116","0","        72","0","        16","0","        0","","         0","0","     0"," ,0,1231,+","     0"," ,0,1231,+","  61.2"," ,0,0715, ","   1188.6"," ,0","        0"," ,0"
"USC00011810","1995","31.75615","-88.12876","14.0","COFFEEVILLE LOCK AND DAM, AL US","        79","0","        55","0","        21","0","        0","","         0","0","     0"," ,0,1231,+","     0"," ,0,1231,+"," 111.8"," ,0,0804, ","   1301.5"," ,0","        0"," ,0"
"USC00011810","1996","31.75615","-88.12876","14.0","COFFEEVILLE LOCK AND DAM, AL US","       100","0","        69","0","        13","0","        0","","         0","0","     0"," ,0,1231,+","     0"," ,0,1231,+","  83.8"," ,0,0127, ","   1141.1"," ,0","        0"," ,0"
"USC00011810","1997","31.75615","-88.12876","14.0","COFFEEVILLE LOCK AND DAM, AL US","       107","0","        84","0","        22","0","        0","","         0","0","     0"," ,0,1231,+","     0"," ,0,1231,+","  68.6"," ,0,0529, ","   1456.2"," ,0","        0"," ,0"
"USC00011810","2000","31.75615","-88.12876","14.0","COFFEEVILLE LOCK AND DAM, AL US","        65","0","        51","0","         8","0","        0","","         1","0","     0"," ,0,1231,+","   114"," ,0,0124, ","  54.6"," ,0,1125, ","    694.9"," ,0","      114"," ,0"
"USC00011810","2001","31.75615","-88.12876","14.0","COFFEEVILLE LOCK AND DAM, AL US","        92","0","        79","0","        14","0","        0","","         0","0","     0"," ,0,1231,+","     0"," ,0,1231,+","  95.3"," ,0,0302, ","   1475.3"," ,0","        0"," ,0"
"USC00011810","2002","31.75615","-88.12876","14.0","COFFEEVILLE LOCK AND DAM, AL US","        92","0","        80","0","        12","0","        0","","         0","0","     0"," ,0,1231,+","     0"," ,0,1231,+"," 106.7"," ,0,0926, ","   1231.9"," ,0","        0"," ,0"
"USC00011810","2003","31.75615","-88.12876","14.0","COFFEEVILLE LOCK AND DAM, AL US","        87","0","        74","0","        20","0","        0","","         0","0","     0"," ,0,1231,+","     0"," ,0,1231,+","  88.9"," ,0,0620, ","   1374.1"," ,0","        0"," ,0"
"USC00011810","2004","31.75615","-88.12876","14.0","COFFEEVILLE LOCK AND DAM, AL US","        93","0","        79","0","        15","0","        0","","         0","0","     0"," ,0,1231,+","     0"," ,0,1231,+","  83.8"," ,0,0916, ","   1258.7"," ,0","        0"," ,0"
"USC00011810","2005","31.75615","-88.12876","14.0","COFFEEVILLE LOCK AND DAM, AL US","        79","0","        64","0","        19","0","        0","","         0","0","     0"," ,0,1231,+","     0"," ,0,1231,+","  86.6"," ,0,0707, ","   1360.9"," ,0","        0"," ,0"
"USC00011810","2006","31.75615","-88.12876","14.0","COFFEEVILLE LOCK AND DAM, AL US","        70","0","        57","0","        16","0","        0","","         0","0","     0"," ,0,1231,+","     0"," ,0,1231,+","  63.5"," ,0,0226, ","   1142.9"," ,0","        0"," ,0"
"USC00011810","2007","31.75615","-88.12876","14.0","COFFEEVILLE LOCK AND DAM, AL US","        71","0","        61","0","         9","0","        0","","         0","0","     0"," ,0,1231,+","     0"," ,0,1231,+","  78.7"," ,0,1023, ","    887.3"," ,0","        0"," ,0"
"USC00011810","2008","31.75615","-88.12876","14.0","COFFEEVILLE LOCK AND DAM, AL US","        89","0","        74","0","        19","0","        0","","         0","0","     0"," ,0,1231,+","     0"," ,0,1231,+","  53.3"," ,0,1129,+","   1155.3"," ,0","        0"," ,0"
"USC00011810","2009","31.75615","-88.12876","14.0","COFFEEVILLE LOCK AND DAM, AL US","       115","0","        91","0","        29","0","        0","","         0","0","     0"," ,0,1231,+","     0"," ,0,1231,+","  78.5"," ,0,0918,+","   2132.9"," ,0","        0"," ,0"
"USC00011810","2010","31.75615","-88.12876","14.0","COFFEEVILLE LOCK AND DAM, AL US","        86","0","        55","0","         9","0","        0","","         0","0","     0"," ,0,1231,+","     0"," ,0,1231,+","  94.5"," ,0,0205, ","    878.8"," ,0","        0"," ,0"
"USC00011810","2011","31.75615","-88.12876","14.0","COFFEEVILLE LOCK AND DAM, AL US","        83","K","        65","K","        17","K","","","","","","","","","  97.5"," ,K,0905, ","   1167.5"," ,K","",""
"USC00011810","2012","31.75615","-88.12876","14.0","COFFEEVILLE LOCK AND DAM, AL US","        98","7","        70","7","        13","7","","","","","","","",""," 117.1"," ,7,0323, ","   1230.4"," ,7","",""
"USC00011810","2013","31.75615","-88.12876","14.0","COFFEEVILLE LOCK AND DAM, AL US","       115","7","        85","7","        19","7","","","","","","","",""," 142.7"," ,7,0211, ","   1545.8"," ,7","",""
"USC00011810","2014","31.75615","-88.12876","14.0","COFFEEVILLE LOCK AND DAM, AL US","        99","7","        72","7","        19","7","","","","","","","","","  65.0"," ,7,0329, ","   1305.8"," ,7","",""
