"STATION","DATE","LATITUDE","LONGITUDE","ELEVATION","NAME","DP01","DP01_ATTRIBUTES","DP10","DP10_ATTRIBUTES","DP1X","DP1X_ATTRIBUTES","DSND","DSND_ATTRIBUTES","DSNW","DSNW_ATTRIBUTES","DYFG","DYFG_ATTRIBUTES","DYTS","DYTS_ATTRIBUTES","EMSD","EMSD_ATTRIBUTES","EMSN","EMSN_ATTRIBUTES","EMXP","EMXP_ATTRIBUTES","PRCP","PRCP_ATTRIBUTES","SNOW","SNOW_ATTRIBUTES"
"USC00241820","1951","48.26667","-109.15","1068.0","CLEVELAND, MT US","","","","","","","","","","","        10"," ","         2"," ","","","","","","","","","",""
"USC00241820","1952","48.26667","-109.15","1068.0","CLEVELAND, MT US","        44","0","        35","0","         2","0","      104","","        16","0","         1"," ","         3"," ","   254"," ,0,0126,+","   127"," ,0,0124, ","  36.8"," ,0,0525, ","    253.6"," ,0","      876"," ,0"
"USC00241820","1953","48.26667","-109.15","1068.0","CLEVELAND, MT US","        58","0","        43","0","         4","0","","","","","","","         2"," ","","","","","  51.6"," ,0,0603, ","    481.2"," ,0","",""
"USC00241820","1954","48.26667","-109.15","1068.0","CLEVELAND, MT US","        52","0","        41","0","         3","0","       59","","        19","0","         3"," ","         2"," ","   356"," ,0,0123, ","   203"," ,0,0928, ","  42.9"," ,0,0928, ","    454.5"," ,0","     1677"," ,0"
"USC00241820","1955","48.26667","-109.15","1068.0","CLEVELAND, MT US","        43","0","        30","0","         5","0","","","        19","0","","","","","","","   432"," ,0,0403, ","  43.2"," ,0,0403, ","    385.0"," ,0","     1522"," ,0"
"USC00241820","1956","48.26667","-109.15","1068.0","CLEVELAND, MT US","        33","0","        24","0","         1","0","","","         8","0","         1"," ","","","","","   127"," ,0,1118, ","  31.5"," ,0,0730, ","    265.5"," ,0","      354"," ,0"
