"STATION","DATE","LATITUDE","LONGITUDE","ELEVATION","NAME","CDSD","CDSD_ATTRIBUTES","CLDD","CLDD_ATTRIBUTES","DP01","DP01_ATTRIBUTES","DP10","DP10_ATTRIBUTES","DP1X","DP1X_ATTRIBUTES","DT00","DT00_ATTRIBUTES","DT32","DT32_ATTRIBUTES","DX32","DX32_ATTRIBUTES","DX70","DX70_ATTRIBUTES","DX90","DX90_ATTRIBUTES","EMNT","EMNT_ATTRIBUTES","EMXP","EMXP_ATTRIBUTES","EMXT","EMXT_ATTRIBUTES","FZF0","FZF0_ATTRIBUTES","FZF1","FZF1_ATTRIBUTES","FZF2","FZF2_ATTRIBUTES","FZF3","FZF3_ATTRIBUTES","FZF4","FZF4_ATTRIBUTES","FZF5","FZF5_ATTRIBUTES","FZF6","FZF6_ATTRIBUTES","FZF7","FZF7_ATTRIBUTES","FZF8","FZF8_ATTRIBUTES","FZF9","FZF9_ATTRIBUTES","HDSD","HDSD_ATTRIBUTES","HTDD","HTDD_ATTRIBUTES","PRCP","PRCP_ATTRIBUTES","TAVG","TAVG_ATTRIBUTES","TMAX","TMAX_ATTRIBUTES","TMIN","TMIN_ATTRIBUTES"
"USC00334815","1921","41.76667","-81.08333","185.9","MADISON, OH US","    422.6","","     422.6","6","       139","6","        81","6","         5","6","         0","6","       110","6","        27","6","       143","6","        10","6","  -14.4","6,0119, ","  38.1"," ,6,0806, ","   33.9","6,0727,+","0.0","6,1014","-2.8","6,1113","-5.6","6,1215","-9.4","6,1221","-9.4","6,1221","0.0","6,0517","-2.2","6,0411","-5.6","6,0329","-6.7","6,0304","-10.0","6,0221","    2996.7","7","    2996.7","6","    863.6"," ,6","     11.07","6","     15.89","6","      6.25","6"
"USC00334815","1922","41.76667","-81.08333","185.9","MADISON, OH US","    272.7","","     272.7","6","","","","","","","         5","6","       126","6","        41","6","       132","6","         4","6","  -21.7","6,0125, ","","","   33.9","6,0817, ","-1.1","6,1019","-3.3","6,1021","-7.2","6,1129","-7.2","6,1129","-12.2","6,1213","-2.8","6,0501","-2.8","6,0501","-10.0","6,0323","-10.0","6,0323","-10.0","6,0323","    3290.3","3","    3290.3","6","","","      9.75","6","     14.75","6","      4.74","6"
"USC00334815","1928","41.76667","-81.08333","185.9","MADISON, OH US","    370.1","","     370.1","6","       122","6","        82","6","         3","6","         2","6","       116","6","        23","6","       123","6","        13","6","  -18.3","6,0130, ","  40.6"," ,6,0518, ","   35.0","6,0803, ","0.0","6,1025","-3.9","6,1125","-5.0","6,1205","-7.2","6,1210","-10.6","6,1222","-1.1","6,0514","-3.3","6,0508","-7.2","6,0416","-7.2","6,0416","-8.9","6,0308","    3171.7","7","    3171.7","6","    878.0"," ,6","     10.27","6","     15.55","6","      4.98","6"
