"STATION","DATE","LATITUDE","LONGITUDE","ELEVATION","NAME","DP01","DP01_ATTRIBUTES","DP10","DP10_ATTRIBUTES","DP1X","DP1X_ATTRIBUTES","EMXP","EMXP_ATTRIBUTES","PRCP","PRCP_ATTRIBUTES"
"USC00118745","1949","40.08333","-88.21667","225.6","URBANA S AGRONOMY FARM, IL US","       102","0","        69","0","        11","0","  56.1"," ,0,1221, ","   1040.9"," ,0"
"USC00118745","1950","40.08333","-88.21667","225.6","URBANA S AGRONOMY FARM, IL US","        99","0","        71","0","         5","0","  37.8"," ,0,0717, ","    959.5"," ,0"
