"STATION","DATE","LATITUDE","LONGITUDE","ELEVATION","NAME","CDSD","CDSD_ATTRIBUTES","CLDD","CLDD_ATTRIBUTES","DP01","DP01_ATTRIBUTES","DP10","DP10_ATTRIBUTES","DP1X","DP1X_ATTRIBUTES","DSND","DSND_ATTRIBUTES","DSNW","DSNW_ATTRIBUTES","DT00","DT00_ATTRIBUTES","DT32","DT32_ATTRIBUTES","DX32","DX32_ATTRIBUTES","DX70","DX70_ATTRIBUTES","DX90","DX90_ATTRIBUTES","DYFG","DYFG_ATTRIBUTES","DYTS","DYTS_ATTRIBUTES","EMNT","EMNT_ATTRIBUTES","EMSD","EMSD_ATTRIBUTES","EMSN","EMSN_ATTRIBUTES","EMXP","EMXP_ATTRIBUTES","EMXT","EMXT_ATTRIBUTES","FZF0","FZF0_ATTRIBUTES","FZF1","FZF1_ATTRIBUTES","FZF2","FZF2_ATTRIBUTES","FZF3","FZF3_ATTRIBUTES","FZF4","FZF4_ATTRIBUTES","FZF5","FZF5_ATTRIBUTES","FZF6","FZF6_ATTRIBUTES","FZF7","FZF7_ATTRIBUTES","FZF8","FZF8_ATTRIBUTES","FZF9","FZF9_ATTRIBUTES","HDSD","HDSD_ATTRIBUTES","HN01","HN01_ATTRIBUTES","HTDD","HTDD_ATTRIBUTES","HX01","HX01_ATTRIBUTES","LN01","LN01_ATTRIBUTES","LX01","LX01_ATTRIBUTES","MN01","MN01_ATTRIBUTES","MX01","MX01_ATTRIBUTES","PRCP","PRCP_ATTRIBUTES","SNOW","SNOW_ATTRIBUTES","TAVG","TAVG_ATTRIBUTES","TMAX","TMAX_ATTRIBUTES","TMIN","TMIN_ATTRIBUTES"
"USC00427260","1897","38.76165","-112.07772","1610.9","RICHFIELD RADIO KSVC, UT US","     87.8","","      87.8","6","","","","","","","","","","","         6","6","       231","6","         5","6","       162","6","        49","6","","","","","  -22.2","6,0225, ","","","","","","","   37.2","6,0628, ","-0.6","6,0907","-2.2","6,0910","-5.0","6,1018","-6.7","6,1106","-11.1","6,1203","-0.6","6,0720","-2.2","6,0619","-5.6","6,0618","-6.7","6,0603","-10.0","6,0331","","","","","","","","","","","","","","","","","","","","","      8.00","6","     18.50","6","     -2.49","6"
"USC00427260","1898","38.76165","-112.07772","1610.9","RICHFIELD RADIO KSVC, UT US","","","","","","","","","","","","","","","        11","6","       247","6","","","","","","","","","","","  -31.1","6,0125, ","","","","","","","","","0.0","6,0906","-2.2","6,0908","-8.9","6,0911","-8.9","6,0911","-8.9","6,0911","-2.2","6,0620","-2.2","6,0620","-5.0","6,0408","-6.7","6,0403","-12.2","6,0329","","","","","","","","","","","","","","","","","","","","","","","","","     -4.14","6"
"USC00427260","1899","38.76165","-112.07772","1610.9","RICHFIELD RADIO KSVC, UT US","","","","","","","","","","","","","","","","","","","         3","6","       156","6","        36","6","","","","","","","","","","","","","   34.4","6,0719, ","","","","","","","","","","","","","","","","","","","","","","","","","","","","","","","","","","","","","","","","","","","     18.85","6","",""
"USC00427260","1902","38.76165","-112.07772","1610.9","RICHFIELD RADIO KSVC, UT US","    132.6","","     132.6","6","        43","6","        29","6","         0","6","","","","","         7","6","       203","6","        13","6","       172","6","        29","6","","","","","  -26.7","6,0130, ","","","","","  22.9"," ,6,1119, ","   34.4","6,0801,+","-0.6","6,0911","-2.8","6,0925","-5.0","6,1004","-7.8","6,1031","-8.9","6,1101","0.0","6,0702","-3.9","6,0518","-5.6","6,0415","-8.9","6,0331","-8.9","6,0331","","","","","","","","","","","","","","","","","    168.1"," ,6","","","      8.90","6","     18.38","6","     -0.58","6"
"USC00427260","1907","38.76165","-112.07772","1610.9","RICHFIELD RADIO KSVC, UT US","","","","","        32","6","        21","6","         3","6","","","","","","","","","","","","","","","","","","","","","","","","","  50.8"," ,6,1004, ","","","","","","","","","","","","","","","","","","","","","","","","","","","","","","","","","","","","","","","    283.8"," ,6","","","","","","","",""
"USC00427260","1908","38.76165","-112.07772","1610.9","RICHFIELD RADIO KSVC, UT US","","","","","        31","6","        27","6","         2","6","","","","","","","","","","","","","","","","","","","","","","","","","  35.6"," ,6,0607, ","","","","","","","","","","","","","","","","","","","","","","","","","","","","","","","","","","","","","","","    254.1"," ,6","","","","","","","",""
"USC00427260","1909","38.76165","-112.07772","1610.9","RICHFIELD RADIO KSVC, UT US","","","","","        34","6","        32","6","         1","6","","","","","","","","","","","","","","","","","","","","","","","","","  37.8"," ,6,0816, ","","","","","","","","","","","","","","","","","","","","","","","    3582.3","3","","","    3582.3"," ","","","","","","","","","","","    325.6"," ,6","","","","","","","",""
"USC00427260","1917","38.76165","-112.07772","1610.9","RICHFIELD RADIO KSVC, UT US","","","","","","","","","","","","","","","","","","","","","","","","","","","         3"," ","","","","","","","","","","","","","","","","","","","","","","","","","","","","","","","","","","","","","","","","","","","","","","","","","","","","","","","",""
"USC00427260","1922","38.76165","-112.07772","1610.9","RICHFIELD RADIO KSVC, UT US","","","","","","","","","","","","","","","","","","","","","","","","","         3"," ","","","","","","","","","","","","","","","","","","","","","","","","","","","","","","","","","","","","","","","","","","","","","","","","","","","","","","","","","",""
"USC00427260","1926","38.76165","-112.07772","1610.9","RICHFIELD RADIO KSVC, UT US","","","","","","","","","","","","","","","","","","","        10","6","       178","6","        52","6","","","","","","","","","","","","","   37.8","6,0825, ","","","","","","","","","","","","","","","","","","","","","    3137.3","3","","","    3137.3"," ","","","","","","","","","","","","","","","","","     20.19","6","",""
"USC00427260","1927","38.76165","-112.07772","1610.9","RICHFIELD RADIO KSVC, UT US","    256.5","","     256.5","6","        67","6","        32","6","         0","6","","","","","         4","6","       168","6","         3","6","       171","6","        40","6","","","","","  -22.8","6,0123, ","","","","","  17.8"," ,6,0913, ","   36.7","6,0624, ","0.0","6,0930","-5.6","6,1007","-5.6","6,1007","-9.4","6,1123","-9.4","6,1123","0.0","6,0531","-2.2","6,0529","-5.6","6,0422","-6.7","6,0412","-10.0","6,0320","","","","","","","","","","","","","","","","","    223.5"," ,6","","","     10.53","6","     19.78","6","      1.29","6"
"USC00427260","1928","38.76165","-112.07772","1610.9","RICHFIELD RADIO KSVC, UT US","    248.1","","     248.1","0","        49","0","        23","0","         0","0","        2","","         6","0","         5","0","       160","0","         5","0","       178","0","        50","0","         4"," ","         1"," ","  -17.8","0,1222,+","   102"," ,0,0226, ","    76"," ,0,0226,+","  12.7"," ,0,0814,+","   38.3","0,0727, ","-1.1","0,0913","-2.8","0,1013","-6.7","0,1022","-6.7","0,1022","-8.9","0,1118","-2.2","0,0505","-2.2","0,0505","-4.4","0,0422","-11.7","0,0409","-11.7","0,0409","    3011.2","2","","","    3011.2","0","","","","","","","","","","","    183.5"," ,0","      319"," ,0","     10.24","0","     19.78","0","      0.69","0"
"USC00427260","1929","38.76165","-112.07772","1610.9","RICHFIELD RADIO KSVC, UT US","","","","","        69","0","        30","0","         1","0","","","        10","0","        12","0","       199","0","","","","","","","","","         4"," ","  -27.2","0,0209, ","","","   127"," ,0,0323,+","  41.1"," ,0,0727, ","","","0.0","0,0909","-2.8","0,1012","-8.3","0,1024","-8.3","0,1024","-8.9","0,1025","0.0","0,0603","-5.0","0,0501","-5.0","0,0501","-6.7","0,0411","-11.7","0,0407","","","","","","","","","","","","","","","","","    275.2"," ,0","      685"," ,0","","","","","     -0.62","0"
"USC00427260","1930","38.76165","-112.07772","1610.9","RICHFIELD RADIO KSVC, UT US","    214.2","","     214.2","0","        78","0","        29","0","         1","0","","","        12","0","        16","0","       195","0","        21","0","       161","0","        37","0","         1"," ","         2"," ","  -30.0","0,0122, ","","","   127"," ,0,0119, ","  25.4"," ,0,0907, ","   37.8","0,0704, ","0.0","0,0925","-2.2","0,0926","-6.1","0,1014","-6.7","0,1026","-8.9","0,1029","-2.8","0,0523","-2.8","0,0523","-5.0","0,0509","-6.7","0,0319","-11.1","0,0301","","","","","","","","","","","","","","","","","    236.0"," ,0","      718"," ,0","      8.73","0","     18.35","0","     -0.90","0"
"USC00427260","1931","38.76165","-112.07772","1610.9","RICHFIELD RADIO KSVC, UT US","    335.8","","     335.8","0","        63","0","        25","0","         0","0","","","        10","0","        12","0","       192","0","        13","0","       185","0","        59","0","         1"," ","         7"," ","  -25.0","0,1216, ","","","   102"," ,0,1118, ","  10.7"," ,0,1111, ","   40.0","0,0723, ","0.0","0,0921","-2.8","0,0925","-7.2","0,1027","-7.2","0,1027","-12.8","0,1119","-2.8","0,0521","-2.8","0,0521","-5.0","0,0421","-7.8","0,0405","-8.9","0,0404","    3574.0","0","","","    3574.0","0","","","","","","","","","","","    159.0"," ,0","      443"," ,0","      9.85","0","     19.81","0","     -0.10","0"
"USC00427260","1932","38.76165","-112.07772","1610.9","RICHFIELD RADIO KSVC, UT US","    236.8","","     236.8","0","        56","0","        29","0","         0","0","","","        11","0","        12","0","       195","0","        23","0","       172","0","        52","0","","","         2"," ","  -28.9","0,1213, ","","","   203"," ,0,0214, ","  14.0"," ,0,0712, ","   36.7","0,0708,+","-1.7","0,1009","-3.9","0,1010","-6.1","0,1020","-9.4","0,1025","-9.4","0,1025","-0.6","0,0609","-2.8","0,0523","-4.4","0,0427","-6.7","0,0330","-9.4","0,0313","    3657.2","2","","","    3657.2","0","","","","","","","","","","","    200.8"," ,0","      686"," ,0","      8.96","0","     18.48","0","     -0.56","0"
"USC00427260","1933","38.76165","-112.07772","1610.9","RICHFIELD RADIO KSVC, UT US","    294.3","","     294.3","0","        47","0","        27","0","         0","0","","","        18","0","         9","0","       193","0","         7","0","       169","0","        59","0","","","         1"," ","  -28.3","0,0210, ","","","   127"," ,0,0317, ","  20.6"," ,0,0317, ","   36.7","0,0814,+","-0.6","0,1014","-2.2","0,1022","-6.7","0,1104","-6.7","0,1104","-10.0","0,1106","0.0","0,0524","-2.2","0,0511","-4.4","0,0507","-8.9","0,0419","-8.9","0,0419","    3787.8","8","","","    3787.8","0","","","","","","","","","","","    196.5"," ,0","      694"," ,0","      9.75","0","     19.46","0","      0.05","0"
"USC00427260","1934","38.76165","-112.07772","1610.9","RICHFIELD RADIO KSVC, UT US","    374.3","","     374.3","0","        53","0","        20","0","         0","0","","","         5","0","         2","0","       160","0","         5","0","       209","0","        57","0","         4"," ","","","  -17.8","0,1204,+","","","    76"," ,0,1128, ","   6.9"," ,0,1124, ","   38.3","0,0730,+","-1.7","0,0925","-2.8","0,0926","-5.6","0,1020","-6.7","0,1122","-12.8","0,1127","0.0","0,0418","-3.9","0,0406","-6.7","0,0316","-6.7","0,0316","-9.4","0,0308","    2593.9","9","","","    2593.9","0","","","","","","","","","","","    120.1"," ,0","      254"," ,0","     11.87","0","     21.55","0","      2.19","0"
"USC00427260","1935","38.76165","-112.07772","1610.9","RICHFIELD RADIO KSVC, UT US","    328.7","","     328.7","0","        46","0","        28","0","         1","0","        7","","         8","0","         4","0","       177","0","         2","0","       169","0","        69","0","","","","","  -26.1","0,0121, ","   127"," ,0,1231,+","   152"," ,0,1030, ","  29.7"," ,0,0404, ","   38.3","0,0726, ","-2.2","0,1016","-2.2","0,1016","-5.0","0,1017","-7.8","0,1022","-8.9","0,1023","-1.1","0,0505","-2.8","0,0428","-4.4","0,0329","-10.6","0,0328","-10.6","0,0328","    3098.7","7","","","    3098.7","0","","","","","","","","","","","    214.6"," ,0","      602"," ,0","     10.20","0","     20.23","0","      0.17","0"
"USC00427260","1936","38.76165","-112.07772","1610.9","RICHFIELD RADIO KSVC, UT US","","","","","        80","0","        39","0","         1","0","","","        16","0","","","","","","","","","","","","","        11"," ","","","","","   152"," ,0,0129, ","  26.9"," ,0,0711, ","","","","","","","","","","","","","","","","","","","","","","","","","","","","","","","","","","","","","","","    330.4"," ,0","     1031"," ,0","","","","","",""
"USC00427260","1937","38.76165","-112.07772","1610.9","RICHFIELD RADIO KSVC, UT US","    369.3","","     369.3","0","        64","0","        32","0","         1","0","","","        11","0","        18","0","       181","0","        25","0","       175","0","        59","0","","","         1"," ","  -33.3","0,0122,+","","","   119"," ,0,0106, ","  31.8"," ,0,0530, ","   37.8","0,0722,+","0.0","0,0925","-3.9","0,1019","-4.4","0,1020","-7.2","0,1121","-10.6","0,1127","0.0","0,0601","-2.2","0,0501","-5.6","0,0423","-6.7","0,0418","-11.1","0,0220","    3758.8","8","","","    3758.8","0","","","","","","","","","","","    263.6"," ,0","      753"," ,0","      9.75","0","     18.87","0","      0.62","0"
"USC00427260","1938","38.76165","-112.07772","1610.9","RICHFIELD RADIO KSVC, UT US","","","","","        58","0","        23","0","         0","0","","","        14","0","","","","","","","","","","","         6"," ","         1"," ","","","","","   191"," ,0,0103, ","  23.9"," ,0,0103, ","","","","","","","","","","","","","","","","","","","","","","","","","","","","","","","","","","","","","","","    192.3"," ,0","      915"," ,0","","","","","",""
"USC00427260","1939","38.76165","-112.07772","1610.9","RICHFIELD RADIO KSVC, UT US","","","","","        52","0","        18","0","         2","0","","","         9","0","","","","","","","","","","","         1"," ","","","","","","","   102"," ,0,1225, ","  33.0"," ,0,0806, ","","","","","","","","","","","","","","","","","","","","","","","","","","","","","","","","","","","","","","","    193.1"," ,0","      541"," ,0","","","","","",""
"USC00427260","1941","38.76165","-112.07772","1610.9","RICHFIELD RADIO KSVC, UT US","","","","","","","","","","","","","","","","","","","","","","","","","","","         1"," ","","","","","","","","","","","","","","","","","","","","","","","","","","","","","","","","","","","","","","","","","","","","","","","","","","","","","","","",""
"USC00427260","1942","38.76165","-112.07772","1610.9","RICHFIELD RADIO KSVC, UT US","    350.2","","     350.2","0","        36","0","        21","0","         0","0","","","         7","0","         6","0","       175","0","        10","0","       182","0","        66","0","         2"," ","         2"," ","  -22.2","0,0105, ","","","   152"," ,0,0319, ","  15.5"," ,0,0319, ","   38.9","0,0709, ","-2.8","0,0918","-2.8","0,0918","-5.6","0,1031","-9.4","0,1105","-9.4","0,1105","-1.1","0,0517","-2.2","0,0514","-4.4","0,0503","-11.1","0,0327","-11.1","0,0327","","","","","","","","","","","","","","","","","    155.1"," ,0","      752"," ,0","     10.63","0","     20.34","0","      0.91","0"
"USC00427260","1943","38.76165","-112.07772","1610.9","RICHFIELD RADIO KSVC, UT US","","","","","        37","0","        23","0","         1","0","        2","","         4","0","","","","","         2","0","       192","0","        75","0","         4"," ","","","","","    51"," ,0,1213,+","   114"," ,0,0318, ","  31.8"," ,0,0602, ","   38.9","0,0727, ","","","","","","","","","","","","","","","","","","","","","","","","","","","","","","","","","","","","","    184.0"," ,0","      305"," ,0","","","     21.20","0","",""
"USC00427260","1944","38.76165","-112.07772","1610.9","RICHFIELD RADIO KSVC, UT US","","","","","","","","","","","","","","","","","","","","","","","","","         1"," ","         1"," ","","","","","","","","","","","","","","","","","","","","","","","","","","","","","","","    3445.0","0","","","    3445.0","0","","","","","","","","","","","","","","","","","","","",""
"USC00427260","1945","38.76165","-112.07772","1610.9","RICHFIELD RADIO KSVC, UT US","    237.2","","     237.2","0","        40","0","        30","0","         0","0","","","        13","0","         3","0","       175","0","         8","0","       153","0","        43","0","","","         8"," ","  -21.7","0,1213, ","","","   406"," ,0,0315, ","  20.8"," ,0,0903, ","   36.7","0,0724, ","0.0","0,0921","-2.8","0,0924","-4.4","0,1023","-7.2","0,1024","-10.6","0,1109","-0.6","0,0521","-3.9","0,0427","-5.6","0,0417","-6.7","0,0412","-10.0","0,0404","","","","","","","","","","","","","","","","","    271.5"," ,0","     1123"," ,0","      9.32","0","     18.64","0","     -0.01","0"
"USC00427260","1946","38.76165","-112.07772","1610.9","RICHFIELD RADIO KSVC, UT US","    301.0","","     301.0","0","        58","0","        34","0","         0","0","","","","","         3","0","       181","0","         5","0","       167","0","        58","0","","","","","  -20.6","0,0112, ","","","","","  23.6"," ,0,0511, ","   37.2","0,0809,+","-1.1","0,0918","-3.3","0,0919","-6.7","0,1011","-6.7","0,1011","-9.4","0,1102","-0.6","0,0529","-2.8","0,0502","-5.6","0,0501","-7.8","0,0326","-8.9","0,0227","    3363.9","9","","","    3363.9","0","","","","","","","","","","","    282.1"," ,0","","","     10.11","0","     19.56","0","      0.65","0"
"USC00427260","1947","38.76165","-112.07772","1610.9","RICHFIELD RADIO KSVC, UT US","    249.3","","     249.3","0","        86","0","        34","0","         1","0","","","","","         7","0","       178","0","        15","0","       176","0","        44","0","","","","","  -23.3","0,0116, ","","","","","  27.2"," ,0,0621, ","   36.7","0,0720,+","-0.6","0,0911","-3.3","0,1024","-6.1","0,1025","-8.3","0,1104","-10.0","0,1110","0.0","0,0508","-2.2","0,0426","-6.7","0,0412","-6.7","0,0412","-8.9","0,0225","    3360.5","5","","","    3360.5","0","","","","","","","","","","","    273.1"," ,0","","","      9.73","0","     19.11","0","      0.35","0"
"USC00427260","1948","38.76165","-112.07772","1610.9","RICHFIELD RADIO KSVC, UT US","    226.2","","     226.2","0","        62","0","        31","0","         0","0","","","        14","0","        12","0","       194","0","        10","0","       173","0","        57","0","","","","","  -26.1","0,0212, ","","","   254"," ,0,0228, ","  20.3"," ,0,0423, ","   36.7","0,0831,+","0.0","0,0927","-5.0","0,1006","-5.0","0,1006","-6.7","0,1017","-10.0","0,1105","-2.8","0,0520","-2.8","0,0520","-6.1","0,0419","-6.7","0,0331","-12.2","0,0321","    3470.4","4","","","    3470.4","0","","","","","","","","","","","    208.2"," ,0","     1321"," ,0","      9.28","0","     19.15","0","     -0.60","0"
"USC00427260","1949","38.76165","-112.07772","1610.9","RICHFIELD RADIO KSVC, UT US","","","","","","","","","","","","","","","","","","","","","","","","","","","        19"," ","","","","","","","","","","","","","","","","","","","","","","","","","","","","","","","","","","","","","","","","","","","","","","","","","","","","","","","",""
"USC00427260","1950","38.76165","-112.07772","1610.9","RICHFIELD RADIO KSVC, UT US","    118.8","","     118.8","0","        39","0","        16","0","         0","0","       11","","         2","0","        10","0","       192","0","        12","0","       184","0","        21","0","","","         3"," ","  -23.9","0,0126, ","   178"," ,0,0112, ","   191"," ,0,0112, ","  18.0"," ,0,1118, ","   36.1","0,0903, ","-1.1","0,0919","-4.4","0,1001","-4.4","0,1001","-7.2","0,1002","-15.6","0,1110","-0.6","0,0609","-3.9","0,0510","-7.8","0,0501","-7.8","0,0501","-8.9","0,0425","    3629.2","2","","","    3629.2","0","","","","","","","","","","","    167.9"," ,0","      300"," ,0","      9.24","0","     18.91","0","     -0.43","0"
"USC00427260","1951","38.76165","-112.07772","1610.9","RICHFIELD RADIO KSVC, UT US","    156.8","","     156.8","0","        54","0","        24","0","         0","0","","","","","        11","0","       189","0","        19","0","       158","0","        32","0","","","","","  -32.8","0,0201,+","","","","","  10.7"," ,0,0803, ","   36.7","0,0713, ","-1.1","0,0910","-3.3","0,0912","-5.0","0,1014","-11.7","0,1022","-11.7","0,1022","0.0","0,0604","-3.3","0,0603","-5.0","0,0503","-6.7","0,0413","-9.4","0,0411","    3381.7","7","","","    3381.7","0","","","","","","","","","","","    195.4"," ,0","","","      8.59","0","     18.03","0","     -0.84","0"
"USC00427260","1952","38.76165","-112.07772","1610.9","RICHFIELD RADIO KSVC, UT US","    176.1","","     176.1","0","        55","0","        24","0","         1","0","","","","","         7","0","       197","0","        18","0","       178","0","        22","0","","","","","  -20.6","0,0103, ","","","","","  27.9"," ,0,0603, ","   35.0","0,0805,+","-1.7","0,0912","-2.8","0,1006","-6.1","0,1015","-7.2","0,1103","-8.9","0,1105","-0.6","0,0517","-2.2","0,0510","-5.0","0,0417","-7.2","0,0409","-12.8","0,0323","    3827.2","2","","","    3827.2","0","","","","","","","","","","","    171.0"," ,0","","","      8.67","0","     17.82","0","     -0.49","0"
"USC00427260","1953","38.76165","-112.07772","1610.9","RICHFIELD RADIO KSVC, UT US","    169.6","","     169.6","0","        40","0","        16","0","         1","0","","","","","         0","0","       200","0","        14","0","       163","0","        34","0","","","","","  -17.2","0,1230, ","","","","","  45.7"," ,0,0801, ","   36.7","0,0708, ","-1.7","0,0924","-3.9","0,1003","-6.1","0,1004","-6.7","0,1026","-9.4","0,1107","-1.1","0,0531","-3.3","0,0525","-5.6","0,0512","-7.2","0,0511","-9.4","0,0412","    3573.0","0","","","    3573.0","0","","","","","","","","","","","    164.0"," ,0","","","      8.99","0","     18.85","0","     -0.87","0"
"USC00427260","1954","38.76165","-112.07772","1610.9","RICHFIELD RADIO KSVC, UT US","","","","","        38","0","        19","0","         0","0","","","         1","0","         1","0","       191","0","","","","","","","","","","","  -19.4","0,1228, ","","","   152"," ,0,1129, ","  15.2"," ,0,0119, ","","","0.0","0,0916","-2.2","0,0921","-6.1","0,1015","-7.2","0,1027","-8.9","0,1028","-1.7","0,0607","-3.3","0,0502","-5.6","0,0408","-6.7","0,0401","-10.6","0,0331","","","","","","","","","","","","","","","","","    144.3"," ,0","      152"," ,0","","","","","     -0.16","0"
"USC00427260","1955","38.76165","-112.07772","1610.9","RICHFIELD RADIO KSVC, UT US","    174.4","","     174.4","0","        49","0","        20","0","         0","0","","","","","        24","0","       204","0","        31","0","       165","0","        38","0","","","","","  -24.4","0,0211, ","","","","","  13.2"," ,0,1206, ","   36.1","0,0714, ","-0.6","0,0918","-4.4","0,0926","-4.4","0,0926","-7.2","0,1007","-12.8","0,1102","0.0","0,0603","-2.2","0,0528","-6.7","0,0516","-6.7","0,0516","-8.9","0,0406","    3893.4","4","","","    3893.4","0","","","","","","","","","","","    139.5"," ,0","","","      8.08","0","     17.56","0","     -1.40","0"
"USC00427260","1956","38.76165","-112.07772","1610.9","RICHFIELD RADIO KSVC, UT US","    135.7","","     135.7","0","        46","0","        17","0","         0","0","","","","","         7","0","       192","0","        12","0","       176","0","        34","0","","","","","  -30.0","0,1209, ","","","","","  10.4"," ,0,0123, ","   35.0","0,0721,+","-2.8","0,0922","-2.8","0,0922","-6.1","0,1013","-7.2","0,1020","-10.6","0,1025","0.0","0,0529","-2.8","0,0515","-5.0","0,0410","-7.2","0,0409","-10.0","0,0330","    3393.3","3","","","    3393.3","0","","","","","","","","","","","    115.2"," ,0","","","      8.85","0","     19.04","0","     -1.33","0"
"USC00427260","1957","38.76165","-112.07772","1610.9","RICHFIELD RADIO KSVC, UT US","    169.2","","     169.2","0","        72","0","        36","0","         0","0","","","         6","0","         6","0","       177","0","         6","0","       143","0","        27","0","","","","","  -25.0","0,0204, ","","","   114"," ,0,0126, ","  18.3"," ,0,0811, ","   35.0","0,0817,+","0.0","0,0910","-2.2","0,0921","-5.0","0,1030","-6.7","0,1110","-8.9","0,1118","0.0","0,0617","-2.8","0,0426","-5.6","0,0408","-6.7","0,0327","-10.6","0,0324","    3642.7","7","","","    3642.7","0","","","","","","","","","","","    283.3"," ,0","      330"," ,0","      9.01","0","     17.81","0","      0.22","0"
"USC00427260","1958","38.76165","-112.07772","1610.9","RICHFIELD RADIO KSVC, UT US","    196.8","","     196.8","0","        49","0","        13","0","         0","0","","","         1","0","         3","0","       194","0","         3","0","       174","0","        37","0","","","         6"," ","  -20.6","0,0120, ","","","    25"," ,0,1228, ","  14.2"," ,0,0912, ","   36.7","0,0812, ","0.0","0,0922","-5.6","0,0925","-5.6","0,0925","-10.0","0,1021","-10.0","0,1021","-0.6","0,0509","-2.2","0,0501","-7.2","0,0426","-7.2","0,0426","-11.1","0,0313","    3475.8","8","","","    3475.8","0","","","","","","","","","","","    119.4"," ,0","       33"," ,0","      9.66","0","     19.54","0","     -0.22","0"
"USC00427260","1959","38.76165","-112.07772","1610.9","RICHFIELD RADIO KSVC, UT US","    309.6","","     309.6","0","        60","0","        20","0","         0","0","","","         4","0","         3","0","       186","0","         5","0","       165","0","        55","0","","","        12"," ","  -21.7","0,0104, ","","","   122"," ,0,0212, ","  23.1"," ,0,1027, ","   37.8","0,0723,+","-5.0","0,0928","-5.0","0,0928","-5.0","0,0928","-8.3","0,1105","-12.8","0,1114","0.0","0,0529","-5.6","0,0520","-5.6","0,0520","-6.7","0,0421","-9.4","0,0411","    3266.6","6","","","    3266.6","0","","","","","","","","","","","    181.7"," ,0","      356"," ,0","      9.88","0","     19.68","0","      0.09","0"
"USC00427260","1960","38.76165","-112.07772","1610.9","RICHFIELD RADIO KSVC, UT US","    232.4","","     232.4","0","        63","0","        26","0","         0","0","","","","","         6","0","       183","0","        19","0","       180","0","        59","0","","","","","  -20.6","0,0117,+","","","","","  14.7"," ,0,1009, ","   39.4","0,0726, ","0.0","0,0923","-2.2","0,1012","-4.4","0,1025","-6.7","0,1029","-10.0","0,1031","-3.3","0,0524","-3.3","0,0524","-5.6","0,0504","-8.9","0,0425","-8.9","0,0425","    3508.9","9","","","    3508.9","0","","","","","","","","","","","    196.2"," ,0","","","      9.41","0","     19.16","0","     -0.35","0"
"USC00427260","1961","38.76165","-112.07772","1610.9","RICHFIELD RADIO KSVC, UT US","    259.3","","     259.3","0","        73","0","        28","0","         0","0","","","         9","0","        10","0","       213","0","         5","0","       163","0","        48","0","","","","","  -25.6","0,1211, ","","","   165"," ,0,1121, ","  24.6"," ,0,0407, ","   36.7","0,0623,+","-1.1","0,0903","-3.3","0,0925","-5.6","0,0930","-8.9","0,1008","-8.9","0,1008","0.0","0,0602","-3.3","0,0508","-5.0","0,0505","-7.2","0,0415","-10.0","0,0308","    3430.7","7","","","    3430.7","0","","","","","","","","","","","    265.2"," ,0","      653"," ,0","      9.03","0","     19.07","0","     -1.01","0"
"USC00427260","1962","38.76165","-112.07772","1610.9","RICHFIELD RADIO KSVC, UT US","    160.5","","     160.5","0","        53","0","        24","0","         0","0","","","        10","0","        24","0","       196","0","        17","0","       173","0","        31","0","         9"," ","","","  -31.7","0,0227, ","","","   191"," ,0,0224, ","  17.5"," ,0,0723, ","   36.1","0,0814,+","-0.6","0,0831","-2.8","0,0909","-4.4","0,1023","-7.2","0,1027","-8.9","0,1107","-2.2","0,0608","-2.2","0,0608","-4.4","0,0516","-6.7","0,0430","-10.6","0,0401","    3897.5","5","","","    3897.5","0","","","","","","","","","","","    200.5"," ,0","     1015"," ,0","      8.52","0","     18.86","0","     -1.82","0"
"USC00427260","1963","38.76165","-112.07772","1610.9","RICHFIELD RADIO KSVC, UT US","    221.4","","     221.4","0","        64","0","        24","0","         0","0","        0","","         1","0","        11","0","       187","0","        11","0","       175","0","        48","0","","","         1"," ","  -27.8","0,0113, ","     0"," ,0,1231,+","    25"," ,0,0318, ","  18.5"," ,0,0802, ","   36.7","0,0801, ","-3.3","0,1014","-3.3","0,1014","-8.9","0,1101","-8.9","0,1101","-8.9","0,1101","0.0","0,0524","-2.2","0,0513","-6.7","0,0425","-6.7","0,0425","-10.0","0,0423","    3538.6","6","","","    3538.6","0","","","","","","","","","","","    190.4"," ,0","       25"," ,0","      9.28","0","     19.25","0","     -0.70","0"
"USC00427260","1964","38.76165","-112.07772","1610.9","RICHFIELD RADIO KSVC, UT US","    255.8","","     255.8","0","        81","0","        31","0","         0","0","       25","","        18","0","        14","0","       196","0","        19","0","       165","0","        45","0","","","","","  -24.4","0,1117, ","   254"," ,0,1113, ","   254"," ,0,1113, ","  21.6"," ,0,1113, ","   36.1","0,0809, ","-2.8","0,0903","-2.8","0,0903","-5.0","0,1018","-6.7","0,1020","-9.4","0,1024","-2.8","0,0513","-2.8","0,0513","-5.0","0,0503","-6.7","0,0328","-10.0","0,0320","    3739.0","0","","","    3739.0","0","","","","","","","","","","","    211.5"," ,0","     1127"," ,0","      8.30","0","     17.78","0","     -1.17","0"
"USC00427260","1965","38.76165","-112.07772","1610.9","RICHFIELD RADIO KSVC, UT US","    124.9","","     124.9","0","        84","0","        29","0","         0","0","","","","","         3","0","       190","0","         7","0","       165","0","        12","0","","","         2"," ","  -22.2","0,1224, ","","","","","  25.1"," ,0,0917, ","   34.4","0,0807, ","-0.6","0,0917","-7.2","0,0918","-7.2","0,0918","-7.2","0,0918","-10.0","0,1128","-0.6","0,0527","-3.3","0,0511","-4.4","0,0509","-6.7","0,0412","-9.4","0,0325","    3583.9","9","","","    3583.9","0","","","","","","","","","","","    248.6"," ,0","","","      9.12","0","     17.78","0","      0.46","0"
"USC00427260","1966","38.76165","-112.07772","1610.9","RICHFIELD RADIO KSVC, UT US","    255.9","","     255.9","0","        62","0","        17","0","         2","0","","","","","        10","0","       195","0","        15","0","       177","0","        43","0","","","","","  -22.8","0,0121, ","","","","","  30.2"," ,0,1206, ","   36.1","0,0728, ","-1.1","0,0915","-6.1","0,1015","-6.1","0,1015","-7.2","0,1017","-8.9","0,1105","-1.1","0,0524","-2.8","0,0501","-7.8","0,0428","-7.8","0,0428","-9.4","0,0420","    3482.1","1","","","    3482.1","0","","","","","","","","","","","    188.6"," ,0","","","      9.22","0","     19.06","0","     -0.62","0"
"USC00427260","1967","38.76165","-112.07772","1610.9","RICHFIELD RADIO KSVC, UT US","    217.0","","     217.0","0","        60","0","        26","0","         1","0","       38","","        12","0","        11","0","       205","0","        20","0","       152","0","        31","0","","","","","  -24.4","0,1222, ","   203"," ,0,1220, ","   127"," ,0,1129, ","  29.7"," ,0,0923, ","   34.4","0,0817,+","-0.6","0,0913","-4.4","0,1015","-4.4","0,1015","-6.7","0,1030","-9.4","0,1103","0.0","0,0516","-6.7","0,0515","-6.7","0,0515","-6.7","0,0515","-10.0","0,0421","    3607.5","5","","","    3607.5","0","","","","","","","","","","","    238.8"," ,0","      686"," ,0","      8.97","0","     18.00","0","     -0.06","0"
"USC00427260","1968","38.76165","-112.07772","1610.9","RICHFIELD RADIO KSVC, UT US","    187.2","","     187.2","0","        78","0","        29","0","         0","0","       19","","         9","0","         8","0","       199","0","        12","0","       155","0","        22","0","","","         6"," ","  -23.3","0,1222, ","   102"," ,0,1220, ","   152"," ,0,0417, ","  24.4"," ,0,0724, ","   35.0","0,0627,+","0.0","0,0823","-4.4","0,0922","-4.4","0,0922","-6.7","0,1009","-8.9","0,1121","-1.7","0,0630","-3.9","0,0517","-6.7","0,0507","-6.7","0,0507","-12.2","0,0201","    3508.0","0","","","    3508.0","0","","","","","","","","","","","    216.2"," ,0","      687"," ,0","      9.05","0","     17.99","0","      0.12","0"
"USC00427260","1969","38.76165","-112.07772","1610.9","RICHFIELD RADIO KSVC, UT US","    277.5","","     277.5","0","        88","0","        37","0","         0","0","       28","","         9","0","         0","0","       178","0","         7","0","       167","0","        41","0","","","","","  -17.2","0,1229, ","   152"," ,0,0226, ","   140"," ,0,0226, ","  24.6"," ,0,0226, ","   36.1","0,0808, ","-0.6","0,1003","-2.8","0,1004","-6.7","0,1005","-6.7","0,1005","-10.0","0,1103","0.0","0,0429","-2.8","0,0428","-5.6","0,0427","-6.7","0,0408","-9.4","0,0326","    3400.1","1","","","    3400.1","0","","","","","","","","","","","    268.5"," ,0","      637"," ,0","      9.78","0","     18.83","0","      0.74","0"
"USC00427260","1970","38.76165","-112.07772","1610.9","RICHFIELD RADIO KSVC, UT US","    287.7","","     287.7","0","        70","0","        26","0","         0","0","        4","","         6","0","         4","0","       202","0","         6","0","       153","0","        39","0","","","","","  -20.6","0,0106, ","   102"," ,0,1026, ","   152"," ,0,1026, ","  18.8"," ,0,0905, ","   37.8","0,0626, ","-2.2","0,0915","-2.2","0,0915","-5.0","0,0926","-7.2","0,1016","-8.9","0,1027","-0.6","0,0515","-6.1","0,0502","-6.1","0,0502","-6.7","0,0430","-9.4","0,0404","    3500.7","7","","","    3500.7","0","","","","","","","","","","","    203.9"," ,0","      386"," ,0","      9.47","0","     18.55","0","      0.40","0"
"USC00427260","1971","38.76165","-112.07772","1610.9","RICHFIELD RADIO KSVC, UT US","    265.3","","     265.3","0","        65","0","        26","0","         0","0","       52","","        13","0","        22","0","       196","0","        28","0","       161","0","        44","0","","","         7"," ","  -29.4","0,0106, ","   254"," ,0,0220, ","   229"," ,0,0220, ","  17.0"," ,0,0220, ","   36.1","0,0713,+","-0.6","0,0916","-5.0","0,0918","-5.0","0,0918","-6.7","0,1019","-17.8","0,1030","-3.9","0,0519","-3.9","0,0519","-6.1","0,0426","-7.2","0,0405","-10.0","0,0402","    3629.5","5","","","    3629.5","0","","","","","","","","","","","    208.1"," ,0","     1012"," ,0","      8.62","0","     17.87","0","     -0.64","0"
"USC00427260","1972","38.76165","-112.07772","1610.9","RICHFIELD RADIO KSVC, UT US","    193.0","","     193.0","0","        67","0","        28","0","         0","0","","","","","        13","0","       178","0","        15","0","       179","0","        34","0","","","        15"," ","  -35.0","0,1210, ","","","","","  20.6"," ,0,0919, ","   36.1","0,0810,+","-1.7","0,0930","-2.8","0,1023","-5.6","0,1030","-8.9","0,1031","-8.9","0,1031","-1.1","0,0522","-2.8","0,0511","-6.1","0,0501","-11.7","0,0331","-11.7","0,0331","    3449.8","8","","","    3449.8","0","","","","","","","","","","","    205.5"," ,0","","","      9.46","0","     18.75","0","      0.17","0"
"USC00427260","1973","38.76165","-112.07772","1610.9","RICHFIELD RADIO KSVC, UT US","","","","","","","","","","","","","","","","","","","","","","","","","","","         1"," ","","","","","","","","","","","","","","","","","","","","","","","","","","","","","","","    3944.9","9","","","    3944.9"," ","","","","","","","","","","","","","","","","","","","",""
"USC00427260","1974","38.76165","-112.07772","1610.9","RICHFIELD RADIO KSVC, UT US","    240.5","","     240.5","0","        54","0","        19","0","         0","0","","","","","        24","0","       184","0","        21","0","       175","0","        50","0","","","","","  -27.2","0,0122, ","","","","","  16.3"," ,0,0121, ","   36.1","0,0614, ","-1.1","0,0912","-6.1","0,0928","-6.1","0,0928","-8.3","0,1105","-8.9","0,1106","0.0","0,0609","-2.8","0,0521","-5.0","0,0430","-6.7","0,0428","-9.4","0,0321","","","","","","","","","","","","","","","","","    137.7"," ,0","","","      8.97","0","     18.92","0","     -0.99","0"
"USC00427260","1975","38.76165","-112.07772","1610.9","RICHFIELD RADIO KSVC, UT US","    142.8","","     142.8","0","        75","0","        19","0","         2","0","","","","","        12","0","       207","0","        17","0","       165","0","        23","0","","","         1"," ","  -22.2","0,0113, ","","","","","  29.7"," ,0,0704, ","   35.0","0,0804, ","-1.7","0,0921","-4.4","0,1008","-4.4","0,1008","-6.7","0,1015","-10.6","0,1025","0.0","0,0626","-2.2","0,0521","-5.0","0,0506","-7.2","0,0430","-8.9","0,0429","    3837.9","9","","","    3837.9","0","","","","","","","","","","","    216.2"," ,0","","","      8.17","0","     17.56","0","     -1.23","0"
"USC00427260","1976","38.76165","-112.07772","1610.9","RICHFIELD RADIO KSVC, UT US","    221.7","","     221.7","0","        51","0","        14","0","         0","0","","","","","         6","0","       193","0","        11","0","       174","0","        37","0","","","","","  -25.6","0,0102, ","","","","","  10.2"," ,0,0717,+","   37.8","0,0710, ","-2.2","0,1004","-2.2","0,1004","-5.6","0,1018","-8.9","0,1019","-8.9","0,1019","-2.2","0,0615","-2.2","0,0615","-6.7","0,0427","-6.7","0,0427","-8.9","0,0330","    3524.6","6","","","    3524.6","0","","","","","","","","","","","    111.3"," ,0","","","      9.29","0","     19.21","0","     -0.63","0"
"USC00427260","1977","38.76165","-112.07772","1610.9","RICHFIELD RADIO KSVC, UT US","","","","","","","","","","","","","","","","","","","","","","","","","","","         1"," ","","","","","","","","","","","","","","","","","","","","","","","","","","","","","","","    3564.0","0","","","    3564.0","0","","","","","","","","","","","","","","","","","","","",""
"USC00427260","1978","38.76165","-112.07772","1610.9","RICHFIELD RADIO KSVC, UT US","    209.0","","     209.0","0","        83","0","        30","0","         1","0","       10","","         1","0","         2","0","       173","0","        13","0","       167","0","        44","0","","","         7"," ","  -24.4","0,1208, ","    51"," ,0,1203,+","    25"," ,0,1202, ","  30.0"," ,0,1102, ","   36.1","0,0726,+","0.0","0,0913","-4.4","0,0919","-4.4","0,0919","-7.2","0,1026","-8.9","0,1117","-1.7","0,0601","-2.8","0,0525","-6.7","0,0422","-6.7","0,0422","-10.0","0,0219","","","","","","","","","","","","","","","","","    257.3"," ,0","       83"," ,0","      9.70","0","     18.68","0","      0.71","0"
"USC00427260","1979","38.76165","-112.07772","1610.9","RICHFIELD RADIO KSVC, UT US","    222.7","","     222.7","0","        75","0","        24","0","         1","0","","","","","        10","0","       181","0","        27","0","       172","0","        42","0","","","         1"," ","  -27.2","0,0130, ","","","","","  25.4"," ,0,1020, ","   38.9","0,0717, ","0.0","0,1004","-5.0","0,1022","-5.0","0,1022","-7.2","0,1031","-8.9","0,1110","-0.6","0,0609","-2.2","0,0509","-6.1","0,0421","-6.7","0,0401","-9.4","0,0303","    3683.6","6","","","    3683.6","0","","","","","","","","","","","    197.3"," ,0","","","      8.91","0","     18.18","0","     -0.37","0"
"USC00427260","1980","38.76165","-112.07772","1610.9","RICHFIELD RADIO KSVC, UT US","    242.5","","     242.5","0","        69","0","        32","0","         0","0","        6","","         2","0","         0","0","       164","0","         3","0","       164","0","        41","0","","","        10"," ","  -15.6","0,0131, ","   102"," ,0,0128, ","   102"," ,0,0128, ","  25.1"," ,0,0907, ","   36.7","0,0729,+","-1.1","0,0921","-3.9","0,1019","-4.4","0,1020","-7.2","0,1024","-10.6","0,1115","0.0","0,0530","-2.2","0,0526","-6.7","0,0414","-6.7","0,0414","-8.9","0,0326","    3389.8","8","","","    3389.8","0","","","","","","","","","","","    274.5"," ,0","      171"," ,0","     10.14","0","     19.20","0","      1.09","0"
"USC00427260","1981","38.76165","-112.07772","1610.9","RICHFIELD RADIO KSVC, UT US","    315.9","","     315.9","0","        82","0","        34","0","         1","0","","","","","         1","0","       177","0","         1","0","       167","0","        52","0","","","         8"," ","  -17.8","0,1228, ","","","","","  28.2"," ,0,0906, ","   37.2","0,0626,+","0.0","0,0926","-3.9","0,1013","-4.4","0,1014","-6.7","0,1020","-8.9","0,1120","-1.7","0,0616","-3.9","0,0507","-5.6","0,0405","-7.8","0,0318","-8.9","0,0223","    3070.8","8","","","    3070.8","0","","","","","","","","","","","    293.5"," ,0","","","     10.68","0","     19.89","0","      1.46","0"
"USC00427260","1982","38.76165","-112.07772","1610.9","RICHFIELD RADIO KSVC, UT US","    190.6","","     190.6","0","","","","","","","","","","","         7","0","       196","0","        19","0","       145","0","        25","0","","","","","  -27.2","0,0206, ","","","","","","","   34.4","0,0801,+","-0.6","0,0912","-3.3","0,1002","-5.0","0,1006","-7.2","0,1009","-8.9","0,1112","-0.6","0,0609","-2.2","0,0606","-6.7","0,0422","-6.7","0,0422","-11.1","0,0421","    3409.9","9","      27.2","0,0,2","    3409.9","0","      35.6","0,0,2","      -8.9","0,0,2","      -2.2","0,0,2","       8.7","0,0,2","      15.0","0,0,2","","","","","      8.54","0","     17.23","0","     -0.16","0"
"USC00427260","1983","38.76165","-112.07772","1610.9","RICHFIELD RADIO KSVC, UT US","    241.1","","     241.1","0","        92","0","        32","0","         1","0","","","","","         0","0","       172","0","         8","0","       140","0","        29","0","","","","","  -16.7","0,1221,+","","","","","  25.9"," ,0,0516, ","   35.6","0,0705, ","-3.3","0,0921","-3.3","0,0921","-7.8","0,1109","-7.8","0,1109","-11.1","0,1122","-1.1","0,0518","-2.2","0,0515","-5.6","0,0418","-7.2","0,0416","-8.9","0,0408","    3306.5","5","","","    3306.5","0","","","","","","","","","","","    269.5"," ,0","","","      9.99","0","     18.08","0","      1.90","0"
"USC00427260","1985","38.76165","-112.07772","1610.9","RICHFIELD RADIO KSVC, UT US","    199.7","","     199.7","0","        67","0","        33","0","         0","0","","","","","         5","0","       180","0","        24","0","       160","0","        36","0","         6"," ","","","  -22.8","0,0201, ","","","","","  21.6"," ,0,0328, ","   37.8","0,0705, ","0.0","0,0913","-3.3","0,0923","-5.0","0,0929","-7.2","0,1101","-12.2","0,1113","-1.7","0,0514","-2.2","0,0427","-6.7","0,0401","-6.7","0,0401","-16.1","0,0330","    3567.0","0","","","    3567.0","0","","","","","","","","","","","    325.3"," ,0","","","      8.80","0","     17.37","0","      0.23","0"
"USC00427260","1986","38.76165","-112.07772","1610.9","RICHFIELD RADIO KSVC, UT US","    209.1","","     209.1","0","        69","0","        29","0","         0","0","","","","","         0","0","       169","0","         5","0","       156","0","        33","0","","","","","  -16.7","0,0210, ","","","","","  19.3"," ,0,0515, ","   36.1","0,0802, ","-0.6","0,0919","-2.2","0,0929","-6.1","0,1013","-11.1","0,1109","-11.1","0,1109","-2.8","0,0523","-2.8","0,0523","-6.1","0,0428","-7.8","0,0414","-11.1","0,0211","    3199.9","9","      23.3","0,0,2","    3199.9","0","      35.6","0,0,2","      -5.0","0,0,2","      -1.7","0,0,2","       8.4","0,0,2","      17.1","0,0,2","    206.5"," ,0","","","     10.02","0","     18.95","0","      1.09","0"
"USC00427260","1987","38.76165","-112.07772","1610.9","RICHFIELD RADIO KSVC, UT US","    154.9","","     154.9","0","        83","0","        27","0","         0","0","","","","","        12","0","       180","0","        20","0","       166","0","        20","0","","","","","  -28.9","0,1226, ","","","","","  21.8"," ,0,0319, ","   34.4","0,0724, ","-0.6","0,0918","-2.8","0,1015","-5.0","0,1020","-6.7","0,1116","-11.7","0,1118","-1.1","0,0504","-2.8","0,0503","-5.6","0,0421","-7.8","0,0413","-10.6","0,0330","    3420.6","6","","","    3420.6","0","","","","","","","","","","","    195.4"," ,0","","","      9.19","0","     18.27","0","      0.10","0"
"USC00427260","1989","38.76165","-112.07772","1610.9","RICHFIELD RADIO KSVC, UT US","    201.1","","     201.1","0","        54","0","        20","0","         0","0","","","         8","0","        28","0","       173","0","        32","0","       173","0","        26","0","","","","","  -36.1","0,0207,+","","","   216"," ,0,0204, ","  16.8"," ,0,0303, ","   36.7","0,0707,+","-1.1","0,0913","-2.2","0,1004","-6.7","0,1017","-6.7","0,1017","-9.4","0,1030","-0.6","0,0526","-3.9","0,0513","-4.4","0,0328","-8.3","0,0321","-10.0","0,0305","","","      23.3","0,0,2","","","      32.2","0,0,2","      -4.4","0,0,2","      -1.7","0,0,2","       7.6","0,0,2","      14.3","0,0,2","    143.7"," ,0","      884"," ,0","      8.62","0","     18.21","0","     -0.98","0"
"USC00427260","1990","38.76165","-112.07772","1610.9","RICHFIELD RADIO KSVC, UT US","    260.8","","     260.8","0","","","","","","","       23","","        10","0","        15","0","       174","0","        19","0","       165","0","        42","0","","","","","  -35.6","0,1223, ","   102"," ,0,1222,+","   102"," ,0,0214, ","","","   36.7","0,0623, ","-1.1","0,1003","-5.0","0,1008","-5.0","0,1008","-7.2","0,1009","-8.9","0,1121","-2.8","0,0602","-2.8","0,0602","-5.0","0,0319","-7.2","0,0316","-11.1","0,0220","    3369.1","1","","","    3369.1","0","","","","","","","","","","","","","      575"," ,0","      9.36","0","     18.49","0","      0.24","0"
"USC00427260","1991","38.76165","-112.07772","1610.9","RICHFIELD RADIO KSVC, UT US","    203.8","","     203.8","0","        89","0","        26","0","         1","0","       17","","         7","0","         8","0","       184","0","        19","0","       161","0","        19","0","","","","","  -21.1","0,0130, ","   127"," ,0,0104, ","    76"," ,0,1114,+","  32.5"," ,0,0531, ","   36.1","0,0705, ","-0.6","0,0916","-2.8","0,1005","-4.4","0,1029","-15.0","0,1031","-15.0","0,1031","0.0","0,0521","-3.9","0,0505","-6.7","0,0430","-6.7","0,0430","-9.4","0,0309","    3534.9","9","      21.1","0,0,2","    3534.9","0","      30.6","0,0,2","      -5.6","0,0,2","      -3.9","0,0,2","       7.3","0,0,2","      13.6","0,0,2","    259.0"," ,0","      290"," ,0","      8.85","0","     17.31","0","      0.39","0"
"USC00427260","1992","38.76165","-112.07772","1610.9","RICHFIELD RADIO KSVC, UT US","    201.2","","     201.2","0","        93","0","        25","0","         0","0","","","","","        12","0","       166","0","        15","0","       180","0","        28","0","","","","","  -27.2","0,1220, ","","","","","  16.5"," ,0,0328, ","   35.0","0,0802, ","-1.7","0,0827","-5.0","0,1007","-5.0","0,1007","-7.8","0,1104","-10.0","0,1111","-2.2","0,0510","-2.2","0,0510","-5.0","0,0420","-6.7","0,0224","-8.9","0,0206","    3144.6","6","      23.9","0,0,2","    3144.6","0","      32.8","0,0,2","      -3.3","0,0,2","      -1.7","0,0,2","       8.4","0,0,2","      14.5","0,0,2","    194.2"," ,0","","","      9.71","0","     18.44","0","      0.99","0"
"USC00427260","1993","38.76165","-112.07772","1610.9","RICHFIELD RADIO KSVC, UT US","    129.5","","     129.5","0","        85","0","        29","0","         0","0","       34","","         5","0","         7","0","       171","0","        21","0","       151","0","        15","0","","","","","  -20.0","0,0112, ","   127"," ,0,0113, ","   127"," ,0,0217,+","  24.6"," ,0,0517, ","   33.9","0,0731,+","-3.3","0,0914","-3.3","0,0914","-6.1","0,1027","-8.9","0,1030","-8.9","0,1030","-0.6","0,0510","-3.9","0,0509","-5.0","0,0420","-6.7","0,0307","-10.0","0,0221","    3501.0","0","","","    3501.0","0","","","","","","","","","","","    246.9"," ,0","      406"," ,0","      8.63","0","     16.94","0","      0.32","0"
"USC00427260","1994","38.76165","-112.07772","1610.9","RICHFIELD RADIO KSVC, UT US","    326.5","","     326.5","0","        71","0","        26","0","         0","0","       26","","         7","0","         2","0","       163","0","        13","0","       159","0","        47","0","         1"," ","","","  -20.0","0,1123, ","   152"," ,0,1119, ","   102"," ,0,1103, ","  15.7"," ,0,1015, ","   36.1","0,0804,+","0.0","0,0927","-2.2","0,1023","-5.6","0,1030","-7.2","0,1031","-11.7","0,1104","-2.2","0,0521","-2.2","0,0521","-5.0","0,0408","-7.2","0,0330","-12.2","0,0223","    3276.8","8","      23.9","0,0,2","    3276.8","0","      29.4","0,0,2","      -7.2","0,0,2","      -1.7","0,0,2","       8.6","0,0,2","      13.7","0,0,2","    193.3"," ,0","      427"," ,0","     10.10","0","     18.62","0","      1.57","0"
"USC00427260","1995","38.76165","-112.07772","1610.9","RICHFIELD RADIO KSVC, UT US","    219.7","","     219.7","0","        82","0","        25","0","         0","0","        1","","         4","0","         0","0","       183","0","         3","0","       146","0","        33","0","","","","","  -15.6","0,0215, ","    51"," ,0,0214, ","    84"," ,0,0329, ","  23.9"," ,0,0512, ","   36.7","0,0729,+","-1.1","0,0922","-5.6","0,1005","-5.6","0,1005","-8.3","0,1023","-11.1","0,1103","-0.6","0,0514","-2.8","0,0507","-5.6","0,0416","-8.9","0,0411","-8.9","0,0411","    3306.8","8","","","    3306.8","0","","","","","","","","","","","    205.4"," ,0","      172"," ,0","     10.15","0","     18.92","0","      1.38","0"
"USC00427260","1996","38.76165","-112.07772","1610.9","RICHFIELD RADIO KSVC, UT US","    283.3","","     283.3","0","        66","0","        21","0","         0","0","       26","","        14","0","         5","0","       169","0","         8","0","       174","0","        49","0","","","","","  -21.7","0,1203, ","   127"," ,0,1203,+","   178"," ,0,1129, ","  16.3"," ,0,0523, ","   36.7","0,0812, ","-1.7","0,0917","-3.3","0,0927","-5.6","0,1017","-8.3","0,1021","-10.0","0,1022","-0.6","0,0505","-6.7","0,0429","-6.7","0,0429","-6.7","0,0429","-8.9","0,0302","    3057.2","2","      23.3","0,0,2","    3057.2","0","      30.0","0,0,2","      -6.1","0,0,2","      -1.1","0,0,2","       9.9","0,0,2","      14.7","0,0,2","    168.2"," ,0","      806"," ,0","     10.31","0","     19.45","0","      1.18","0"
"USC00427260","1997","38.76165","-112.07772","1610.9","RICHFIELD RADIO KSVC, UT US","    194.0","","     194.0","0","        84","0","        35","0","         0","0","       16","","        16","0","         5","0","       176","0","        23","0","       166","0","        16","0","","","","","  -25.0","0,0117, ","   152"," ,0,0114, ","   102"," ,0,0113, ","  18.0"," ,0,0103, ","   36.1","0,0715, ","-3.3","0,1009","-3.3","0,1009","-7.2","0,1013","-7.2","0,1013","-8.9","0,1115","-1.1","0,0526","-3.9","0,0502","-7.8","0,0413","-7.8","0,0413","-9.4","0,0325","    3236.8","8","      23.3","0,0,2","    3236.8","0","      32.2","0,0,2","      -2.2","0,0,2","      -1.1","0,0,2","      10.2","0,0,2","      14.0","0,0,2","    236.2"," ,0","      718"," ,0","      9.53","0","     17.89","0","      1.16","0"
"USC00427260","1998","38.76165","-112.07772","1610.9","RICHFIELD RADIO KSVC, UT US","    213.8","","     213.8","0","        82","0","        33","0","         1","0","","","         7","0","         4","0","       178","0","        10","0","       151","0","        29","0","         1"," ","","","  -32.8","0,1222, ","","","   269"," ,0,1220, ","  26.2"," ,0,0912, ","   37.8","0,0718, ","-2.2","0,1005","-2.2","0,1005","-5.0","0,1018","-7.2","0,1104","-13.3","0,1110","-1.7","0,0523","-4.4","0,0428","-4.4","0,0428","-7.2","0,0331","-8.9","0,0319","    3357.4","4","      22.2","2,0,2","    3357.4","0","      26.7","2,0,2","      -2.2","2,0,2","      -1.1","2,0,2","       9.6","2,0,2","      12.5","2,0,2","    257.5"," ,0","      694"," ,0","      9.36","0","     17.63","0","      1.09","0"
"USC00427260","1999","38.76165","-112.07772","1610.9","RICHFIELD RADIO KSVC, UT US","","","","","        64","0","        27","0","         0","0","       13","","         0","0","         0","0","       188","0","","","","","","","","","","","  -15.6","0,0104, ","    76"," ,0,0107,+","     8"," ,0,1203, ","  21.6"," ,0,0708, ","","","-1.1","0,0927","-4.4","0,0928","-4.4","0,0928","-7.8","0,1017","-8.9","0,1119","0.0","0,0518","-2.2","0,0517","-5.6","0,0417","-8.9","0,0416","-8.9","0,0416","","","      22.8","0,0,2","","","      30.6","0,0,2","      -1.7","0,0,2","      -1.1","0,0,2","       9.7","0,0,2","      13.4","0,0,2","    199.9"," ,0","       13"," ,0","","","","","      0.60","0"
"USC00427260","2000","38.76165","-112.07772","1610.9","RICHFIELD RADIO KSVC, UT US","","","","","","","","","","","","","","","","","","","","","","","","","","","","","","","","","","","","","","","","","","","","","","","","","","","","","","","","","","","    2766.9","9","      23.3","0,0,2","    2766.9","0","      27.8","0,0,2","      -8.3","0,0,2","      -1.1","0,0,2","      10.1","0,0,2","      13.6","0,0,2","","","","","","","","","",""
"USC00427260","2001","38.76165","-112.07772","1610.9","RICHFIELD RADIO KSVC, UT US","    290.4","","     290.4","0","        71","0","        24","0","         0","0","       11","","        12","0","         1","0","       173","0","        14","0","       177","0","        45","0","","","","","  -17.8","0,0209, ","   178"," ,0,1129, ","   178"," ,0,1129, ","  16.8"," ,0,0819, ","   37.8","0,0703, ","-1.1","0,0909","-5.0","0,1010","-5.0","0,1010","-7.2","0,1024","-9.4","0,1126","-1.1","0,0614","-2.2","0,0505","-7.8","0,0413","-7.8","0,0413","-8.9","0,0315","","","","","","","","","","","","","","","","","    181.4"," ,0","      643"," ,0","     10.41","0","     19.41","0","      1.41","0"
"USC00427260","2002","38.76165","-112.07772","1610.9","RICHFIELD RADIO KSVC, UT US","    292.4","","     292.4","0","        52","0","        18","0","         0","0","","","         3","0","         4","0","       194","0","        14","0","       153","0","        53","0","","","","","  -22.8","0,0131, ","","","    64"," ,0,0129, ","  24.9"," ,0,1003, ","   38.9","0,0714,+","-1.7","0,1005","-2.2","0,1012","-5.6","0,1013","-6.7","0,1030","-10.6","0,1102","-1.7","0,0610","-2.2","0,0524","-6.1","0,0509","-7.2","0,0320","-9.4","0,0319","    3257.5","5","","","    3257.5","0","","","","","","","","","","","    165.6"," ,0","      160"," ,0","      9.40","0","     18.87","0","     -0.07","0"
"USC00427260","2003","38.76165","-112.07772","1610.9","RICHFIELD RADIO KSVC, UT US","    325.9","","     325.9","0","        68","0","        25","0","         0","0","        3","","         8","0","         1","0","       176","0","         5","0","       174","0","        50","0","","","","","  -17.8","0,1123, ","    51"," ,0,1229, ","    76"," ,0,0111, ","  16.8"," ,0,0111, ","   37.8","0,0710, ","-2.2","0,0914","-2.2","0,0914","-6.1","0,1011","-7.2","0,1014","-8.9","0,1122","-0.6","0,0625","-2.8","0,0510","-4.4","0,0506","-7.2","0,0408","-8.9","0,0404","    3267.2","2","      24.4","1,3,2","    3267.2","0","      27.8","1,3,2","      -3.9","1,3,2","      -1.1","1,3,2","       9.8","1,3,2","      12.9","1,3,2","    186.5"," ,0","      394"," ,0","     10.50","0","     19.43","0","      1.57","0"
"USC00427260","2004","38.76165","-112.07772","1610.9","RICHFIELD RADIO KSVC, UT US","    232.1","","     232.1","0","        68","0","        22","0","         0","0","       11","","         5","0","         3","0","       171","0","        26","0","       170","0","        38","0","         3"," ","         3"," ","  -27.2","0,0104, ","   152"," ,0,0104, ","    38"," ,0,0131, ","  19.6"," ,0,1021, ","   36.1","0,0830, ","-0.6","0,0904","-3.9","0,0922","-5.6","0,1030","-8.9","0,1102","-8.9","0,1102","0.0","0,0512","-2.2","0,0412","-5.0","0,0330","-6.7","0,0311","-9.4","0,0216","    3206.6","6","","","    3206.6","0","","","","","","","","","","","    224.3"," ,0","      175"," ,0","      9.61","0","     18.28","0","      0.94","0"
"USC00427260","2005","38.76165","-112.07772","1610.9","RICHFIELD RADIO KSVC, UT US","","","","","","","","","","","","","","","","","","","","","","","","","         3"," ","         4"," ","","","","","","","","","","","","","","","","","","","","","","","","","","","","","","","    3188.5","5","","","    3188.5","0","","","","","","","","","","","","","","","","","","","",""
"USC00427260","2006","38.76165","-112.07772","1610.9","RICHFIELD RADIO KSVC, UT US","","","","","","","","","","","","","","","","","","","","","","","","","         3"," ","","","","","","","","","","","","","","","","","","","","","","","","","","","","","","","","","","","      23.3","0,3,2","","","      26.1","0,3,2","      -0.6","0,3,2","      -0.6","0,3,2","       9.7","0,3,2","      12.7","0,3,2","","","","","","","","","",""
"USC00427260","2007","38.76165","-112.07772","1610.9","RICHFIELD RADIO KSVC, UT US","    376.5","","     376.5","0","        61","0","        13","0","         0","0","       49","","         8","0","        18","0","       182","0","        30","0","       182","0","        64","0","         4"," ","         4"," ","  -30.6","0,0114, ","   127"," ,0,0116,+","    76"," ,0,0112, ","  20.3"," ,0,1207, ","   37.2","0,0714,+","0.0","0,0919","-3.3","0,0925","-6.7","0,0930","-6.7","0,0930","-8.9","0,1105","-1.1","0,0609","-2.2","0,0507","-7.2","0,0420","-7.2","0,0420","-8.9","0,0304","","","      23.3","0,3,2","","","      28.3","0,3,2","      -4.4","0,3,2","      -1.7","0,3,2","       9.9","0,3,2","      13.6","0,3,2","    142.6"," ,0","      329"," ,0","      9.77","0","     19.25","0","      0.29","0"
"USC00427260","2008","38.76165","-112.07772","1610.9","RICHFIELD RADIO KSVC, UT US","    264.3","","     264.3","0","        58","0","        27","0","         0","0","","","        16","0","         4","0","       185","0","        20","0","       154","0","        59","0","        17"," ","         7"," ","  -21.1","0,0117, ","","","   102"," ,0,0109, ","   9.1"," ,0,0221, ","   36.1","0,0801,+","-0.6","0,0912","-3.9","0,1011","-6.7","0,1012","-6.7","0,1012","-9.4","0,1013","-2.2","0,0524","-2.2","0,0524","-7.2","0,0504","-7.2","0,0504","-8.9","0,0417","    3586.4","4","","","    3586.4","0","","","","","","","","","","","    148.7"," ,0","      717"," ,0","      9.19","0","     18.51","0","     -0.14","0"
"USC00427260","2009","38.76165","-112.07772","1610.9","RICHFIELD RADIO KSVC, UT US","    259.3","","     259.3","0","        56","0","        11","0","         0","0","       36","","        19","0","         8","0","       180","0","        20","0","       176","0","        45","0","         2"," ","","","  -26.7","0,1209, ","   203"," ,0,1230, ","   152"," ,0,0307, ","  17.5"," ,0,1113, ","   37.8","0,0718,+","-0.6","0,0922","-5.0","0,1001","-5.0","0,1001","-6.7","0,1002","-8.9","0,1026","0.0","0,0509","-6.7","0,0427","-6.7","0,0427","-6.7","0,0427","-8.9","0,0311","    3162.7","7","","","    3162.7","0","","","","","","","","","","","    106.8"," ,0","      989"," ,0","      9.51","0","     18.73","0","      0.29","0"
"USC00427260","2010","38.76165","-112.07772","1610.9","RICHFIELD RADIO KSVC, UT US","    291.9","","     291.9","0","        81","0","        26","0","         1","0","       78","","        31","0","         6","0","       180","0","        15","0","       162","0","        47","0","         2"," ","","","  -20.6","0,0104, ","   330"," ,0,1221, ","   279"," ,0,1221, ","  27.2"," ,0,1221, ","   36.7","0,0717,+","-1.1","0,0911","-2.8","0,1026","-4.4","0,1027","-6.7","0,1028","-11.1","0,1124","0.0","0,0530","-2.2","0,0515","-6.1","0,0507","-6.7","0,0402","-10.0","0,0224","    3761.4","4","","","    3761.4","0","","","","","","","","","","","    258.4"," ,0","     1797"," ,0","      9.49","0","     18.03","0","      0.95","0"
"USC00427260","2011","38.76165","-112.07772","1610.9","RICHFIELD RADIO KSVC, UT US","    265.9","","     265.9","7","        79","7","        35","7","         0","7","       60","","        22","7","         9","7","       167","7","        26","7","       159","7","        40","7","         2"," ","","","  -24.4","7,0111, ","    76"," ,7,0112,+","   127"," ,7,0317, ","  19.0"," ,7,0727, ","   35.6","7,0724,+","-3.3","7,1007","-3.3","7,1007","-6.7","7,1027","-6.7","7,1027","-10.0","7,1103","-0.6","7,0531","-2.8","7,0505","-5.6","7,0502","-6.7","7,0415","-9.4","7,0228","    3466.1","1","","","    3466.1","7","","","","","","","","","","","    274.0"," ,7","     1037"," ,7","      9.15","7","     17.61","7","      0.68","7"
"USC00427260","2012","38.76165","-112.07772","1610.9","RICHFIELD RADIO KSVC, UT US","    366.7","","     366.7","7","        61","7","        22","7","         0","7","","","","","         4","7","       167","7","         8","7","       183","7","        57","7","         2"," ","","","  -26.1","7,1220, ","","","","","  15.2"," ,7,0123, ","   37.2","7,0710, ","-5.0","7,1007","-5.0","7,1007","-5.0","7,1007","-9.4","7,1026","-9.4","7,1026","-0.6","7,0528","-3.9","7,0507","-5.6","7,0408","-8.9","7,0407","-8.9","7,0407","    3197.3","3","","","    3197.3","7","","","","","","","","","","","    194.9"," ,7","","","     10.78","7","     20.12","7","      1.44","7"
"USC00427260","2013","38.76165","-112.07772","1610.9","RICHFIELD RADIO KSVC, UT US","","","","","        58","7","        22","7","         1","7","","","","","        30","7","       179","7","","","","","","","         1"," ","         1"," ","  -29.4","7,1206, ","","","","","  51.1"," ,7,0309, ","","","-4.4","7,0928","-4.4","7,0928","-4.4","7,0928","-7.2","7,1005","-14.4","7,1105","-0.6","7,0601","-3.9","7,0503","-5.6","7,0502","-10.6","7,0324","-10.6","7,0324","","","","","","","","","","","","","","","","","    230.4"," ,7","","","","","","","     -0.40","7"
"USC00427260","2014","38.76165","-112.07772","1610.9","RICHFIELD RADIO KSVC, UT US","    296.4","","     296.4","7","        65","7","        28","7","         1","7","        8","","         5","7","         4","7","       169","7","        14","7","       175","7","        41","7","         1"," ","         2"," ","  -25.0","7,0202, ","   203"," ,7,0131, ","   152"," ,7,0131, ","  30.2"," ,7,0823, ","   37.2","7,0722,+","-2.2","7,1002","-2.2","7,1002","-4.4","7,1006","-8.3","7,1104","-8.9","7,1111","0.0","7,0515","-2.8","7,0513","-5.0","7,0501","-7.2","7,0414","-9.4","7,0323","    3406.4","4","","","    3406.4","7","","","","","","","","","","","    256.7"," ,7","      407"," ,7","     10.45","7","     19.30","7","      1.60","7"
"USC00427260","2015","38.76165","-112.07772","1610.9","RICHFIELD RADIO KSVC, UT US","","","","","","","","","","","","","","","","","","","","","","","","","","","","","","","","","","","","","","","","","","","","","","","","","","","","","","","","","","","    3073.7","7","","","    3073.7","7","","","","","","","","","","","","","","","","","","","",""
"USC00427260","2018","38.76165","-112.07772","1610.9","RICHFIELD RADIO KSVC, UT US","    420.7","","     420.7","Z","        41","Z","        19","Z","         1","Z","","","         3","Z","         3","Z","       167","Z","        12","Z","       176","Z","        62","Z","","","","","  -20.0","Z,0122, ","","","    64"," ,Z,1228, ","  32.3"," ,Z,1007, ","   37.8","Z,0721,+","0.0","7,0921","-4.4","7,1015","-4.4","7,1015","-8.3","7,1107","-8.9","7,1108","-1.1","7,0513","-2.2","7,0421","-8.9","7,0418","-8.9","7,0418","-8.9","7,0418","","","","","","","","","","","","","","","","","    169.0"," ,Z","      141"," ,Z","     10.88","Z","     20.13","Z","      1.63","Z"
"USC00427260","2019","38.76165","-112.07772","1610.9","RICHFIELD RADIO KSVC, UT US","    250.5","","     250.5","7","        53","7","        19","7","         0","7","        5","","         4","7","         4","7","       209","7","        21","7","       149","7","        44","7","","","","","  -23.9","7,0103, ","    51"," ,7,0222, ","    30"," ,7,0222, ","  20.1"," ,7,1120,+","   37.8","7,0722, ","-1.7","7,0913","-2.8","7,1001","-5.0","7,1004","-10.6","7,1011","-10.6","7,1011","0.0","7,0526","-2.2","7,0522","-5.0","7,0417","-7.2","7,0317","-12.8","7,0224","    3554.0","0","","","    3554.0","7","","","","","","","","","","","    151.2"," ,7","      147"," ,7","      8.88","7","     17.78","7","     -0.01","7"
