"STATION","DATE","LATITUDE","LONGITUDE","ELEVATION","NAME","CDSD","CDSD_ATTRIBUTES","CLDD","CLDD_ATTRIBUTES","DP01","DP01_ATTRIBUTES","DP10","DP10_ATTRIBUTES","DP1X","DP1X_ATTRIBUTES","DSND","DSND_ATTRIBUTES","DSNW","DSNW_ATTRIBUTES","DT00","DT00_ATTRIBUTES","DT32","DT32_ATTRIBUTES","DX32","DX32_ATTRIBUTES","DX70","DX70_ATTRIBUTES","DX90","DX90_ATTRIBUTES","DYFG","DYFG_ATTRIBUTES","EMNT","EMNT_ATTRIBUTES","EMSD","EMSD_ATTRIBUTES","EMSN","EMSN_ATTRIBUTES","EMXP","EMXP_ATTRIBUTES","EMXT","EMXT_ATTRIBUTES","FZF0","FZF0_ATTRIBUTES","FZF1","FZF1_ATTRIBUTES","FZF2","FZF2_ATTRIBUTES","FZF3","FZF3_ATTRIBUTES","FZF4","FZF4_ATTRIBUTES","FZF5","FZF5_ATTRIBUTES","FZF6","FZF6_ATTRIBUTES","FZF7","FZF7_ATTRIBUTES","FZF8","FZF8_ATTRIBUTES","FZF9","FZF9_ATTRIBUTES","HDSD","HDSD_ATTRIBUTES","HTDD","HTDD_ATTRIBUTES","PRCP","PRCP_ATTRIBUTES","SNOW","SNOW_ATTRIBUTES","TAVG","TAVG_ATTRIBUTES","TMAX","TMAX_ATTRIBUTES","TMIN","TMIN_ATTRIBUTES"
"USC00433769","1998","44.2379","-72.9655","330.1","HANKSVILLE, VT US","","","","","","","","","","","","","        27","0","","","","","","","","","","","         1"," ","","","","","   335"," ,0,0225, ","","","","","","","","","","","","","","","","","","","","","","","","","","","","","","","     2369"," ,0","","","","","",""
"USC00433769","2001","44.2379","-72.9655","330.1","HANKSVILLE, VT US","","","","","","","","","","","","","","","","","","","","","","","","","         1"," ","","","","","","","","","","","","","","","","","","","","","","","","","","","","","","","","","","","","","","","","","","","",""
"USC00433769","2002","44.2379","-72.9655","330.1","HANKSVILLE, VT US","","","","","","","","","","","","","        32","0","","","","","","","","","","","","","","","","","   208"," ,0,1123, ","","","","","","","","","","","","","","","","","","","","","","","","","","","","","","","     2657"," ,0","","","","","",""
"USC00433769","2003","44.2379","-72.9655","330.1","HANKSVILLE, VT US","","","","","","","","","","","      124","","        32","0","","","","","","","","","","","","","","","   660"," ,0,1219, ","   465"," ,0,1207, ","","","","","","","","","","","","","","","","","","","","","","","","","","","","","","","     3678"," ,0","","","","","",""
"USC00433769","2007","44.2379","-72.9655","330.1","HANKSVILLE, VT US","","","","","","","","","","","      136","","        48","0","","","","","","","","","","","","","","","   991"," ,0,0215, ","   625"," ,0,0215, ","","","","","","","","","","","","","","","","","","","","","","","","","","","","","","","     4759"," ,0","","","","","",""
"USC00433769","2008","44.2379","-72.9655","330.1","HANKSVILLE, VT US","    107.9","","     107.9","0","       156","0","       112","0","        11","0","      125","","        45","0","        20","0","       176","0","        70","0","       111","0","         2","0","","","  -26.7","0,0229, ","   584"," ,0,1223,+","   284"," ,0,0207, ","  40.6"," ,0,0801, ","   33.3","0,0906, ","0.0","0,0919","-4.4","0,1018","-4.4","0,1018","-6.7","0,1102","-12.2","0,1119","0.0","0,0529","-3.3","0,0501","-5.0","0,0416","-13.9","0,0331","-13.9","0,0331","","","","","   1204.3"," ,0","     4007"," ,0","      6.18","0","     12.08","0","      0.28","0"
"USC00433769","2009","44.2379","-72.9655","330.1","HANKSVILLE, VT US","     74.9","","      74.9","0","       159","0","       108","0","        12","0","      104","","        29","0","        32","0","       180","0","        70","0","        88","0","         0","0","","","  -29.4","0,0116, ","   610"," ,0,0224, ","   254"," ,0,0129, ","  58.9"," ,0,0811, ","   31.1","0,0428, ","-1.1","0,0926","-3.3","0,1012","-5.0","0,1016","-6.7","0,1017","-11.7","0,1209","0.0","0,0601","-2.2","0,0430","-6.1","0,0415","-8.3","0,0326","-12.8","0,0325","    4644.4","4","    4644.4","0","   1299.2"," ,0","     2673"," ,0","      5.60","0","     11.51","0","     -0.31","0"
"USC00433769","2010","44.2379","-72.9655","330.1","HANKSVILLE, VT US","    194.6","","     194.6","0","       154","0","       106","0","        12","0","      110","","        30","0","        16","0","       175","0","        67","0","       104","0","         2","0","","","  -25.0","0,0131,+","   686"," ,0,0225, ","   361"," ,0,1207, ","  99.3"," ,0,1001, ","   33.3","0,0709, ","-1.1","0,1003","-3.3","0,1019","-7.2","0,1103","-7.2","0,1103","-10.6","0,1125","0.0","0,0517","-2.8","0,0514","-4.4","0,0511","-12.2","0,0328","-12.2","0,0328","    4314.9","9","    4314.9","0","   1438.5"," ,0","     3485"," ,0","      6.71","0","     12.05","0","      1.37","0"
