"STATION","DATE","LATITUDE","LONGITUDE","ELEVATION","NAME","DP01","DP01_ATTRIBUTES","DP10","DP10_ATTRIBUTES","DP1X","DP1X_ATTRIBUTES","DYFG","DYFG_ATTRIBUTES","EMXP","EMXP_ATTRIBUTES","PRCP","PRCP_ATTRIBUTES"
"USC00358647","1936","45.95","-117.533333","492.6","TROY EDEN, OR US","","","","","","","         1"," ","","","",""
"USC00358647","1941","45.95","-117.533333","492.6","TROY EDEN, OR US","       136","6","        83","6","         2","6","","","  33.8"," ,6,1202, ","    700.6"," ,6"
