"STATION","DATE","LATITUDE","LONGITUDE","ELEVATION","NAME","CDSD","CDSD_ATTRIBUTES","CLDD","CLDD_ATTRIBUTES","DP01","DP01_ATTRIBUTES","DP10","DP10_ATTRIBUTES","DP1X","DP1X_ATTRIBUTES","DSND","DSND_ATTRIBUTES","DSNW","DSNW_ATTRIBUTES","DT00","DT00_ATTRIBUTES","DT32","DT32_ATTRIBUTES","DX32","DX32_ATTRIBUTES","DX70","DX70_ATTRIBUTES","DX90","DX90_ATTRIBUTES","DYFG","DYFG_ATTRIBUTES","DYTS","DYTS_ATTRIBUTES","EMNT","EMNT_ATTRIBUTES","EMSD","EMSD_ATTRIBUTES","EMSN","EMSN_ATTRIBUTES","EMXP","EMXP_ATTRIBUTES","EMXT","EMXT_ATTRIBUTES","FZF0","FZF0_ATTRIBUTES","FZF1","FZF1_ATTRIBUTES","FZF2","FZF2_ATTRIBUTES","FZF3","FZF3_ATTRIBUTES","FZF4","FZF4_ATTRIBUTES","FZF5","FZF5_ATTRIBUTES","FZF6","FZF6_ATTRIBUTES","FZF7","FZF7_ATTRIBUTES","FZF8","FZF8_ATTRIBUTES","FZF9","FZF9_ATTRIBUTES","HDSD","HDSD_ATTRIBUTES","HTDD","HTDD_ATTRIBUTES","PRCP","PRCP_ATTRIBUTES","SNOW","SNOW_ATTRIBUTES","TAVG","TAVG_ATTRIBUTES","TMAX","TMAX_ATTRIBUTES","TMIN","TMIN_ATTRIBUTES"
"USC00182695","1953","38.8","-76.06667","18.0","EASTON, MD US","    742.9","","     742.9","0","       123","0","        81","0","        11","0","        6","","         4","0","         0","0","        49","0","         0","0","       178","0","        37","0","        31"," ","        48"," ","   -6.1","0,0202, ","   178"," ,0,1106, ","   185"," ,0,1106, ","  71.1"," ,0,1029, ","   37.8","0,0831, ","-1.1","0,1106","-3.9","0,1217","-5.0","0,1218","","","","","-0.6","0,0321","-3.3","0,0309","-4.4","0,0302","","","","","","","","","   1197.2"," ,0","      337"," ,0","     14.91","0","     20.15","0","      9.67","0"
"USC00182695","1954","38.8","-76.06667","18.0","EASTON, MD US","    820.3","","     820.3","0","       105","0","        63","0","         9","0","       11","","         2","0","         0","0","        75","0","         7","0","       181","0","        37","0","        17"," ","        29"," ","  -10.6","0,0118, ","   178"," ,0,0123,+","   185"," ,0,0122, ","  42.7"," ,0,0428, ","   37.8","0,0731, ","0.0","0,1101","-2.2","0,1111","-5.6","0,1206","-7.8","0,1221","","","-1.1","0,0404","-3.9","0,0307","-9.4","0,0213","-9.4","0,0213","-9.4","0,0213","    2090.6","6","    2090.6","0","    840.5"," ,0","      270"," ,0","     14.48","0","     19.81","0","      9.15","0"
"USC00182695","1955","38.8","-76.06667","18.0","EASTON, MD US","    773.7","","     773.7","0","       113","0","        65","0","        11","0","        8","","         3","0","         0","0","        89","0","        11","0","       184","0","        37","0","        20"," ","        32"," ","  -13.9","0,0203, ","    51"," ,0,0212,+","    41"," ,0,0211, "," 141.7"," ,0,0812, ","   36.7","0,0722, ","-2.2","0,1109","-2.2","0,1109","-7.8","0,1129","-7.8","0,1129","-8.9","0,1216","0.0","0,0331","-2.8","0,0328","-4.4","0,0327","-9.4","0,0214","-9.4","0,0214","    2307.6","6","    2307.6","0","   1111.8"," ,0","      159"," ,0","     13.85","0","     18.91","0","      8.79","0"
"USC00182695","1956","38.8","-76.06667","18.0","EASTON, MD US","    683.5","","     683.5","0","       132","0","        82","0","        11","0","        0","","         0","0","         0","0","        67","0","         1","0","       156","0","        35","0","        22"," ","        38"," ","   -7.2","0,0128, ","     0","T,0,0119, ","    13"," ,0,0126, "," 203.7"," ,0,1102, ","   35.6","0,0614, ","-1.7","0,1111","-2.2","0,1123","-6.1","0,1124","","","","","-0.6","0,0425","-2.2","0,0327","-5.0","0,0320","-6.7","0,0222","","","    2531.9","9","    2531.9","0","   1259.9"," ,0","       28"," ,0","     13.89","0","     18.92","0","      8.86","0"
"USC00182695","1957","38.8","-76.06667","18.0","EASTON, MD US","    838.8","","     838.8","0","       116","0","        68","0","         8","0","","","","","         0","0","        70","0","         7","0","       164","0","        48","0","        22"," ","        22"," ","  -17.2","0,0118, ","","","","","  52.1"," ,0,0605, ","   38.9","0,0722, ","0.0","0,1013","-5.0","0,1112","-5.0","0,1112","-11.1","0,1212","-11.1","0,1212","0.0","0,0415","-3.3","0,0305","-6.1","0,0221","-7.2","0,0124","-13.3","0,0119","    2201.7","7","    2201.7","0","    918.9"," ,0","","","     14.23","0","     19.61","0","      8.85","0"
"USC00182695","1958","38.8","-76.06667","18.0","EASTON, MD US","    657.3","","     657.3","0","       131","0","        81","0","        12","0","       27","","         7","0","         0","0","        90","0","        14","0","       171","0","        27","0","        16"," ","        34"," ","  -15.6","0,0217, ","   152"," ,0,0218,+","   127"," ,0,0320, "," 113.3"," ,0,0825, ","   35.0","0,0704, ","-1.1","0,1108","-2.8","0,1128","-7.8","0,1130","-7.8","0,1130","-9.4","0,1211","0.0","0,0329","-2.2","0,0318","-5.0","0,0223","-7.8","0,0221","-10.6","0,0219","    2498.6","6","    2498.6","0","   1453.2"," ,0","      634"," ,0","     12.85","0","     17.77","0","      7.93","0"
"USC00182695","1959","38.8","-76.06667","18.0","EASTON, MD US","","","","","","","","","","","","","","","","","","","","","","","","","         2"," ","         1"," ","","","","","","","","","","","","","","","","","","","","","","","","","","","","","","","","","","","","","","","","","","","",""
"USC00182695","1961","38.8","-76.06667","18.0","EASTON, MD US","","","","","","","","","","","","","","","","","","","","","","","","","        24"," ","        11"," ","","","","","","","","","","","","","","","","","","","","","","","","","","","","","","","","","","","","","","","","","","","",""
