"STATION","DATE","LATITUDE","LONGITUDE","ELEVATION","NAME","DP01","DP01_ATTRIBUTES","DP10","DP10_ATTRIBUTES","DP1X","DP1X_ATTRIBUTES","DSND","DSND_ATTRIBUTES","DSNW","DSNW_ATTRIBUTES","EMSD","EMSD_ATTRIBUTES","EMSN","EMSN_ATTRIBUTES","EMXP","EMXP_ATTRIBUTES","PRCP","PRCP_ATTRIBUTES","SNOW","SNOW_ATTRIBUTES"
"USC00411408","2005","35.6467","-100.0657","772.1","CANADIAN 22 SE, TX US","","","","","","","        0","","         0","0","     0"," ,0,1231,+","     0"," ,0,1231,+","","","","","        0"," ,0"
"USC00411408","2006","35.6467","-100.0657","772.1","CANADIAN 22 SE, TX US","","","","","","","        0","","         0","0","     0"," ,0,1231,+","     0"," ,0,1231,+","","","","","        0"," ,0"
"USC00411408","2007","35.6467","-100.0657","772.1","CANADIAN 22 SE, TX US","        38","0","        33","0","         9","0","        0","","         0","0","     0"," ,0,1231,+","     0"," ,0,1231,+"," 116.1"," ,0,0908, ","    703.7"," ,0","        0"," ,0"
"USC00411408","2008","35.6467","-100.0657","772.1","CANADIAN 22 SE, TX US","        28","0","        27","0","        12","0","        0","","         0","0","     0"," ,0,1231,+","     0"," ,0,1231,+","  98.3"," ,0,0609, ","    834.3"," ,0","        0"," ,0"
"USC00411408","2009","35.6467","-100.0657","772.1","CANADIAN 22 SE, TX US","        39","0","        36","0","         8","0","        1","","         1","0","   203"," ,0,0328, ","   203"," ,0,0328, "," 116.8"," ,0,0818, ","    669.0"," ,0","      203"," ,0"
"USC00411408","2010","35.6467","-100.0657","772.1","CANADIAN 22 SE, TX US","        34","0","        32","0","         9","0","        0","","         0","0","     0"," ,0,1231,+","     0"," ,0,1231,+","  68.8"," ,0,0709, ","    619.4"," ,0","        0"," ,0"
