"STATION","DATE","LATITUDE","LONGITUDE","ELEVATION","NAME","CDSD","CDSD_ATTRIBUTES","CLDD","CLDD_ATTRIBUTES","DP01","DP01_ATTRIBUTES","DP10","DP10_ATTRIBUTES","DP1X","DP1X_ATTRIBUTES","DSND","DSND_ATTRIBUTES","DSNW","DSNW_ATTRIBUTES","DT00","DT00_ATTRIBUTES","DT32","DT32_ATTRIBUTES","DX32","DX32_ATTRIBUTES","DX70","DX70_ATTRIBUTES","DX90","DX90_ATTRIBUTES","DYFG","DYFG_ATTRIBUTES","DYTS","DYTS_ATTRIBUTES","EMNT","EMNT_ATTRIBUTES","EMSD","EMSD_ATTRIBUTES","EMSN","EMSN_ATTRIBUTES","EMXP","EMXP_ATTRIBUTES","EMXT","EMXT_ATTRIBUTES","FZF0","FZF0_ATTRIBUTES","FZF1","FZF1_ATTRIBUTES","FZF2","FZF2_ATTRIBUTES","FZF3","FZF3_ATTRIBUTES","FZF4","FZF4_ATTRIBUTES","FZF5","FZF5_ATTRIBUTES","FZF6","FZF6_ATTRIBUTES","FZF7","FZF7_ATTRIBUTES","FZF8","FZF8_ATTRIBUTES","FZF9","FZF9_ATTRIBUTES","HDSD","HDSD_ATTRIBUTES","HTDD","HTDD_ATTRIBUTES","PRCP","PRCP_ATTRIBUTES","SNOW","SNOW_ATTRIBUTES","TAVG","TAVG_ATTRIBUTES","TMAX","TMAX_ATTRIBUTES","TMIN","TMIN_ATTRIBUTES"
"USC00319123","1931","35.77449","-83.09985","435.9","WATERVILLE 2, NC US","","","","","       135","6","        78","6","        11","6","","","","","         0","6","        75","6","","","","","","","","","","","  -10.0","6,0116, ","","","","","  53.6"," ,6,0804, ","","","-0.6","6,1103","-2.2","6,1107","","","","","","","-1.1","6,0524","-2.8","6,0318","-4.4","6,0312","-7.2","6,0215","-10.0","6,0116","","","","","   1095.7"," ,6","","","","","","","      8.31","6"
"USC00319123","1932","35.77449","-83.09985","435.9","WATERVILLE 2, NC US","    696.7","","     696.7","6","       137","6","        98","6","         9","6","","","","","         0","6","        62","6","         5","6","       204","6","        46","6","","","","","  -10.0","6,0315,+","","","","","  46.2"," ,6,0430, ","   36.7","6,0831,+","0.0","6,1007","-3.3","6,1113","-4.4","6,1114","-6.7","6,1127","","","0.0","6,0415","-2.2","6,0323","-10.0","6,0315","-10.0","6,0315","-10.0","6,0315","    1579.7","7","    1579.7","6","   1222.9"," ,6","","","     15.24","6","     21.67","6","      8.80","6"
"USC00319123","1933","35.77449","-83.09985","435.9","WATERVILLE 2, NC US","    798.4","","     798.4","6","       145","6","        85","6","        11","6","","","","","         0","6","        68","6","         2","6","       209","6","        40","6","","","","","  -16.7","6,0209, ","","","","","  66.5"," ,6,0510, ","   37.8","6,0608,+","0.0","6,1025","-2.2","6,1108","-5.0","6,1110","-6.7","6,1116","","","-1.1","6,0329","-2.2","6,0312","-5.0","6,0311","-12.2","6,0212","-12.2","6,0212","    1903.8","8","    1903.8","6","   1098.7"," ,6","","","     15.42","6","     22.05","6","      8.80","6"
"USC00319123","1934","35.77449","-83.09985","435.9","WATERVILLE 2, NC US","    725.1","","     725.1","6","       187","6","       108","6","         9","6","","","","","         0","6","        87","6","         6","6","       202","6","        44","6","         1"," ","","","  -15.6","6,1212,+","","","","","  54.6"," ,6,0225, ","   36.7","6,0806,+","0.0","6,1028","-2.2","6,1029","-4.4","6,1113","-8.3","6,1208","-9.4","6,1211","-1.1","6,0329","-5.0","6,0315","-5.0","6,0315","-8.9","6,0312","-8.9","6,0312","    1939.2","2","    1939.2","6","   1272.3"," ,6","","","     14.62","6","     21.14","6","      8.10","6"
"USC00319123","1935","35.77449","-83.09985","435.9","WATERVILLE 2, NC US","    681.1","","     681.1","6","       179","6","        92","6","         9","6","","","","","         0","6","        74","6","         9","6","       208","6","        32","6","         1"," ","","","  -13.9","6,1221, ","","","","","  44.2"," ,6,0312, ","   36.1","6,0812, ","0.0","6,1006","-2.2","6,1007","-6.1","6,1123","-8.9","6,1124","-8.9","6,1124","-1.7","6,0417","-5.6","6,0301","-5.6","6,0301","-12.2","6,0228","-12.2","6,0228","    1909.9","9","    1909.9","6","   1059.3"," ,6","","","     14.62","6","     20.90","6","      8.34","6"
"USC00319123","1936","35.77449","-83.09985","435.9","WATERVILLE 2, NC US","    801.8","","     801.8","6","       150","6","        95","6","        16","6","","","","","         0","6","        87","6","        11","6","       204","6","        52","6","","","","","  -16.1","6,0128,+","","","","","  66.0"," ,6,0118, ","   38.3","6,0710,+","0.0","6,1030","-3.3","6,1116","-4.4","6,1117","-8.9","6,1127","-8.9","6,1127","0.0","6,0419","-4.4","6,0404","-4.4","6,0404","-10.0","6,0219","-10.0","6,0219","    2270.3","3","    2270.3","6","   1447.5"," ,6","","","     14.68","6","     21.32","6","      8.03","6"
"USC00319123","1937","35.77449","-83.09985","435.9","WATERVILLE 2, NC US","    575.0","","     575.0","6","       190","6","       105","6","        12","6","","","","","         0","6","        79","6","         8","6","       192","6","        31","6","","","","","  -15.6","6,1211, ","","","","","  38.9"," ,6,0717, ","   34.4","6,0716,+","-1.1","6,1015","-3.3","6,1104","-5.0","6,1118","-7.2","6,1120","-11.1","6,1122","-2.8","6,0412","-2.8","6,0412","-4.4","6,0329","-6.7","6,0317","-8.9","6,0226","    1863.4","4","    1863.4","6","   1247.2"," ,6","","","     13.96","6","     20.51","6","      7.42","6"
"USC00319123","1938","35.77449","-83.09985","435.9","WATERVILLE 2, NC US","    563.8","","     563.8","6","       170","6","       113","6","        14","6","","","","","         0","6","        71","6","         4","6","       211","6","        13","6","","","","","  -12.2","6,0127, ","","","","","  45.7"," ,6,0803, ","   33.9","6,0826, ","-1.1","6,1025","-3.3","6,1109","-6.1","6,1125","-10.0","6,1128","-10.0","6,1128","-0.6","6,0411","-2.2","6,0308","-6.7","6,0301","-6.7","6,0301","-9.4","6,0128","    2078.0","0","    2078.0","6","   1415.4"," ,6","","","     14.58","6","     20.81","6","      8.35","6"
"USC00319123","1939","35.77449","-83.09985","435.9","WATERVILLE 2, NC US","    715.1","","     715.1","6","       153","6","        96","6","         6","6","","","","","         0","6","        71","6","         2","6","       196","6","        29","6","","","","","  -10.0","6,0223, ","","","","","  32.5"," ,6,0519, ","   35.0","6,0719,+","0.0","6,1015","-5.0","6,1104","-5.0","6,1104","-6.7","6,1105","","","-1.1","6,0413","-3.9","6,0319","-10.0","6,0223","-10.0","6,0223","-10.0","6,0223","    1964.1","1","    1964.1","6","    993.0"," ,6","","","     14.93","6","     20.97","6","      8.88","6"
"USC00319123","1940","35.77449","-83.09985","435.9","WATERVILLE 2, NC US","    525.3","","     525.3","6","       157","6","        89","6","        13","6","","","","","         1","6","        89","6","        17","6","       187","6","        14","6","","","","","  -17.8","6,0128, ","","","","","  62.7"," ,6,0829, ","   35.0","6,0725, ","-1.1","6,1107","-2.2","6,1109","-5.0","6,1115","-8.3","6,1116","","","-2.8","6,0413","-2.8","6,0413","-7.2","6,0326","-7.2","6,0326","-11.1","6,0203","    2459.6","6","    2459.6","6","   1161.5"," ,6","","","     13.25","6","     19.15","6","      7.35","6"
"USC00319123","1941","35.77449","-83.09985","435.9","WATERVILLE 2, NC US","    849.9","","     849.9","6","       152","6","        68","6","         8","6","","","         3","6","         0","6","        87","6","         5","6","       197","6","        55","6","","","","","  -10.0","6,0106, ","","","    76"," ,6,0313, ","  65.0"," ,6,0719, ","   36.1","6,0731, ","-2.2","6,1111","-2.2","6,1111","-5.0","6,1207","-7.2","6,1215","","","0.0","6,0330","-6.1","6,0319","-6.1","6,0319","-9.4","6,0318","-9.4","6,0318","    2148.8","8","    2148.8","6","    936.5"," ,6","      165"," ,6","     14.87","6","     20.90","6","      8.84","6"
"USC00319123","1942","35.77449","-83.09985","435.9","WATERVILLE 2, NC US","    680.5","","     680.5","6","       189","6","       112","6","        12","6","","","","","         0","6","        78","6","        14","6","       197","6","        25","6","","","","","  -16.1","6,0111, ","","","","","  44.5"," ,6,0804, ","   36.1","6,0713,+","-1.1","6,1027","-3.3","6,1127","-5.0","6,1128","-11.1","6,1214","-11.1","6,1214","-1.1","6,0402","-6.1","6,0310","-6.1","6,0310","-8.3","6,0221","-10.6","6,0220","    2054.8","8","    2054.8","6","   1494.6"," ,6","","","     14.17","6","     19.86","6","      8.48","6"
"USC00319123","1943","35.77449","-83.09985","435.9","WATERVILLE 2, NC US","    769.4","","     769.4","6","       160","6","        96","6","         9","6","","","","","         0","6","        81","6","         6","6","       194","6","        51","6","","","","","  -13.3","6,0304, ","","","","","  51.6"," ,6,0725, ","   35.0","6,0901,+","0.0","6,1017","-3.3","6,1111","-6.7","6,1112","-6.7","6,1112","-9.4","6,1216","0.0","6,0416","-3.9","6,0323","-7.8","6,0308","-7.8","6,0308","-13.3","6,0304","    2028.4","4","    2028.4","6","   1063.3"," ,6","","","     14.41","6","     20.53","6","      8.28","6"
"USC00319123","1944","35.77449","-83.09985","435.9","WATERVILLE 2, NC US","    855.0","","     855.0","6","       177","6","        95","6","         6","6","","","         4","6","         0","6","        66","6","         5","6","       199","6","        57","6","","","","","  -12.2","6,1215,+","","","    51"," ,6,1211,+","  53.3"," ,6,1020, ","   36.7","6,0727,+","0.0","6,1028","-2.2","6,1107","-7.2","6,1201","-7.2","6,1201","-10.6","6,1203","-3.3","6,0405","-3.3","6,0405","-6.1","6,0310","-12.2","6,0213","-12.2","6,0213","    2048.2","2","    2048.2","6","   1187.1"," ,6","      165"," ,6","     15.13","6","     21.20","6","      9.06","6"
"USC00319123","1945","35.77449","-83.09985","435.9","WATERVILLE 2, NC US","    970.8","","     970.8","6","       200","6","        98","6","        10","6","","","         1","6","         0","6","        47","6","         4","6","       220","6","        35","6","","","","","  -11.7","6,0202,+","","","    25"," ,6,1219, ","  65.0"," ,6,0702, ","   36.7","6,0515, ","0.0","6,1123","-3.3","6,1210","-7.2","6,1212","-7.2","6,1212","-10.0","6,1217","0.0","6,0310","-2.2","6,0301","-7.2","6,0228","-7.2","6,0228","-11.7","6,0202","    1796.0","0","    1796.0","6","   1290.5"," ,6","       58"," ,6","     16.56","6","     21.95","6","     11.17","6"
"USC00319123","1946","35.77449","-83.09985","435.9","WATERVILLE 2, NC US","    760.7","","     760.7","6","       176","6","        98","6","         9","6","","","         1","6","         0","6","        31","6","         0","6","       221","6","         3","6","","","","","   -7.2","6,0102, ","","","    38"," ,6,0124, ","  61.5"," ,6,0107, ","   32.2","6,0714,+","0.0","6,1114","-3.3","6,1202","","","","","","","-2.2","6,0221","-2.2","6,0221","-5.0","6,0128","-7.2","6,0102","","","    1529.3","3","    1529.3","6","   1254.3"," ,6","       51"," ,6","     16.64","6","     21.63","6","     11.65","6"
"USC00319123","1947","35.77449","-83.09985","435.9","WATERVILLE 2, NC US","    826.3","","     826.3","6","       193","6","        98","6","         9","6","","","","","         0","6","        65","6","         4","6","       205","6","         7","6","","","","","  -11.7","6,0208, ","","","","","  54.6"," ,6,0516, ","   35.6","6,0609, ","0.0","6,1113","-2.2","6,1127","-5.0","6,1201","","","","","0.0","6,0329","-2.2","6,0326","-6.1","6,0224","-8.3","6,0211","-10.6","6,0209","    1671.5","5","    1671.5","6","   1094.2"," ,6","","","     15.41","6","     20.51","6","     10.31","6"
"USC00319123","1948","35.77449","-83.09985","435.9","WATERVILLE 2, NC US","    788.9","","     788.9","6","       172","6","        98","6","         9","6","","","","","         0","6","        55","6","         4","6","       214","6","        48","6","","","","","  -12.8","6,0115, ","","","","","  59.9"," ,6,1128, ","   37.2","6,0828,+","-1.1","6,1019","-5.0","6,1211","-5.0","6,1211","-11.7","6,1226","-11.7","6,1226","-1.1","6,0329","-5.0","6,0313","-5.0","6,0313","-8.3","6,0126","-10.6","6,0119","    1787.1","1","    1787.1","6","   1249.3"," ,6","","","     15.59","6","     21.31","6","      9.87","6"
"USC00319123","1949","35.77449","-83.09985","435.9","WATERVILLE 2, NC US","    741.1","","     741.1","6","       183","6","       110","6","         9","6","","","","","         0","6","        46","6","         0","6","       202","6","        29","6","         1"," ","        46"," ","   -8.3","6,0316, ","","","",""," 110.2"," ,6,0616, ","   35.0","6,0811,+","0.0","6,1106","-2.2","6,1119","-5.0","6,1216","","","","","-1.1","6,0417","-8.3","6,0316","-8.3","6,0316","-8.3","6,0316","","","    1599.5","5","    1599.5","6","   1278.6"," ,6","","","     15.92","6","     21.41","6","     10.42","6"
"USC00319123","1950","35.77449","-83.09985","435.9","WATERVILLE 2, NC US","    651.9","","     651.9","6","       186","6","       104","6","        11","6","","","         4","6","         0","6","        71","6","         4","6","       210","6","        22","6","","","","","  -13.9","6,1125, ","","","   152"," ,6,1210, ","  36.8"," ,6,0511, ","   37.2","6,0624, ","0.0","6,1111","-2.2","6,1112","-11.7","6,1124","-11.7","6,1124","-11.7","6,1124","-1.1","6,0416","-2.2","6,0414","-5.0","6,0303","","","","","    1708.6","6","    1708.6","6","   1188.7"," ,6","      316"," ,6","     14.97","6","     20.50","6","      9.45","6"
"USC00319123","1951","35.77449","-83.09985","435.9","WATERVILLE 2, NC US","    843.8","","     843.8","6","       170","6","       103","6","        11","6","","","","","         0","6","        55","6","         4","6","       202","6","        33","6","","","        46"," ","  -12.2","6,0202, ","","","","","  44.5"," ,6,0628, ","   34.4","6,0718,+","-1.1","6,1103","-2.2","6,1109","-6.1","6,1120","-7.2","6,1215","-11.7","6,1216","0.0","6,0325","-2.2","6,0209","-10.6","6,0208","-10.6","6,0208","-10.6","6,0208","    1949.5","5","    1949.5","6","   1247.6"," ,6","","","     15.68","6","     21.15","6","     10.21","6"
"USC00319123","1952","35.77449","-83.09985","435.9","WATERVILLE 2, NC US","    906.6","","     906.6","6","       151","6","        83","6","         8","6","","","","","         0","6","        31","6","         1","6","       195","6","        49","6","","","         1"," ","   -9.4","6,0131, ","","","","","  50.5"," ,6,0705, ","   37.2","6,0728, ","-1.1","6,1021","-2.2","6,1030","","","","","","","-1.1","6,0308","-9.4","6,0131","-9.4","6,0131","-9.4","6,0131","-9.4","6,0131","    1593.7","7","    1593.7","6","   1029.5"," ,6","","","     16.10","6","     21.50","6","     10.71","6"
"USC00319123","1953","35.77449","-83.09985","435.9","WATERVILLE 2, NC US","    894.1","","     894.1","6","       146","6","        83","6","         4","6","","","         0","6","         0","6","        43","6","         2","6","       202","6","        43","6","","","","","  -11.7","6,1218, ","","","     0"," ,6,1231,+","  36.3"," ,6,0519, ","   33.9","6,0901,+","0.0","6,1106","-2.2","6,1107","-9.4","6,1217","-9.4","6,1217","-9.4","6,1217","0.0","6,0309","-3.9","6,0218","","","","","","","    1736.8","8","    1736.8","6","    896.1"," ,6","        0"," ,6","     16.14","6","     21.64","6","     10.64","6"
"USC00319123","1954","35.77449","-83.09985","435.9","WATERVILLE 2, NC US","","","","","       134","0","        82","0","        14","0","","","         3","0","","","","","         4","0","       192","0","        44","0","","","","","","","","","    76"," ,0,1102, ","  73.2"," ,0,0122, ","   35.0","0,0714,+","","","","","","","","","","","","","","","","","","","","","    1756.0","0","    1756.0","6","   1205.5"," ,0","      165"," ,0","","","     21.06","0","",""
"USC00319123","1955","35.77449","-83.09985","435.9","WATERVILLE 2, NC US","    652.8","","     652.8","0","       141","0","        98","0","         9","0","        0","","         3","0","         0","0","        96","0","         6","0","       208","0","        34","0","","","","","  -15.6","0,0213, ","     0"," ,0,1231,+","    25"," ,0,0129,+","  54.1"," ,0,0807, ","   35.0","0,0923,+","-1.1","0,1025","-2.8","0,1104","-5.0","0,1109","-7.8","0,1128","-9.4","0,1129","-1.1","0,0408","-4.4","0,0330","-4.4","0,0330","-7.2","0,0328","-10.0","0,0327","","","","","   1242.1"," ,0","       75"," ,0","     14.06","0","     20.77","0","      7.34","0"
"USC00319123","1956","35.77449","-83.09985","435.9","WATERVILLE 2, NC US","    577.2","","     577.2","0","       157","0","       110","0","         8","0","        0","","         0","0","         0","0","        80","0","         5","0","       194","0","        25","0","","","","","   -8.9","0,0114,+","     0"," ,0,1231,+","     0"," ,0,1231,+","  62.7"," ,0,0415, ","   35.0","0,0813, ","-2.2","0,1109","-2.2","0,1109","-6.7","0,1123","-6.7","0,1123","","","-2.8","0,0422","-2.8","0,0422","-6.1","0,0325","-7.8","0,0117","-8.9","0,0114","    2279.7","7","    2279.7","0","   1276.6"," ,0","        0"," ,0","     14.32","0","     20.61","0","      8.03","0"
"USC00319123","1957","35.77449","-83.09985","435.9","WATERVILLE 2, NC US","    646.4","","     646.4","0","       172","0","       113","0","         9","0","","","         1","0","         0","0","        69","0","         3","0","       189","0","        28","0","","","","","  -17.2","0,1212, ","","","   203"," ,0,1211, ","  80.0"," ,0,0131, ","   35.0","0,0803, ","0.0","0,1020","-2.2","0,1028","-6.1","0,1111","-13.3","0,1211","-13.3","0,1211","-2.2","0,0415","-2.2","0,0415","-4.4","0,0215","-10.6","0,0119","-10.6","0,0119","    1817.3","3","    1817.3","0","   1460.0"," ,0","      203"," ,0","     14.69","0","     20.67","0","      8.72","0"
"USC00319123","1958","35.77449","-83.09985","435.9","WATERVILLE 2, NC US","    590.4","","     590.4","0","       147","0","        98","0","         7","0","","","","","         1","0","        96","0","        15","0","       183","0","        13","0","         6"," ","        12"," ","  -17.8","0,0217, ","","","","","  58.9"," ,0,1228, ","   35.0","0,0613, ","-0.6","0,1029","-2.8","0,1129","-7.8","0,1207","-7.8","0,1207","-10.0","0,1215","0.0","0,0413","-2.2","0,0317","-10.6","0,0221","-10.6","0,0221","-10.6","0,0221","    2455.4","4","    2455.4","0","   1249.2"," ,0","","","     13.04","0","     19.01","0","      7.07","0"
"USC00319123","1959","35.77449","-83.09985","435.9","WATERVILLE 2, NC US","    695.9","","     695.9","0","       153","0","       101","0","        15","0","","","","","         0","0","        76","0","         6","0","       195","0","        26","0","","","","","  -15.0","0,0118, ","","","","","  67.3"," ,0,0930, ","   35.6","0,0630, ","-2.8","0,1107","-2.8","0,1107","-5.0","0,1117","-7.8","0,1118","-10.6","0,1130","-0.6","0,0323","-2.8","0,0319","-6.1","0,0318","-11.1","0,0221","-11.1","0,0221","    2175.1","1","    2175.1","0","   1390.5"," ,0","","","     14.43","0","     20.76","0","      8.11","0"
"USC00319123","1960","35.77449","-83.09985","435.9","WATERVILLE 2, NC US","    602.8","","     602.8","0","       158","0","       104","0","         7","0","","","","","         0","0","       107","0","        10","0","       191","0","        15","0","","","","","  -16.1","0,1222, ","","","","","  54.1"," ,0,0812, ","   34.4","0,0906, ","-1.1","0,1025","-3.9","0,1108","-7.2","0,1201","-7.2","0,1201","-10.6","0,1213","-2.8","0,0411","-2.8","0,0411","-6.7","0,0410","-6.7","0,0410","-9.4","0,0314","    2350.1","1","    2350.1","0","   1175.5"," ,0","","","     13.19","0","     19.46","0","      6.92","0"
"USC00319123","1961","35.77449","-83.09985","435.9","WATERVILLE 2, NC US","","","","","       159","0","       103","0","        12","0","","","","","","","","","","","","","","","","","","","","","","","","","  72.4"," ,0,1003, ","","","","","","","","","","","","","","","","","","","","","","","    2152.4","4","    2152.4","0","   1315.2"," ,0","","","","","","","",""
"USC00319123","1962","35.77449","-83.09985","435.9","WATERVILLE 2, NC US","    616.3","","     616.3","0","       147","0","       101","0","        11","0","","","","","         3","0","        85","0","         7","0","       189","0","        23","0","","","","","  -22.8","0,1213, ","","","","","  55.4"," ,0,0626, ","   33.9","0,0831,+","-1.7","0,1024","-2.8","0,1026","-4.4","0,1027","-6.7","0,1209","-14.4","0,1211","-0.6","0,0421","-2.2","0,0417","-4.4","0,0318","-11.1","0,0207","-11.1","0,0207","","","","","   1239.1"," ,0","","","     13.81","0","     20.16","0","      7.46","0"
"USC00319123","1963","35.77449","-83.09985","435.9","WATERVILLE 2, NC US","    472.7","","     472.7","0","       129","0","        85","0","        12","0","","","","","         1","0","        99","0","         7","0","       202","0","         7","0","","","","","  -21.1","0,0124, ","","","","","  77.5"," ,0,0305, ","   33.9","0,0806,+","0.0","0,1031","-2.8","0,1103","-6.7","0,1214","-6.7","0,1214","-10.6","0,1215","-0.6","0,0502","-3.3","0,0323","-8.3","0,0228","-8.3","0,0228","-13.9","0,0227","    2410.6","6","    2410.6","0","   1126.5"," ,0","","","     13.16","0","     19.79","0","      6.53","0"
"USC00319123","1964","35.77449","-83.09985","435.9","WATERVILLE 2, NC US","    676.7","","     676.7","0","       154","0","        99","0","         9","0","","","         0","0","         0","0","        73","0","         0","0","       183","0","        13","0","","","","","  -12.2","0,0115, ","","","     0","T,0,1130,+"," 118.1"," ,0,0830, ","   33.9","0,0622,+","0.0","0,1011","-2.8","0,1121","-6.1","0,1122","-10.0","0,1201","-10.0","0,1201","0.0","0,0410","-2.2","0,0401","-5.0","0,0331","-8.3","0,0223","-10.0","0,0116","    2146.8","8","    2146.8","0","   1370.6"," ,0","        0","T,0","     14.47","0","     20.46","0","      8.49","0"
"USC00319123","1965","35.77449","-83.09985","435.9","WATERVILLE 2, NC US","    789.3","","     789.3","0","       136","0","        95","0","        11","0","","","         0","0","         0","0","        91","0","         2","0","       191","0","         6","0","","","","","  -12.8","0,0203, ","","","     0"," ,0,1231,+","  55.4"," ,0,0326, ","   33.3","0,0525, ","-1.7","0,1025","-2.2","0,1029","-5.0","0,1118","-6.7","0,1130","","","-2.2","0,0430","-2.2","0,0430","-6.7","0,0322","-6.7","0,0322","-10.0","0,0321","    1997.2","2","    1997.2","0","   1067.4"," ,0","        0"," ,0","     14.72","0","     20.53","0","      8.90","0"
"USC00319123","1966","35.77449","-83.09985","435.9","WATERVILLE 2, NC US","    497.5","","     497.5","0","       160","0","       100","0","        13","0","","","","","         2","0","        89","0","         6","0","       179","0","        17","0","","","","","  -20.6","0,0130, ","","","","","  60.2"," ,0,0213, ","   35.0","0,0728,+","-3.3","0,1011","-3.3","0,1011","-5.0","0,1104","-11.7","0,1225","-11.7","0,1225","0.0","0,0411","-2.2","0,0410","-6.1","0,0329","-6.7","0,0325","-10.6","0,0205","    2296.7","7","    2296.7","0","   1289.0"," ,0","","","     13.23","0","     19.50","0","      6.97","0"
"USC00319123","1967","35.77449","-83.09985","435.9","WATERVILLE 2, NC US","    365.4","","     365.4","0","       140","0","       103","0","        13","0","        0","","         0","0","         0","0","        96","0","         2","0","       198","0","         4","0","","","","","  -16.1","0,0225, ","     0"," ,0,1231,+","     0","T,0,0317, ","  43.7"," ,0,0604, ","   33.3","0,0614, ","0.0","0,1026","-3.9","0,1106","-6.7","0,1107","-6.7","0,1107","","","0.0","0,0428","-2.8","0,0320","-8.9","0,0318","-8.9","0,0318","-8.9","0,0318","    2126.6","6","    2126.6","0","   1253.9"," ,0","        0","T,0","     13.35","0","     19.95","0","      6.75","0"
"USC00319123","1968","35.77449","-83.09985","435.9","WATERVILLE 2, NC US","    572.1","","     572.1","0","       143","0","        85","0","         5","0","","","         0","0","         0","0","       114","0","         4","0","       197","0","        31","0","","","","","  -13.9","0,0222, ","","","     0"," ,0,1231,+","  45.5"," ,0,0603, ","   35.0","0,0823,+","0.0","0,1026","-2.2","0,1030","-5.0","0,1120","-6.7","0,1121","-10.0","0,1209","-1.1","0,0326","-3.3","0,0325","-6.1","0,0314","-6.7","0,0304","-9.4","0,0226","    2373.0","0","    2373.0","0","    944.5"," ,0","        0"," ,0","     13.21","0","     19.91","0","      6.51","0"
"USC00319123","1969","35.77449","-83.09985","435.9","WATERVILLE 2, NC US","    573.7","","     573.7","0","       153","0","       103","0","         7","0","","","","","         0","0","       112","0","         3","0","       185","0","        24","0","","","","","  -15.0","0,0105, ","","","","","  51.8"," ,0,0712, ","   34.4","0,0704,+","0.0","0,1018","-6.7","0,1114","-6.7","0,1114","-6.7","0,1114","-12.8","0,1115","0.0","0,0402","-2.8","0,0331","-8.3","0,0312","-8.3","0,0312","-8.9","0,0214","    2412.9","9","    2412.9","0","   1184.5"," ,0","","","     13.07","0","     19.28","0","      6.86","0"
"USC00319123","1970","35.77449","-83.09985","435.9","WATERVILLE 2, NC US","","","","","","","","","","","","","","","","","","","","","","","","","","","","","","","","","","","","","","","","","","","","","","","","","","","","","","","","","","","    2420.6","6","    2420.6","0","","","","","","","","","",""
"USC00319123","1971","35.77449","-83.09985","435.9","WATERVILLE 2, NC US","    547.4","","     547.4","0","       161","0","       105","0","        12","0","","","","","         0","0","        84","0","         4","0","       197","0","         9","0","","","","","  -15.0","0,0210, ","","","","","  75.9"," ,0,0719, ","   33.3","0,0628, ","0.0","0,1104","-2.8","0,1107","-5.0","0,1108","","","","","-0.6","0,0504","-2.2","0,0403","-4.4","0,0308","-6.7","0,0306","-11.1","0,0214","","","","","   1430.3"," ,0","","","     14.01","0","     20.46","0","      7.57","0"
"USC00319123","1972","35.77449","-83.09985","435.9","WATERVILLE 2, NC US","    420.6","","     420.6","0","       173","0","       117","0","         8","0","","","","","         1","0","        89","0","         3","0","       180","0","         4","0","","","","","  -17.8","0,0116, ","","","","","  94.0"," ,0,0412, ","   33.9","0,0723,+","-0.6","0,1019","-2.2","0,1116","-4.4","0,1124","-7.8","0,1216","-10.6","0,1217","-0.6","0,0426","-4.4","0,0409","-4.4","0,0409","-6.7","0,0221","-10.6","0,0205","    2024.3","3","    2024.3","0","   1531.1"," ,0","","","     13.49","0","     19.80","0","      7.19","0"
"USC00319123","1973","35.77449","-83.09985","435.9","WATERVILLE 2, NC US","    527.4","","     527.4","0","       132","0","        94","0","        12","0","","","","","         0","0","        82","0","         9","0","       202","0","         5","0","","","","","  -12.2","0,0112, ","","","","","  93.5"," ,0,0316, ","   32.8","0,0702, ","0.0","0,1018","-5.6","0,1110","-5.6","0,1110","-7.2","0,1211","-10.0","0,1218","-1.7","0,0414","-2.2","0,0322","-7.8","0,0219","-7.8","0,0219","-10.0","0,0218","    1954.2","2","    1954.2","0","   1249.8"," ,0","","","     14.00","0","     20.25","0","      7.76","0"
"USC00319123","1974","35.77449","-83.09985","435.9","WATERVILLE 2, NC US","    428.2","","     428.2","0","       164","0","       111","0","        14","0","","","","","         0","0","        75","0","         0","0","       189","0","         4","0","","","","","  -10.6","0,0226, ","","","","","  35.3"," ,0,0321, ","   32.8","0,0826,+","-1.7","0,1003","-2.8","0,1021","-4.4","0,1126","-7.2","0,1210","","","-0.6","0,0425","-2.2","0,0314","-7.8","0,0227","-7.8","0,0227","-10.6","0,0226","    1797.8","8","    1797.8","0","   1403.1"," ,0","","","     14.06","0","     20.46","0","      7.66","0"
"USC00319123","1975","35.77449","-83.09985","435.9","WATERVILLE 2, NC US","    585.8","","     585.8","0","       135","0","        97","0","        12","0","","","","","         0","0","        86","0","         2","0","       194","0","        22","0","","","","","  -13.3","0,1219, ","","","","","  54.6"," ,0,0704, ","   37.2","0,0905, ","0.0","0,1113","-3.9","0,1115","-10.6","0,1218","-10.6","0,1218","-10.6","0,1218","-1.1","0,0413","-2.8","0,0407","-6.7","0,0309","-6.7","0,0309","-8.9","0,0304","    2109.7","7","    2109.7","0","   1200.8"," ,0","","","     14.33","0","     20.83","0","      7.83","0"
"USC00319123","1976","35.77449","-83.09985","435.9","WATERVILLE 2, NC US","    419.0","","     419.0","0","       137","0","        94","0","         8","0","","","","","         0","0","       109","0","         3","0","       186","0","        13","0","","","","","  -13.3","0,0118, ","","","","","  52.1"," ,0,0528, ","   34.4","0,0825, ","0.0","0,1018","-3.3","0,1028","-4.4","0,1106","-6.7","0,1129","-8.9","0,1130","0.0","0,0428","-2.2","0,0318","-6.7","0,0209","-6.7","0,0209","-12.2","0,0120","    2099.9","9","    2099.9","0","   1180.8"," ,0","","","     12.84","0","     19.65","0","      6.03","0"
"USC00319123","1977","35.77449","-83.09985","435.9","WATERVILLE 2, NC US","    640.0","","     640.0","0","       156","0","       102","0","         9","0","","","","","         1","0","        91","0","        15","0","       196","0","        24","0","","","","","  -22.8","0,0117, ","","","","","  63.5"," ,0,0907, ","   35.6","0,0719,+","0.0","0,1015","-3.3","0,1112","-6.1","0,1113","-6.7","0,1126","-9.4","0,1206","0.0","0,0409","-3.3","0,0323","-4.4","0,0302","-6.7","0,0218","-8.9","0,0217","    2562.5","5","    2562.5","0","   1278.1"," ,0","","","     13.73","0","     20.13","0","      7.34","0"
"USC00319123","1978","35.77449","-83.09985","435.9","WATERVILLE 2, NC US","    707.3","","     707.3","0","       140","0","        87","0","        10","0","","","","","         0","0","        81","0","        10","0","       190","0","        30","0","","","","","  -15.0","0,0305,+","","","","","  50.8"," ,0,0803, ","   35.0","0,0628, ","-1.1","0,1201","-2.2","0,1209","-5.6","0,1210","","","","","-0.6","0,0422","-2.2","0,0319","-4.4","0,0307","-10.0","0,0306","-10.0","0,0306","    2298.2","2","    2298.2","0","   1108.8"," ,0","","","     13.82","0","     19.71","0","      7.94","0"
"USC00319123","1979","35.77449","-83.09985","435.9","WATERVILLE 2, NC US","    480.4","","     480.4","0","       149","0","       105","0","        11","0","","","","","         0","0","        79","0","         3","0","       183","0","         4","0","","","","","  -16.7","0,0202, ","","","","","  55.4"," ,0,0720, ","   33.3","0,0809, ","-1.1","0,1014","-2.8","0,1115","-6.1","0,1130","-7.8","0,1203","","","-1.1","0,0327","-2.2","0,0326","-6.7","0,0220","-6.7","0,0220","-10.6","0,0211","    2124.6","6","    2124.6","0","   1381.6"," ,0","","","     13.41","0","     18.93","0","      7.89","0"
"USC00319123","1980","35.77449","-83.09985","435.9","WATERVILLE 2, NC US","    713.4","","     713.4","0","       132","0","        85","0","         8","0","","","","","         0","0","        68","0","         9","0","       171","0","        30","0","","","","","  -13.3","0,0303, ","","","","","  59.2"," ,0,0703, ","   37.8","0,0717, ","-2.8","0,1112","-2.8","0,1112","-4.4","0,1120","-8.3","0,1221","","","-0.6","0,0318","-3.3","0,0315","-13.3","0,0303","-13.3","0,0303","-13.3","0,0303","    2177.4","4","    2177.4","0","   1103.4"," ,0","","","     13.95","0","     19.42","0","      8.47","0"
"USC00319123","1981","35.77449","-83.09985","435.9","WATERVILLE 2, NC US","    580.6","","     580.6","0","       144","0","        94","0","         8","0","","","","","         0","0","        84","0","        11","0","       164","0","        17","0","","","","","  -16.1","0,0212, ","","","","","  51.3"," ,0,0915, ","   34.4","0,0625, ","-0.6","0,1024","-5.0","0,1122","-5.0","0,1122","-7.2","0,1211","-12.2","0,1219","-1.1","0,0325","-2.8","0,0321","-5.6","0,0309","-9.4","0,0213","-9.4","0,0213","    2381.0","0","    2381.0","0","   1159.6"," ,0","","","     13.18","0","     18.74","0","      7.61","0"
"USC00319123","1982","35.77449","-83.09985","435.9","WATERVILLE 2, NC US","    636.6","","     636.6","0","       162","0","        95","0","        12","0","","","","","         3","0","        63","0","         7","0","       187","0","        24","0","","","","","  -19.4","0,0117, ","","","","","  74.7"," ,0,1010, ","   35.6","0,0722, ","0.0","0,1104","-2.2","0,1105","-6.7","0,1212","-6.7","0,1212","","","0.0","0,0423","-2.8","0,0407","-5.0","0,0328","-7.2","0,0207","-9.4","0,0127","    2237.4","4","    2237.4","0","   1284.1"," ,0","","","     14.46","0","     20.09","0","      8.83","0"
"USC00319123","1983","35.77449","-83.09985","435.9","WATERVILLE 2, NC US","    667.1","","     667.1","0","       143","0","        93","0","        11","0","","","","","         0","0","        81","0","         9","0","       176","0","        38","0","","","","","  -16.7","0,1225, ","","","","","  57.9"," ,0,0405, ","   36.7","0,0821,+","0.0","0,1105","-2.2","0,1114","-15.6","0,1224","-15.6","0,1224","-15.6","0,1224","-2.2","0,0421","-2.2","0,0421","-7.8","0,0208","-7.8","0,0208","-11.1","0,0119","    2089.2","2","    2089.2","0","   1222.0"," ,0","","","     13.63","0","     19.26","0","      8.00","0"
"USC00319123","1984","35.77449","-83.09985","435.9","WATERVILLE 2, NC US","","","","","       158","0","       100","0","        11","0","","","         0","0","","","","","         7","0","       182","0","        26","0","","","","","","","","","     0"," ,0,1231,+","  53.8"," ,0,0507, ","   35.0","0,0725, ","","","","","","","","","","","","","","","","","","","","","    2362.6","6","    2362.6","0","   1253.2"," ,0","        0"," ,0","","","     19.82","0","",""
"USC00319123","1985","35.77449","-83.09985","435.9","WATERVILLE 2, NC US","","","","","       145","0","        90","0","         6","0","","","","","","","","","        10","0","       208","0","        27","0","","","","","","","","","","","  47.5"," ,0,0201, ","   35.6","0,0718, ","","","","","","","","","","","","","","","","","","","","","","","","","    966.1"," ,0","","","","","     20.32","0","",""
"USC00319123","1986","35.77449","-83.09985","435.9","WATERVILLE 2, NC US","    681.1","","     681.1","0","       133","0","        73","0","         6","0","","","         0","0","         1","0","        74","0","         4","0","       201","0","        25","0","","","","","  -19.4","0,0128, ","","","     0"," ,0,1231,+","  69.1"," ,0,0710, ","   34.4","0,0727,+","-5.0","0,1113","-5.0","0,1113","-5.0","0,1113","-7.8","0,1114","","","-1.1","0,0424","-3.9","0,0323","-7.2","0,0322","-7.2","0,0322","-9.4","0,0301","","","","","    882.7"," ,0","        0"," ,0","     14.63","0","     20.80","0","      8.46","0"
"USC00319123","1987","35.77449","-83.09985","435.9","WATERVILLE 2, NC US","    653.7","","     653.7","0","       154","0","        89","0","         5","0","","","","","         0","0","        83","0","         2","0","       188","0","        21","0","","","","","  -12.8","0,0126, ","","","","","  43.9"," ,0,0616,+","   35.0","0,0803, ","-0.6","0,1004","-2.8","0,1022","-6.1","0,1112","-7.2","0,1218","","","-0.6","0,0409","-3.3","0,0404","-6.1","0,0401","-8.9","0,0210","-8.9","0,0210","    1962.2","2","    1962.2","0","   1046.2"," ,0","","","     14.14","0","     20.26","0","      8.02","0"
"USC00319123","1988","35.77449","-83.09985","435.9","WATERVILLE 2, NC US","    585.7","","     585.7","0","       134","0","        80","0","         8","0","","","","","         0","0","        97","0","        13","0","       179","0","        29","0","","","","","  -12.2","0,0207, ","","","","","  47.8"," ,0,0803, ","   36.7","0,0818, ","-1.7","0,1013","-3.3","0,1129","-4.4","0,1205","-8.3","0,1212","","","-1.1","0,0420","-6.7","0,0317","-6.7","0,0317","-6.7","0,0317","-8.9","0,0213","    2289.5","5","    2289.5","0","   1023.1"," ,0","","","     13.38","0","     19.80","0","      6.96","0"
"USC00319123","1989","35.77449","-83.09985","435.9","WATERVILLE 2, NC US","    520.0","","     520.0","0","       166","0","       112","0","        12","0","","","","","         2","0","        75","0","        12","0","       187","0","         7","0","","","","","  -18.9","0,1224, ","","","","","  68.6"," ,0,0922, ","   32.8","0,0726,+","-1.1","0,1104","-3.3","0,1117","-5.0","0,1123","-8.9","0,1204","-8.9","0,1204","-0.6","0,0508","-2.2","0,0310","-13.3","0,0225","-13.3","0,0225","-13.3","0,0225","    2175.3","3","    2175.3","0","   1466.9"," ,0","","","     13.50","0","     19.30","0","      7.70","0"
"USC00319123","1990","35.77449","-83.09985","435.9","WATERVILLE 2, NC US","    599.4","","     599.4","0","       146","0","        98","0","        11","0","        0","","         0","0","         0","0","        62","0","         1","0","       204","0","        13","0","","","","","   -8.9","0,1225, ","     0"," ,0,1231,+","     0"," ,0,1231,+","  61.5"," ,0,0316, ","   34.4","0,0907,+","-0.6","0,1027","-4.4","0,1130","-4.4","0,1130","-7.2","0,1224","-8.9","0,1225","0.0","0,0418","-3.3","0,0408","-6.7","0,0226","-6.7","0,0226","","","    2090.1","1","    2090.1","0","   1176.0"," ,0","        0"," ,0","     15.13","0","     21.35","0","      8.91","0"
"USC00319123","1991","35.77449","-83.09985","435.9","WATERVILLE 2, NC US","    659.8","","     659.8","0","       149","0","       102","0","        16","0","        0","","         0","0","         0","0","        74","0","         3","0","       204","0","        10","0","","","","","  -14.4","0,0216, ","     0"," ,0,1231,+","     0"," ,0,1231,+","  67.6"," ,0,0329, ","   33.3","0,0712, ","-0.6","0,1007","-4.4","0,1104","-4.4","0,1104","-7.2","0,1105","","","-1.1","0,0331","-4.4","0,0311","-4.4","0,0311","-7.8","0,0217","-14.4","0,0216","    1830.7","7","    1830.7","0","   1393.3"," ,0","        0"," ,0","     14.73","0","     20.62","0","      8.84","0"
"USC00319123","1992","35.77449","-83.09985","435.9","WATERVILLE 2, NC US","    437.8","","     437.8","0","       171","0","       122","0","        16","0","        0","","         0","0","         0","0","        83","0","         1","0","       172","0","         3","0","","","","","  -12.2","0,0116, ","     0"," ,0,1231,+","     0","T,0,0124, ","  71.4"," ,0,0922, ","   33.3","0,0708, ","-1.1","0,1020","-2.8","0,1114","-4.4","0,1116","","","","","0.0","0,0407","-2.8","0,0403","-4.4","0,0314","-8.3","0,0209","-8.9","0,0120","    2161.4","4","    2161.4","0","   1516.8"," ,0","        0","T,0","     13.44","0","     19.21","0","      7.66","0"
"USC00319123","1993","35.77449","-83.09985","435.9","WATERVILLE 2, NC US","    642.7","","     642.7","0","       134","0","        95","0","         9","0","","","         3","0","         0","0","        85","0","         4","0","       184","0","        29","0","","","","","  -14.4","0,0315, ","","","   533"," ,0,0313, ","  56.9"," ,0,0614, ","   35.0","0,0724,+","0.0","0,1031","-2.8","0,1102","-6.1","0,1212","-6.7","0,1225","","","-1.1","0,0423","-14.4","0,0315","-14.4","0,0315","-14.4","0,0315","-14.4","0,0315","    2141.5","5","    2141.5","0","   1158.3"," ,0","      660"," ,0","     13.95","0","     20.00","0","      7.91","0"
"USC00319123","1994","35.77449","-83.09985","435.9","WATERVILLE 2, NC US","    469.2","","     469.2","0","       150","0","       103","0","        11","0","","","         0","0","         1","0","        74","0","         5","0","       197","0","         2","0","","","","","  -20.0","0,0119, ","","","     0"," ,0,1231,+"," 101.1"," ,0,0327, ","   32.8","0,0616, ","-0.6","0,1027","-3.9","0,1124","-4.4","0,1212","","","","","-1.7","0,0408","-2.8","0,0312","-8.9","0,0227","-8.9","0,0227","-8.9","0,0227","    2252.3","3","    2252.3","0","   1481.5"," ,0","        0"," ,0","     13.91","0","     20.03","0","      7.78","0"
"USC00319123","1995","35.77449","-83.09985","435.9","WATERVILLE 2, NC US","    621.7","","     621.7","0","       129","0","        97","0","        16","0","","","         2","0","         1","0","        88","0","         9","0","       193","0","        31","0","","","","","  -18.3","0,0209, ","","","   102"," ,0,0208,+","  63.5"," ,0,0308, ","   35.0","0,0818, ","-2.2","0,1104","-2.2","0,1104","-6.1","0,1116","-7.8","0,1209","-12.8","0,1210","0.0","0,0425","-5.6","0,0310","-5.6","0,0310","-8.9","0,0213","-8.9","0,0213","    1976.9","9","    1976.9","0","   1342.1"," ,0","      204"," ,0","     13.87","0","     19.92","0","      7.81","0"
"USC00319123","1996","35.77449","-83.09985","435.9","WATERVILLE 2, NC US","    526.6","","     526.6","0","       158","0","       111","0","         8","0","","","         2","0","         2","0","        98","0","        10","0","       187","0","         4","0","","","","","  -20.6","0,0205, ","","","    51"," ,0,0202, ","  92.7"," ,0,0126, ","   33.9","0,0623, ","-1.1","0,1020","-3.3","0,1103","-4.4","0,1112","-8.3","0,1219","-10.6","0,1220","-2.2","0,0411","-2.2","0,0411","-5.6","0,0312","-11.1","0,0310","-11.1","0,0310","    2417.8","8","    2417.8","0","   1395.4"," ,0","      122"," ,0","     13.40","0","     19.54","0","      7.27","0"
"USC00319123","1997","35.77449","-83.09985","435.9","WATERVILLE 2, NC US","    503.8","","     503.8","0","       140","0","       101","0","        11","0","        7","","         3","0","         0","0","        73","0","        10","0","       174","0","        16","0","","","         1"," ","  -13.3","0,0117, ","   178"," ,0,1231, ","   127"," ,0,1230,+","  84.1"," ,0,0924, ","   33.3","0,0817,+","-0.6","0,1023","-2.2","0,1116","-4.4","0,1117","","","","","-0.6","0,0415","-2.8","0,0410","-4.4","0,0316","-7.2","0,0119","-8.9","0,0118","    2123.3","3","    2123.3","0","   1389.8"," ,0","      318"," ,0","     13.67","0","     19.62","0","      7.72","0"
"USC00319123","1998","35.77449","-83.09985","435.9","WATERVILLE 2, NC US","    746.1","","     746.1","0","       141","0","       104","0","         9","0","","","         1","0","         0","0","        58","0","         0","0","       200","0","        30","0","","","","","  -12.2","0,0101, ","","","    51"," ,0,0311, ","  59.2"," ,0,0605, ","   35.6","0,0913, ","-1.1","0,1023","-2.2","0,1107","-4.4","0,1230","","","","","0.0","0,0406","-2.2","0,0315","-9.4","0,0313","-9.4","0,0313","-9.4","0,0313","    2076.1","1","    2076.1","0","   1263.9"," ,0","       51"," ,0","     15.18","0","     21.12","0","      9.24","0"
"USC00319123","1999","35.77449","-83.09985","435.9","WATERVILLE 2, NC US","    602.1","","     602.1","0","       123","0","        94","0","        12","0","        0","","         1","0","         0","0","        77","0","         4","0","       209","0","        19","0","","","","","  -10.6","0,0106,+","     0"," ,0,1231,+","   102"," ,0,0326, ","  45.2"," ,0,0616, ","   35.6","0,0731, ","-1.1","0,1025","-2.8","0,1104","-6.1","0,1201","-7.2","0,1225","","","-1.7","0,0328","-2.2","0,0316","-5.6","0,0312","-6.7","0,0222","-10.6","0,0106","    1822.6","6","    1822.6","0","   1196.4"," ,0","      102"," ,0","     14.61","0","     21.03","0","      8.20","0"
"USC00319123","2000","35.77449","-83.09985","435.9","WATERVILLE 2, NC US","    560.1","","     560.1","0","       136","0","        98","0","        11","0","","","         4","0","         0","0","        86","0","        11","0","       205","0","        11","0","","","","","  -13.9","0,0127, ","","","    76"," ,0,1219, ","  67.1"," ,0,0629, ","   33.9","0,0614, ","0.0","0,1009","-2.2","0,1120","-5.6","0,1122","-7.8","0,1217","-9.4","0,1218","0.0","0,0410","-2.8","0,0313","-7.2","0,0206","-7.2","0,0206","-8.9","0,0128","    1977.6","6","    1977.6","0","   1311.6"," ,0","      203"," ,0","     13.87","0","     20.07","0","      7.68","0"
"USC00319123","2001","35.77449","-83.09985","435.9","WATERVILLE 2, NC US","    529.1","","     529.1","0","       117","0","        99","0","        12","0","","","         1","0","         0","0","        74","0","         5","0","       196","0","         1","0","","","","","  -13.3","0,0103, ","","","    46"," ,0,0101, ","  67.6"," ,0,0729, ","   32.2","0,0807, ","-0.6","0,1018","-2.2","0,1028","-6.1","0,1225","-8.3","0,1226","","","-1.1","0,0419","-3.3","0,0328","-5.6","0,0327","-6.7","0,0203","-10.0","0,0110","    2270.7","7","    2270.7","0","   1157.4"," ,0","       59"," ,0","     14.12","0","     20.38","0","      7.86","0"
"USC00319123","2002","35.77449","-83.09985","435.9","WATERVILLE 2, NC US","    777.0","","     777.0","0","       133","0","        96","0","        11","0","        0","","         0","0","         0","0","        89","0","         4","0","       196","0","        35","0","","","","","  -11.1","0,0101, ","     0","T,0,0304, ","     0","T,0,0304, ","  68.8"," ,0,0317, ","   34.4","0,0805,+","0.0","0,1102","-2.2","0,1118","-5.0","0,1128","","","","","-1.7","0,0406","-5.6","0,0323","-5.6","0,0323","-10.0","0,0305","-10.0","0,0305","    1951.3","3","    1951.3","0","   1239.6"," ,0","        0","T,0","     14.86","0","     20.99","0","      8.72","0"
"USC00319123","2003","35.77449","-83.09985","435.9","WATERVILLE 2, NC US","    507.9","","     507.9","0","       147","0","       114","0","        21","0","","","         4","0","         0","0","        75","0","         8","0","       196","0","         2","0","","","","","  -14.4","0,0124, ","","","   140"," ,0,0123, ","  74.4"," ,0,0505, ","   32.8","0,0826, ","-2.8","0,1114","-2.8","0,1114","-4.4","0,1130","-7.2","0,1220","","","-0.6","0,0401","-2.8","0,0213","-7.2","0,0209","-7.2","0,0209","-8.9","0,0208","    2041.9","9","    2041.9","0","   1630.1"," ,0","      407"," ,0","     14.05","0","     19.85","0","      8.25","0"
"USC00319123","2004","35.77449","-83.09985","435.9","WATERVILLE 2, NC US","    556.3","","     556.3","0","       146","0","       113","0","        16","0","","","","","         0","0","        80","0","         7","0","       209","0","         0","0","","","","","  -13.3","0,1220, ","","","","","  65.3"," ,0,0916, ","   31.7","0,0828,+","-0.6","0,1109","-2.2","0,1126","-4.4","0,1214","-10.0","0,1219","-10.0","0,1219","-1.1","0,0406","-5.0","0,0323","-5.0","0,0323","-8.9","0,0131","-8.9","0,0131","    2077.5","5","    2077.5","0","   1488.5"," ,0","","","     14.39","0","     20.10","0","      8.68","0"
"USC00319123","2005","35.77449","-83.09985","435.9","WATERVILLE 2, NC US","    647.4","","     647.4","0","       133","0","       101","0","         9","0","        2","","         0","0","         0","0","        67","0","         3","0","       197","0","        21","0","","","","","  -12.8","0,0124, ","    25"," ,0,0301,+","     0"," ,0,1231,+","  46.2"," ,0,0520, ","   34.4","0,0726, ","-1.1","0,1029","-3.3","0,1117","-5.6","0,1118","-8.3","0,1221","","","-0.6","0,0319","-2.2","0,0315","-5.0","0,0302","-12.8","0,0124","-12.8","0,0124","    1952.1","1","    1952.1","0","   1117.0"," ,0","        0"," ,0","     14.44","0","     20.46","0","      8.42","0"
"USC00319123","2006","35.77449","-83.09985","435.9","WATERVILLE 2, NC US","    592.6","","     592.6","0","       143","0","       106","0","        12","0","        4","","         2","0","         0","0","        78","0","         2","0","       192","0","        19","0","","","","","  -10.6","0,1208, ","   127"," ,0,0212, ","    76"," ,0,0212,+","  96.8"," ,0,0705, ","   34.4","0,0719,+","-0.6","0,1014","-2.2","0,1025","-4.4","0,1204","-7.2","0,1207","-10.6","0,1208","-2.2","0,0327","-2.2","0,0327","-5.6","0,0227","-8.3","0,0214","","","    1941.2","2","    1941.2","0","   1525.5"," ,0","      165"," ,0","     14.47","0","     20.59","0","      8.35","0"
"USC00319123","2007","35.77449","-83.09985","435.9","WATERVILLE 2, NC US","    762.7","","     762.7","0","       114","0","        79","0","         8","0","        2","","         1","0","         0","0","        80","0","         2","0","       209","0","        36","0","","","","","  -12.8","0,0129, ","    76"," ,0,0217, ","    84"," ,0,0217, ","  40.1"," ,0,0523, ","   37.2","0,0816, ","-0.6","0,1104","-2.2","0,1107","-4.4","0,1217","-6.7","0,1218","","","-1.7","0,0410","-2.8","0,0409","-5.6","0,0408","-7.8","0,0219","-8.9","0,0216","    2030.5","5","    2030.5","0","    899.0"," ,0","       84"," ,0","     15.11","0","     21.64","0","      8.58","0"
"USC00319123","2008","35.77449","-83.09985","435.9","WATERVILLE 2, NC US","    617.3","","     617.3","0","       128","0","        92","0","        13","0","        0","","         0","0","         0","0","        83","0","         4","0","       191","0","        28","0","","","","","  -12.2","0,0103, ","     0"," ,0,1231,+","     0"," ,0,1231,+","  63.2"," ,0,0826, ","   35.6","0,0721, ","-1.1","0,1030","-2.8","0,1117","-4.4","0,1118","-6.7","0,1119","-9.4","0,1122","0.0","0,0416","-3.3","0,0325","-4.4","0,0309","-8.3","0,0228","-10.0","0,0125","    1970.3","3","    1970.3","0","   1257.1"," ,0","        0"," ,0","     14.21","0","     20.50","0","      7.91","0"
"USC00319123","2009","35.77449","-83.09985","435.9","WATERVILLE 2, NC US","    523.7","","     523.7","0","       161","0","       125","0","        17","0","        0","","         1","0","         0","0","        72","0","         5","0","       183","0","         1","0","         2"," ","         9"," ","  -14.4","0,0121, ","     0","T,0,0204,+","    25"," ,0,0203, ","  51.6"," ,0,1110, ","   33.3","0,0426, ","-0.6","0,1019","-2.2","0,1205","-5.0","0,1206","-7.2","0,1211","","","-0.6","0,0407","-2.2","0,0305","-4.4","0,0304","-10.6","0,0303","-10.6","0,0303","    2102.5","5","    2102.5","0","   1719.7"," ,0","       25"," ,0","     13.91","0","     19.65","0","      8.18","0"
"USC00319123","2010","35.77449","-83.09985","435.9","WATERVILLE 2, NC US","    820.5","","     820.5","0","       143","0","       115","0","        16","0","        0","","         1","0","         0","0","        91","0","        23","0","       193","0","        43","0","","","","","  -13.9","0,1215, ","     0","T,0,0129, ","    25"," ,0,0129, ","  57.2"," ,0,0911, ","   35.0","0,0810,+","-0.6","0,1106","-2.2","0,1107","-5.0","0,1118","-6.7","0,1207","-10.0","0,1208","-1.1","0,0308","-3.9","0,0307","-4.4","0,0306","-6.7","0,0216","-10.0","0,0113","    2311.2","2","    2311.2","0","   1507.3"," ,0","       25"," ,0","     13.83","0","     19.72","0","      7.93","0"
"USC00319123","2011","35.77449","-83.09985","435.9","WATERVILLE 2, NC US","    752.9","","     752.9","7","       146","7","       102","7","        13","7","        6","","         3","7","         0","7","        73","7","         4","7","       194","7","        38","7","","","         2"," ","  -14.4","7,0109, ","   102"," ,7,0111,+","   109"," ,7,0110, ","  60.2"," ,7,0905, ","   34.4","7,0903, ","-0.6","7,1030","-2.8","7,1118","","","","","","","0.0","7,0406","-3.3","7,0213","-4.4","7,0212","-7.2","7,0211","-11.7","7,0114","    2216.8","8","    2216.8","7","   1503.2"," ,7","      172"," ,7","     14.96","7","     21.12","7","      8.81","7"
"USC00319123","2012","35.77449","-83.09985","435.9","WATERVILLE 2, NC US","    676.0","","     676.0","7","       149","7","       110","7","        10","7","        0","","         1","7","         0","7","        57","7","         2","7","       208","7","        24","7","","","         1"," ","   -8.9","7,0104, ","     0","T,7,1229,+","    30"," ,7,0211, ","  63.0"," ,7,0810, ","   39.4","7,0630, ","-1.1","7,1109","-2.2","7,1124","-4.4","7,1125","","","","","-1.1","7,0412","-2.8","7,0306","-8.3","7,0213","-8.3","7,0213","-8.9","7,0104","    1672.0","0","    1672.0","7","   1453.4"," ,7","       33"," ,7","     15.34","7","     21.46","7","      9.22","7"
"USC00319123","2013","35.77449","-83.09985","435.9","WATERVILLE 2, NC US","    567.8","","     567.8","7","       164","7","       120","7","        19","7","        7","","         4","7","         0","7","        85","7","         2","7","       194","7","         7","7","","","         1"," ","   -7.2","7,1128,+","    51"," ,7,1127,+","    51"," ,7,1127, ","  64.3"," ,7,0130, ","   32.8","7,0716,+","-1.1","7,1025","-2.2","7,1026","-5.6","7,1113","-7.2","7,1128","","","-1.1","7,0403","-2.2","7,0329","-5.0","7,0322","-7.2","7,0304","","","    2141.4","4","    2141.4","7","   1742.4"," ,7","      145"," ,7","     13.96","7","     19.60","7","      8.33","7"
"USC00319123","2014","35.77449","-83.09985","435.9","WATERVILLE 2, NC US","    630.8","","     630.8","7","       145","7","        99","7","         7","7","        6","","         5","7","         1","7","        89","7","        11","7","       190","7","        10","7","","","         1"," ","  -17.8","7,0107, ","    76"," ,7,0212,+","    76"," ,7,0212,+","  38.6"," ,7,0728, ","   33.9","7,0829, ","-1.7","7,1102","-2.2","7,1103","-6.7","7,1114","-6.7","7,1114","-9.4","7,1119","-1.7","7,0416","-3.3","7,0327","-6.7","7,0228","-6.7","7,0228","-14.4","7,0130","    2245.6","6","    2245.6","7","   1089.3"," ,7","      299"," ,7","     13.75","7","     19.85","7","      7.65","7"
"USC00319123","2015","35.77449","-83.09985","435.9","WATERVILLE 2, NC US","    725.4","","     725.4","7","       147","7","       108","7","         7","7","        3","","         3","7","         1","7","        69","7","         7","7","       207","7","        25","7","         1"," ","         2"," ","  -17.8","7,0220, ","    76"," ,7,0225, ","    76"," ,7,0225, ","  54.1"," ,7,0714, ","   33.9","7,0626,+","-0.6","7,1019","-5.0","7,1114","-5.0","7,1114","","","","","-5.0","7,0329","-5.0","7,0329","-5.0","7,0329","-6.7","7,0228","-17.8","7,0220","    2199.8","8","    2199.8","7","   1349.3"," ,7","      183"," ,7","     15.17","7","     21.11","7","      9.24","7"
"USC00319123","2016","35.77449","-83.09985","435.9","WATERVILLE 2, NC US","","","","","       116","7","        78","7","         4","7","","","","","","","","","","","","","","","","","","","","","","","","","  56.4"," ,7,0707, ","","","","","","","","","","","","","","","","","","","","","","","    1723.8","8","    1723.8","7","    904.9"," ,7","","","","","","","",""
"USC00319123","2017","35.77449","-83.09985","435.9","WATERVILLE 2, NC US","","","","","       144","7","        95","7","        13","7","","","","","","","","","","","","","","","","","","","","","","","","","  60.7"," ,7,1104, ","","","","","","","","","","","","","","","","","","","","","","","","","","","   1378.3"," ,7","","","","","","","",""
"USC00319123","2018","35.77449","-83.09985","435.9","WATERVILLE 2, NC US","","","","","       179","7","       116","7","         9","7","","","","","","","","","","","","","","","","","","","","","","","","","  49.8"," ,7,1228, ","","","","","","","","","","","","","","","","","","","","","","","","","","","   1465.2"," ,7","","","","","","","",""
"USC00319123","2019","35.77449","-83.09985","435.9","WATERVILLE 2, NC US","","","","","       150","7","       104","7","        11","7","","","","","","","","","","","","","","","","","","","","","","","","","  90.4"," ,7,0723, ","","","","","","","","","","","","","","","","","","","","","","","","","","","   1530.0"," ,7","","","","","","","",""
