"STATION","DATE","LATITUDE","LONGITUDE","ELEVATION","NAME","DP01","DP01_ATTRIBUTES","DP10","DP10_ATTRIBUTES","DP1X","DP1X_ATTRIBUTES","DSND","DSND_ATTRIBUTES","DSNW","DSNW_ATTRIBUTES","DYFG","DYFG_ATTRIBUTES","DYTS","DYTS_ATTRIBUTES","EMSD","EMSD_ATTRIBUTES","EMSN","EMSN_ATTRIBUTES","EMXP","EMXP_ATTRIBUTES","PRCP","PRCP_ATTRIBUTES","SNOW","SNOW_ATTRIBUTES"
"USC00033098","1948","33.53333","-92.46667","61.0","HAMPTON, AR US","","","","","","","","","","","         1"," ","         2"," ","","","","","","","","","",""
"USC00033098","1952","33.53333","-92.46667","61.0","HAMPTON, AR US","        40","0","        39","0","        11","0","        0","","         0","0","","","","","     0"," ,0,1231,+","     0","T,0,0422,+","  76.2"," ,0,1110, ","    916.4"," ,0","        0","T,0"
"USC00033098","1953","33.53333","-92.46667","61.0","HAMPTON, AR US","        71","0","        64","0","        17","0","        0","","         0","0","","","","","     0"," ,0,1231,+","     0"," ,0,1231,+"," 101.3"," ,0,0512, ","   1265.3"," ,0","        0"," ,0"
"USC00033098","1954","33.53333","-92.46667","61.0","HAMPTON, AR US","        52","0","        44","0","         8","0","        0","","         1","0","","","","","     0"," ,0,1231,+","    51"," ,0,0122, ","  45.7"," ,0,0412, ","    774.8"," ,0","       51"," ,0"
"USC00033098","1955","33.53333","-92.46667","61.0","HAMPTON, AR US","        64","0","        58","0","        11","0","        0","","         0","0","","","","","     0"," ,0,1231,+","     0","T,0,1103, ","  76.7"," ,0,1013, ","   1088.4"," ,0","        0","T,0"
"USC00033098","1957","33.53333","-92.46667","61.0","HAMPTON, AR US","       103","0","        87","0","        22","0","        0","","         0","0","","","","","     0"," ,0,1231,+","     0"," ,0,1231,+","  72.4"," ,0,1114, ","   1588.0"," ,0","        0"," ,0"
"USC00033098","1958","33.53333","-92.46667","61.0","HAMPTON, AR US","        70","0","        61","0","        19","0","        0","","         2","0","","","","","     0"," ,0,1231,+","   102"," ,0,1213, ","  68.8"," ,0,1117, ","   1463.2"," ,0","      127"," ,0"
