"STATION","DATE","LATITUDE","LONGITUDE","ELEVATION","NAME","CDSD","CDSD_ATTRIBUTES","CLDD","CLDD_ATTRIBUTES","DP01","DP01_ATTRIBUTES","DP10","DP10_ATTRIBUTES","DP1X","DP1X_ATTRIBUTES","DSND","DSND_ATTRIBUTES","DSNW","DSNW_ATTRIBUTES","DT00","DT00_ATTRIBUTES","DT32","DT32_ATTRIBUTES","DX32","DX32_ATTRIBUTES","DX70","DX70_ATTRIBUTES","DX90","DX90_ATTRIBUTES","DYFG","DYFG_ATTRIBUTES","DYTS","DYTS_ATTRIBUTES","EMNT","EMNT_ATTRIBUTES","EMSD","EMSD_ATTRIBUTES","EMSN","EMSN_ATTRIBUTES","EMXP","EMXP_ATTRIBUTES","EMXT","EMXT_ATTRIBUTES","FZF0","FZF0_ATTRIBUTES","FZF1","FZF1_ATTRIBUTES","FZF2","FZF2_ATTRIBUTES","FZF3","FZF3_ATTRIBUTES","FZF4","FZF4_ATTRIBUTES","FZF5","FZF5_ATTRIBUTES","FZF6","FZF6_ATTRIBUTES","FZF7","FZF7_ATTRIBUTES","FZF8","FZF8_ATTRIBUTES","FZF9","FZF9_ATTRIBUTES","HDSD","HDSD_ATTRIBUTES","HTDD","HTDD_ATTRIBUTES","PRCP","PRCP_ATTRIBUTES","SNOW","SNOW_ATTRIBUTES","TAVG","TAVG_ATTRIBUTES","TMAX","TMAX_ATTRIBUTES","TMIN","TMIN_ATTRIBUTES"
"USC00322482","1901","46.36916","-98.76694","494.7","EDGELEY 3 WNW, ND US","","","","","","","","","","","","","","","","","","","","","","","","","        15"," ","         8"," ","","","","","","","","","","","","","","","","","","","","","","","","","","","","","","","","","","","","","","","","","","","",""
"USC00322482","1902","46.36916","-98.76694","494.7","EDGELEY 3 WNW, ND US","","","","","        71","0","        52","0","         8","0","","","        10","0","        39","0","       180","0","        69","0","       124","0","        11","0","        21"," ","        13"," ","  -32.2","0,0127, ","","","   254"," ,0,0316, ","  80.8"," ,0,0824, ","   36.1","0,0724, ","-3.3","0,0912","-3.3","0,0912","-5.6","0,1009","-7.8","0,1107","-8.9","0,1109","0.0","0,0507","-3.9","0,0424","-7.8","0,0423","-7.8","0,0423","-11.1","0,0407","    4440.5","5","    4440.5","0","    725.4"," ,0","     1219"," ,0","      5.36","0","     12.03","0","     -1.31","0"
"USC00322482","1903","46.36916","-98.76694","494.7","EDGELEY 3 WNW, ND US","","","","","        67","0","        43","0","         5","0","      107","","        10","0","        55","0","       192","0","        82","0","       126","0","         7","0","         5"," ","         7"," ","  -34.4","0,1213,+","   152"," ,0,0323,+","   224"," ,0,0319, ","  46.0"," ,0,0912, ","   38.3","0,0724, ","-0.6","0,0913","-2.2","0,0917","-4.4","0,1017","-8.3","0,1104","-11.1","0,1113","-1.1","0,0512","-2.8","0,0503","-8.9","0,0430","-8.9","0,0430","-8.9","0,0430","","","","","    540.0"," ,0","      996"," ,0","      4.45","0","     11.67","0","     -2.77","0"
"USC00322482","1904","46.36916","-98.76694","494.7","EDGELEY 3 WNW, ND US","","","","","        62","0","        32","0","         4","0","","","        10","0","        60","0","       174","0","        81","0","       122","0","         5","0","         3"," ","         2"," ","  -38.9","0,0124, ","","","   152"," ,0,1227, ","  52.1"," ,0,0410, ","   34.4","0,0909,+","-0.6","0,0911","-5.0","0,0920","-5.0","0,0920","-6.7","0,1025","-9.4","0,1111","-0.6","0,0427","-4.4","0,0420","-4.4","0,0420","-7.8","0,0419","-11.1","0,0415","","","","","    443.5"," ,0","      727"," ,0","      3.98","0","     11.13","0","     -3.18","0"
"USC00322482","1905","46.36916","-98.76694","494.7","EDGELEY 3 WNW, ND US","","","","","        54","0","        36","0","         4","0","","","         7","0","        53","0","       196","0","        73","0","       135","0","        13","0","         6"," ","         3"," ","  -37.2","0,0202, ","","","   229"," ,0,1128, ","  41.9"," ,0,0504, ","   36.1","0,0828,+","0.0","0,0904","-5.0","0,1011","-5.0","0,1011","-8.3","0,1022","-10.6","0,1028","-1.1","0,0512","-2.2","0,0511","-7.8","0,0430","-7.8","0,0430","-14.4","0,0320","","","","","    437.0"," ,0","      627"," ,0","      4.92","0","     12.27","0","     -2.43","0"
"USC00322482","1906","46.36916","-98.76694","494.7","EDGELEY 3 WNW, ND US","","","","","        77","0","        43","0","         4","0","","","        10","0","        62","0","       188","0","","","","","","","         3"," ","         5"," ","  -36.1","0,0214, ","","","    89"," ,0,1021, ","  55.9"," ,0,0731, ","","","-0.6","0,1005","-6.7","0,1006","-6.7","0,1006","-6.7","0,1006","-10.0","0,1022","-1.1","0,0527","-3.3","0,0508","-4.4","0,0507","-6.7","0,0324","-19.4","0,0323","    4824.2","2","    4824.2","0","    509.6"," ,0","      664"," ,0","","","","","     -2.21","0"
"USC00322482","1907","46.36916","-98.76694","494.7","EDGELEY 3 WNW, ND US","","","","","        58","0","        21","0","         1","0","","","         2","0","        48","0","       217","0","","","","","","","         1"," ","         2"," ","  -37.2","0,0203, ","","","    81"," ,0,0513, ","  42.7"," ,0,0919, ","","","-0.6","0,0820","-4.4","0,0927","-4.4","0,0927","-7.2","0,0930","-9.4","0,1018","-1.1","0,0603","-2.8","0,0527","-6.7","0,0520","-6.7","0,0520","-11.7","0,0503","","","","","    293.4"," ,0","      243"," ,0","","","","","     -3.36","0"
"USC00322482","1908","46.36916","-98.76694","494.7","EDGELEY 3 WNW, ND US","    224.9","","     224.9","0","        61","0","        39","0","         2","0","","","        10","0","        35","0","       189","0","        76","0","       128","0","        22","0","         1"," ","         1"," ","  -32.2","0,0129, ","","","   178"," ,0,1124, ","  34.3"," ,0,0601, ","   37.8","0,0801, ","-0.6","0,0927","-3.9","0,0928","-8.3","0,0929","-8.3","0,0929","-8.9","0,1030","-2.8","0,0508","-2.8","0,0508","-5.6","0,0504","-7.2","0,0503","-8.9","0,0502","    4534.0","0","    4534.0","0","    432.0"," ,0","      755"," ,0","      6.02","0","     13.39","0","     -1.34","0"
"USC00322482","1909","46.36916","-98.76694","494.7","EDGELEY 3 WNW, ND US","    243.9","","     243.9","0","        66","0","        36","0","         1","0","","","         5","0","        50","0","       197","0","        84","0","       118","0","        17","0","         3"," ","         3"," ","  -33.3","0,0106, ","","","   137"," ,0,1204, ","  47.2"," ,0,0721, ","   36.7","0,0719, ","-0.6","0,0930","-2.2","0,1011","-7.8","0,1012","-7.8","0,1012","-11.1","0,1013","-2.2","0,0516","-2.2","0,0516","-7.2","0,0503","-7.2","0,0503","-8.9","0,0501","    5035.4","4","    5035.4","0","    384.6"," ,0","      470"," ,0","      4.29","0","     10.85","0","     -2.27","0"
"USC00322482","1910","46.36916","-98.76694","494.7","EDGELEY 3 WNW, ND US","    258.9","","     258.9","0","        43","0","        21","0","         4","0","","","         1","0","        45","0","       182","0","        92","0","       140","0","        27","0","","","","","  -35.0","0,0104, ","","","    25"," ,0,1224, ","  37.6"," ,0,0414, ","   40.6","0,0715, ","0.0","0,0909","-2.8","0,0912","-8.3","0,1020","-8.3","0,1020","-8.9","0,1102","-3.3","0,0602","-3.3","0,0602","-4.4","0,0513","-7.2","0,0502","-8.9","0,0417","    4871.9","9","    4871.9","0","    310.6"," ,0","      158"," ,0","      5.80","0","     13.21","0","     -1.62","0"
"USC00322482","1911","46.36916","-98.76694","494.7","EDGELEY 3 WNW, ND US","    227.5","","     227.5","0","        72","0","        41","0","         2","0","","","         6","0","        62","0","       184","0","        96","0","       126","0","        20","0","","","","","  -32.8","0,0103, ","","","    76"," ,0,1220, ","  27.7"," ,0,0413, ","   40.0","0,0621, ","-1.7","0,0924","-2.8","0,1020","-5.6","0,1025","-9.4","0,1026","-9.4","0,1026","-0.6","0,0504","-5.6","0,0503","-5.6","0,0503","-8.3","0,0502","-11.1","0,0408","    4823.3","3","    4823.3","0","    382.6"," ,0","      362"," ,0","      4.60","0","     11.67","0","     -2.46","0"
"USC00322482","1912","46.36916","-98.76694","494.7","EDGELEY 3 WNW, ND US","    154.7","","     154.7","0","        58","0","        41","0","         7","0","","","         3","0","        56","0","       200","0","        83","0","       119","0","        15","0","","","","","  -40.6","0,0112, ","","","    76"," ,0,1216,+","  50.8"," ,0,0413, ","   36.1","0,0630, ","-1.1","0,0916","-4.4","0,0926","-4.4","0,0926","-12.8","0,1022","-12.8","0,1022","0.0","0,0608","-3.3","0,0429","-5.0","0,0427","-10.0","0,0331","-10.0","0,0331","    5504.1","1","    5504.1","0","    555.1"," ,0","      247"," ,0","      4.32","0","     11.33","0","     -2.69","0"
"USC00322482","1913","46.36916","-98.76694","494.7","EDGELEY 3 WNW, ND US","    231.0","","     231.0","0","        53","0","        41","0","         6","0","","","         5","0","        49","0","       196","0","        77","0","       134","0","        15","0","         3"," ","","","  -36.7","0,0112, ","","","    76"," ,0,1122,+","  66.3"," ,0,0818, ","   38.3","0,0802, ","-0.6","0,0921","-8.3","0,0922","-8.3","0,0922","-8.3","0,0922","-10.0","0,1021","-1.1","0,0607","-2.8","0,0506","-6.1","0,0427","-8.3","0,0328","-23.3","0,0327","    4956.9","9","    4956.9","0","    503.5"," ,0","      327"," ,0","      5.31","0","     12.35","0","     -1.73","0"
"USC00322482","1914","46.36916","-98.76694","494.7","EDGELEY 3 WNW, ND US","    227.7","","     227.7","0","        60","0","        37","0","         4","0","","","         3","0","        60","0","       180","0","        82","0","       142","0","        17","0","","","","","  -35.6","0,1225, ","","","   127"," ,0,0325, ","  48.3"," ,0,0418, ","   37.2","0,0725, ","0.0","0,0904","-5.6","0,1014","-5.6","0,1014","-7.2","0,1027","-9.4","0,1108","-0.6","0,0515","-2.2","0,0512","-5.0","0,0419","-9.4","0,0411","-9.4","0,0411","    4747.4","4","    4747.4","0","    452.4"," ,0","      324"," ,0","      5.41","0","     12.49","0","     -1.68","0"
"USC00322482","1915","46.36916","-98.76694","494.7","EDGELEY 3 WNW, ND US","     85.5","","      85.5","0","        72","0","        47","0","         4","0","","","         8","0","        27","0","       174","0","        83","0","       104","0","         4","0","","","","","  -36.7","0,0127, ","","","   102"," ,0,0214, ","  50.8"," ,0,0612,+","   32.8","0,0831, ","-0.6","0,1005","-3.3","0,1007","-5.6","0,1008","-7.2","0,1109","-10.6","0,1113","-3.3","0,0609","-3.3","0,0609","-9.4","0,0412","-9.4","0,0412","-9.4","0,0412","    4798.6","6","    4798.6","0","    557.9"," ,0","      491"," ,0","      5.15","0","     11.75","0","     -1.45","0"
"USC00322482","1916","46.36916","-98.76694","494.7","EDGELEY 3 WNW, ND US","    254.2","","     254.2","0","        47","0","        37","0","         6","0","","","         5","0","        66","0","       202","0","        89","0","       106","0","        13","0","         1"," ","","","  -38.3","0,0113, ","","","   152"," ,0,0321, ","  45.5"," ,0,0515, ","   37.2","0,0728, ","-3.3","0,0915","-3.3","0,0915","-5.6","0,1005","-7.2","0,1017","-12.2","0,1020","0.0","0,0520","-3.9","0,0503","-6.7","0,0501","-6.7","0,0501","-10.6","0,0406","    5206.6","6","    5206.6","0","    503.8"," ,0","      824"," ,0","      3.69","0","     10.32","0","     -2.94","0"
"USC00322482","1917","46.36916","-98.76694","494.7","EDGELEY 3 WNW, ND US","    211.8","","     211.8","0","        55","0","        28","0","         2","0","","","         4","0","        67","0","       203","0","        99","0","       109","0","        21","0","         5"," ","","","  -37.8","0,1229, ","","","    76"," ,0,0311, ","  26.4"," ,0,0629, ","   43.3","0,0728, ","-1.1","0,0910","-2.8","0,0930","-11.1","0,1008","-11.1","0,1008","-11.1","0,1008","0.0","0,0621","-3.3","0,0527","-8.3","0,0415","-8.3","0,0415","-14.4","0,0319","    5633.6","6","    5633.6","0","    289.8"," ,0","      300"," ,0","      3.24","0","     10.33","0","     -3.84","0"
"USC00322482","1918","46.36916","-98.76694","494.7","EDGELEY 3 WNW, ND US","    176.2","","     176.2","0","        51","0","        30","0","         2","0","","","         4","0","        43","0","       192","0","        70","0","       133","0","        16","0","         1"," ","","","  -35.0","0,0221, ","","","    86"," ,0,1108, ","  31.8"," ,0,0416, ","   38.3","0,0720, ","-1.1","0,0903","-2.2","0,0918","-7.2","0,0920","-7.2","0,0920","-10.0","0,1027","-2.8","0,0521","-2.8","0,0521","-6.7","0,0512","-6.7","0,0512","-9.4","0,0423","    5185.6","6","    5185.6","0","    316.8"," ,0","      281"," ,0","      5.27","0","     12.55","0","     -2.01","0"
"USC00322482","1919","46.36916","-98.76694","494.7","EDGELEY 3 WNW, ND US","    281.9","","     281.9","0","        71","0","        35","0","         3","0","","","         6","0","        53","0","       190","0","        91","0","       128","0","        15","0","","","","","  -35.0","0,0103, ","","","    76"," ,0,0315, ","  68.3"," ,0,0621, ","   37.2","0,0726, ","-3.9","0,0925","-3.9","0,0925","-11.7","0,1010","-11.7","0,1010","-11.7","0,1010","0.0","0,0603","-2.2","0,0501","-5.6","0,0425","-8.3","0,0424","-8.9","0,0327","    4774.4","4","    4774.4","0","    448.9"," ,0","      453"," ,0","      4.67","0","     11.20","0","     -1.86","0"
"USC00322482","1920","46.36916","-98.76694","494.7","EDGELEY 3 WNW, ND US","    175.4","","     175.4","0","        64","0","        32","0","         0","0","","","         2","0","        48","0","       188","0","        87","0","       132","0","        13","0","","","","","  -35.0","0,0124, ","","","    51"," ,0,0420, ","  24.1"," ,0,0713, ","   36.1","0,0809, ","0.0","0,0821","-4.4","0,0930","-4.4","0,0930","-11.1","0,1028","-11.1","0,1028","-2.2","0,0515","-2.2","0,0515","-7.2","0,0427","-7.2","0,0427","-11.1","0,0413","    5437.7","7","    5437.7","0","    342.1"," ,0","      189"," ,0","      4.98","0","     11.82","0","     -1.85","0"
"USC00322482","1921","46.36916","-98.76694","494.7","EDGELEY 3 WNW, ND US","    298.7","","     298.7","0","        60","0","        45","0","         4","0","","","         6","0","        44","0","       189","0","        62","0","       131","0","        25","0","","","","","  -31.7","0,1224, ","","","    76"," ,0,0324, ","  78.7"," ,0,0618, ","   40.0","0,0721, ","-0.6","0,0930","-2.8","0,1003","-4.4","0,1007","-10.0","0,1107","-10.0","0,1107","-3.3","0,0515","-3.3","0,0515","-5.0","0,0514","-6.7","0,0417","-11.1","0,0416","    4345.2","2","    4345.2","0","    534.2"," ,0","      332"," ,0","      6.58","0","     14.04","0","     -0.88","0"
"USC00322482","1922","46.36916","-98.76694","494.7","EDGELEY 3 WNW, ND US","    260.6","","     260.6","0","        43","0","        33","0","         4","0","","","         8","0","        60","0","       180","0","        83","0","       135","0","        27","0","","","","","  -34.4","0,0123, ","","","   127"," ,0,1113,+","  54.6"," ,0,0528, ","   38.9","0,0823, ","-1.7","0,0910","-5.0","0,1008","-5.0","0,1008","-8.9","0,1017","-8.9","0,1017","-0.6","0,0429","-3.3","0,0426","-7.8","0,0419","-7.8","0,0419","-9.4","0,0329","    4928.4","4","    4928.4","0","    387.5"," ,0","      758"," ,0","      5.54","0","     12.51","0","     -1.43","0"
"USC00322482","1923","46.36916","-98.76694","494.7","EDGELEY 3 WNW, ND US","    204.3","","     204.3","0","        42","0","        29","0","         3","0","","","         7","0","        47","0","       189","0","        68","0","       132","0","         3","0","","","","","  -32.8","0,0214, ","","","   127"," ,0,0114, ","  90.7"," ,0,0621, ","   32.8","0,0719, ","0.0","0,0912","-3.9","0,1005","-5.0","0,1013","-6.7","0,1020","-9.4","0,1027","-1.7","0,0516","-5.6","0,0512","-5.6","0,0512","-8.3","0,0408","-8.9","0,0407","    4891.8","8","    4891.8","0","    521.6"," ,0","      476"," ,0","      5.55","0","     12.59","0","     -1.50","0"
"USC00322482","1924","46.36916","-98.76694","494.7","EDGELEY 3 WNW, ND US","    125.2","","     125.2","0","        43","0","        36","0","         2","0","","","         8","0","        48","0","       196","0","        76","0","       119","0","        12","0","","","","","  -35.0","0,1228,+","","","    76"," ,0,0421, ","  47.0"," ,0,0426, ","   37.8","0,0828, ","-1.1","0,0929","-3.3","0,1007","-7.8","0,1102","-7.8","0,1102","-10.6","0,1107","-1.1","0,0606","-5.6","0,0525","-5.6","0,0525","-7.2","0,0412","-8.9","0,0411","    4658.7","7","    4658.7","0","    357.1"," ,0","      407"," ,0","      4.48","0","     11.93","0","     -2.97","0"
"USC00322482","1925","46.36916","-98.76694","494.7","EDGELEY 3 WNW, ND US","    255.7","","     255.7","0","        44","0","        35","0","         6","0","","","         7","0","        41","0","       201","0","        81","0","       123","0","        32","0","","","","","  -35.0","0,0126, ","","","   102"," ,0,0125, ","  56.4"," ,0,0607, ","   41.1","0,0823, ","-2.2","0,0921","-2.2","0,0921","-7.2","0,1009","-7.2","0,1009","-12.8","0,1027","-1.1","0,0525","-5.0","0,0517","-5.0","0,0517","-6.7","0,0506","-13.3","0,0321","    4688.2","2","    4688.2","0","    492.2"," ,0","      407"," ,0","      5.64","0","     12.89","0","     -1.61","0"
"USC00322482","1926","46.36916","-98.76694","494.7","EDGELEY 3 WNW, ND US","    212.0","","     212.0","0","        48","0","        32","0","         3","0","","","         7","0","        42","0","       201","0","        68","0","       135","0","        23","0","","","","","  -28.9","0,1214,+","","","   127"," ,0,1204, ","  57.2"," ,0,0728, ","   41.1","0,0718, ","0.0","0,0912","-3.3","0,0922","-7.2","0,0925","-7.2","0,0925","-11.7","0,1030","-1.7","0,0522","-2.8","0,0504","-9.4","0,0503","-9.4","0,0503","-9.4","0,0503","    4652.8","8","    4652.8","0","    429.8"," ,0","      379"," ,0","      5.58","0","     13.36","0","     -2.21","0"
"USC00322482","1927","46.36916","-98.76694","494.7","EDGELEY 3 WNW, ND US","    125.1","","     125.1","0","        55","0","        48","0","         7","0","","","         9","0","        50","0","       193","0","        88","0","       110","0","         3","0","         1"," ","","","  -32.2","0,1209,+","","","   127"," ,0,1215, ","  84.1"," ,0,0620, ","   33.3","0,0911, ","0.0","0,0919","-5.0","0,0926","-5.0","0,0926","-7.2","0,0927","-11.7","0,1105","0.0","0,0605","-3.3","0,0424","-7.8","0,0422","-7.8","0,0422","-9.4","0,0327","    5128.4","4","    5128.4","0","    643.4"," ,0","      655"," ,0","      4.07","0","     10.52","0","     -2.37","0"
"USC00322482","1928","46.36916","-98.76694","494.7","EDGELEY 3 WNW, ND US","    140.5","","     140.5","0","        43","0","        40","0","        10","0","","","         6","0","        29","0","       202","0","        56","0","       120","0","         6","0","         2"," ","","","  -33.3","0,0102, ","","","   127"," ,0,0419, "," 125.7"," ,0,0612, ","   35.0","0,0812, ","-3.9","0,0923","-3.9","0,0923","-4.4","0,0925","-10.0","0,1029","-10.0","0,1029","0.0","0,0603","-2.2","0,0528","-4.4","0,0427","-13.3","0,0419","-13.3","0,0419","    5101.9","9","    5101.9","0","    730.2"," ,0","      335"," ,0","      5.91","0","     12.96","0","     -1.15","0"
"USC00322482","1929","46.36916","-98.76694","494.7","EDGELEY 3 WNW, ND US","    216.8","","     216.8","0","        45","0","        38","0","         3","0","","","        15","0","        64","0","       195","0","        91","0","       120","0","        30","0","","","","","  -35.6","0,0219, ","","","   114"," ,0,1031, ","  40.6"," ,0,1010, ","   37.8","0,0823,+","-0.6","0,0906","-2.8","0,0917","-7.2","0,0918","-7.2","0,0918","-9.4","0,1119","-0.6","0,0523","-4.4","0,0520","-4.4","0,0520","-7.2","0,0506","-8.9","0,0401","    5001.9","9","    5001.9","0","    363.7"," ,0","      868"," ,0","      3.98","0","     11.14","0","     -3.19","0"
"USC00322482","1930","46.36916","-98.76694","494.7","EDGELEY 3 WNW, ND US","","","","","        43","0","        35","0","         2","0","","","         3","0","","","","","        73","0","       130","0","        29","0","","","","","","","","","   102"," ,0,0227, ","  36.8"," ,0,0819, ","   38.9","0,0806, ","","","","","","","","","","","","","","","","","","","","","    4730.3","3","    4730.3","0","    386.4"," ,0","      243"," ,0","","","     12.89","0","",""
"USC00322482","1931","46.36916","-98.76694","494.7","EDGELEY 3 WNW, ND US","","","","","        43","0","        37","0","         3","0","","","         7","0","","","","","        50","0","       148","0","        32","0","","","","","","","","","   102"," ,0,1230,+","  41.4"," ,0,0527, ","   43.3","0,0725, ","","","","","","","","","","","","","","","","","","","","","","","","","    409.3"," ,0","      445"," ,0","","","     15.25","0","",""
"USC00322482","1932","46.36916","-98.76694","494.7","EDGELEY 3 WNW, ND US","    246.0","","     246.0","0","        53","0","        34","0","         4","0","","","         5","0","        50","0","       194","0","        94","0","       135","0","        24","0","","","","","  -31.7","0,0131, ","","","    76"," ,0,0117, "," 131.8"," ,0,0617, ","   37.8","0,0719, ","-0.6","0,0920","-3.3","0,1005","-6.7","0,1010","-6.7","0,1010","-8.9","0,1110","0.0","0,0527","-3.9","0,0427","-5.0","0,0426","-7.8","0,0412","-10.0","0,0331","    4557.0","0","    4557.0","0","    533.0"," ,0","      251"," ,0","      5.21","0","     12.10","0","     -1.68","0"
"USC00322482","1933","46.36916","-98.76694","494.7","EDGELEY 3 WNW, ND US","","","","","        49","0","        26","0","         1","0","","","         8","0","","","","","        79","0","       150","0","        37","0","","","","","","","","","    89"," ,0,0325, ","  46.2"," ,0,0629, ","   41.1","0,0618, ","","","","","","","","","","","","","","","","","","","","","","","","","    279.5"," ,0","      608"," ,0","","","     13.88","0","",""
"USC00322482","1934","46.36916","-98.76694","494.7","EDGELEY 3 WNW, ND US","    444.0","","     444.0","0","        50","0","        28","0","         3","0","","","         1","0","        38","0","       195","0","        73","0","       153","0","        57","0","","","","","  -29.4","0,1226, ","","","    64"," ,0,1125, ","  52.6"," ,0,0607, ","   44.4","0,0722, ","0.0","0,0823","-5.6","0,0921","-5.6","0,0921","-7.2","0,1031","-10.0","0,1101","-2.2","0,0524","-2.2","0,0524","-8.9","0,0427","-8.9","0,0427","-8.9","0,0427","    4425.7","7","    4425.7","0","    295.0"," ,0","       98"," ,0","      7.17","0","     15.24","0","     -0.90","0"
"USC00322482","1935","46.36916","-98.76694","494.7","EDGELEY 3 WNW, ND US","    311.6","","     311.6","0","        46","0","        35","0","         4","0","","","         7","0","        46","0","       198","0","        91","0","       119","0","        16","0","         1"," ","","","  -34.4","0,0124, ","","","    76"," ,0,1224, ","  66.0"," ,0,0615, ","   39.4","0,0813, ","-0.6","0,0829","-3.3","0,0926","-7.2","0,0927","-7.2","0,0927","-10.0","0,1004","-1.1","0,0606","-2.2","0,0505","-5.6","0,0503","-8.3","0,0404","-10.0","0,0402","    4870.5","5","    4870.5","0","    458.4"," ,0","      311"," ,0","      4.64","0","     11.26","0","     -1.98","0"
"USC00322482","1936","46.36916","-98.76694","494.7","EDGELEY 3 WNW, ND US","    506.9","","     506.9","0","        52","0","        23","0","         2","0","","","        13","0","        76","0","       205","0","       112","0","       147","0","        50","0","","","","","  -39.4","0,0216,+","","","    76"," ,0,1208,+","  48.5"," ,0,0523, ","   46.7","0,0706, ","-2.8","0,0924","-2.8","0,0924","-7.2","0,1001","-7.2","0,1001","-8.9","0,1021","-2.2","0,0519","-2.2","0,0519","-4.4","0,0428","-6.7","0,0424","-11.7","0,0421","    5799.8","8","    5799.8","0","    247.2"," ,0","      607"," ,0","      4.10","0","     11.39","0","     -3.18","0"
"USC00322482","1937","46.36916","-98.76694","494.7","EDGELEY 3 WNW, ND US","    388.4","","     388.4","0","        59","0","        38","0","         2","0","","","        17","0","        71","0","       191","0","       108","0","       121","0","        39","0","","","","","  -35.0","0,0122, ","","","   152"," ,0,0403,+","  34.0"," ,0,0605, ","   40.6","0,0815, ","-0.6","0,0916","-2.2","0,0925","-10.6","0,1013","-10.6","0,1013","-10.6","0,1013","0.0","0,0608","-2.2","0,0509","-6.1","0,0406","-12.2","0,0405","-12.2","0,0405","    5455.6","6","    5455.6","0","    363.4"," ,0","     1388"," ,0","      4.09","0","     10.75","0","     -2.58","0"
"USC00322482","1938","46.36916","-98.76694","494.7","EDGELEY 3 WNW, ND US","    369.6","","     369.6","0","        75","0","        42","0","         0","0","","","        18","0","        47","0","       173","0","        84","0","       146","0","        34","0","","","","","  -31.1","0,1229,+","","","   102"," ,0,0303, ","  19.8"," ,0,0624, ","   42.8","0,0813, ","-3.3","0,0919","-3.3","0,0919","-7.2","0,1023","-7.2","0,1023","-14.4","0,1107","-0.6","0,0530","-4.4","0,0507","-4.4","0,0507","-6.7","0,0409","-9.4","0,0407","    4975.0","0","    4975.0","0","    300.2"," ,0","      810"," ,0","      6.45","0","     13.62","0","     -0.71","0"
"USC00322482","1939","46.36916","-98.76694","494.7","EDGELEY 3 WNW, ND US","    403.3","","     403.3","0","        62","0","        35","0","         2","0","","","        12","0","        44","0","       188","0","        76","0","       148","0","        45","0","","","","","  -37.8","0,0215, ","","","   178"," ,0,0207, ","  49.5"," ,0,0610, ","   37.8","0,0729,+","-0.6","0,0910","-2.8","0,0923","-5.0","0,0925","-8.3","0,1016","-11.1","0,1027","-6.1","0,0511","-6.1","0,0511","-6.1","0,0511","-7.2","0,0413","-15.6","0,0411","    4643.7","7","    4643.7","0","    384.6"," ,0","      747"," ,0","      6.30","0","     13.78","0","     -1.18","0"
"USC00322482","1940","46.36916","-98.76694","494.7","EDGELEY 3 WNW, ND US","    325.7","","     325.7","0","        71","0","        44","0","         3","0","","","        18","0","        49","0","       193","0","       107","0","       139","0","        23","0","","","","","  -31.7","0,0118, ","","","   152"," ,0,0328, ","  49.3"," ,0,0728, ","   37.8","0,0722, ","0.0","0,0910","-3.9","0,0925","-4.4","0,1106","-8.3","0,1107","-11.1","0,1110","-1.1","0,0525","-3.3","0,0501","-5.6","0,0426","-13.3","0,0411","-13.3","0,0411","    4972.9","9","    4972.9","0","    476.0"," ,0","     1066"," ,0","      5.20","0","     11.46","0","     -1.05","0"
"USC00322482","1941","46.36916","-98.76694","494.7","EDGELEY 3 WNW, ND US","    344.0","","     344.0","0","        71","0","        55","0","         2","0","","","        10","0","        33","0","       173","0","        94","0","       121","0","        29","0","         1"," ","","","  -31.1","0,0219, ","","","   102"," ,0,0303,+","  52.1"," ,0,0606, ","   40.6","0,0806, ","-0.6","0,0926","-2.2","0,0928","-8.9","0,1027","-8.9","0,1027","-8.9","0,1027","-1.7","0,0508","-5.0","0,0423","-5.0","0,0423","-6.7","0,0421","-12.2","0,0319","    4800.5","5","    4800.5","0","    558.1"," ,0","      646"," ,0","      5.67","0","     11.54","0","     -0.19","0"
"USC00322482","1942","46.36916","-98.76694","494.7","EDGELEY 3 WNW, ND US","    170.1","","     170.1","0","        80","0","        47","0","         7","0","","","        13","0","        33","0","       187","0","        76","0","       132","0","         4","0","         5"," ","         7"," ","  -32.2","0,0104, ","","","   127"," ,0,0926, ","  46.0"," ,0,0501, ","   34.4","0,0717, ","-2.8","0,0919","-2.8","0,0919","-10.0","0,0926","-10.0","0,0926","-10.0","0,0926","-2.2","0,0514","-2.2","0,0514","-7.2","0,0411","-7.2","0,0411","-11.7","0,0408","    4607.8","8","    4607.8","0","    595.6"," ,0","      941"," ,0","      5.70","0","     12.41","0","     -1.01","0"
"USC00322482","1943","46.36916","-98.76694","494.7","EDGELEY 3 WNW, ND US","    232.1","","     232.1","0","        67","0","        45","0","         2","0","","","        12","0","        54","0","       199","0","        81","0","       132","0","        13","0","         1"," ","         8"," ","  -36.1","0,0117, ","","","   127"," ,0,1031, ","  33.5"," ,0,0901, ","   37.2","0,0801, ","-3.3","0,0910","-3.3","0,0910","-7.2","0,1016","-7.2","0,1016","-8.9","0,1111","-1.1","0,0527","-7.2","0,0512","-7.2","0,0512","-7.2","0,0512","-11.7","0,0322","    5339.6","6","    5339.6","0","    459.2"," ,0","     1056"," ,0","      4.88","0","     12.15","0","     -2.39","0"
"USC00322482","1944","46.36916","-98.76694","494.7","EDGELEY 3 WNW, ND US","    194.7","","     194.7","0","        75","0","        50","0","         5","0","","","         6","0","        37","0","       188","0","        90","0","       127","0","        14","0","        10"," ","         8"," ","  -32.8","0,0212,+","","","   102"," ,0,0314, ","  51.1"," ,0,0518, ","   36.1","0,0809, ","0.0","0,0923","-3.3","0,1008","-4.4","0,1010","-7.2","0,1019","-13.9","0,1126","0.0","0,0509","-2.2","0,0506","-5.6","0,0505","-6.7","0,0416","-11.1","0,0401","    4715.3","3","    4715.3","0","    572.9"," ,0","      530"," ,0","      5.72","0","     12.48","0","     -1.05","0"
"USC00322482","1945","46.36916","-98.76694","494.7","EDGELEY 3 WNW, ND US","    206.6","","     206.6","0","        77","0","        41","0","         0","0","","","         9","0","        50","0","       206","0","        89","0","       113","0","        19","0","        12"," ","         2"," ","  -33.3","0,1211, ","","","   114"," ,0,1223, ","  17.8"," ,0,0601, ","   38.9","0,0817, ","-2.8","0,0915","-2.8","0,0915","-6.7","0,0928","-6.7","0,0928","-11.1","0,1029","-1.1","0,0604","-2.2","0,0517","-5.6","0,0513","-6.7","0,0430","-13.3","0,0308","    4821.0","0","    4821.0","0","    338.9"," ,0","      557"," ,0","      4.56","0","     11.81","0","     -2.69","0"
"USC00322482","1946","46.36916","-98.76694","494.7","EDGELEY 3 WNW, ND US","    180.8","","     180.8","0","        89","0","        46","0","         3","0","","","         9","0","        53","0","       199","0","        77","0","       132","0","        12","0","         6"," ","         5"," ","  -32.8","0,0213, ","","","   132"," ,0,0206, "," 110.2"," ,0,0918, ","   37.8","0,0802, ","0.0","0,0901","-2.8","0,0902","-4.4","0,1008","-9.4","0,1012","-9.4","0,1012","0.0","0,0603","-2.2","0,0602","-5.0","0,0515","-10.0","0,0512","-10.0","0,0512","    5004.8","8","    5004.8","0","    556.3"," ,0","      827"," ,0","      5.13","0","     12.54","0","     -2.29","0"
"USC00322482","1947","46.36916","-98.76694","494.7","EDGELEY 3 WNW, ND US","    264.2","","     264.2","0","        95","0","        37","0","         1","0","","","        14","0","        47","0","       194","0","        90","0","       125","0","        25","0","         4"," ","","","  -31.7","0,0103, ","","","   203"," ,0,1115, ","  31.2"," ,0,0610, ","   40.6","0,0821,+","-7.8","0,0922","-7.8","0,0922","-7.8","0,0922","-7.8","0,0922","-8.9","0,1108","-3.3","0,0530","-3.3","0,0530","-4.4","0,0529","-6.7","0,0415","-11.1","0,0408","    5170.3","3","    5170.3","0","    360.9"," ,0","      855"," ,0","      4.99","0","     11.82","0","     -1.84","0"
"USC00322482","1948","46.36916","-98.76694","494.7","EDGELEY 3 WNW, ND US","","","","","","","","","","","","","","","","","","","","","","","","","","","","","","","","","","","","","","","","","","","","","","","","","","","","","","","","","","","    5085.2","2","    5085.2","0","","","","","","","","","",""
"USC00322482","1949","46.36916","-98.76694","494.7","EDGELEY 3 WNW, ND US","    292.5","","     292.5","0","        76","0","        32","0","         7","0","","","","","        59","0","       180","0","        85","0","       142","0","        20","0","         1"," ","","","  -32.8","0,0204, ","","","","","  39.6"," ,0,1010, ","   42.8","0,0703, ","-2.2","0,0914","-2.2","0,0914","-4.4","0,0928","-7.8","0,1030","-10.0","0,1031","-2.8","0,0524","-2.8","0,0524","-7.2","0,0424","-7.2","0,0424","-11.7","0,0319","","","","","    458.8"," ,0","","","      5.45","0","     12.66","0","     -1.76","0"
"USC00322482","1950","46.36916","-98.76694","494.7","EDGELEY 3 WNW, ND US","    151.8","","     151.8","0","        81","0","        37","0","         5","0","","","        11","0","        76","0","       199","0","       115","0","       122","0","        12","0","         2"," ","         1"," ","  -35.6","0,0126, ","","","   279"," ,0,0124, ","  37.1"," ,0,0502, ","   37.2","0,0606, ","-0.6","0,1002","-3.9","0,1003","-6.7","0,1025","-6.7","0,1025","-9.4","0,1109","-1.1","0,0507","-5.6","0,0501","-5.6","0,0501","-7.2","0,0430","-12.2","0,0413","    5391.5","5","    5391.5","0","    466.8"," ,0","     1109"," ,0","      2.68","0","      9.45","0","     -4.08","0"
"USC00322482","1951","46.36916","-98.76694","494.7","EDGELEY 3 WNW, ND US","    107.1","","     107.1","0","        82","0","        41","0","         3","0","","","        11","0","        81","0","       197","0","        99","0","       108","0","         7","0","","","","","  -37.2","0,0129, ","","","   229"," ,0,0228, ","  30.2"," ,0,0602, ","   35.0","0,0725, ","-2.2","0,0922","-2.2","0,0922","-5.0","0,0924","-7.2","0,1023","-10.6","0,1027","-1.1","0,0510","-3.9","0,0424","-4.4","0,0423","-6.7","0,0422","-10.0","0,0326","    5497.3","3","    5497.3","0","    424.7"," ,0","     1056"," ,0","      2.42","0","      9.10","0","     -4.26","0"
"USC00322482","1952","46.36916","-98.76694","494.7","EDGELEY 3 WNW, ND US","    268.8","","     268.8","0","        56","0","        25","0","         0","0","      130","","        12","0","        43","0","       192","0","       110","0","       137","0","        29","0","","","","","  -31.7","0,0124, ","   787"," ,0,0229,+","   178"," ,0,0122, ","  23.9"," ,0,0628, ","   38.3","0,0815, ","0.0","0,0919","-3.3","0,0923","-7.2","0,1004","-7.2","0,1004","-8.9","0,1020","-1.1","0,0517","-3.3","0,0512","-6.1","0,0409","-11.1","0,0329","-11.1","0,0329","    5551.1","1","    5551.1","0","    252.3"," ,0","      989"," ,0","      4.95","0","     12.10","0","     -2.20","0"
"USC00322482","1953","46.36916","-98.76694","494.7","EDGELEY 3 WNW, ND US","","","","","        71","0","        34","0","         4","0","       95","","         3","0","        19","0","       181","0","        66","0","       132","0","        13","0","","","","","  -26.7","0,0107, ","   102"," ,0,0223,+","    76"," ,0,1127, ","  69.6"," ,0,0616, ","   38.9","0,0814, ","-0.6","0,0921","-4.4","0,1024","-4.4","0,1024","-10.6","0,1104","-10.6","0,1104","0.0","0,0515","-3.9","0,0513","-5.0","0,0420","-10.6","0,0418","-10.6","0,0418","","","","","    451.0"," ,0","      157"," ,0","      6.27","0","     12.56","0","     -0.02","0"
"USC00322482","1954","46.36916","-98.76694","494.7","EDGELEY 3 WNW, ND US","    206.1","","     206.1","0","        89","0","        37","0","         7","0","       47","","","","        38","0","       196","0","        61","0","       111","0","         9","0","","","","","  -35.6","0,0121, ","   127"," ,0,0201,+","","","  53.6"," ,0,0608, ","   37.2","0,0727, ","-2.2","0,0922","-2.2","0,0922","-7.2","0,1006","-7.2","0,1006","-11.1","0,1101","-1.1","0,0519","-2.2","0,0517","-5.0","0,0505","-8.3","0,0408","-13.3","0,0404","    4511.9","9","    4511.9","0","    543.3"," ,0","","","      5.64","0","     12.08","0","     -0.80","0"
"USC00322482","1955","46.36916","-98.76694","494.7","EDGELEY 3 WNW, ND US","    297.5","","     297.5","0","        94","0","        38","0","         3","0","","","","","        74","0","       181","0","       109","0","       142","0","        16","0","","","","","  -33.9","0,1219, ","","","","","  78.7"," ,0,0704, ","   35.6","0,0821,+","-1.1","0,0911","-2.2","0,0930","-6.1","0,1017","-10.6","0,1024","-10.6","0,1024","0.0","0,0510","-6.7","0,0508","-6.7","0,0508","-6.7","0,0508","-11.7","0,0328","    4712.4","4","    4712.4","0","    506.7"," ,0","","","      4.59","0","     11.55","0","     -2.37","0"
"USC00322482","1956","46.36916","-98.76694","494.7","EDGELEY 3 WNW, ND US","    193.9","","     193.9","0","        94","0","        50","0","         2","0","      106","","        11","0","        45","0","       195","0","        88","0","       129","0","         7","0","","","","","  -32.8","0,0217, ","   178"," ,0,0204,+","   102"," ,0,0328, ","  34.0"," ,0,0619, ","   36.1","0,0613,+","-0.6","0,0906","-2.8","0,0929","-6.7","0,1009","-6.7","0,1009","-9.4","0,1108","-3.9","0,0504","-3.9","0,0504","-5.6","0,0429","-9.4","0,0428","-9.4","0,0428","    5376.2","2","    5376.2","0","    496.1"," ,0","      571"," ,0","      4.75","0","     11.34","0","     -1.83","0"
"USC00322482","1957","46.36916","-98.76694","494.7","EDGELEY 3 WNW, ND US","    225.9","","     225.9","0","        83","0","        51","0","         5","0","       65","","         8","0","        43","0","       183","0","        77","0","       112","0","        11","0","","","","","  -33.9","0,0129, ","   102"," ,0,1208,+","    76"," ,0,1230,+","  36.3"," ,0,0614, ","   36.1","0,0711, ","-1.1","0,0923","-3.9","0,0926","-4.4","0,1024","-10.6","0,1025","-10.6","0,1025","0.0","0,0516","-2.8","0,0509","-8.3","0,0414","-8.3","0,0414","-9.4","0,0413","    4941.9","9","    4941.9","0","    596.5"," ,0","      412"," ,0","      5.05","0","     11.35","0","     -1.24","0"
"USC00322482","1958","46.36916","-98.76694","494.7","EDGELEY 3 WNW, ND US","    184.4","","     184.4","0","        72","0","        40","0","         3","0","       55","","         7","0","        46","0","       192","0","        79","0","       118","0","        19","0","","","","","  -33.3","0,0216, ","   102"," ,0,0220,+","    76"," ,0,0125, ","  56.9"," ,0,0513, ","   40.6","0,0810, ","0.0","0,0917","-4.4","0,1001","-4.4","0,1001","-7.2","0,1119","-12.8","0,1124","-2.8","0,0506","-2.8","0,0506","-5.6","0,0501","-9.4","0,0429","-9.4","0,0429","    4803.3","3","    4803.3","0","    458.3"," ,0","      278"," ,0","      5.28","0","     12.18","0","     -1.62","0"
"USC00322482","1959","46.36916","-98.76694","494.7","EDGELEY 3 WNW, ND US","","","","","        65","0","        38","0","         4","0","       74","","        10","0","        52","0","       200","0","","","","","","","","","","","  -30.0","0,0201,+","   178"," ,0,1129,+","    76"," ,0,1127,+","  55.6"," ,0,0825, ","","","-1.1","0,0910","-3.9","0,0917","-6.1","0,1011","-7.8","0,1027","-9.4","0,1105","-0.6","0,0523","-6.1","0,0515","-6.1","0,0515","-8.3","0,0412","-9.4","0,0411","    5069.6","6","    5069.6","0","    521.2"," ,0","      514"," ,0","","","","","     -1.87","0"
"USC00322482","1960","46.36916","-98.76694","494.7","EDGELEY 3 WNW, ND US","","","","","        71","0","        41","0","         6","0","      124","","        11","0","","","","","        98","0","       133","0","        19","0","","","","","","","   254"," ,0,1231,+","   127"," ,0,1205,+","  77.2"," ,0,0825, ","   37.8","0,0721, ","","","","","","","","","","","","","","","","","","","","","","","","","    526.0"," ,0","      607"," ,0","","","     11.59","0","",""
"USC00322482","1961","46.36916","-98.76694","494.7","EDGELEY 3 WNW, ND US","    285.9","","     285.9","0","        68","0","        37","0","         2","0","       81","","         7","0","        42","0","       199","0","        67","0","       118","0","        24","0","","","","","  -33.3","0,0124, ","   330"," ,0,0208,+","   127"," ,0,0202, ","  41.1"," ,0,0818, ","   40.6","0,0628, ","-0.6","0,0923","-2.8","0,0928","-4.4","0,1019","-7.8","0,1026","-11.7","0,1103","-1.1","0,0526","-2.8","0,0509","-6.7","0,0503","-6.7","0,0503","-8.9","0,0412","    4848.5","5","    4848.5","0","    375.7"," ,0","      457"," ,0","      5.34","0","     12.28","0","     -1.60","0"
"USC00322482","1962","46.36916","-98.76694","494.7","EDGELEY 3 WNW, ND US","    141.0","","     141.0","0","        88","0","        49","0","         7","0","       89","","         9","0","        55","0","       187","0","        82","0","       117","0","         7","0","","","","","  -33.9","0,0117, ","   229"," ,0,0313,+","    89"," ,0,0114, ","  60.5"," ,0,0706, ","   33.9","0,0827,+","-0.6","0,0919","-2.8","0,1020","-5.0","0,1023","-10.6","0,1025","-10.6","0,1025","0.0","0,0429","-5.6","0,0416","-5.6","0,0416","-10.6","0,0415","-10.6","0,0415","    5266.7","7","    5266.7","0","    710.1"," ,0","      478"," ,0","      4.81","0","     11.20","0","     -1.58","0"
"USC00322482","1963","46.36916","-98.76694","494.7","EDGELEY 3 WNW, ND US","    272.9","","     272.9","0","        82","0","        31","0","         1","0","       81","","        10","0","        58","0","       176","0","        78","0","       149","0","        16","0","","","","","  -34.4","0,0119, ","   152"," ,0,1223,+","   102"," ,0,1208, ","  49.3"," ,0,0822, ","   37.8","0,0630, ","0.0","0,0913","-3.3","0,1028","-6.1","0,1029","-6.7","0,1101","-9.4","0,1113","-0.6","0,0523","-6.7","0,0522","-6.7","0,0522","-6.7","0,0522","-11.1","0,0404","    4762.6","6","    4762.6","0","    390.8"," ,0","      442"," ,0","      5.67","0","     13.02","0","     -1.68","0"
"USC00322482","1964","46.36916","-98.76694","494.7","EDGELEY 3 WNW, ND US","    204.6","","     204.6","0","        70","0","        41","0","         3","0","       86","","        17","0","        65","0","       204","0","        81","0","       123","0","        16","0","","","","","  -32.2","0,0112, ","   178"," ,0,0327,+","   102"," ,0,1127,+","  44.2"," ,0,0619, ","   35.6","0,0522, ","-0.6","0,0813","-4.4","0,0911","-4.4","0,0911","-11.1","0,1009","-11.1","0,1009","-2.2","0,0531","-2.2","0,0531","-5.6","0,0419","-7.2","0,0409","-12.8","0,0408","    4781.8","8","    4781.8","0","    436.9"," ,0","      903"," ,0","      4.40","0","     12.19","0","     -3.39","0"
"USC00322482","1965","46.36916","-98.76694","494.7","EDGELEY 3 WNW, ND US","    153.1","","     153.1","0","       101","0","        55","0","         2","0","       82","","        17","0","        64","0","       197","0","        94","0","       112","0","         6","0","","","","","  -34.4","0,0129, ","   229"," ,0,0203,+","   127"," ,0,0406, ","  34.8"," ,0,0722, ","   40.0","0,0814, ","-1.1","0,0905","-3.9","0,0924","-9.4","0,0926","-9.4","0,0926","-9.4","0,0926","-2.8","0,0528","-2.8","0,0528","-5.0","0,0427","-9.4","0,0331","-9.4","0,0331","    5723.1","1","    5723.1","0","    549.6"," ,0","      762"," ,0","      3.81","0","     10.56","0","     -2.93","0"
"USC00322482","1966","46.36916","-98.76694","494.7","EDGELEY 3 WNW, ND US","    244.6","","     244.6","0","        73","0","        34","0","         4","0","       85","","        13","0","        64","0","       208","0","        88","0","       121","0","        20","0","","","","","  -34.4","0,0219,+","   381"," ,0,0307,+","   102"," ,0,0411, ","  58.4"," ,0,0801,+","   37.2","0,0711, ","-1.1","0,0914","-2.8","0,0925","-4.4","0,1015","-7.8","0,1016","-9.4","0,1024","-0.6","0,0513","-3.9","0,0510","-8.3","0,0509","-8.3","0,0509","-10.6","0,0420","    5366.7","7","    5366.7","0","    467.2"," ,0","      621"," ,0","      3.78","0","     10.88","0","     -3.33","0"
"USC00322482","1967","46.36916","-98.76694","494.7","EDGELEY 3 WNW, ND US","    180.6","","     180.6","0","        74","0","        39","0","         1","0","       86","","        20","0","        48","0","       199","0","        88","0","       120","0","        20","0","","","","","  -36.1","0,1231, ","   203"," ,0,1231,+","   152"," ,0,0114, ","  33.3"," ,0,0614, ","   39.4","0,0801, ","-5.0","0,0927","-5.0","0,0927","-5.0","0,0927","-6.7","0,1027","-11.7","0,1028","0.0","0,0520","-3.9","0,0505","-6.7","0,0503","-6.7","0,0503","-9.4","0,0404","    5287.8","8","    5287.8","0","    374.5"," ,0","      910"," ,0","      4.58","0","     11.69","0","     -2.53","0"
"USC00322482","1968","46.36916","-98.76694","494.7","EDGELEY 3 WNW, ND US","","","","","        78","0","        44","0","         3","0","       49","","         8","0","        48","0","       174","0","        87","0","       112","0","        10","0","","","","","  -34.4","0,0104,+","   254"," ,0,0112,+","   152"," ,0,0408, ","  42.2"," ,0,0908, ","   36.1","0,0604, ","0.0","0,1003","-2.2","0,1004","-5.6","0,1019","-6.7","0,1106","-11.1","0,1108","0.0","0,0521","-4.4","0,0505","-4.4","0,0505","-9.4","0,0406","-9.4","0,0406","","","","","    530.7"," ,0","      542"," ,0","      4.96","0","     11.14","0","     -1.23","0"
"USC00322482","1969","46.36916","-98.76694","494.7","EDGELEY 3 WNW, ND US","    214.8","","     214.8","0","        79","0","        42","0","         3","0","      117","","","","        56","0","       191","0","       105","0","       107","0","        10","0","","","","","  -30.0","0,0111, ","   889"," ,0,0228,+","","","  57.4"," ,0,0625, ","   38.3","0,0528, ","-1.1","0,1008","-3.3","0,1014","-5.6","0,1027","-9.4","0,1028","-9.4","0,1028","-1.1","0,0620","-3.3","0,0429","-4.4","0,0427","-7.8","0,0405","-10.6","0,0402","    5333.1","1","    5333.1","0","    432.7"," ,0","","","      4.19","0","     10.26","0","     -1.89","0"
"USC00322482","1970","46.36916","-98.76694","494.7","EDGELEY 3 WNW, ND US","    403.0","","     403.0","0","        99","0","        45","0","         3","0","      151","","        13","0","        53","0","       187","0","        96","0","       129","0","        35","0","","","        27"," ","  -33.3","0,0118, ","   279"," ,0,0205,+","   178"," ,0,0413, ","  36.3"," ,0,0729, ","   37.8","0,0827, ","-1.1","0,0913","-3.9","0,1009","-5.0","0,1010","-14.4","0,1114","-14.4","0,1114","-1.7","0,0505","-2.2","0,0501","-6.1","0,0404","-7.8","0,0402","-12.8","0,0401","    5098.2","2","    5098.2","0","    423.1"," ,0","      812"," ,0","      4.87","0","     11.19","0","     -1.46","0"
"USC00322482","1971","46.36916","-98.76694","494.7","EDGELEY 3 WNW, ND US","    243.9","","     243.9","0","        91","0","        43","0","         5","0","      121","","        12","0","        48","0","       171","0","       104","0","       125","0","        15","0","","","        23"," ","  -30.6","0,0207,+","   330"," ,0,0210,+","   102"," ,0,0204, ","  55.1"," ,0,1002, ","   38.3","0,0822,+","0.0","0,0919","-2.8","0,1028","-5.0","0,1029","-7.2","0,1031","-8.9","0,1105","-0.6","0,0512","-5.6","0,0414","-5.6","0,0414","-11.7","0,0404","-11.7","0,0404","    5087.6","6","    5087.6","0","    535.5"," ,0","      571"," ,0","      5.02","0","     11.08","0","     -1.04","0"
"USC00322482","1972","46.36916","-98.76694","494.7","EDGELEY 3 WNW, ND US","    311.9","","     311.9","0","        92","0","        41","0","         2","0","      120","","        16","0","        62","0","       183","0","        91","0","       131","0","        20","0","","","        24"," ","  -36.1","0,0115, ","   305"," ,0,0212,+","    76"," ,0,1230,+","  35.3"," ,0,0524, ","   36.7","0,0829, ","0.0","0,0929","-2.2","0,1006","-6.7","0,1017","-6.7","0,1017","-12.2","0,1018","-0.6","0,0507","-2.2","0,0504","-5.0","0,0407","-6.7","0,0404","-10.0","0,0329","    5168.3","3","    5168.3","0","    396.8"," ,0","      812"," ,0","      4.67","0","     10.68","0","     -1.34","0"
"USC00322482","1973","46.36916","-98.76694","494.7","EDGELEY 3 WNW, ND US","","","","","","","","","","","","","","","","","","","","","","","","","","","        21"," ","","","","","","","","","","","","","","","","","","","","","","","","","","","","","","","","","","","","","","","","","","","",""
"USC00322482","1974","46.36916","-98.76694","494.7","EDGELEY 3 WNW, ND US","    279.4","","     279.4","0","        86","0","        38","0","         3","0","       63","","         6","0","        32","0","       181","0","        78","0","       123","0","        22","0","","","","","  -30.0","0,0112,+","   229"," ,0,0214,+","    51"," ,0,0201, ","  50.0"," ,0,0820, ","   37.2","0,0707, ","-5.0","0,0922","-5.0","0,0922","-5.0","0,0922","-6.7","0,0930","-9.4","0,1115","-0.6","0,0506","-2.8","0,0423","-4.4","0,0407","-10.0","0,0406","-10.0","0,0406","","","","","    441.3"," ,0","      189"," ,0","      6.07","0","     12.79","0","     -0.65","0"
"USC00322482","1975","46.36916","-98.76694","494.7","EDGELEY 3 WNW, ND US","    307.7","","     307.7","0","        97","0","        48","0","         4","0","      108","","        12","0","        42","0","       172","0","        98","0","       129","0","        17","0","","","","","  -27.8","0,0209,+","   457"," ,0,0409, ","   127"," ,0,0328, ","  63.2"," ,0,0629, ","   38.3","0,0729,+","-1.7","0,1001","-2.2","0,1025","-6.7","0,1028","-6.7","0,1028","-11.7","0,1113","-0.6","0,0503","-3.3","0,0420","-4.4","0,0411","-12.2","0,0404","-12.2","0,0404","    4818.5","5","    4818.5","0","    509.6"," ,0","      692"," ,0","      5.81","0","     11.96","0","     -0.33","0"
"USC00322482","1976","46.36916","-98.76694","494.7","EDGELEY 3 WNW, ND US","","","","","","","","","","","","","","","","","","","","","","","","","","","","","","","","","","","","","","","","","","","","","","","","","","","","","","","","","","","    4399.5","5","    4399.5","0","","","","","","","","","",""
"USC00322482","1987","46.36916","-98.76694","494.7","EDGELEY 3 WNW, ND US","","","","","","","","","","","","","","","","","","","","","","","","","        11"," ","         2"," ","","","","","","","","","","","","","","","","","","","","","","","","","","","","","","","","","","","","","","","","","","","",""
"USC00322482","1988","46.36916","-98.76694","494.7","EDGELEY 3 WNW, ND US","    455.1","","     455.1","0","        44","0","        31","0","         3","0","","","        13","0","        46","0","       187","0","        76","0","       143","0","        45","0","         3"," ","         1"," ","  -31.1","0,0211, ","","","   297"," ,0,0312, ","  43.9"," ,0,0802, ","   40.0","0,0707, ","-5.6","0,1004","-5.6","0,1004","-5.6","0,1004","-7.2","0,1025","-10.0","0,1028","-0.6","0,0516","-3.9","0,0513","-6.1","0,0423","-6.7","0,0422","-10.6","0,0419","","","","","    326.9"," ,0","     1161"," ,0","      6.42","0","     13.38","0","     -0.53","0"
"USC00322482","1989","46.36916","-98.76694","494.7","EDGELEY 3 WNW, ND US","","","","","        77","0","        43","0","         3","0","      127","","        13","0","","","","","","","","","","","        13"," ","         9"," ","","","   305"," ,0,0114,+","   165"," ,0,1127, ","  65.3"," ,0,0819, ","","","","","","","","","","","","","","","","","","","","","","","    5003.4","4","    5003.4","0","    434.3"," ,0","     1017"," ,0","","","","","",""
"USC00322482","1990","46.36916","-98.76694","494.7","EDGELEY 3 WNW, ND US","    268.9","","     268.9","0","        58","0","        42","0","         2","0","       61","","        13","0","        26","0","       193","0","        57","0","       125","0","        12","0","        10"," ","        22"," ","  -33.3","0,1226, ","   254"," ,0,0429, ","   152"," ,0,0428, ","  40.6"," ,0,0602, ","   36.1","0,0912, ","0.0","0,0923","-4.4","0,1007","-4.4","0,1007","-8.3","0,1018","-10.6","0,1104","-1.7","0,0518","-3.3","0,0510","-4.4","0,0503","-6.7","0,0417","-11.7","0,0406","","","","","    408.6"," ,0","     1041"," ,0","      6.52","0","     13.35","0","     -0.31","0"
"USC00322482","1991","46.36916","-98.76694","494.7","EDGELEY 3 WNW, ND US","","","","","        66","0","        44","0","         4","0","       88","","        12","0","","","","","","","","","","","        19"," ","        11"," ","","","   203"," ,0,0112,+","   155"," ,0,0504, ","  82.6"," ,0,0620, ","","","","","","","","","","","","","","","","","","","","","","","","","","","    566.6"," ,0","      662"," ,0","","","","","",""
"USC00322482","1992","46.36916","-98.76694","494.7","EDGELEY 3 WNW, ND US","    107.9","","     107.9","0","","","","","","","      111","","        15","0","        23","0","       183","0","        85","0","       108","0","         8","0","        30"," ","","","  -27.2","0,1229, ","   203"," ,0,1108,+","   152"," ,0,0108, ","","","   35.0","0,0520,+","-0.6","0,0922","-5.0","0,0928","-5.0","0,0928","-8.9","0,1015","-8.9","0,1015","0.0","0,0523","-3.9","0,0522","-5.0","0,0422","-11.1","0,0412","-11.1","0,0412","    4398.1","1","    4398.1","0","","","     1104"," ,0","      5.60","0","     11.59","0","     -0.38","0"
"USC00322482","1993","46.36916","-98.76694","494.7","EDGELEY 3 WNW, ND US","     94.7","","      94.7","0","","","","","","","      115","","        18","0","        46","0","       189","0","        92","0","        88","0","         5","0","        38"," ","         1"," ","  -32.2","0,1228,+","   737"," ,0,1127, ","   279"," ,0,1125, ","","","   32.8","0,1007,+","-2.2","0,0915","-2.2","0,0915","-8.9","0,1009","-8.9","0,1009","-8.9","0,1009","-0.6","0,0518","-2.2","0,0426","-4.4","0,0425","-8.3","0,0323","-8.9","0,0322","    5195.2","2","    5195.2","0","    642.4"," ,0","     1713"," ,0","      3.94","0","      9.73","0","     -1.86","0"
"USC00322482","1994","46.36916","-98.76694","494.7","EDGELEY 3 WNW, ND US","    149.6","","     149.6","0","        69","0","        49","0","         5","0","      111","","        19","0","        49","0","       162","0","        91","0","       121","0","         1","0","        17"," ","         2"," ","  -35.0","0,0118,+","   610"," ,0,0117,+","   152"," ,0,0324, ","  69.3"," ,0,0708, ","   32.8","0,0731, ","0.0","0,0926","-2.8","0,1024","-5.0","0,1025","-6.7","0,1109","-11.1","0,1119","0.0","0,0507","-3.9","0,0429","-5.6","0,0427","-7.8","0,0406","-10.0","0,0326","    4963.0","0","    4963.0","0","    572.9"," ,0","     1346"," ,0","      4.83","0","     10.58","0","     -0.92","0"
"USC00322482","1995","46.36916","-98.76694","494.7","EDGELEY 3 WNW, ND US","    257.5","","     257.5","0","        74","0","        53","0","         5","0","","","        23","0","        37","0","       176","0","        99","0","       110","0","        11","0","        49"," ","         3"," ","  -27.8","0,0308, ","","","   305"," ,0,0327, ","  53.8"," ,0,0509, ","   34.4","0,0618, ","-2.2","0,0920","-2.2","0,0920","-5.0","0,0922","-8.9","0,1102","-8.9","0,1102","0.0","0,0428","-2.2","0,0413","-4.4","0,0409","-13.9","0,0405","-13.9","0,0405","    4761.8","8","    4761.8","0","    606.3"," ,0","     1488"," ,0","      4.66","0","     10.11","0","     -0.78","0"
"USC00322482","1996","46.36916","-98.76694","494.7","EDGELEY 3 WNW, ND US","","","","","        78","0","        51","0","         4","0","      124","","        23","0","        60","0","       189","0","       109","0","       113","0","         4","0","        29"," ","         6"," ","  -35.0","0,0203,+","   356"," ,0,1125,+","   203"," ,0,0324, ","  88.9"," ,0,0902, ","   35.0","0,0829,+","0.0","0,0929","-5.0","0,1003","-5.0","0,1003","-11.1","0,1030","-11.1","0,1030","0.0","0,0512","-2.2","0,0510","-5.0","0,0427","-7.2","0,0406","-12.2","0,0405","","","","","    582.0"," ,0","     1598"," ,0","      3.04","0","      8.71","0","     -2.62","0"
"USC00322482","1997","46.36916","-98.76694","494.7","EDGELEY 3 WNW, ND US","","","","","        60","0","        42","0","         4","0","      137","","        20","0","        42","0","       176","0","        96","0","       136","0","         7","0","        21"," ","","","  -31.1","0,0126, ","   711"," ,0,0216,+","   203"," ,0,0406, ","  50.3"," ,0,0406, ","   35.6","0,0803, ","-0.6","0,1013","-3.3","0,1020","-6.7","0,1021","-6.7","0,1021","-12.2","0,1026","-4.4","0,0520","-4.4","0,0520","-4.4","0,0520","-7.2","0,0515","-11.7","0,0412","","","","","    450.6"," ,0","     1806"," ,0","      5.21","0","     11.22","0","     -0.79","0"
"USC00322482","1998","46.36916","-98.76694","494.7","EDGELEY 3 WNW, ND US","    258.9","","     258.9","0","        65","0","        50","0","         8","0","","","        14","0","        29","0","       147","0","        76","0","       131","0","        14","0","        22"," ","         2"," ","  -28.9","0,0113, ","","","   203"," ,0,1110, ","  72.4"," ,0,0803, ","   35.0","0,0911,+","0.0","0,1001","-2.2","0,1013","-4.4","0,1103","-6.7","0,1105","-16.1","0,1112","-1.1","0,0417","-4.4","0,0416","-4.4","0,0416","-6.7","0,0320","-15.6","0,0315","    4123.8","8","    4123.8","0","    717.2"," ,0","      920"," ,0","      6.92","0","     12.49","0","      1.34","0"
"USC00322482","1999","46.36916","-98.76694","494.7","EDGELEY 3 WNW, ND US","","","","","","","","","","","       65","","        14","0","","","","","","","","","","","        10"," ","        13"," ","","","   330"," ,0,0114, ","   127"," ,0,0404,+","","","","","","","","","","","","","","","","","","","","","","","","","    3969.9","9","    3969.9","0","","","      734"," ,0","","","","","",""
"USC00322482","2000","46.36916","-98.76694","494.7","EDGELEY 3 WNW, ND US","","","","","","","","","","","","","","","","","","","","","","","","","        11"," ","         3"," ","","","","","","","","","","","","","","","","","","","","","","","","","","","","","","","","","","","","","","","","","","","",""
"USC00322482","2001","46.36916","-98.76694","494.7","EDGELEY 3 WNW, ND US","","","","","","","","","","","","","","","","","","","","","","","","","        14"," ","         4"," ","","","","","","","","","","","","","","","","","","","","","","","","","","","","","","","","","","","","","","","","","","","",""
"USC00322482","2002","46.36916","-98.76694","494.7","EDGELEY 3 WNW, ND US","","","","","","","","","","","","","","","","","","","","","","","","","         3"," ","         2"," ","","","","","","","","","","","","","","","","","","","","","","","","","","","","","","","","","","","","","","","","","","","",""
"USC00322482","2003","46.36916","-98.76694","494.7","EDGELEY 3 WNW, ND US","","","","","","","","","","","","","","","","","","","","","","","","","         2"," ","         2"," ","","","","","","","","","","","","","","","","","","","","","","","","","","","","","","","","","","","","","","","","","","","",""
"USC00322482","2004","46.36916","-98.76694","494.7","EDGELEY 3 WNW, ND US","","","","","","","","","","","","","","","","","","","","","","","","","         5"," ","         1"," ","","","","","","","","","","","","","","","","","","","","","","","","","","","","","","","","","","","","","","","","","","","",""
"USC00322482","2005","46.36916","-98.76694","494.7","EDGELEY 3 WNW, ND US","","","","","","","","","","","","","","","","","","","","","","","","","         5"," ","         5"," ","","","","","","","","","","","","","","","","","","","","","","","","","","","","","","","","","","","","","","","","","","","",""
"USC00322482","2006","46.36916","-98.76694","494.7","EDGELEY 3 WNW, ND US","","","","","","","","","","","","","","","","","","","","","","","","","         5"," ","         8"," ","","","","","","","","","","","","","","","","","","","","","","","","","","","","","","","","","","","","","","","","","","","",""
"USC00322482","2007","46.36916","-98.76694","494.7","EDGELEY 3 WNW, ND US","","","","","","","","","","","","","","","","","","","","","","","","","         4"," ","         3"," ","","","","","","","","","","","","","","","","","","","","","","","","","","","","","","","","","","","","","","","","","","","",""
"USC00322482","2008","46.36916","-98.76694","494.7","EDGELEY 3 WNW, ND US","","","","","","","","","","","","","","","","","","","","","","","","","         1"," ","","","","","","","","","","","","","","","","","","","","","","","","","","","","","","","","","","","","","","","","","","","","","",""
"USC00322482","2009","46.36916","-98.76694","494.7","EDGELEY 3 WNW, ND US","","","","","","","","","","","","","","","","","","","","","","","","","         7"," ","","","","","","","","","","","","","","","","","","","","","","","","","","","","","","","","","","","","","","","","","","","","","",""
"USC00322482","2010","46.36916","-98.76694","494.7","EDGELEY 3 WNW, ND US","","","","","","","","","","","","","","","","","","","","","","","","","        15"," ","","","","","","","","","","","","","","","","","","","","","","","","","","","","","","","","","","","","","","","","","","","","","",""
"USC00322482","2012","46.36916","-98.76694","494.7","EDGELEY 3 WNW, ND US","","","","","","","","","","","","","","","","","","","","","","","","","        31"," ","         3"," ","","","","","","","","","","","","","","","","","","","","","","","","","","","","","","","","","","","","","","","","","","","",""
"USC00322482","2013","46.36916","-98.76694","494.7","EDGELEY 3 WNW, ND US","","","","","","","","","","","","","","","","","","","","","","","","","        29"," ","         7"," ","","","","","","","","","","","","","","","","","","","","","","","","","","","","","","","","","","","","","","","","","","","",""
"USC00322482","2014","46.36916","-98.76694","494.7","EDGELEY 3 WNW, ND US","","","","","","","","","","","","","","","","","","","","","","","","","        13"," ","         6"," ","","","","","","","","","","","","","","","","","","","","","","","","","","","","","","","","","","","","","","","","","","","",""
"USC00322482","2015","46.36916","-98.76694","494.7","EDGELEY 3 WNW, ND US","","","","","        49","7","        41","7","         4","7","","","","","        28","7","       149","7","        74","7","       125","7","        10","7","         9"," ","","","  -28.9","7,0222, ","","","","","  48.3"," ,7,0511, ","   34.4","7,0904, ","-2.2","7,1016","-2.2","7,1016","-5.0","7,1113","-12.2","7,1120","-12.2","7,1120","-1.1","7,0519","-8.3","7,0423","-8.3","7,0423","-8.3","7,0423","-10.0","7,0403","","","","","    487.3"," ,7","","","      6.88","7","     12.56","7","      1.21","7"
"USC00322482","2016","46.36916","-98.76694","494.7","EDGELEY 3 WNW, ND US","","","","","","","","","","","","","","","","","","","","","","","","","        10"," ","","","","","","","","","","","","","","","","","","","","","","","","","","","","","","","","","    3961.1","1","    3961.1"," ","","","","","","","","","",""
"USC00322482","2017","46.36916","-98.76694","494.7","EDGELEY 3 WNW, ND US","    213.7","","     213.7","7","","","","","","","","","","","        28","7","       154","7","        81","7","       127","7","        10","7","","","         3"," ","  -31.7","7,1231, ","","","","","","","   35.6","7,0712,+","0.0","7,1009","-2.2","7,1011","-10.0","7,1028","-10.0","7,1028","-10.0","7,1028","-0.6","7,0430","-3.3","7,0429","-5.6","7,0417","-7.2","7,0322","-12.2","7,0315","","","","","","","","","      6.49","7","     12.20","7","      0.79","7"
"USC00322482","2018","46.36916","-98.76694","494.7","EDGELEY 3 WNW, ND US","","","","","        60","7","        49","7","         5","7","","","","","","","","","","","","","","","","","","","","","","","","","  43.7"," ,7,0518, ","","","","","","","","","","","","","","","","","","","","","","","","","","","    578.4"," ,7","","","","","","","",""
