"STATION","DATE","LATITUDE","LONGITUDE","ELEVATION","NAME","DP01","DP01_ATTRIBUTES","DP10","DP10_ATTRIBUTES","DP1X","DP1X_ATTRIBUTES","DSND","DSND_ATTRIBUTES","DSNW","DSNW_ATTRIBUTES","DYTS","DYTS_ATTRIBUTES","EMSD","EMSD_ATTRIBUTES","EMSN","EMSN_ATTRIBUTES","EMXP","EMXP_ATTRIBUTES","PRCP","PRCP_ATTRIBUTES","SNOW","SNOW_ATTRIBUTES"
"USC00022525","1953","35.88333","-114.0","1097.9","DIAMOND BAR RANCH, AZ US","        23","0","        12","0","         0","0","        2","","         1","0","","","    51"," ,0,1204, ","    51"," ,0,1204, ","  15.2"," ,0,0713, ","     75.2"," ,0","       51"," ,0"
"USC00022525","1954","35.88333","-114.0","1097.9","DIAMOND BAR RANCH, AZ US","        31","0","        22","0","         1","0","        0","","         2","0","","","     0","T,0,0510, ","    76"," ,0,0317, ","  25.4"," ,0,0214, ","    284.6"," ,0","      101"," ,0"
"USC00022525","1955","35.88333","-114.0","1097.9","DIAMOND BAR RANCH, AZ US","        32","0","        28","0","         3","0","        0","","         1","0","         1"," ","     0"," ,0,1231,+","    51"," ,0,0204, ","  46.0"," ,0,0822, ","    317.6"," ,0","       51"," ,0"
