"STATION","DATE","LATITUDE","LONGITUDE","ELEVATION","NAME","DP01","DP01_ATTRIBUTES","DP10","DP10_ATTRIBUTES","DP1X","DP1X_ATTRIBUTES","DSNW","DSNW_ATTRIBUTES","DYFG","DYFG_ATTRIBUTES","DYTS","DYTS_ATTRIBUTES","EMSN","EMSN_ATTRIBUTES","EMXP","EMXP_ATTRIBUTES","PRCP","PRCP_ATTRIBUTES","SNOW","SNOW_ATTRIBUTES"
"USC00304952","1932","43.0731","-77.30196","142.0","MACEDON, NY US","       111","6","        70","6","         7","6","","","","","","","","","  40.6"," ,6,1006, ","    845.9"," ,6","",""
"USC00304952","1933","43.0731","-77.30196","142.0","MACEDON, NY US","       111","6","        64","6","         2","6","","","","","","","","","  47.0"," ,6,0513, ","    676.0"," ,6","",""
"USC00304952","1934","43.0731","-77.30196","142.0","MACEDON, NY US","       116","6","        72","6","         3","6","","","","","","","","","  45.7"," ,6,0606, ","    626.3"," ,6","",""
"USC00304952","1935","43.0731","-77.30196","142.0","MACEDON, NY US","       131","6","        76","6","         6","6","","","","","","","","","  58.4"," ,6,0707, ","    812.6"," ,6","",""
"USC00304952","1937","43.0731","-77.30196","142.0","MACEDON, NY US","       126","6","        77","6","         6","6","","","","","","","","","  38.9"," ,6,0809, ","    875.2"," ,6","",""
"USC00304952","1938","43.0731","-77.30196","142.0","MACEDON, NY US","       119","6","        62","6","         4","6","","","","","","","",""," 102.9"," ,6,0811, ","    749.2"," ,6","",""
"USC00304952","1939","43.0731","-77.30196","142.0","MACEDON, NY US","       124","6","        76","6","         2","6","","","","","","","","","  41.1"," ,6,0131, ","    752.6"," ,6","",""
"USC00304952","1940","43.0731","-77.30196","142.0","MACEDON, NY US","       135","6","        77","6","         1","6","","","","","","","","","  46.7"," ,6,0220, ","    842.6"," ,6","",""
"USC00304952","1941","43.0731","-77.30196","142.0","MACEDON, NY US","       107","6","        69","6","         3","6","","","","","","","","","  30.5"," ,6,0826, ","    686.7"," ,6","",""
"USC00304952","1942","43.0731","-77.30196","142.0","MACEDON, NY US","       135","6","        74","6","         5","6","","","","","","","","","  42.7"," ,6,0208, ","    888.4"," ,6","",""
"USC00304952","1943","43.0731","-77.30196","142.0","MACEDON, NY US","       143","6","        85","6","         6","6","","","","","","","","","  50.8"," ,6,0526, ","    906.0"," ,6","",""
"USC00304952","1944","43.0731","-77.30196","142.0","MACEDON, NY US","       128","6","        85","6","         6","6","","","","","","","","","  38.1"," ,6,1212, ","    881.1"," ,6","",""
"USC00304952","1945","43.0731","-77.30196","142.0","MACEDON, NY US","       173","6","        92","6","         8","6","","","","","","","","","  65.5"," ,6,0919, ","   1087.7"," ,6","",""
"USC00304952","1946","43.0731","-77.30196","142.0","MACEDON, NY US","       133","6","        69","6","         5","6","","","","","","","","","  55.9"," ,6,0814, ","    819.3"," ,6","",""
"USC00304952","1947","43.0731","-77.30196","142.0","MACEDON, NY US","       151","6","        85","6","         2","6","","","","","","","","","  41.7"," ,6,0603, ","    936.1"," ,6","",""
"USC00304952","1948","43.0731","-77.30196","142.0","MACEDON, NY US","       141","0","        80","0","         1","0","        14","0","","","","","   165"," ,0,0312, ","  27.9"," ,0,0406, ","    818.0"," ,0","     1090"," ,0"
"USC00304952","1949","43.0731","-77.30196","142.0","MACEDON, NY US","       131","0","        73","0","         5","0","        12","0","","","","","   152"," ,0,0101, ","  48.0"," ,0,0630, ","    762.2"," ,0","      954"," ,0"
"USC00304952","1950","43.0731","-77.30196","142.0","MACEDON, NY US","       148","0","        82","0","         7","0","","","","","","","","","  60.5"," ,0,1009, ","    975.4"," ,0","",""
"USC00304952","1951","43.0731","-77.30196","142.0","MACEDON, NY US","       162","0","        90","0","         5","0","","","","","","","","","  40.6"," ,0,0611, ","    891.7"," ,0","",""
"USC00304952","1952","43.0731","-77.30196","142.0","MACEDON, NY US","       135","0","        67","0","         4","0","","","","","","","","","  52.6"," ,0,0916, ","    810.4"," ,0","",""
"USC00304952","1953","43.0731","-77.30196","142.0","MACEDON, NY US","       132","0","        74","0","         2","0","","","","","","","","","  43.2"," ,0,0324, ","    753.3"," ,0","",""
"USC00304952","1954","43.0731","-77.30196","142.0","MACEDON, NY US","       155","0","        76","0","         5","0","","","","","","","","","  34.8"," ,0,0330, ","    859.8"," ,0","",""
"USC00304952","1955","43.0731","-77.30196","142.0","MACEDON, NY US","       141","0","        72","0","         6","0","        30","0","","","","","    89"," ,0,1231,+","  76.2"," ,0,0814, ","    896.2"," ,0","     1521"," ,0"
"USC00304952","1956","43.0731","-77.30196","142.0","MACEDON, NY US","       152","0","        90","0","         5","0","        27","0","","","","","   241"," ,0,0317, ","  30.5"," ,0,0307, ","    885.2"," ,0","     2090"," ,0"
"USC00304952","1957","43.0731","-77.30196","142.0","MACEDON, NY US","       125","0","        63","0","         3","0","        15","0","","","","","   127"," ,0,0110, ","  35.6"," ,0,0520, ","    582.5"," ,0","     1092"," ,0"
"USC00304952","1958","43.0731","-77.30196","142.0","MACEDON, NY US","       158","0","       100","0","         3","0","        31","0","","","","","   305"," ,0,0204, ","  34.3"," ,0,1017, ","    933.2"," ,0","     2211"," ,0"
"USC00304952","1959","43.0731","-77.30196","142.0","MACEDON, NY US","       132","0","        84","0","         5","0","        21","0","","","","","   152"," ,0,1222,+","  48.8"," ,0,1001, ","    977.9"," ,0","     1901"," ,0"
"USC00304952","1960","43.0731","-77.30196","142.0","MACEDON, NY US","       131","0","        72","0","         5","0","        28","0","","","","","   305"," ,0,0214, ","  69.3"," ,0,0615, ","    820.3"," ,0","     2541"," ,0"
"USC00304952","1961","43.0731","-77.30196","142.0","MACEDON, NY US","       135","0","        75","0","         5","0","        15","0","","","","","   216"," ,0,0204, ","  36.8"," ,0,0225, ","    851.0"," ,0","     1573"," ,0"
"USC00304952","1962","43.0731","-77.30196","142.0","MACEDON, NY US","       115","0","        58","0","         4","0","        10","0","","","","","   203"," ,0,0224, ","  36.3"," ,0,0927, ","    653.2"," ,0","     1002"," ,0"
"USC00304952","1963","43.0731","-77.30196","142.0","MACEDON, NY US","","","","","","","        21","0","         4"," ","","","   127"," ,0,1219,+","","","    652.9"," ,0","     1747"," ,0"
"USC00304952","1964","43.0731","-77.30196","142.0","MACEDON, NY US","","","","","","","        13","0","","","         7"," ","   267"," ,0,0311, ","","","    567.2"," ,0","     1481"," ,0"
"USC00304952","1965","43.0731","-77.30196","142.0","MACEDON, NY US","","","","","","","","","","","        26"," ","","","","","    773.3"," ,0","",""
"USC00304952","1966","43.0731","-77.30196","142.0","MACEDON, NY US","","","","","","","","","","","        19"," ","","","","","    778.0"," ,0","",""
"USC00304952","1967","43.0731","-77.30196","142.0","MACEDON, NY US","","","","","","","","","","","        29"," ","","","","","    756.7"," ,0","",""
"USC00304952","1968","43.0731","-77.30196","142.0","MACEDON, NY US","","","","","","","","","","","        18"," ","","","","","    904.9"," ,0","",""
"USC00304952","1969","43.0731","-77.30196","142.0","MACEDON, NY US","","","","","","","","","","","        30"," ","","","","","    810.5"," ,0","",""
"USC00304952","1970","43.0731","-77.30196","142.0","MACEDON, NY US","","","","","","","","","","","        31"," ","","","","","    913.5"," ,0","     2695"," ,0"
"USC00304952","1971","43.0731","-77.30196","142.0","MACEDON, NY US","","","","","","","","","","","        18"," ","","","","","","","",""
"USC00304952","1972","43.0731","-77.30196","142.0","MACEDON, NY US","","","","","","","","","","","         9"," ","","","","","","","",""
"USC00304952","1973","43.0731","-77.30196","142.0","MACEDON, NY US","","","","","","","","","","","        14"," ","","","","","","","",""
"USC00304952","1974","43.0731","-77.30196","142.0","MACEDON, NY US","","","","","","","","","","","         2"," ","","","","","","","",""
"USC00304952","1975","43.0731","-77.30196","142.0","MACEDON, NY US","","","","","","","","","","","         2"," ","","","","","","","",""
"USC00304952","1976","43.0731","-77.30196","142.0","MACEDON, NY US","","","","","","","","","","","         1"," ","","","","","","","",""
"USC00304952","1977","43.0731","-77.30196","142.0","MACEDON, NY US","","","","","","","","","","","        13"," ","","","","","","","",""
"USC00304952","1978","43.0731","-77.30196","142.0","MACEDON, NY US","","","","","","","","","","","         7"," ","","","","","","","",""
"USC00304952","1988","43.0731","-77.30196","142.0","MACEDON, NY US","","","","","","","","","         1"," ","        10"," ","","","","","    570.8"," ,0","",""
"USC00304952","1989","43.0731","-77.30196","142.0","MACEDON, NY US","","","","","","","","","         4"," ","         5"," ","","","","","","","",""
"USC00304952","1990","43.0731","-77.30196","142.0","MACEDON, NY US","","","","","","","         8","0","         7"," ","         7"," ","   203"," ,0,0130, ","","","    966.7"," ,0","      846"," ,0"
"USC00304952","1991","43.0731","-77.30196","142.0","MACEDON, NY US","","","","","","","","","         4"," ","         5"," ","","","","","","","",""
"USC00304952","1992","43.0731","-77.30196","142.0","MACEDON, NY US","","","","","","","","","","","         7"," ","","","","","","","",""
"USC00304952","1993","43.0731","-77.30196","142.0","MACEDON, NY US","","","","","","","","","         2"," ","         4"," ","","","","","    764.1"," ,0","",""
"USC00304952","1994","43.0731","-77.30196","142.0","MACEDON, NY US","","","","","","","","","","","","","","","","","    765.6"," ,0","",""
"USC00304952","1995","43.0731","-77.30196","142.0","MACEDON, NY US","       102","0","        51","0","         4","0","","","","","","","","","  78.7"," ,0,1021, ","    570.2"," ,0","",""
"USC00304952","1998","43.0731","-77.30196","142.0","MACEDON, NY US","        72","0","        60","0","         8","0","","","","","","","","","  67.6"," ,0,0108, ","    774.7"," ,0","",""
"USC00304952","2000","43.0731","-77.30196","142.0","MACEDON, NY US","        94","0","        76","0","         6","0","","","","","","","","","  48.3"," ,0,0513, ","    901.7"," ,0","",""
"USC00304952","2001","43.0731","-77.30196","142.0","MACEDON, NY US","        71","0","        48","0","         2","0","","","","","","","","","  61.2"," ,0,0925, ","    563.1"," ,0","",""
"USC00304952","2004","43.0731","-77.30196","142.0","MACEDON, NY US","       106","0","        75","0","         5","0","","","","","","","","","  61.0"," ,0,0909, ","    797.9"," ,0","",""
"USC00304952","2005","43.0731","-77.30196","142.0","MACEDON, NY US","       102","0","        69","0","         7","0","","","","","","","","","  53.8"," ,0,0404, ","    856.6"," ,0","",""
"USC00304952","2008","43.0731","-77.30196","142.0","MACEDON, NY US","","","","","","","","","","","","","","","","","    828.0"," ,0","",""
"USC00304952","2012","43.0731","-77.30196","142.0","MACEDON, NY US","       166","7","        93","7","         5","7","","","","","","","","","  53.6"," ,7,0905, ","    961.6"," ,7","",""
"USC00304952","2015","43.0731","-77.30196","142.0","MACEDON, NY US","","","","","","","","","","","","","","","","","   1021.6"," ,7","",""
"USC00304952","2019","43.0731","-77.30196","142.0","MACEDON, NY US","","","","","","","","","","","","","","","","","    997.2"," ,7","",""
