"STATION","DATE","LATITUDE","LONGITUDE","ELEVATION","NAME","CDSD","CDSD_ATTRIBUTES","CLDD","CLDD_ATTRIBUTES","DP01","DP01_ATTRIBUTES","DP10","DP10_ATTRIBUTES","DP1X","DP1X_ATTRIBUTES","DSND","DSND_ATTRIBUTES","DSNW","DSNW_ATTRIBUTES","DT00","DT00_ATTRIBUTES","DT32","DT32_ATTRIBUTES","DX32","DX32_ATTRIBUTES","DX70","DX70_ATTRIBUTES","DX90","DX90_ATTRIBUTES","DYFG","DYFG_ATTRIBUTES","DYTS","DYTS_ATTRIBUTES","EMNT","EMNT_ATTRIBUTES","EMSD","EMSD_ATTRIBUTES","EMSN","EMSN_ATTRIBUTES","EMXP","EMXP_ATTRIBUTES","EMXT","EMXT_ATTRIBUTES","FZF0","FZF0_ATTRIBUTES","FZF1","FZF1_ATTRIBUTES","FZF2","FZF2_ATTRIBUTES","FZF3","FZF3_ATTRIBUTES","FZF4","FZF4_ATTRIBUTES","FZF5","FZF5_ATTRIBUTES","FZF6","FZF6_ATTRIBUTES","FZF7","FZF7_ATTRIBUTES","FZF8","FZF8_ATTRIBUTES","FZF9","FZF9_ATTRIBUTES","HDSD","HDSD_ATTRIBUTES","HTDD","HTDD_ATTRIBUTES","PRCP","PRCP_ATTRIBUTES","SNOW","SNOW_ATTRIBUTES","TAVG","TAVG_ATTRIBUTES","TMAX","TMAX_ATTRIBUTES","TMIN","TMIN_ATTRIBUTES"
"USC00410493","1902","31.7413","-99.9763","534.9","BALLINGER 2 NW, TX US","   1391.1","","    1391.1","0","        48","0","        33","0","         8","0","        1","","         1","0","         0","0","        52","0","         5","0","       253","0","       104","0","         4"," ","","","   -9.4","0,0203,+","   102"," ,0,0204, ","   102"," ,0,0204, ","  76.2"," ,0,0723, ","   40.6","0,0616, ","-0.6","0,1117","-2.8","0,1127","-4.4","0,1216","","","","","0.0","0,0331","-4.4","0,0221","-4.4","0,0221","-7.2","0,0207","-9.4","0,0203","","","","","    620.7"," ,0","      110"," ,0","     18.18","0","     25.15","0","     11.21","0"
"USC00410493","1903","31.7413","-99.9763","534.9","BALLINGER 2 NW, TX US","   1007.7","","    1007.7","0","        54","0","        36","0","        11","0","        0","","         0","0","         0","0","        64","0","         3","0","       231","0","        78","0","         3"," ","         2"," ","  -11.1","0,0217, ","     0"," ,0,1231,+","    18"," ,0,0301, "," 113.0"," ,0,0930, ","   37.8","0,0817,+","-1.1","0,1117","-6.1","0,1118","-6.1","0,1118","","","","","0.0","0,0321","-4.4","0,0302","-4.4","0,0302","-11.1","0,0217","-11.1","0,0217","    1545.1","1","    1545.1","0","    692.9"," ,0","       18"," ,0","     16.55","0","     23.20","0","      9.90","0"
"USC00410493","1904","31.7413","-99.9763","534.9","BALLINGER 2 NW, TX US","   1311.0","","    1311.0","0","        44","0","        33","0","         1","0","        1","","         1","0","         0","0","        60","0","         0","0","       255","0","       111","0","","","","","  -10.0","0,0129,+","   127"," ,0,0220, ","   127"," ,0,0220, ","  27.7"," ,0,0605, ","   38.3","0,0712,+","-2.2","0,1111","-2.2","0,1111","-4.4","0,1112","-8.3","0,1228","","","-0.6","0,0327","-3.9","0,0304","-4.4","0,0212","-7.2","0,0211","-10.0","0,0129","    1289.3","3","    1289.3","0","    339.0"," ,0","      140"," ,0","     18.24","0","     25.68","0","     10.80","0"
"USC00410493","1905","31.7413","-99.9763","534.9","BALLINGER 2 NW, TX US","   1380.8","","    1380.8","0","        67","0","        40","0","         4","0","        0","","         0","0","         0","0","        60","0","         7","0","       232","0","       109","0","         2"," ","","","  -14.4","0,0213,+","     0"," ,0,1231,+","     0","T,0,0218,+","  40.1"," ,0,0620, ","   40.0","0,0819, ","-1.1","0,1130","-2.2","0,1202","-4.4","0,1203","-6.7","0,1224","","","-2.2","0,0221","-2.2","0,0221","-6.1","0,0215","-11.7","0,0214","-11.7","0,0214","    1470.2","2","    1470.2","0","    527.1"," ,0","        0","T,0","     17.52","0","     24.22","0","     10.82","0"
"USC00410493","1906","31.7413","-99.9763","534.9","BALLINGER 2 NW, TX US","","","","","        61","0","        43","0","        11","0","        0","","         0","0","","","","","","","","","","","         7"," ","         6"," ","","","     0","T,0,1216,+","    13"," ,0,1216,+"," 165.1"," ,0,0806, ","","","","","","","","","","","","","","","","","","","","","","","","","","","    979.6"," ,0","       26"," ,0","","","","","",""
"USC00410493","1907","31.7413","-99.9763","534.9","BALLINGER 2 NW, TX US","","","","","        35","0","        31","0","         7","0","        0","","         0","0","","","","","","","","","","","","","         7"," ","","","     0"," ,0,1231,+","     0","T,0,1111, ","  61.0"," ,0,1004, ","","","","","","","","","","","","","","","","","","","","","","","","","","","    472.6"," ,0","        0","T,0","","","","","",""
"USC00410493","1908","31.7413","-99.9763","534.9","BALLINGER 2 NW, TX US","","","","","        42","0","        37","0","         9","0","        0","","         0","0","         0","0","        36","0","","","","","","","         4"," ","","","  -11.7","0,0202, ","     0"," ,0,1231,+","     0"," ,0,1231,+","  76.2"," ,0,0418, ","","","0.0","0,1024","-3.9","0,1114","-5.0","0,1202","","","","","-1.1","0,0311","-2.2","0,0222","-7.8","0,0220","-7.8","0,0220","-11.7","0,0202","","","","","    692.5"," ,0","        0"," ,0","","","","","     11.09","0"
"USC00410493","1909","31.7413","-99.9763","534.9","BALLINGER 2 NW, TX US","   1374.3","","    1374.3","0","        41","0","        34","0","         5","0","        0","","         2","0","         0","0","        50","0","         4","0","       280","0","       121","0","","","         2"," ","  -16.1","0,1220, ","     0"," ,0,1231,+","    51"," ,0,1219, ","  40.6"," ,0,0809, ","   42.2","0,0818,+","-2.8","0,1117","-2.8","0,1117","-5.0","0,1205","-7.8","0,1209","-16.1","0,1220","-3.3","0,0409","-3.3","0,0409","-4.4","0,0315","-10.6","0,0216","-10.6","0,0216","    1044.6","6","    1044.6","0","    500.8"," ,0","       89"," ,0","     18.84","0","     26.80","0","     10.88","0"
"USC00410493","1910","31.7413","-99.9763","534.9","BALLINGER 2 NW, TX US","   1516.3","","    1516.3","0","        24","0","        23","0","         3","0","        0","","         1","0","         0","0","        56","0","         1","0","       273","0","       146","0","         1"," ","         1"," ","  -11.7","0,0224,+","     0"," ,0,1231,+","    25"," ,0,0106, ","  38.1"," ,0,0403, ","   42.2","0,0802, ","0.0","0,1022","-3.3","0,1201","-4.4","0,1206","","","","","-1.7","0,0311","-11.7","0,0224","-11.7","0,0224","-11.7","0,0224","-11.7","0,0224","    1144.4","4","    1144.4","0","    322.9"," ,0","       25"," ,0","     19.08","0","     27.57","0","     10.58","0"
"USC00410493","1911","31.7413","-99.9763","534.9","BALLINGER 2 NW, TX US","","","","","","","","","","","","","","","","","","","","","","","","","         2"," ","","","","","","","","","","","","","","","","","","","","","","","","","","","","","","","","","","","","","","","","","","","","","",""
"USC00410493","1912","31.7413","-99.9763","534.9","BALLINGER 2 NW, TX US","   1440.5","","    1440.5","0","        29","0","        25","0","         6","0","        0","","         0","0","         0","0","        59","0","         1","0","       251","0","       134","0","         2"," ","","","  -15.0","0,0112, ","     0"," ,0,1231,+","     0","T,0,1223, ","  50.8"," ,0,0508, ","   43.9","0,0614, ","-3.9","0,1102","-3.9","0,1102","-6.7","0,1128","-6.7","0,1128","","","0.0","0,0323","-2.2","0,0321","-4.4","0,0209","-7.2","0,0207","-11.1","0,0205","    1415.5","5","    1415.5","0","    405.5"," ,0","        0","T,0","     18.22","0","     26.26","0","     10.18","0"
"USC00410493","1913","31.7413","-99.9763","534.9","BALLINGER 2 NW, TX US","   1342.2","","    1342.2","0","        56","0","        49","0","         7","0","        0","","         0","0","         0","0","        58","0","         1","0","       245","0","       119","0","         1"," ","","","  -12.8","0,0108, ","     0"," ,0,1231,+","     0","T,0,0213,+"," 101.6"," ,0,1123, ","   41.7","0,0731, ","-3.3","0,1027","-3.3","0,1027","-5.6","0,1229","","","","","0.0","0,0413","-6.1","0,0327","-6.1","0,0327","-6.7","0,0112","-12.8","0,0108","    1277.9","9","    1277.9","0","    765.7"," ,0","        0","T,0","     18.16","0","     25.63","0","     10.69","0"
"USC00410493","1914","31.7413","-99.9763","534.9","BALLINGER 2 NW, TX US","   1282.0","","    1282.0","0","        60","0","        54","0","        10","0","        0","","         0","0","         0","0","        51","0","         0","0","       258","0","       121","0","","","","","  -11.1","0,0207, ","     0"," ,0,1231,+","     0","T,0,0320, ","  94.0"," ,0,0813, ","   41.1","0,0729,+","0.0","0,1015","-3.3","0,1115","-5.6","0,1125","-10.0","0,1214","-10.0","0,1214","-4.4","0,0409","-4.4","0,0409","-4.4","0,0409","-7.8","0,0322","-9.4","0,0225","    1203.4","4","    1203.4","0","    888.7"," ,0","        0","T,0","     18.01","0","     25.77","0","     10.26","0"
"USC00410493","1915","31.7413","-99.9763","534.9","BALLINGER 2 NW, TX US","   1258.8","","    1258.8","0","        47","0","        44","0","         9","0","        0","","         1","0","         0","0","        71","0","         0","0","       272","0","       124","0","         2"," ","         4"," ","   -8.9","0,1225, ","     0"," ,0,1231,+","   102"," ,0,0309, "," 137.2"," ,0,0915, ","   42.2","0,0618, ","-6.7","0,1115","-6.7","0,1115","-6.7","0,1115","-6.7","0,1115","-8.9","0,1225","-1.1","0,0403","-2.2","0,0322","-5.6","0,0319","-8.3","0,0207","","","    1585.3","3","    1585.3","0","    750.6"," ,0","      115"," ,0","     18.00","0","     26.58","0","      9.42","0"
"USC00410493","1916","31.7413","-99.9763","534.9","BALLINGER 2 NW, TX US","   1385.7","","    1385.7","0","        27","0","        23","0","         2","0","        0","","         0","0","         0","0","        59","0","         2","0","       300","0","       153","0","         2"," ","         1"," ","  -14.4","0,0202, ","     0"," ,0,1231,+","     0"," ,0,1231,+","  69.9"," ,0,0401, ","   42.2","0,0710,+","-1.1","0,1019","-7.8","0,1114","-7.8","0,1114","-7.8","0,1114","-10.0","0,1115","-1.1","0,0409","-2.2","0,0229","-5.0","0,0219","-8.3","0,0214","-14.4","0,0202","     998.5","5","     998.5","0","    349.9"," ,0","        0"," ,0","     18.91","0","     28.27","0","      9.54","0"
"USC00410493","1917","31.7413","-99.9763","534.9","BALLINGER 2 NW, TX US","   1365.4","","    1365.4","0","        24","0","        23","0","         2","0","        1","","         1","0","         0","0","        73","0","         4","0","       290","0","       145","0","","","","","  -12.8","0,0202, ","   127"," ,0,0115, ","   127"," ,0,0115, ","  29.2"," ,0,0512, ","   42.2","0,0608, ","0.0","0,1008","-2.2","0,1019","-8.9","0,1030","-8.9","0,1030","-8.9","0,1030","-1.1","0,0327","-5.6","0,0308","-5.6","0,0308","-6.7","0,0305","-8.9","0,0304","    1238.2","2","    1238.2","0","    271.6"," ,0","      127"," ,0","     18.27","0","     27.65","0","      8.89","0"
"USC00410493","1918","31.7413","-99.9763","534.9","BALLINGER 2 NW, TX US","   1546.2","","    1546.2","0","        38","0","        34","0","         4","0","        2","","         5","0","         0","0","        62","0","         7","0","       270","0","       151","0","","","","","  -17.2","0,0111, ","   102"," ,0,0121, ","   127"," ,0,1127,+","  36.8"," ,0,1010, ","   43.9","0,0710, ","-0.6","0,1118","-2.2","0,1124","-5.0","0,1125","-7.8","0,1201","","","0.0","0,0318","-2.2","0,0317","-5.6","0,0220","-6.7","0,0204","-11.7","0,0202","    1347.4","4","    1347.4","0","    425.0"," ,0","      406"," ,0","     18.53","0","     27.21","0","      9.86","0"
"USC00410493","1919","31.7413","-99.9763","534.9","BALLINGER 2 NW, TX US","","","","","        67","0","        63","0","        13","0","        0","","         1","0","         0","0","        58","0","         1","0","       261","0","       106","0","         3"," ","","","  -11.7","0,1214, ","     0"," ,0,1231,+","   254"," ,0,0116, ","  76.2"," ,0,0720, ","   40.6","0,0812, ","0.0","0,1110","-2.2","0,1111","-6.1","0,1113","-11.1","0,1209","-11.1","0,1209","-0.6","0,0309","-3.3","0,0305","-6.7","0,0226","-6.7","0,0226","-8.9","0,0103","    1400.9","9","    1400.9","0","    895.4"," ,0","      267"," ,0","     17.85","0","     25.48","0","     10.21","0"
"USC00410493","1920","31.7413","-99.9763","534.9","BALLINGER 2 NW, TX US","   1253.2","","    1253.2","0","        31","0","        29","0","         4","0","        0","","         0","0","         0","0","        67","0","         1","0","       262","0","       137","0","         2"," ","","","  -12.2","0,1227, ","     0"," ,0,1231,+","     0","T,0,1113, ","  88.9"," ,0,1024, ","   40.6","0,0716, ","-2.2","0,1112","-2.2","0,1112","-6.7","0,1116","-6.7","0,1116","-11.1","0,1222","-3.3","0,0405","-3.3","0,0405","-7.8","0,0307","-7.8","0,0307","-10.0","0,0109","","","","","    445.8"," ,0","        0","T,0","     17.62","0","     26.06","0","      9.19","0"
"USC00410493","1921","31.7413","-99.9763","534.9","BALLINGER 2 NW, TX US","   1545.7","","    1545.7","0","        38","0","        35","0","         4","0","        0","","         0","0","         0","0","        46","0","         0","0","       298","0","       172","0","         2"," ","         2"," ","  -10.6","0,1225, ","     0"," ,0,1231,+","     0"," ,0,1231,+","  35.6"," ,0,0515, ","   40.6","0,0826,+","0.0","0,1103","-3.9","0,1119","-5.6","0,1204","-10.6","0,1225","-10.6","0,1225","0.0","0,0418","-3.3","0,0329","-4.4","0,0113","-8.3","0,0103","","","    1178.4","4","    1178.4","0","    375.8"," ,0","        0"," ,0","     19.96","0","     28.81","0","     11.10","0"
"USC00410493","1922","31.7413","-99.9763","534.9","BALLINGER 2 NW, TX US","   1494.9","","    1494.9","0","        50","0","        47","0","         9","0","        0","","         1","0","         0","0","        42","0","         4","0","       273","0","       132","0","         5"," ","         5"," ","  -12.8","0,0302, ","     0","T,0,0301, ","    25"," ,0,0301, ","  50.8"," ,0,0920, ","   41.7","0,0826, ","0.0","0,1120","-2.2","0,1209","-5.0","0,1210","-6.7","0,1219","","","-2.8","0,0311","-2.8","0,0311","-5.6","0,0305","-12.2","0,0303","-12.2","0,0303","    1016.3","3","    1016.3","0","    656.3"," ,0","       25"," ,0","     19.49","0","     26.95","0","     12.03","0"
"USC00410493","1923","31.7413","-99.9763","534.9","BALLINGER 2 NW, TX US","","","","","        66","0","        63","0","        13","0","        3","","         3","0","         0","0","        38","0","","","","","","","","","","","  -13.3","0,0206, ","    76"," ,0,0205,+","    76"," ,0,0205,+","  50.8"," ,0,0425, ","","","0.0","0,1106","-4.4","0,1214","-4.4","0,1214","-7.8","0,1231","","","-0.6","0,0328","-2.2","0,0320","-9.4","0,0319","-9.4","0,0319","-9.4","0,0319","","","","","    915.8"," ,0","      177"," ,0","","","","","     10.90","0"
"USC00410493","1924","31.7413","-99.9763","534.9","BALLINGER 2 NW, TX US","   1338.0","","    1338.0","0","        37","0","        33","0","         8","0","        0","","         2","0","         0","0","        53","0","         7","0","       262","0","       109","0","","","","","  -12.8","0,1219, ","     0"," ,0,1231,+","   152"," ,0,0224, ","  50.8"," ,0,1202, ","   43.9","0,0615, ","0.0","0,1122","-3.9","0,1124","-5.6","0,1125","-12.8","0,1219","-12.8","0,1219","-2.2","0,0401","-2.2","0,0401","-6.1","0,0310","-8.9","0,0224","-8.9","0,0224","    1323.4","4","    1323.4","0","    487.8"," ,0","      254"," ,0","     18.00","0","     25.80","0","     10.20","0"
"USC00410493","1925","31.7413","-99.9763","534.9","BALLINGER 2 NW, TX US","   1529.4","","    1529.4","0","        42","0","        39","0","         7","0","        0","","         0","0","         0","0","        62","0","         5","0","       242","0","       129","0","","","         1"," ","   -8.3","0,1228,+","     0"," ,0,1231,+","    13"," ,0,0127, ","  45.7"," ,0,0924, ","   42.2","0,0719, ","-0.6","0,1028","-2.2","0,1121","-5.6","0,1221","-7.8","0,1222","","","0.0","0,0318","-5.0","0,0227","-5.0","0,0227","-8.3","0,0128","","","    1275.3","3","    1275.3","0","    503.5"," ,0","       13"," ,0","     18.31","0","     25.43","0","     11.18","0"
"USC00410493","1926","31.7413","-99.9763","534.9","BALLINGER 2 NW, TX US","   1124.6","","    1124.6","0","        54","0","        49","0","         9","0","        0","","         2","0","         1","0","        53","0","         5","0","       243","0","        83","0","         1"," ","","","  -17.8","0,0125, ","     0"," ,0,1231,+","   152"," ,0,0124, ","  48.3"," ,0,1206, ","   36.7","0,0802,+","0.0","0,1109","-3.3","0,1110","-5.6","0,1117","-6.7","0,1122","-9.4","0,1215","-2.8","0,0331","-2.8","0,0331","-6.7","0,0127","-6.7","0,0127","-11.7","0,0126","    1540.5","5","    1540.5","0","    689.8"," ,0","      203"," ,0","     17.25","0","     24.30","0","     10.19","0"
"USC00410493","1927","31.7413","-99.9763","534.9","BALLINGER 2 NW, TX US","","","","","","","","","","","","","","","","","","","","","","","","","         4"," ","","","","","","","","","","","","","","","","","","","","","","","","","","","","","","","","","","","","","","","","","","","","","",""
"USC00410493","1928","31.7413","-99.9763","534.9","BALLINGER 2 NW, TX US","   1284.1","","    1284.1","0","        59","0","        55","0","         4","0","        0","","         0","0","         0","0","        47","0","         2","0","       240","0","       114","0","         2"," ","","","  -12.2","0,0101, ","     0"," ,0,1231,+","     0","T,0,0414,+","  31.0"," ,0,0310, ","   40.6","0,0630,+","-0.6","0,1119","-3.3","0,1120","-6.7","0,1219","-6.7","0,1219","","","-1.1","0,0415","-2.2","0,0410","-7.2","0,0226","-7.2","0,0226","-10.0","0,0103","    1432.9","9","    1432.9","0","    546.7"," ,0","        0","T,0","     17.90","0","     25.35","0","     10.45","0"
"USC00410493","1929","31.7413","-99.9763","534.9","BALLINGER 2 NW, TX US","","","","","        47","0","        43","0","         4","0","        0","","         1","0","         0","0","        56","0","         9","0","       246","0","       112","0","         5"," ","","","  -11.1","0,1221,+","     0"," ,0,1231,+","    64"," ,0,1221, ","  77.5"," ,0,1013, ","   40.0","0,0813, ","-3.3","0,1114","-3.3","0,1114","-9.4","0,1203","-9.4","0,1203","-9.4","0,1203","-3.9","0,0306","-3.9","0,0306","-5.6","0,0216","-9.4","0,0211","-9.4","0,0211","","","","","    469.7"," ,0","       64"," ,0","     17.78","0","     24.79","0","     10.77","0"
"USC00410493","1930","31.7413","-99.9763","534.9","BALLINGER 2 NW, TX US","","","","","        42","0","        37","0","        10","0","        0","","         2","0","         1","0","        56","0","        11","0","       252","0","       130","0","         2"," ","","","  -18.9","0,0118, ","     0"," ,0,1231,+","   152"," ,0,1221, "," 162.6"," ,0,1013, ","   41.1","0,0820, ","0.0","0,1121","-3.9","0,1217","-4.4","0,1221","","","","","0.0","0,0329","-2.2","0,0319","-4.4","0,0303","-10.0","0,0123","-10.0","0,0123","","","","","    848.6"," ,0","      190"," ,0","     18.25","0","     25.55","0","     10.95","0"
"USC00410493","1931","31.7413","-99.9763","534.9","BALLINGER 2 NW, TX US","   1353.5","","    1353.5","0","        46","0","        44","0","         4","0","        0","","         0","0","         0","0","        36","0","         0","0","       272","0","       125","0","         1"," ","","","   -5.0","0,0307,+","     0"," ,0,1231,+","     0","T,0,1217,+","  39.9"," ,0,1012, ","   38.9","0,0709, ","-1.1","0,1126","-2.2","0,1204","","","","","","","-2.8","0,0405","-2.8","0,0405","-4.4","0,0328","","","","","    1304.2","2","    1304.2","0","    483.2"," ,0","        0","T,0","     18.65","0","     25.83","0","     11.46","0"
"USC00410493","1932","31.7413","-99.9763","534.9","BALLINGER 2 NW, TX US","   1184.2","","    1184.2","0","        58","0","        57","0","        17","0","        0","","         0","0","         0","0","        59","0","         8","0","       255","0","        91","0","         2"," ","","","   -7.8","0,1210,+","     0"," ,0,1231,+","     0","T,0,1210,+","  91.4"," ,0,0907, ","   41.7","0,0802, ","-0.6","0,1006","-2.2","0,1111","-5.0","0,1112","-7.2","0,1116","","","-1.1","0,0322","-2.8","0,0314","-5.6","0,0313","-7.8","0,0309","","","    1275.6","6","    1275.6","0","    953.3"," ,0","        0","T,0","     17.45","0","     24.17","0","     10.73","0"
"USC00410493","1933","31.7413","-99.9763","534.9","BALLINGER 2 NW, TX US","   1741.0","","    1741.0","0","        31","0","        28","0","         6","0","        0","","         0","0","         0","0","        31","0","         1","0","       300","0","       165","0","","","","","  -17.2","0,0208, ","     0"," ,0,1231,+","     0","T,0,1218,+","  38.4"," ,0,0423, ","   44.4","0,0714, ","-0.6","0,1206","-2.8","0,1207","-5.6","0,1219","-6.7","0,1227","","","-1.1","0,0320","-2.2","0,0220","-10.0","0,0211","-10.0","0,0211","-10.0","0,0211","    1293.8","8","    1293.8","0","    408.9"," ,0","        0","T,0","     20.43","0","     28.74","0","     12.12","0"
"USC00410493","1934","31.7413","-99.9763","534.9","BALLINGER 2 NW, TX US","   1789.5","","    1789.5","0","        35","0","        34","0","         6","0","        0","","         0","0","         0","0","        34","0","         0","0","       254","0","       164","0","","","","","   -7.8","0,0226, ","     0"," ,0,1231,+","     0"," ,0,1231,+","  37.3"," ,0,0405, ","   43.3","0,0621, ","0.0","0,1128","-2.2","0,1202","","","","","","","-5.6","0,0320","-5.6","0,0320","-5.6","0,0320","-7.8","0,0226","","","    1109.5","5","    1109.5","0","    400.1"," ,0","        0"," ,0","     20.03","0","     27.65","0","     12.41","0"
"USC00410493","1935","31.7413","-99.9763","534.9","BALLINGER 2 NW, TX US","   1398.4","","    1398.4","0","        50","0","        48","0","        15","0","        0","","         0","0","         0","0","        36","0","         1","0","       253","0","       128","0","","","","","  -12.2","0,0121, ","     0"," ,0,1231,+","     0"," ,0,1231,+"," 134.6"," ,0,0906, ","   42.2","0,0811, ","0.0","0,1111","-2.8","0,1112","","","","","","","-2.2","0,0226","-2.2","0,0226","-5.6","0,0225","-11.1","0,0122","-11.1","0,0122","    1006.3","3","    1006.3","0","   1283.8"," ,0","        0"," ,0","     18.86","0","     25.93","0","     11.80","0"
"USC00410493","1936","31.7413","-99.9763","534.9","BALLINGER 2 NW, TX US","","","","","        32","0","        32","0","        11","0","        0","","         1","0","","","","","","","","","","","","","","","","","     0"," ,0,1231,+","   127"," ,0,0119, "," 158.8"," ,0,0917, ","","","","","","","","","","","","","","","","","","","","","","","","","","","    797.0"," ,0","      127"," ,0","","","","","",""
"USC00410493","1937","31.7413","-99.9763","534.9","BALLINGER 2 NW, TX US","   1562.5","","    1562.5","0","        41","0","        39","0","         5","0","        0","","         1","0","         0","0","        49","0","         4","0","       230","0","       152","0","         1"," ","","","  -10.0","0,0109, ","     0"," ,0,1231,+","    38"," ,0,0201, ","  92.7"," ,0,0603, ","   42.2","0,0805,+","-3.3","0,1116","-3.3","0,1116","-5.6","0,1119","-6.7","0,1120","","","0.0","0,0409","-5.0","0,0327","-5.0","0,0327","-6.7","0,0201","-10.0","0,0109","    1443.0","0","    1443.0","0","    496.1"," ,0","       38"," ,0","     18.17","0","     25.83","0","     10.52","0"
"USC00410493","1938","31.7413","-99.9763","534.9","BALLINGER 2 NW, TX US","   1443.6","","    1443.6","0","        33","0","        33","0","         3","0","        0","","         2","0","         0","0","        37","0","         3","0","       281","0","       115","0","","","","","   -8.9","0,0129, ","     0"," ,0,1231,+","    76"," ,0,0222, ","  39.4"," ,0,0424, ","   41.1","0,0706, ","-1.1","0,1107","-4.4","0,1108","-4.4","0,1108","-8.3","0,1124","","","-1.7","0,0409","-3.3","0,0408","-4.4","0,0219","-8.9","0,0129","-8.9","0,0129","    1199.0","0","    1199.0","0","    459.2"," ,0","      140"," ,0","     19.09","0","     26.41","0","     11.78","0"
"USC00410493","1939","31.7413","-99.9763","534.9","BALLINGER 2 NW, TX US","","","","","        49","0","        46","0","         4","0","        0","","         1","0","         0","0","        42","0","","","","","","","","","","","  -10.0","0,0222, ","     0"," ,0,1231,+","    30"," ,0,1229, ","  49.3"," ,0,0428, ","","","-1.7","0,1126","-2.2","0,1219","-5.6","0,1227","","","","","-0.6","0,0407","-2.8","0,0303","-4.4","0,0228","-6.7","0,0226","-10.0","0,0222","","","","","    522.1"," ,0","      213"," ,0","","","","","     11.21","0"
"USC00410493","1940","31.7413","-99.9763","534.9","BALLINGER 2 NW, TX US","   1254.6","","    1254.6","0","        49","0","        42","0","         6","0","        0","","         0","0","         1","0","        48","0","         3","0","       257","0","       112","0","         2"," ","","","  -17.8","0,0123, ","     0"," ,0,1231,+","     0"," ,0,1231,+","  73.7"," ,0,0406, ","   40.0","0,0828,+","-3.9","0,1113","-3.9","0,1113","-6.7","0,1114","-6.7","0,1114","","","-1.1","0,0412","-3.3","0,0314","-5.0","0,0210","-7.8","0,0127","-10.6","0,0125","    1319.4","4","    1319.4","0","    563.4"," ,0","      127"," ,0","     18.00","0","     25.51","0","     10.48","0"
"USC00410493","1941","31.7413","-99.9763","534.9","BALLINGER 2 NW, TX US","   1198.6","","    1198.6","0","        72","0","        63","0","         6","0","        0","","         0","0","         0","0","        31","0","         0","0","       231","0","        78","0","         5"," ","         1"," ","   -5.0","0,0118, ","     0"," ,0,1231,+","     0","T,0,1225,+","  55.9"," ,0,0909, ","   38.9","0,0818,+","-1.1","0,1101","-3.9","0,1112","","","","","","","-1.7","0,0318","-2.2","0,0308","-5.0","0,0118","","","","","    1216.9","9","    1216.9","0","    874.9"," ,0","        0","T,0","     17.87","0","     24.18","0","     11.55","0"
"USC00410493","1942","31.7413","-99.9763","534.9","BALLINGER 2 NW, TX US","   1239.2","","    1239.2","0","        47","0","        40","0","         8","0","        0","","         0","0","         0","0","        59","0","         2","0","       265","0","       112","0","         3"," ","         1"," ","  -11.7","0,0108, ","     0"," ,0,1231,+","     0","T,0,1228,+","  57.9"," ,0,0406, ","   42.2","0,0612, ","-1.1","0,1112","-3.9","0,1122","-5.6","0,1229","","","","","-1.7","0,0322","-2.2","0,0318","-7.2","0,0220","-7.2","0,0220","-8.9","0,0218","    1238.2","2","    1238.2","0","    706.4"," ,0","        0","T,0","     18.23","0","     26.15","0","     10.31","0"
"USC00410493","1943","31.7413","-99.9763","534.9","BALLINGER 2 NW, TX US","   1463.5","","    1463.5","0","        38","0","        33","0","         4","0","        0","","         0","0","         0","0","        64","0","         1","0","       265","0","       131","0","","","         1"," ","  -14.4","0,0119, ","     0"," ,0,1231,+","     0","T,0,0126, ","  41.1"," ,0,0715, ","   43.9","0,0803, ","-1.1","0,1108","-3.9","0,1109","-7.2","0,1215","-7.2","0,1215","","","0.0","0,0322","-6.7","0,0309","-6.7","0,0309","-6.7","0,0309","-10.0","0,0308","    1240.7","7","    1240.7","0","    382.6"," ,0","        0","T,0","     18.53","0","     26.93","0","     10.14","0"
"USC00410493","1944","31.7413","-99.9763","534.9","BALLINGER 2 NW, TX US","   1289.8","","    1289.8","0","        59","0","        43","0","         7","0","        0","","         2","0","         1","0","        53","0","         0","0","       254","0","       103","0","         4"," ","         1"," ","  -17.8","0,0114, ","     0"," ,0,1231,+","   203"," ,0,0113, ","  81.3"," ,0,0906, ","   43.3","0,0728,+","-1.1","0,1126","-3.3","0,1127","-4.4","0,1211","","","","","0.0","0,0403","-4.4","0,0330","-4.4","0,0330","-6.7","0,0329","-15.0","0,0116","    1294.0","0","    1294.0","0","    699.2"," ,0","      318"," ,0","     18.16","0","     25.93","0","     10.39","0"
"USC00410493","1945","31.7413","-99.9763","534.9","BALLINGER 2 NW, TX US","   1336.2","","    1336.2","0","        47","0","        40","0","         7","0","        0","","         0","0","         0","0","        56","0","         1","0","       262","0","       123","0","         8"," ","         1"," ","  -11.1","0,1216,+","     0"," ,0,1231,+","     0","T,0,1211,+","  44.5"," ,0,0604, ","   41.7","0,0819, ","-5.6","0,1122","-5.6","0,1122","-5.6","0,1122","-7.2","0,1214","-11.1","0,1215","-1.1","0,0406","-2.2","0,0228","-4.4","0,0103","","","","","    1219.7","7","    1219.7","0","    564.2"," ,0","        0","T,0","     18.73","0","     26.45","0","     11.01","0"
"USC00410493","1946","31.7413","-99.9763","534.9","BALLINGER 2 NW, TX US","","","","","        44","0","        33","0","         6","0","        0","","         3","0","","","","","","","","","","","","","","","","","     0"," ,0,1231,+","   152"," ,0,0122, "," 179.1"," ,0,0515, ","","","","","","","","","","","","","","","","","","","","","","","    1169.4","4","    1169.4"," ","    594.8"," ,0","      309"," ,0","","","","","",""
"USC00410493","1948","31.7413","-99.9763","534.9","BALLINGER 2 NW, TX US","","","","","","","","","","","","","","","","","","","","","","","","","","","        14"," ","","","","","","","","","","","","","","","","","","","","","","","","","","","","","","","","","","","","","","","","","","","",""
"USC00410493","1949","31.7413","-99.9763","534.9","BALLINGER 2 NW, TX US","   1181.2","","    1181.2","0","","","","","","","        5","","         2","0","         2","0","        54","0","         7","0","       258","0","        99","0","         1"," ","         1"," ","  -21.1","0,0131, ","   102"," ,0,0131,+","    89"," ,0,0130, ","","","   38.9","0,0722,+","0.0","0,1113","-3.9","0,1215","-4.4","0,1216","-7.8","0,1223","","","0.0","0,0406","-2.2","0,0218","-10.6","0,0202","-10.6","0,0202","-10.6","0,0202","","","","","    702.3"," ,0","      140"," ,0","     17.29","0","     24.74","0","      9.85","0"
"USC00410493","1950","31.7413","-99.9763","534.9","BALLINGER 2 NW, TX US","   1303.9","","    1303.9","0","        55","0","        25","0","         3","0","        0","","         0","0","         0","0","        76","0","         2","0","       280","0","       119","0","         2"," ","         1"," ","  -12.8","0,1207,+","     0"," ,0,1231,+","     0","T,0,0303,+","  41.9"," ,0,0511, ","   38.9","0,0824,+","-5.0","0,1104","-5.0","0,1104","-5.0","0,1104","-12.2","0,1111","-12.2","0,1111","-1.1","0,0405","-5.6","0,0314","-5.6","0,0314","-8.3","0,0108","-8.9","0,0105","    1291.4","4","    1291.4","0","    346.4"," ,0","        0","T,0","     18.18","0","     26.46","0","      9.88","0"
"USC00410493","1951","31.7413","-99.9763","534.9","BALLINGER 2 NW, TX US","   1580.4","","    1580.4","0","        38","0","        21","0","         6","0","        0","","         0","0","         2","0","        81","0","         7","0","       277","0","       140","0","         1"," ","         1"," ","  -20.0","0,0202, ","     0","T,0,0131,+","     0","T,0,0131,+","  80.0"," ,0,0812, ","   41.1","0,0721, ","-1.1","0,1102","-5.6","0,1103","-5.6","0,1103","-6.7","0,1118","-8.9","0,1215","0.0","0,0412","-5.6","0,0319","-5.6","0,0319","-8.9","0,0313","-8.9","0,0313","    1478.0","0","    1478.0","0","    452.6"," ,0","        0","T,0","     18.60","0","     26.88","0","     10.31","0"
"USC00410493","1952","31.7413","-99.9763","534.9","BALLINGER 2 NW, TX US","   1411.3","","    1411.3","0","        53","0","        29","0","         4","0","        0","","         0","0","         0","0","        63","0","         1","0","       270","0","       125","0","         6"," ","","","   -7.2","0,1214, ","     0"," ,0,1231,+","     0","T,0,0524, ","  66.0"," ,0,0910, ","   43.3","0,0902, ","-1.7","0,1111","-2.8","0,1127","-4.4","0,1205","-7.2","0,1214","","","-1.1","0,0329","-2.8","0,0324","-5.6","0,0323","","","","","    1280.4","4","    1280.4","0","    451.1"," ,0","        0","T,0","     18.49","0","     26.57","0","     10.42","0"
"USC00410493","1953","31.7413","-99.9763","534.9","BALLINGER 2 NW, TX US","   1479.8","","    1479.8","0","        51","0","        24","0","         6","0","        0","","         0","0","         0","0","        61","0","         1","0","       267","0","       126","0","         4"," ","         4"," ","  -13.3","0,1225,+","     0"," ,0,1231,+","    13"," ,0,0116, ","  91.4"," ,0,1004, ","   42.2","0,0811, ","-2.2","0,1109","-2.2","0,1109","-5.0","0,1210","-7.8","0,1223","-13.3","0,1224","-3.9","0,0306","-3.9","0,0306","-4.4","0,0305","-7.8","0,0222","-9.4","0,0118","    1336.2","2","    1336.2","0","    451.7"," ,0","       13"," ,0","     18.72","0","     26.84","0","     10.59","0"
"USC00410493","1954","31.7413","-99.9763","534.9","BALLINGER 2 NW, TX US","   1604.2","","    1604.2","0","        31","0","        23","0","         4","0","        0","","         1","0","         0","0","        62","0","         2","0","       282","0","       136","0","         3"," ","         6"," ","   -9.4","0,0111, ","     0"," ,0,1231,+","    64"," ,0,1228, "," 157.7"," ,0,0412, ","   42.2","0,0727, ","-3.9","0,1105","-3.9","0,1105","-4.4","0,1213","","","","","-1.1","0,0401","-6.1","0,0315","-6.1","0,0315","-7.2","0,0123","-8.9","0,0112","    1386.0","0","    1386.0","0","    410.4"," ,0","       74"," ,0","     19.24","0","     27.42","0","     11.06","0"
"USC00410493","1955","31.7413","-99.9763","534.9","BALLINGER 2 NW, TX US","   1518.6","","    1518.6","0","        48","0","        30","0","         4","0","        0","","         0","0","         0","0","        77","0","         0","0","       268","0","       138","0","","","        16"," ","   -7.8","0,1209, ","     0"," ,0,1231,+","     0","T,0,0110, ","  46.7"," ,0,0519, ","   40.6","0,0810,+","-2.2","0,1025","-2.2","0,1025","-5.6","0,1128","-7.2","0,1129","","","-3.3","0,0329","-3.3","0,0329","-5.0","0,0328","-6.7","0,0212","","","    1335.6","6","    1335.6","0","    459.5"," ,0","        0","T,0","     18.54","0","     26.45","0","     10.62","0"
"USC00410493","1956","31.7413","-99.9763","534.9","BALLINGER 2 NW, TX US","   1621.3","","    1621.3","0","        44","0","        23","0","         2","0","        0","","         1","0","         0","0","        74","0","         4","0","       269","0","       150","0","","","","","  -12.2","0,0118, ","     0"," ,0,1231,+","   112"," ,0,0118, ","  33.0"," ,0,1015, ","   41.7","0,0831,+","-1.1","0,1109","-3.3","0,1116","-4.4","0,1127","","","","","-1.1","0,0317","-3.9","0,0316","-4.4","0,0313","-11.7","0,0205","-11.7","0,0205","    1510.7","7","    1510.7","0","    303.1"," ,0","      112"," ,0","     18.68","0","     26.99","0","     10.36","0"
"USC00410493","1957","31.7413","-99.9763","534.9","BALLINGER 2 NW, TX US","   1211.4","","    1211.4","0","        84","0","        48","0","         8","0","        0","","         1","0","         0","0","        58","0","         2","0","       237","0","       101","0","        13"," ","        27"," ","  -10.6","0,0117, ","     0"," ,0,1231,+","   127"," ,0,1124, ","  55.9"," ,0,0602, ","   42.8","0,0731, ","-3.3","0,1027","-3.3","0,1027","-4.4","0,1124","-6.7","0,1211","","","-1.1","0,0413","-4.4","0,0128","-4.4","0,0128","-10.0","0,0119","-10.0","0,0119","    1399.2","2","    1399.2","0","    666.4"," ,0","      127"," ,0","     17.47","0","     24.72","0","     10.23","0"
"USC00410493","1958","31.7413","-99.9763","534.9","BALLINGER 2 NW, TX US","   1231.4","","    1231.4","0","        77","0","        45","0","         8","0","        0","","         0","0","         0","0","        86","0","         2","0","       220","0","       103","0","         3"," ","         5"," ","  -11.7","0,1215, ","     0"," ,0,1231,+","     0","T,0,0210, ","  43.2"," ,0,0825,+","   42.2","0,0611, ","0.0","0,1101","-5.0","0,1119","-5.0","0,1119","-9.4","0,1129","-9.4","0,1129","-1.1","0,0326","-2.2","0,0319","-4.4","0,0314","-6.7","0,0217","","","    1857.3","3","    1857.3","0","    599.3"," ,0","        0","T,0","     16.53","0","     24.07","0","      9.00","0"
"USC00410493","1959","31.7413","-99.9763","534.9","BALLINGER 2 NW, TX US","   1277.5","","    1277.5","0","        65","0","        40","0","         9","0","        0","","         0","0","         0","0","        85","0","         4","0","       245","0","       110","0","","","        25"," ","  -13.3","0,0105, ","     0"," ,0,1231,+","     0","T,0,0203, ","  78.0"," ,0,1004, ","   41.7","0,0831, ","0.0","0,1028","-4.4","0,1106","-4.4","0,1106","-7.2","0,1117","","","-0.6","0,0413","-3.9","0,0322","-6.1","0,0307","-6.7","0,0207","-11.7","0,0123","    1680.1","1","    1680.1","0","    732.1"," ,0","        0","T,0","     17.15","0","     24.93","0","      9.36","0"
"USC00410493","1960","31.7413","-99.9763","534.9","BALLINGER 2 NW, TX US","   1411.1","","    1411.1","0","        58","0","        39","0","         5","0","        0","","         0","0","         0","0","        78","0","         4","0","       248","0","       134","0","         4"," ","         2"," ","  -12.8","0,0225, ","     0"," ,0,1231,+","     0","T,0,1210, ","  75.2"," ,0,0811, ","   42.8","0,0730, ","-2.8","0,1110","-2.8","0,1110","-5.0","0,1130","-7.8","0,1221","","","0.0","0,0404","-2.8","0,0316","-8.3","0,0304","-8.3","0,0304","-11.7","0,0226","    1794.9","9","    1794.9","0","    562.9"," ,0","        0","T,0","     17.50","0","     25.07","0","      9.94","0"
"USC00410493","1961","31.7413","-99.9763","534.9","BALLINGER 2 NW, TX US","   1147.6","","    1147.6","0","        54","0","        38","0","         9","0","        0","","         2","0","         0","0","        70","0","         6","0","       257","0","       108","0","         6"," ","        10"," ","  -12.2","0,0129, ","     0"," ,0,1231,+","   178"," ,0,0206, ","  96.0"," ,0,0904, ","   38.9","0,0805, ","0.0","0,1109","-7.2","0,1212","-7.2","0,1212","-7.2","0,1212","","","-2.2","0,0416","-2.2","0,0416","-5.0","0,0301","-7.2","0,0209","-11.1","0,0208","    1598.8","8","    1598.8","0","    687.6"," ,0","      203"," ,0","     16.93","0","     24.51","0","      9.36","0"
"USC00410493","1962","31.7413","-99.9763","534.9","BALLINGER 2 NW, TX US","","","","","        53","0","        39","0","         2","0","        0","","         1","0","         0","0","        74","0","         3","0","       266","0","       133","0","         1"," ","         7"," ","  -13.3","0,0112,+","     0","T,0,0122, ","   102"," ,0,0315, ","  27.2"," ,0,1009, ","   42.8","0,0806, ","-0.6","0,1109","-3.3","0,1206","-8.3","0,1212","-8.3","0,1212","","","-2.8","0,0317","-2.8","0,0317","-6.7","0,0316","-6.7","0,0316","-12.8","0,0302","","","","","    359.5"," ,0","      102"," ,0","     18.48","0","     26.59","0","     10.36","0"
"USC00410493","1963","31.7413","-99.9763","534.9","BALLINGER 2 NW, TX US","   1621.7","","    1621.7","0","        43","0","        29","0","         8","0","        2","","         1","0","         0","0","        76","0","         6","0","       272","0","       141","0","         7"," ","        32"," ","  -14.4","0,0124, ","    76"," ,0,0212, ","    76"," ,0,0212, ","  44.5"," ,0,0808, ","   40.0","0,0724,+","0.0","0,1124","-3.9","0,1203","-4.4","0,1218","-7.2","0,1222","-8.9","0,1223","0.0","0,0321","-3.3","0,0306","-5.0","0,0222","-6.7","0,0215","-8.9","0,0213","    1420.9","9","    1420.9","0","    472.2"," ,0","       76"," ,0","     18.86","0","     26.78","0","     10.93","0"
"USC00410493","1964","31.7413","-99.9763","534.9","BALLINGER 2 NW, TX US","   1560.7","","    1560.7","0","        55","0","        37","0","         4","0","        1","","         1","0","         0","0","        63","0","         1","0","       278","0","       125","0","","","        39"," ","  -11.7","0,0114, ","    25"," ,0,0221, ","    51"," ,0,0221, ","  45.7"," ,0,0605, ","   42.8","0,0806, ","-0.6","0,1120","-5.0","0,1122","-5.0","0,1122","-7.8","0,1206","","","0.0","0,0409","-2.2","0,0326","-5.0","0,0222","-6.7","0,0125","-11.7","0,0114","    1271.2","2","    1271.2","0","    419.8"," ,0","       51"," ,0","     19.23","0","     27.27","0","     11.18","0"
"USC00410493","1965","31.7413","-99.9763","534.9","BALLINGER 2 NW, TX US","   1425.8","","    1425.8","0","        64","0","        40","0","         5","0","        0","","         1","0","         0","0","        50","0","         0","0","       266","0","       125","0","","","        27"," ","   -8.3","0,0320, ","     0"," ,0,1231,+","    51"," ,0,0303, ","  81.8"," ,0,0513, ","   40.0","0,0915, ","-3.3","0,1129","-3.3","0,1129","","","","","","","-2.8","0,0326","-2.8","0,0326","-8.3","0,0320","-8.3","0,0320","","","    1307.7","7","    1307.7","0","    596.7"," ,0","       51"," ,0","     18.90","0","     26.39","0","     11.41","0"
"USC00410493","1966","31.7413","-99.9763","534.9","BALLINGER 2 NW, TX US","   1369.5","","    1369.5","0","        54","0","        30","0","         8","0","        0","","         1","0","         0","0","        75","0","         2","0","       268","0","       114","0","","","        24"," ","  -12.8","0,1229,+","     0"," ,0,1231,+","   102"," ,0,0222, "," 100.3"," ,0,0831, ","   40.6","0,0801,+","0.0","0,1020","-3.9","0,1102","-5.0","0,1128","-7.2","0,1211","-11.1","0,1212","-3.9","0,0324","-3.9","0,0324","-7.8","0,0306","-7.8","0,0306","-9.4","0,0223","    1249.1","1","    1249.1","0","    530.5"," ,0","      102"," ,0","     18.14","0","     25.90","0","     10.38","0"
"USC00410493","1967","31.7413","-99.9763","534.9","BALLINGER 2 NW, TX US","   1409.6","","    1409.6","0","        60","0","        37","0","        10","0","        0","","         0","0","         0","0","        56","0","         1","0","       289","0","       122","0","","","        22"," ","  -11.7","0,0108, ","     0"," ,0,1231,+","     0","T,0,1227,+","  43.4"," ,0,0915, ","   40.0","0,0510, ","-3.9","0,1104","-3.9","0,1104","-6.1","0,1203","-6.7","0,1226","","","-5.6","0,0308","-5.6","0,0308","-5.6","0,0308","-6.7","0,0212","-8.9","0,0207","    1165.2","2","    1165.2","0","    595.3"," ,0","        0","T,0","     18.95","0","     26.91","0","     10.98","0"
"USC00410493","1968","31.7413","-99.9763","534.9","BALLINGER 2 NW, TX US","   1137.0","","    1137.0","0","        79","0","        49","0","         8","0","        0","","         3","0","         0","0","        65","0","         0","0","       256","0","        93","0","","","        15"," ","  -10.0","0,0107, ","     0"," ,0,1231,+","    89"," ,0,1130, "," 104.4"," ,0,0720, ","   37.2","0,0810,+","-0.6","0,1104","-2.2","0,1111","-4.4","0,1119","-6.7","0,1208","-9.4","0,1223","-2.8","0,0323","-2.8","0,0323","-5.0","0,0223","-7.2","0,0114","-10.0","0,0107","    1395.2","2","    1395.2","0","    858.5"," ,0","      152"," ,0","     17.50","0","     24.79","0","     10.21","0"
"USC00410493","1969","31.7413","-99.9763","534.9","BALLINGER 2 NW, TX US","   1242.0","","    1242.0","0","        64","0","        39","0","        10","0","        0","","         0","0","         0","0","        56","0","         1","0","       261","0","        97","0","","","        17"," ","   -8.3","0,0105,+","     0"," ,0,1231,+","     0","T,0,1229,+","  64.5"," ,0,0412, ","   41.7","0,0814,+","-1.1","0,1103","-3.3","0,1115","-5.6","0,1119","-7.2","0,1120","","","-1.7","0,0326","-4.4","0,0313","-4.4","0,0313","-7.2","0,0309","","","    1297.9","9","    1297.9","0","    779.0"," ,0","        0","T,0","     18.09","0","     25.74","0","     10.43","0"
"USC00410493","1970","31.7413","-99.9763","534.9","BALLINGER 2 NW, TX US","   1160.0","","    1160.0","0","        49","0","        29","0","         7","0","        0","","         0","0","         0","0","        67","0","         0","0","       257","0","        98","0","","","         1"," ","  -12.8","0,0107, ","     0"," ,0,1231,+","     0","T,0,0311,+","  46.2"," ,0,0918, ","   40.0","0,0818,+","0.0","0,1028","-2.2","0,1029","-5.0","0,1105","-8.9","0,1124","-8.9","0,1124","-0.6","0,0406","-2.8","0,0405","-6.7","0,0203","-6.7","0,0203","-8.9","0,0130","    1501.4","4","    1501.4","0","    474.8"," ,0","        0","T,0","     17.58","0","     25.33","0","      9.83","0"
"USC00410493","1971","31.7413","-99.9763","534.9","BALLINGER 2 NW, TX US","   1183.4","","    1183.4","0","        53","0","        39","0","         6","0","        0","","         0","0","         0","0","        57","0","         0","0","       278","0","        86","0","","","        19"," ","  -13.9","0,0208, ","     0"," ,0,1231,+","     0"," ,0,1231,+","  82.6"," ,0,0923, ","   38.9","0,0707,+","-0.6","0,1110","-2.2","0,1120","-6.1","0,1218","","","","","-4.4","0,0407","-4.4","0,0407","-4.4","0,0407","-8.3","0,0303","-13.9","0,0208","    1232.0","0","    1232.0","0","    656.7"," ,0","        0"," ,0","     18.18","0","     25.72","0","     10.64","0"
"USC00410493","1972","31.7413","-99.9763","534.9","BALLINGER 2 NW, TX US","   1258.3","","    1258.3","0","        50","0","        37","0","         8","0","        0","","         1","0","         0","0","        63","0","         1","0","       274","0","       102","0","","","        12"," ","  -12.8","0,1216, ","     0"," ,0,1231,+","   152"," ,0,0131, ","  85.3"," ,0,0809, ","   40.6","0,0625, ","-2.8","0,1116","-2.8","0,1116","-5.0","0,1122","-9.4","0,1206","-9.4","0,1206","0.0","0,0401","-3.9","0,0331","-5.0","0,0213","-7.2","0,0212","-9.4","0,0203","    1145.9","9","    1145.9","0","    561.1"," ,0","      152"," ,0","     18.12","0","     25.63","0","     10.61","0"
"USC00410493","1973","31.7413","-99.9763","534.9","BALLINGER 2 NW, TX US","   1136.6","","    1136.6","0","        61","0","        48","0","         5","0","        2","","         4","0","         1","0","        56","0","         6","0","       271","0","        88","0","","","        38"," ","  -20.6","0,0112, ","    51"," ,0,0125, ","   152"," ,0,0125, ","  59.2"," ,0,0603, ","   40.0","0,0823, ","-1.1","0,1116","-2.2","0,1128","-4.4","0,1206","-6.7","0,1210","-11.1","0,1219","-1.1","0,0410","-2.2","0,0409","-6.1","0,0210","-6.7","0,0203","-9.4","0,0129","    1518.8","8","    1518.8","0","    639.8"," ,0","      406"," ,0","     17.93","0","     25.18","0","     10.67","0"
"USC00410493","1974","31.7413","-99.9763","534.9","BALLINGER 2 NW, TX US","   1272.3","","    1272.3","0","        61","0","        41","0","         6","0","        0","","         0","0","         0","0","        59","0","         2","0","       273","0","       109","0","","","        17"," ","  -11.7","0,0104, ","     0"," ,0,1231,+","     0","T,0,1226,+","  58.4"," ,0,1024, ","   40.6","0,0725,+","0.0","0,1115","-2.2","0,1125","-9.4","0,1130","-9.4","0,1130","-9.4","0,1130","-1.1","0,0405","-2.8","0,0324","-7.8","0,0225","-7.8","0,0225","-9.4","0,0112","    1015.9","9","    1015.9","0","    615.3"," ,0","        0","T,0","     18.50","0","     26.51","0","     10.49","0"
"USC00410493","1975","31.7413","-99.9763","534.9","BALLINGER 2 NW, TX US","   1154.6","","    1154.6","0","        53","0","        37","0","         5","0","        1","","         0","0","         0","0","        59","0","         0","0","       280","0","       105","0","","","        13"," ","  -15.0","0,0113, ","    25"," ,0,0223, ","    13"," ,0,0223, ","  77.2"," ,0,1102, ","   40.0","0,0614, ","-4.4","0,1113","-4.4","0,1113","-4.4","0,1113","-6.7","0,1123","-9.4","0,1218","-4.4","0,0403","-4.4","0,0403","-4.4","0,0403","-6.7","0,0207","-15.0","0,0113","    1360.5","5","    1360.5","0","    600.5"," ,0","       13"," ,0","     17.97","0","     26.09","0","      9.84","0"
"USC00410493","1976","31.7413","-99.9763","534.9","BALLINGER 2 NW, TX US","   1114.6","","    1114.6","0","        65","0","        38","0","         6","0","        1","","         1","0","         0","0","        68","0","         1","0","       270","0","        93","0","","","        23"," ","  -13.3","0,0108, ","    76"," ,0,1113, ","    64"," ,0,1113, ","  58.4"," ,0,0711, ","   38.3","0,0810,+","-1.1","0,1020","-4.4","0,1113","-4.4","0,1113","-8.3","0,1114","-9.4","0,1221","-2.2","0,0331","-2.2","0,0331","-5.0","0,0314","-11.1","0,0127","-11.1","0,0127","    1104.4","4","    1104.4","0","    613.4"," ,0","       64"," ,0","     17.64","0","     25.57","0","      9.71","0"
"USC00410493","1977","31.7413","-99.9763","534.9","BALLINGER 2 NW, TX US","","","","","        58","0","        35","0","         5","0","        0","","         0","0","","","","","         0","0","       278","0","       127","0","","","        21"," ","","","     0"," ,0,1231,+","     0","T,0,0102, ","  50.5"," ,0,1021, ","   41.7","0,0926,+","","","","","","","","","","","","","","","","","","","","","    1545.7","7","    1545.7","0","    501.2"," ,0","        0","T,0","","","     27.08","0","",""
"USC00410493","1978","31.7413","-99.9763","534.9","BALLINGER 2 NW, TX US","","","","","        60","0","        28","0","         3","0","","","","","","","","","         4","0","       260","0","       129","0","","","        13"," ","","","","","",""," 124.7"," ,0,0803, ","   41.7","0,0717,+","","","","","","","","","","","","","","","","","","","","","","","","","    482.0"," ,0","","","","","     26.01","0","",""
"USC00410493","1979","31.7413","-99.9763","534.9","BALLINGER 2 NW, TX US","   1288.7","","    1288.7","0","        70","0","        38","0","         5","0","","","","","         0","0","        79","0","         2","0","       270","0","       128","0","","","        19"," ","  -14.4","0,0102, ","","","","","  58.2"," ,0,0626, ","   38.9","0,0928, ","-1.7","0,1023","-2.2","0,1102","-6.1","0,1111","-6.7","0,1114","-10.0","0,1123","-1.1","0,0306","-2.8","0,0305","-5.6","0,0226","-6.7","0,0219","-10.6","0,0217","","","","","    565.0"," ,0","","","     17.76","0","     26.01","0","      9.50","0"
"USC00410493","1980","31.7413","-99.9763","534.9","BALLINGER 2 NW, TX US","","","","","","","","","","","","","","","","","","","","","","","","","","","         7"," ","","","","","","","","","","","","","","","","","","","","","","","","","","","","","","","","","","","","","","","","","","","",""
"USC00410493","1981","31.7413","-99.9763","534.9","BALLINGER 2 NW, TX US","","","","","","","","","","","","","","","","","","","","","","","","","","","         2"," ","","","","","","","","","","","","","","","","","","","","","","","","","","","","","","","","","","","","","","","","","","","",""
"USC00410493","1983","31.7413","-99.9763","534.9","BALLINGER 2 NW, TX US","","","","","","","","","","","","","","","         0","0","        64","0","","","","","","","","","","","  -16.1","0,1224,+","","","","","","","","","-1.1","0,1120","-4.4","0,1129","-4.4","0,1129","-10.0","0,1218","-10.0","0,1218","0.0","0,0416","-2.8","0,0415","-5.6","0,0203","-6.7","0,0116","","","","","","","","","","","","","","","     10.44","0"
"USC00410493","1984","31.7413","-99.9763","534.9","BALLINGER 2 NW, TX US","","","","","        56","0","        34","0","         2","0","","","         0","0","","","","","","","","","","","","","","","","","","","     0"," ,0,1231,+","  67.8"," ,0,1231, ","","","","","","","","","","","","","","","","","","","","","","","","","","","    444.5"," ,0","        0"," ,0","","","","","",""
"USC00410493","1985","31.7413","-99.9763","534.9","BALLINGER 2 NW, TX US","","","","","","","","","","","","","","","         1","0","        60","0","","","","","","","","","","","  -19.4","0,0202, ","","","","","","","","","-1.1","0,1116","-2.2","0,1120","-5.6","0,1201","-9.4","0,1202","-9.4","0,1202","-1.1","0,0331","-3.9","0,0215","-7.2","0,0212","-7.2","0,0212","-9.4","0,0203","","","","","","","","","","","","","     11.52","0"
"USC00410493","1986","31.7413","-99.9763","534.9","BALLINGER 2 NW, TX US","","","","","","","","","","","","","","","","","","","","","","","","","         2"," ","        30"," ","","","","","","","","","","","","","","","","","","","","","","","","","","","","","","","","","","","","","","","","","","","",""
"USC00410493","1987","31.7413","-99.9763","534.9","BALLINGER 2 NW, TX US","","","","","","","","","","","","","","","","","","","","","","","","","","","        32"," ","","","","","","","","","","","","","","","","","","","","","","","","","","","","","","","","","","","","","","","","","","","",""
"USC00410493","1988","31.7413","-99.9763","534.9","BALLINGER 2 NW, TX US","   1253.2","","    1253.2","0","        42","0","        28","0","         3","0","        1","","         1","0","         0","0","        70","0","         0","0","       267","0","       121","0","","","        16"," ","  -10.6","0,0121, ","    51"," ,0,0206, ","    51"," ,0,0206, ","  74.2"," ,0,0918, ","   41.1","0,0608, ","-2.8","0,1117","-2.8","0,1117","-5.6","0,1121","-6.7","0,1128","","","-1.1","0,0412","-3.9","0,0319","-5.0","0,0315","-7.8","0,0314","-10.6","0,0121","    1356.5","5","    1356.5","0","    380.3"," ,0","       51"," ,0","     18.36","0","     26.57","0","     10.14","0"
"USC00410493","1989","31.7413","-99.9763","534.9","BALLINGER 2 NW, TX US","","","","","","","","","","","","","","","","","","","","","","","","","         1"," ","        17"," ","","","","","","","","","","","","","","","","","","","","","","","","","","","","","","","","","","","","","","","","","","","",""
"USC00410493","1990","31.7413","-99.9763","534.9","BALLINGER 2 NW, TX US","","","","","        57","0","        47","0","        12","0","        0","","         0","0","","","","","","","","","","","","","        35"," ","","","     0"," ,0,1231,+","     0"," ,0,1231,+","  66.3"," ,0,0806, ","","","","","","","","","","","","","","","","","","","","","","","    1217.7","7","    1217.7","0","    891.5"," ,0","        0"," ,0","","","","","",""
"USC00410493","1991","31.7413","-99.9763","534.9","BALLINGER 2 NW, TX US","","","","","        64","0","        50","0","        11","0","        0","","         0","0","","","","","","","","","","","","","        33"," ","","","     0","T,0,0104, ","     0","T,0,0104, ","  85.3"," ,0,0810, ","","","","","","","","","","","","","","","","","","","","","","","","","","","    927.0"," ,0","        0","T,0","","","","","",""
"USC00410493","1992","31.7413","-99.9763","534.9","BALLINGER 2 NW, TX US","","","","","        52","0","        45","0","         8","0","        0","","         0","0","","","","","","","","","","","","","        25"," ","","","     0"," ,0,1231,+","     0","T,0,0118, ","  54.6"," ,0,0204, ","","","","","","","","","","","","","","","","","","","","","","","    1207.0","0","    1207.0","0","    718.0"," ,0","        0","T,0","","","","","",""
"USC00410493","1993","31.7413","-99.9763","534.9","BALLINGER 2 NW, TX US","","","","","        49","0","        40","0","         4","0","        0","","         0","0","","","","","","","","","","","         9"," ","        23"," ","","","     0"," ,0,1231,+","     0","T,0,1222,+","  50.8"," ,0,0610, ","","","","","","","","","","","","","","","","","","","","","","","","","","","    543.6"," ,0","        0","T,0","","","","","",""
"USC00410493","1994","31.7413","-99.9763","534.9","BALLINGER 2 NW, TX US","   1472.9","","    1472.9","0","        49","0","        35","0","         6","0","        0","","         1","0","         0","0","        41","0","         0","0","       271","0","       119","0","        19"," ","        31"," ","  -12.2","0,0201, ","     0","T,0,0201,+","    25"," ,0,0131, ","  51.3"," ,0,0512, ","   43.3","0,0629,+","-2.8","0,1128","-2.8","0,1128","-5.0","0,1130","","","","","-1.7","0,0406","-5.6","0,0310","-5.6","0,0310","-8.3","0,0202","-12.2","0,0201","    1223.2","2","    1223.2","0","    562.6"," ,0","       38"," ,0","     19.28","0","     26.93","0","     11.64","0"
"USC00410493","1995","31.7413","-99.9763","534.9","BALLINGER 2 NW, TX US","   1338.7","","    1338.7","0","        65","0","        43","0","         4","0","        0","","         0","0","         0","0","        44","0","         1","0","       287","0","       117","0","         9"," ","        40"," ","   -8.3","0,1210, ","     0"," ,0,1231,+","     0","T,0,0302, ","  36.1"," ,0,0404, ","   41.1","0,0725, ","0.0","0,1103","-2.2","0,1129","-7.2","0,1209","-7.2","0,1209","","","-1.7","0,0309","-5.6","0,0308","-5.6","0,0308","","","","","    1092.0","0","    1092.0","0","    572.7"," ,0","        0","T,0","     18.91","0","     26.63","0","     11.18","0"
"USC00410493","1996","31.7413","-99.9763","534.9","BALLINGER 2 NW, TX US","   1524.9","","    1524.9","0","        48","0","        36","0","        11","0","        0","","         0","0","         0","0","        61","0","         1","0","       303","0","       119","0","         5"," ","        38"," ","  -15.0","0,0204, ","     0"," ,0,1231,+","     0"," ,0,1231,+","  89.4"," ,0,0531, ","   40.0","0,0804,+","-2.2","0,1124","-2.2","0,1124","-6.7","0,1125","-6.7","0,1125","-8.9","0,1218","0.0","0,0406","-2.2","0,0325","-8.3","0,0309","-8.3","0,0309","-15.0","0,0204","    1191.0","0","    1191.0","0","    695.9"," ,0","        0"," ,0","     19.29","0","     27.43","0","     11.15","0"
"USC00410493","1997","31.7413","-99.9763","534.9","BALLINGER 2 NW, TX US","   1294.7","","    1294.7","0","        70","0","        49","0","         7","0","","","","","         0","0","        58","0","         3","0","       269","0","       110","0","         9"," ","        33"," ","   -9.4","0,0129,+","","","",""," 172.2"," ,0,0623, ","   38.9","0,0817, ","-2.2","0,1027","-2.2","0,1027","-5.6","0,1116","-7.8","0,1213","","","0.0","0,0414","-2.2","0,0412","-5.6","0,0130","-9.4","0,0129","-9.4","0,0129","    1186.6","6","    1186.6","0","    718.2"," ,0","","","     18.14","0","     25.48","0","     10.81","0"
"USC00410493","1998","31.7413","-99.9763","534.9","BALLINGER 2 NW, TX US","   1701.1","","    1701.1","0","        56","0","        38","0","         5","0","","","         0","0","         0","0","        38","0","         2","0","       272","0","       148","0","        14"," ","        24"," ","   -9.4","0,1222, ","","","     0"," ,0,1231,+"," 100.1"," ,0,0611, ","   41.7","0,0713,+","-1.7","0,1208","-2.2","0,1213","-9.4","0,1222","-9.4","0,1222","-9.4","0,1222","-1.7","0,0321","-3.3","0,0312","-5.0","0,0310","","","","","    1208.1","1","    1208.1","0","    494.9"," ,0","        0"," ,0","     20.07","0","     27.71","0","     12.43","0"
"USC00410493","1999","31.7413","-99.9763","534.9","BALLINGER 2 NW, TX US","   1529.7","","    1529.7","0","        39","0","        26","0","         6","0","        0","","         0","0","         0","0","        39","0","         0","0","       299","0","       130","0","         1"," ","        25"," ","   -7.2","0,1223,+","     0"," ,0,1231,+","     0"," ,0,1231,+","  51.3"," ,0,0426, ","   40.0","0,0813, ","-3.3","0,1125","-3.3","0,1125","-6.1","0,1206","-6.7","0,1215","","","-1.7","0,0315","-4.4","0,0213","-4.4","0,0213","-7.2","0,0104","","","     925.2","2","     925.2","0","    394.9"," ,0","        0"," ,0","     19.80","0","     27.76","0","     11.85","0"
"USC00410493","2000","31.7413","-99.9763","534.9","BALLINGER 2 NW, TX US","   1642.7","","    1642.7","0","        49","0","        31","0","         6","0","        0","","         0","0","         0","0","        54","0","         3","0","       254","0","       136","0","         7"," ","        32"," ","   -8.3","0,0130, ","     0"," ,0,1231,+","     0"," ,0,1231,+","  66.8"," ,0,1018, ","   43.3","0,0525, ","0.0","0,1108","-3.3","0,1114","-6.7","0,1212","-6.7","0,1212","","","0.0","0,0317","-4.4","0,0205","-4.4","0,0205","-8.3","0,0130","","","    1037.7","7","    1037.7","0","    547.7"," ,0","        0"," ,0","     19.24","0","     26.31","0","     12.18","0"
"USC00410493","2001","31.7413","-99.9763","534.9","BALLINGER 2 NW, TX US","   1362.0","","    1362.0","0","        62","0","        41","0","         4","0","        0","","         0","0","         0","0","        58","0","         2","0","       244","0","       103","0","        12"," ","        42"," ","   -6.1","0,1231, ","     0"," ,0,1231,+","     0"," ,0,1231,+","  34.3"," ,0,0505, ","   40.0","0,0716, ","-0.6","0,1120","-4.4","0,1128","-4.4","0,1128","","","","","-0.6","0,0320","-2.2","0,0301","-5.0","0,0211","","","","","    1701.3","3","    1701.3","0","    504.1"," ,0","        0"," ,0","     18.06","0","     24.83","0","     11.29","0"
"USC00410493","2002","31.7413","-99.9763","534.9","BALLINGER 2 NW, TX US","   1284.2","","    1284.2","0","        73","0","        43","0","         3","0","        1","","         1","0","         0","0","        61","0","         1","0","       234","0","       105","0","         9"," ","        23"," ","  -10.0","0,0227, ","    51"," ,0,0101, ","    38"," ,0,0101, ","  75.7"," ,0,0320, ","   38.9","0,0827,+","-1.1","0,1127","-3.3","0,1128","-5.6","0,1225","","","","","-1.7","0,0326","-2.8","0,0323","-4.4","0,0305","-6.7","0,0304","-9.4","0,0303","    1394.3","3","    1394.3","0","    648.2"," ,0","       38"," ,0","     17.55","0","     24.43","0","     10.66","0"
"USC00410493","2003","31.7413","-99.9763","534.9","BALLINGER 2 NW, TX US","   1287.3","","    1287.3","0","        61","0","        33","0","         8","0","        0","","         0","0","         0","0","        63","0","         2","0","       257","0","        99","0","        18"," ","        35"," ","   -8.9","0,0226,+","     0","T,0,0225, ","     0","T,0,0225, ","  85.3"," ,0,0604, ","   41.1","0,0809, ","0.0","0,1120","-7.2","0,1124","-7.2","0,1124","-7.2","0,1124","","","-1.1","0,0409","-2.8","0,0330","-8.9","0,0226","-8.9","0,0226","-8.9","0,0226","    1519.9","9","    1519.9","0","    575.5"," ,0","        0","T,0","     18.07","0","     25.30","0","     10.83","0"
"USC00410493","2004","31.7413","-99.9763","534.9","BALLINGER 2 NW, TX US","   1202.8","","    1202.8","0","        76","0","        58","0","         8","0","        2","","         1","0","         0","0","        47","0","         5","0","       247","0","        82","0","         6"," ","        47"," ","   -8.9","0,1224,+","    25"," ,0,1223,+","    25"," ,0,1222, ","  74.7"," ,0,1115, ","   40.6","0,0602, ","-2.8","0,1201","-2.8","0,1201","-8.9","0,1223","-8.9","0,1223","-8.9","0,1223","0.0","0,0413","-3.9","0,0226","-4.4","0,0216","-7.2","0,0214","","","    1296.5","5","    1296.5","0","    881.2"," ,0","       33"," ,0","     18.10","0","     24.70","0","     11.49","0"
"USC00410493","2005","31.7413","-99.9763","534.9","BALLINGER 2 NW, TX US","   1389.7","","    1389.7","0","        54","0","        38","0","         7","0","        0","","         0","0","         0","0","        36","0","         1","0","       266","0","       112","0","         8"," ","        41"," ","  -11.1","0,1209,+","     0"," ,0,1231,+","     0"," ,0,1231,+","  61.5"," ,0,0815, ","   41.1","0,0926,+","-2.2","0,1116","-2.2","0,1116","-5.6","0,1205","-6.7","0,1207","-11.1","0,1208","-2.2","0,0317","-2.2","0,0317","-4.4","0,0124","","","","","    1202.3","3","    1202.3","0","    634.6"," ,0","        0"," ,0","     18.71","0","     25.77","0","     11.66","0"
"USC00410493","2006","31.7413","-99.9763","534.9","BALLINGER 2 NW, TX US","   1597.9","","    1597.9","0","        44","0","        31","0","         5","0","        0","","         0","0","         0","0","        43","0","         1","0","       280","0","       131","0","         2"," ","        35"," ","   -8.9","0,1204, ","     0","T,0,1130, ","     0","T,0,1130, ","  50.8"," ,0,0623, ","   40.0","0,0826,+","-1.1","0,1116","-3.3","0,1130","-7.2","0,1201","-7.2","0,1201","-8.9","0,1204","0.0","0,0325","-2.2","0,0324","-5.6","0,0220","-6.7","0,0219","","","    1105.6","6","    1105.6","0","    434.4"," ,0","        0","T,0","     19.73","0","     27.38","0","     12.07","0"
"USC00410493","2007","31.7413","-99.9763","534.9","BALLINGER 2 NW, TX US","","","","","        70","0","        48","0","        11","0","        0","","         0","0","","","","","","","","","","","        12"," ","        42"," ","","","     0"," ,0,1231,+","     0"," ,0,1231,+","  86.9"," ,0,0501, ","","","","","","","","","","","","","","","","","","","","","","","","","","","    888.9"," ,0","        0"," ,0","","","","","",""
"USC00410493","2008","31.7413","-99.9763","534.9","BALLINGER 2 NW, TX US","   1405.6","","    1405.6","0","        39","0","        28","0","         6","0","        0","","         0","0","         0","0","        66","0","         1","0","       279","0","       120","0","         2"," ","        29"," ","   -8.3","0,0102, ","     0"," ,0,1231,+","     0"," ,0,1231,+","  73.4"," ,0,0909, ","   41.7","0,0729, ","0.0","0,1108","-3.3","0,1116","-4.4","0,1210","","","","","-1.1","0,0309","-3.3","0,0308","-4.4","0,0228","-7.8","0,0103","","","    1270.4","4","    1270.4","0","    476.5"," ,0","        0"," ,0","     18.53","0","     26.47","0","     10.59","0"
"USC00410493","2009","31.7413","-99.9763","534.9","BALLINGER 2 NW, TX US","","","","","        54","0","        29","0","         3","0","        0","","         0","0","","","","","         1","0","       278","0","       112","0","        11"," ","        26"," ","","","     0","T,0,1225,+","     8"," ,0,1204, ","  50.3"," ,0,0905, ","   41.1","0,0710,+","","","","","","","","","","","","","","","","","","","","","    1190.2","2","    1190.2","0","    450.9"," ,0","        8"," ,0","","","     26.32","0","",""
"USC00410493","2010","31.7413","-99.9763","534.9","BALLINGER 2 NW, TX US","   1495.1","","    1495.1","0","        53","0","        32","0","         8","0","        1","","         1","0","         0","0","        61","0","         2","0","       261","0","       113","0","         8"," ","        26"," ","  -12.2","0,0109, ","    25"," ,0,0223, ","    25"," ,0,0223, ","  72.4"," ,0,0129, ","   39.4","0,0824,+","0.0","0,1118","-5.0","0,1126","-5.0","0,1126","","","","","-1.1","0,0323","-3.3","0,0225","-4.4","0,0218","-7.2","0,0111","-11.7","0,0110","","","","","    555.4"," ,0","       38"," ,0","     18.47","0","     25.70","0","     11.25","0"
"USC00410493","2011","31.7413","-99.9763","534.9","BALLINGER 2 NW, TX US","   1886.3","","    1886.3","7","        36","7","        16","7","         4","7","        6","","         1","7","         0","7","        62","7","         4","7","       263","7","       157","7","         6"," ","        18"," ","  -12.2","7,0203, ","    51"," ,7,0204, ","    25"," ,7,0201, ","  68.6"," ,7,1009, ","   43.3","7,0619,+","-1.1","7,1104","-3.9","7,1128","-6.7","7,1207","-6.7","7,1207","","","-0.6","7,0310","-2.2","7,0307","-4.4","7,0213","-7.8","7,0212","-8.9","7,0211","    1273.9","9","    1273.9","7","    293.3"," ,7","       64"," ,7","     19.70","7","     27.99","7","     11.42","7"
"USC00410493","2012","31.7413","-99.9763","534.9","BALLINGER 2 NW, TX US","   1639.3","","    1639.3","7","        37","7","        28","7","         5","7","        0","","         0","7","         0","7","        43","7","         0","7","       284","7","       132","7","         4"," ","        23"," ","   -6.7","7,1229,+","     0","T,7,0213, ","    13"," ,7,0213, "," 136.9"," ,7,0929, ","   43.3","7,0612, ","0.0","7,1029","-6.7","7,1211","-6.7","7,1211","-6.7","7,1211","","","-0.6","7,0305","-3.3","K,0213","","","","","","","    1179.8","8","    1179.8","7","    538.2"," ,7","       13"," ,7","     19.86","7","     27.50","7","     12.22","7"
"USC00410493","2013","31.7413","-99.9763","534.9","BALLINGER 2 NW, TX US","   1431.8","","    1431.8","7","        45","7","        33","7","         3","7","        3","","         1","7","         0","7","        69","7","         5","7","       256","7","       124","7","         4"," ","        25"," ","   -8.3","7,1208,+","    25"," ,7,1207,+","    25"," ,7,0104, ","  43.9"," ,7,0715, ","   40.6","7,0808,+","-4.4","7,1113","-4.4","7,1113","-4.4","7,1113","-8.3","7,1207","","","-2.8","7,0327","-2.8","7,0327","-4.4","7,0216","-7.2","7,0117","","","    1257.5","5","    1257.5","7","    430.5"," ,7","       51"," ,7","     18.21","7","     25.72","7","     10.71","7"
"USC00410493","2014","31.7413","-99.9763","534.9","BALLINGER 2 NW, TX US","   1413.2","","    1413.2","7","        39","7","        27","7","         5","7","        0","","         0","7","         0","7","        72","7","         6","7","       264","7","       127","7","         6"," ","        25"," ","  -11.7","7,0130, ","     0","T,7,1117,+","     0","T,7,1117,+","  53.8"," ,7,0525, ","   39.4","7,0808,+","-1.7","7,1112","-3.3","7,1113","-6.1","7,1117","-7.8","7,1231","","","-1.1","7,0416","-9.4","7,0304","-9.4","7,0304","-9.4","7,0304","-9.4","7,0304","    1608.9","9","    1608.9","7","    479.2"," ,7","        0","T,7","     18.28","7","     25.78","7","     10.77","7"
"USC00410493","2015","31.7413","-99.9763","534.9","BALLINGER 2 NW, TX US","   1458.8","","    1458.8","7","        72","7","        49","7","         8","7","        1","","         1","7","         0","7","        55","7","         5","7","       261","7","       117","7","         5"," ","        32"," ","   -8.3","7,0109, ","   102"," ,7,1228, ","   102"," ,7,1228, "," 103.4"," ,7,0708, ","   40.0","7,0810, ","-5.0","7,1122","-5.0","7,1122","-5.0","7,1122","","","","","-5.0","7,0307","-5.0","7,0307","-5.0","7,0307","-8.3","7,0109","","","    1411.4","4","    1411.4","7","    733.6"," ,7","      102"," ,7","     18.58","7","     25.62","7","     11.53","7"
"USC00410493","2016","31.7413","-99.9763","534.9","BALLINGER 2 NW, TX US","","","","","        70","7","        49","7","         7","7","        0","","         0","7","","","","","         1","7","       270","7","       106","7","         8"," ","        36"," ","","","     0"," ,7,1231,+","     0"," ,7,1231,+","  78.7"," ,7,0417, ","   41.1","7,0705, ","","","","","","","","","","","","","","","","","","","","","    1150.2","2","    1150.2"," ","    729.6"," ,7","        0"," ,7","","","     26.37","7","",""
"USC00410493","2017","31.7413","-99.9763","534.9","BALLINGER 2 NW, TX US","   1349.3","","    1349.3","7","        53","7","        32","7","         6","7","        0","","         0","7","         0","7","        38","7","         1","7","       279","7","       115","7","         6"," ","        20"," ","  -11.7","7,0107, ","     0"," ,7,1231,+","     0"," ,7,1231,+","  50.0"," ,7,0402, ","   42.2","7,0618, ","0.0","7,1028","-6.1","7,1208","-6.1","7,1208","","","","","-3.3","7,0423","-3.3","7,0423","-5.6","7,0109","-11.1","7,0108","-11.1","7,0108","","","","","    462.3"," ,7","        0"," ,7","     19.13","7","     26.81","7","     11.46","7"
"USC00410493","2018","31.7413","-99.9763","534.9","BALLINGER 2 NW, TX US","","","","","        63","7","        46","7","         7","7","        0","","         0","7","","","","","         3","7","       248","7","       112","7","         4"," ","        30"," ","","","     0"," ,7,1231,+","     0"," ,7,1231,+","  66.0"," ,7,1018, ","   42.2","7,0724,+","","","","","","","","","","","","","","","","","","","","","","","","","    751.1"," ,7","        0"," ,7","","","     25.57","7","",""
"USC00410493","2019","31.7413","-99.9763","534.9","BALLINGER 2 NW, TX US","   1391.0","","    1391.0","7","        41","7","        29","7","         4","7","        0","","         0","7","         0","7","        55","7","         2","7","       245","7","       114","7","         8"," ","        24"," ","   -8.3","7,0305, ","     0"," ,7,1231,+","     0","T,7,0209, ","  55.4"," ,7,0424, ","   41.1","7,0827, ","0.0","7,1026","-6.1","7,1031","-6.1","7,1031","","","","","-3.9","7,0307","-3.9","7,0307","-7.8","7,0306","-7.8","7,0306","","","    1445.9","9","    1445.9","7","    469.1"," ,7","        0","T,7","     18.30","7","     25.53","7","     11.08","7"
"USC00410493","2020","31.7413","-99.9763","534.9","BALLINGER 2 NW, TX US","","","","","","","","","","","","","","","","","","","","","","","","","         6"," ","         9"," ","","","","","","","","","","","","","","","","","","","","","","","","","","","","","","","    1312.3","3","    1312.3","H","","","","","","","","","",""
