"STATION","DATE","LATITUDE","LONGITUDE","ELEVATION","NAME","CDSD","CDSD_ATTRIBUTES","CLDD","CLDD_ATTRIBUTES","DP01","DP01_ATTRIBUTES","DP10","DP10_ATTRIBUTES","DP1X","DP1X_ATTRIBUTES","DT00","DT00_ATTRIBUTES","DT32","DT32_ATTRIBUTES","DX32","DX32_ATTRIBUTES","DX70","DX70_ATTRIBUTES","DX90","DX90_ATTRIBUTES","EMNT","EMNT_ATTRIBUTES","EMXP","EMXP_ATTRIBUTES","EMXT","EMXT_ATTRIBUTES","FZF0","FZF0_ATTRIBUTES","FZF1","FZF1_ATTRIBUTES","FZF2","FZF2_ATTRIBUTES","FZF3","FZF3_ATTRIBUTES","FZF4","FZF4_ATTRIBUTES","FZF5","FZF5_ATTRIBUTES","FZF6","FZF6_ATTRIBUTES","FZF7","FZF7_ATTRIBUTES","FZF8","FZF8_ATTRIBUTES","FZF9","FZF9_ATTRIBUTES","HDSD","HDSD_ATTRIBUTES","HTDD","HTDD_ATTRIBUTES","PRCP","PRCP_ATTRIBUTES","TAVG","TAVG_ATTRIBUTES","TMAX","TMAX_ATTRIBUTES","TMIN","TMIN_ATTRIBUTES"
"USC00357007","1913","44.9","-118.966667","1066.8","RANGE, OR US","     61.4","","      61.4","6","        90","6","        87","6","         1","6","         7","6","       216","6","        37","6","       118","6","        17","6","  -25.6","6,0106, ","  28.2"," ,6,0415, ","   36.1","6,0828,+","-1.7","6,0815","-3.9","6,0901","-4.4","6,0908","-6.7","6,1103","-9.4","6,1121","-2.2","6,0714","-2.2","6,0714","-5.0","6,0429","-6.7","6,0403","-17.8","6,0326","","","","","    574.0"," ,6","      6.11","6","     14.25","6","     -2.04","6"
"USC00357007","1914","44.9","-118.966667","1066.8","RANGE, OR US","     49.9","","      49.9","6","        91","6","        84","6","         0","6","         6","6","       201","6","        16","6","       126","6","        20","6","  -22.8","6,0206, ","  22.9"," ,6,1002, ","   37.8","6,0805,+","0.0","6,0817","-2.2","6,0901","-5.0","6,1106","-9.4","6,1114","-9.4","6,1114","0.0","6,0722","-3.3","6,0721","-6.7","6,0529","-6.7","6,0529","-8.9","6,0326","    4065.2","2","    4065.2","6","    514.6"," ,6","      7.41","6","     16.13","6","     -1.32","6"
"USC00357007","1915","44.9","-118.966667","1066.8","RANGE, OR US","     47.5","","      47.5","6","","","","","","","         5","6","       213","6","        14","6","       118","6","        30","6","  -29.4","6,1230, ","","","   38.9","6,0829, ","-1.1","6,0907","-4.4","6,0910","-4.4","6,0910","-10.6","6,1110","-10.6","6,1110","0.0","6,0718","-2.2","6,0529","-8.3","6,0502","-8.3","6,0502","-10.6","6,0307","    3913.7","7","    3913.7","6","","","      7.21","6","     15.95","6","     -1.53","6"
"USC00357007","1917","44.9","-118.966667","1066.8","RANGE, OR US","","","","","       112","6","        75","6","         0","6","","","","","        24","6","       123","6","        38","6","","","  22.9"," ,6,0923, ","   37.8","6,0824, ","","","","","","","","","","","","","","","","","","","","","","","","","    489.0"," ,6","","","     15.79","6","",""
