"STATION","DATE","LATITUDE","LONGITUDE","ELEVATION","NAME","CDSD","CDSD_ATTRIBUTES","CLDD","CLDD_ATTRIBUTES","DP01","DP01_ATTRIBUTES","DP10","DP10_ATTRIBUTES","DP1X","DP1X_ATTRIBUTES","DSND","DSND_ATTRIBUTES","DSNW","DSNW_ATTRIBUTES","DT00","DT00_ATTRIBUTES","DT32","DT32_ATTRIBUTES","DX32","DX32_ATTRIBUTES","DX70","DX70_ATTRIBUTES","DX90","DX90_ATTRIBUTES","DYFG","DYFG_ATTRIBUTES","DYTS","DYTS_ATTRIBUTES","EMNT","EMNT_ATTRIBUTES","EMSD","EMSD_ATTRIBUTES","EMSN","EMSN_ATTRIBUTES","EMXP","EMXP_ATTRIBUTES","EMXT","EMXT_ATTRIBUTES","FZF0","FZF0_ATTRIBUTES","FZF1","FZF1_ATTRIBUTES","FZF2","FZF2_ATTRIBUTES","FZF3","FZF3_ATTRIBUTES","FZF4","FZF4_ATTRIBUTES","FZF5","FZF5_ATTRIBUTES","FZF6","FZF6_ATTRIBUTES","FZF7","FZF7_ATTRIBUTES","FZF8","FZF8_ATTRIBUTES","FZF9","FZF9_ATTRIBUTES","HDSD","HDSD_ATTRIBUTES","HTDD","HTDD_ATTRIBUTES","PRCP","PRCP_ATTRIBUTES","SNOW","SNOW_ATTRIBUTES","TAVG","TAVG_ATTRIBUTES","TMAX","TMAX_ATTRIBUTES","TMIN","TMIN_ATTRIBUTES"
"USC00396947","1950","44.12055","-103.28417","1060.4","RAPID CITY 4 NW, SD US","","","","","        94","0","        43","0","         2","0","       55","","        17","0","        30","0","       170","0","","","","","","","        11"," ","        50"," ","  -31.1","0,0103, ","   330"," ,0,0318, ","   305"," ,0,0428, ","  27.9"," ,0,0428, ","","","-2.2","0,1001","-2.2","0,1001","-11.7","0,1108","-11.7","0,1108","-11.7","0,1108","-0.6","0,0508","-5.0","0,0501","-5.0","0,0501","-10.6","0,0430","-10.6","0,0430","    4174.6","6","    4174.6","0","    365.5"," ,0","     1995"," ,0","","","","","      0.31","0"
"USC00396947","1951","44.12055","-103.28417","1060.4","RAPID CITY 4 NW, SD US","    254.6","","     254.6","0","       112","0","        40","0","         3","0","       42","","         9","0","        24","0","       179","0","        46","0","       120","0","        18","0","         5"," ","        55"," ","  -31.1","0,0128, ","   127"," ,0,0303,+","   127"," ,0,0302, ","  33.3"," ,0,0517, ","   39.4","0,0719, ","-2.2","0,0927","-2.2","0,0927","-4.4","0,1030","-6.7","0,1031","-10.6","0,1101","-0.6","6,0602","-5.0","0,0422","-5.0","0,0422","-6.7","0,0420","-8.9","0,0330","","","","","    479.6"," ,0","      629"," ,0","      7.23","0","     13.88","0","      0.58","0"
"USC00396947","1952","44.12055","-103.28417","1060.4","RAPID CITY 4 NW, SD US","    468.7","","     468.7","0","        67","0","        30","0","         4","0","       33","","         7","0","         9","0","       150","0","        35","0","       151","0","        36","0","        13"," ","        28"," ","  -28.3","0,0122, ","   127"," ,0,0221,+","    69"," ,0,0312, ","  46.0"," ,0,0522, ","   40.6","0,0724, ","-6.1","0,1005","-6.1","0,1005","-6.1","0,1005","-7.2","0,1006","-11.1","0,1125","-1.1","0,0414","-7.8","0,0410","-7.8","0,0410","-7.8","0,0410","-14.4","0,0323","    3924.0","0","    3924.0","0","    314.7"," ,0","      381"," ,0","      9.85","0","     16.64","0","      3.05","0"
"USC00396947","1953","44.12055","-103.28417","1060.4","RAPID CITY 4 NW, SD US","    376.8","","     376.8","0","        93","0","        43","0","         4","0","       44","","        14","0","         3","0","       146","0","        18","0","       150","0","        23","0","         6"," ","        53"," ","  -22.8","0,0221, ","   356"," ,0,0302, ","   254"," ,0,0301, ","  54.4"," ,0,0619, ","   37.2","0,0826, ","0.0","0,1004","-3.3","0,1026","-4.4","0,1119","-6.7","0,1120","-9.4","0,1122","-0.6","0,0514","-4.4","0,0513","-4.4","0,0513","-7.8","0,0419","-8.9","0,0418","    3485.5","5","    3485.5","0","    516.6"," ,0","     1259"," ,0","     10.26","0","     16.58","0","      3.94","0"
"USC00396947","1954","44.12055","-103.28417","1060.4","RAPID CITY 4 NW, SD US","    411.9","","     411.9","0","       102","0","        38","0","         2","0","       30","","        11","0","        13","0","       137","0","        29","0","       140","0","        28","0","         5"," ","        10"," ","  -27.2","0,0120, ","   279"," ,0,0313, ","   203"," ,0,1130, ","  27.9"," ,0,0610, ","   41.7","0,0712,+","0.0","0,0921","-2.8","0,1026","-5.0","0,1027","-8.3","0,1102","-8.9","0,1129","-2.2","0,0504","-2.2","0,0504","-7.2","0,0503","-7.2","0,0503","-9.4","0,0402","    3361.1","1","    3361.1","0","    359.3"," ,0","     1050"," ,0","      9.92","0","     16.53","0","      3.32","0"
"USC00396947","1955","44.12055","-103.28417","1060.4","RAPID CITY 4 NW, SD US","    500.9","","     500.9","0","        93","0","        44","0","         4","0","       55","","        17","0","        19","0","       151","0","        63","0","       147","0","        40","0","","","        15"," ","  -26.1","0,0210, ","   152"," ,0,0209, ","   152"," ,0,0209, ","  35.6"," ,0,0710, ","   37.8","0,0801, ","0.0","0,0925","-2.2","0,1023","-7.2","0,1102","-7.2","0,1102","-8.9","0,1103","-1.1","0,0413","-3.3","0,0407","-12.2","0,0327","-12.2","0,0327","-12.2","0,0327","    3585.6","6","    3585.6","0","    438.1"," ,0","     1074"," ,0","      8.71","0","     15.35","0","      2.07","0"
"USC00396947","1956","44.12055","-103.28417","1060.4","RAPID CITY 4 NW, SD US","    400.6","","     400.6","0","        95","0","        45","0","         0","0","       58","","        16","0","        15","0","       152","0","        37","0","       147","0","        24","0","         4"," ","","","  -23.9","0,1207,+","   152"," ,0,1103,+","   140"," ,0,0310, ","  24.9"," ,0,0528, ","   37.2","0,0611, ","-2.8","0,1029","-2.8","0,1029","-4.4","0,1030","-6.7","0,1104","-9.4","0,1105","-0.6","0,0503","-10.6","0,0429","-10.6","0,0429","-10.6","0,0429","-10.6","0,0429","    3922.8","8","    3922.8","0","    419.3"," ,0","     1150"," ,0","      9.49","0","     16.05","0","      2.93","0"
"USC00396947","1957","44.12055","-103.28417","1060.4","RAPID CITY 4 NW, SD US","    332.4","","     332.4","0","       111","0","        49","0","         2","0","       44","","        10","0","        20","0","       163","0","        41","0","       117","0","        24","0","","","","","  -30.0","0,0125, ","   279"," ,0,0406,+","   163"," ,0,0406, ","  59.7"," ,0,0520, ","   37.2","0,0806,+","-0.6","0,0919","-3.3","0,1024","-6.7","0,1026","-6.7","0,1026","-12.8","0,1211","0.0","0,0421","-3.3","0,0413","-11.7","0,0412","-11.7","0,0412","-11.7","0,0412","    3861.2","2","    3861.2","0","    545.8"," ,0","      888"," ,0","      8.33","0","     14.29","0","      2.37","0"
"USC00396947","1958","44.12055","-103.28417","1060.4","RAPID CITY 4 NW, SD US","    343.3","","     343.3","0","        98","0","        40","0","         3","0","       40","","        13","0","         6","0","       153","0","        43","0","       148","0","        18","0","","","","","  -22.2","0,0212, ","   203"," ,0,0423, ","   305"," ,0,0423, ","  35.6"," ,0,0423, ","   37.8","0,0809, ","0.0","0,0929","-2.8","0,1010","-4.4","0,1105","-8.3","0,1116","-10.0","0,1117","0.0","0,0430","-2.2","0,0429","-4.4","0,0426","-7.8","0,0319","-11.1","0,0315","    3630.8","8","    3630.8","0","    427.8"," ,0","     1088"," ,0","      9.28","0","     15.57","0","      3.00","0"
"USC00396947","1959","44.12055","-103.28417","1060.4","RAPID CITY 4 NW, SD US","    495.6","","     495.6","0","        98","0","        38","0","         4","0","       39","","        11","0","        14","0","       159","0","        37","0","       126","0","        43","0","","","","","  -27.2","0,0104, ","   305"," ,0,0419, ","   330"," ,0,0419, ","  33.0"," ,0,0419, ","   38.3","0,0818, ","-1.7","0,0930","-5.0","0,1009","-5.0","0,1009","-6.7","0,1011","-10.0","0,1104","-2.2","0,0425","-2.2","0,0425","-5.0","0,0421","-8.3","0,0412","-13.9","0,0221","    3714.5","5","    3714.5","0","    396.6"," ,0","     1228"," ,0","      8.84","0","     15.27","0","      2.41","0"
"USC00396947","1960","44.12055","-103.28417","1060.4","RAPID CITY 4 NW, SD US","    500.7","","     500.7","0","        84","0","        33","0","         3","0","       61","","         7","0","        22","0","       153","0","        56","0","       149","0","        42","0","","","","","  -25.6","0,0304, ","   178"," ,0,0416, ","   203"," ,0,0416, ","  30.5"," ,0,0524, ","   39.4","0,0904,+","0.0","0,1018","-8.3","0,1019","-8.3","0,1019","-8.3","0,1019","-10.6","0,1108","0.0","0,0507","-2.8","0,0430","-5.0","0,0324","-6.7","0,0317","-9.4","0,0316","    3990.6","6","    3990.6","0","    331.3"," ,0","      863"," ,0","      9.15","0","     15.72","0","      2.57","0"
"USC00396947","1961","44.12055","-103.28417","1060.4","RAPID CITY 4 NW, SD US","    537.9","","     537.9","0","        70","0","        34","0","         0","0","       19","","        10","0","         9","0","       154","0","        24","0","       132","0","        43","0","","","","","  -22.8","0,1211, ","    76"," ,0,1029,+","   102"," ,0,1029,+","  18.0"," ,0,1028, ","   40.0","0,0629, ","0.0","0,0929","-3.3","0,0930","-5.0","0,1030","-7.8","0,1102","-9.4","0,1103","0.0","0,0504","-2.8","0,0428","-4.4","0,0417","-7.2","0,0415","-9.4","0,0224","    3362.5","5","    3362.5","0","    261.6"," ,0","      654"," ,0","      9.96","0","     16.65","0","      3.26","0"
"USC00396947","1962","44.12055","-103.28417","1060.4","RAPID CITY 4 NW, SD US","    281.9","","     281.9","0","       109","0","        53","0","         9","0","       47","","        11","0","        24","0","       131","0","        42","0","       145","0","        12","0","","","","","  -26.7","0,0301,+","   178"," ,0,0303, ","    89"," ,0,0217, ","  78.7"," ,0,0624, ","   36.1","0,0821,+","0.0","0,1016","-5.0","0,1025","-5.0","0,1025","-6.7","0,1209","-14.4","0,1210","0.0","0,0415","-4.4","0,0413","-4.4","0,0413","-7.8","0,0402","-12.2","0,0314","    3938.0","0","    3938.0","0","    735.0"," ,0","      686"," ,0","      9.26","0","     15.69","0","      2.83","0"
"USC00396947","1963","44.12055","-103.28417","1060.4","RAPID CITY 4 NW, SD US","    477.1","","     477.1","0","       113","0","        42","0","         6","0","       51","","        13","0","        27","0","       135","0","        37","0","       159","0","        32","0","","","","","  -30.0","0,0119, ","   381"," ,0,0316, ","   406"," ,0,0316, ","  47.5"," ,0,0427, ","   36.1","0,0806,+","0.0","0,1028","-2.2","0,1102","-7.8","0,1113","-7.8","0,1113","-11.1","0,1121","-1.1","0,0522","-2.2","0,0423","-10.6","0,0317","-10.6","0,0317","-10.6","0,0317","    3435.7","7","    3435.7","0","    572.6"," ,0","     1252"," ,0","     10.16","0","     16.68","0","      3.64","0"
"USC00396947","1965","44.12055","-103.28417","1060.4","RAPID CITY 4 NW, SD US","    278.2","","     278.2","0","       108","0","        44","0","         2","0","       28","","         8","0","        19","0","       149","0","        37","0","       129","0","        14","0","","","","","  -25.6","0,0223, ","   102"," ,0,0405,+","   203"," ,0,0509, ","  68.8"," ,0,0514, ","   38.3","0,0812, ","-1.7","0,0916","-2.2","0,0923","-5.0","0,1109","-8.9","0,1126","-8.9","0,1126","-0.6","0,0509","-7.2","0,0406","-7.2","0,0406","-7.2","0,0406","-9.4","0,0330","    3946.0","0","    3946.0","0","    488.7"," ,0","      788"," ,0","      8.75","0","     15.10","0","      2.39","0"
"USC00396947","1966","44.12055","-103.28417","1060.4","RAPID CITY 4 NW, SD US","    439.1","","     439.1","0","        99","0","        55","0","         4","0","       71","","        15","0","        19","0","       158","0","        53","0","       132","0","        35","0","","","","","  -27.2","0,0121, ","   254"," ,0,0419, ","   229"," ,0,0322, ","  50.8"," ,0,0727,+","   39.4","0,0716, ","0.0","0,1003","-4.4","0,1015","-4.4","0,1015","-9.4","0,1102","-9.4","0,1102","-1.1","0,0513","-5.0","0,0430","-5.0","0,0430","-10.0","0,0420","-10.0","0,0420","    3892.1","1","    3892.1","0","    587.1"," ,0","     1370"," ,0","      8.44","0","     15.07","0","      1.81","0"
"USC00396947","1967","44.12055","-103.28417","1060.4","RAPID CITY 4 NW, SD US","    331.7","","     331.7","0","       118","0","        50","0","         4","0","       42","","        17","0","        11","0","       148","0","        43","0","       131","0","        21","0","","","","","  -27.8","0,1231, ","   152"," ,0,0501, ","   127"," ,0,0430, ","  32.8"," ,0,0615, ","   36.1","0,0824,+","-0.6","0,0927","-3.9","0,1027","-7.2","0,1103","-7.2","0,1103","-10.0","0,1104","0.0","0,0512","-2.8","0,0511","-5.0","0,0423","-8.3","0,0422","-8.9","0,0401","    3741.9","9","    3741.9","0","    566.5"," ,0","     1151"," ,0","      8.93","0","     15.25","0","      2.61","0"
"USC00396947","1968","44.12055","-103.28417","1060.4","RAPID CITY 4 NW, SD US","    285.8","","     285.8","0","       102","0","        43","0","         3","0","       43","","        12","0","        13","0","       145","0","        45","0","       132","0","        17","0","","","","","  -30.0","0,1230, ","   127"," ,0,0106, ","   132"," ,0,0413, ","  45.7"," ,0,0624, ","   35.6","0,0603, ","0.0","0,1003","-5.0","0,1018","-5.0","0,1018","-8.9","0,1111","-8.9","0,1111","-1.1","0,0520","-2.2","0,0418","-7.2","0,0405","-7.2","0,0405","-11.1","0,0404","    3681.3","3","    3681.3","0","    496.7"," ,0","      808"," ,0","      8.90","0","     15.27","0","      2.53","0"
"USC00396947","1969","44.12055","-103.28417","1060.4","RAPID CITY 4 NW, SD US","    404.0","","     404.0","0","        99","0","        40","0","         1","0","       42","","        13","0","        10","0","       156","0","        52","0","       144","0","        27","0","","","","","  -25.6","0,0124, ","   127"," ,0,0302, ","   127"," ,0,1012,+","  30.5"," ,0,0723, ","   39.4","0,0811, ","-0.6","0,1008","-5.6","0,1012","-5.6","0,1012","-6.7","0,1013","-8.9","0,1014","0.0","0,0613","-3.3","0,0427","-5.0","0,0330","-11.1","0,0329","-11.1","0,0329","    3968.3","3","    3968.3","0","    410.9"," ,0","     1137"," ,0","      8.83","0","     15.27","0","      2.38","0"
"USC00396947","1970","44.12055","-103.28417","1060.4","RAPID CITY 4 NW, SD US","    499.0","","     499.0","0","        97","0","        43","0","         2","0","       79","","        16","0","        13","0","       163","0","        50","0","       134","0","        38","0","","","","","  -25.6","0,0108, ","   559"," ,0,0418, ","   508"," ,0,0418, ","  61.5"," ,0,0612, ","   38.9","0,0826, ","-0.6","0,0913","-2.2","0,1007","-6.1","0,1008","-7.2","0,1031","-15.0","0,1122","-2.2","0,0423","-2.2","0,0423","-5.0","0,0404","-6.7","0,0331","-12.2","0,0327","    3795.3","3","    3795.3","0","    528.0"," ,0","     2152"," ,0","      8.75","0","     15.02","0","      2.47","0"
"USC00396947","1971","44.12055","-103.28417","1060.4","RAPID CITY 4 NW, SD US","    379.8","","     379.8","0","       106","0","        48","0","         2","0","       72","","        19","0","        15","0","       156","0","        54","0","       132","0","        30","0","","","        40"," ","  -28.9","0,0207, ","   305"," ,0,0208, ","   203"," ,0,0130, ","  41.4"," ,0,0523, ","   37.2","0,0902, ","-2.8","0,1027","-2.8","0,1027","-7.2","0,1028","-7.2","0,1028","-8.9","0,1029","-2.2","0,0428","-2.2","0,0428","-5.0","0,0405","-6.7","0,0325","-8.9","0,0323","    3979.3","3","    3979.3","0","    549.1"," ,0","     1630"," ,0","      8.37","0","     14.59","0","      2.15","0"
"USC00396947","1972","44.12055","-103.28417","1060.4","RAPID CITY 4 NW, SD US","    276.0","","     276.0","0","       103","0","        45","0","         3","0","       51","","         7","0","        25","0","       164","0","        48","0","       139","0","        20","0","","","        42"," ","  -30.6","0,1208, ","   102"," ,0,1214,+","    89"," ,0,1204, ","  91.4"," ,0,0610, ","   37.2","0,0812, ","-0.6","0,0921","-6.1","0,0926","-6.1","0,0926","-7.2","0,1018","-12.8","0,1031","0.0","0,0504","-6.1","0,0424","-6.1","0,0424","-7.8","0,0401","-8.9","0,0331","    3884.8","8","    3884.8","0","    521.9"," ,0","      643"," ,0","      7.90","0","     15.16","0","      0.63","0"
"USC00396947","1973","44.12055","-103.28417","1060.4","RAPID CITY 4 NW, SD US","    362.4","","     362.4","0","        82","0","        41","0","         2","0","       43","","         9","0","        17","0","       171","0","        29","0","       140","0","        32","0","","","        28"," ","  -27.8","0,0109, ","   457"," ,0,0314, ","   457"," ,0,0314, ","  42.2"," ,0,0314, ","   41.7","0,0706, ","0.0","0,0917","-2.2","0,1004","-5.6","0,1028","-8.3","0,1102","-12.8","0,1104","-2.8","0,0514","-2.8","0,0514","-6.7","0,0416","-6.7","0,0416","-9.4","0,0410","    3984.3","3","    3984.3","0","    439.9"," ,0","     1070"," ,0","      9.06","0","     16.69","0","      1.43","0"
"USC00396947","1974","44.12055","-103.28417","1060.4","RAPID CITY 4 NW, SD US","    335.2","","     335.2","0","        77","0","        36","0","         2","0","       23","","         6","0","        12","0","       161","0","        22","0","       151","0","        40","0","","","        44"," ","  -29.4","0,0101, ","    51"," ,0,0205,+","    76"," ,0,0411, ","  48.3"," ,0,0822, ","   40.6","0,0626, ","-0.6","0,0914","-2.2","0,0930","-6.7","0,1006","-6.7","0,1006","-9.4","0,1114","-2.2","0,0521","-2.2","0,0521","-4.4","0,0405","-10.0","0,0404","-10.0","0,0404","    3603.7","7","    3603.7","0","    364.5"," ,0","      433"," ,0","      9.65","0","     17.73","0","      1.56","0"
"USC00396947","1975","44.12055","-103.28417","1060.4","RAPID CITY 4 NW, SD US","    332.0","","     332.0","0","        89","0","        48","0","         4","0","       87","","        24","0","        19","0","       172","0","        42","0","       138","0","        35","0","","","        35"," ","  -27.2","0,0209, ","   229"," ,0,0327, ","   178"," ,0,0327, ","  36.3"," ,0,0619, ","   39.4","0,0807, ","-1.1","0,0921","-3.9","0,1015","-6.1","0,1025","-7.2","0,1112","-14.4","0,1121","-1.1","0,0504","-2.8","0,0430","-6.1","0,0419","-7.8","0,0403","-17.8","0,0402","    4007.2","2","    4007.2","0","    483.7"," ,0","     1809"," ,0","      8.08","0","     15.53","0","      0.63","0"
"USC00396947","1976","44.12055","-103.28417","1060.4","RAPID CITY 4 NW, SD US","    357.9","","     357.9","0","        90","0","        41","0","         4","0","       51","","        13","0","        17","0","       160","0","        27","0","       155","0","        31","0","","","        49"," ","  -28.9","0,0108, ","   178"," ,0,0101, ","   178"," ,0,0427, ","  76.5"," ,0,0614, ","   38.9","0,0712, ","0.0","0,0928","-4.4","0,1005","-4.4","0,1005","-9.4","0,1019","-9.4","0,1019","-1.7","0,0507","-2.2","0,0503","-4.4","0,0502","-8.3","0,0316","-10.0","0,0315","    3487.9","9","    3487.9","0","    543.4"," ,0","      898"," ,0","      9.37","0","     17.23","0","      1.51","0"
"USC00396947","1977","44.12055","-103.28417","1060.4","RAPID CITY 4 NW, SD US","    313.8","","     313.8","0","        93","0","        40","0","         2","0","       72","","        21","0","        24","0","       151","0","        40","0","       168","0","        25","0","","","        55"," ","  -27.2","0,1209, ","   457"," ,0,0330, ","   229"," ,0,1119, ","  48.5"," ,0,0923, ","   40.0","0,0718,+","-2.2","0,1010","-2.2","0,1010","-6.1","0,1011","-7.2","0,1110","-11.7","0,1120","-0.6","0,0424","-2.8","0,0404","-6.1","0,0403","-6.7","0,0402","-12.2","0,0331","    3645.2","2","    3645.2","0","    406.6"," ,0","     1594"," ,0","      9.18","0","     16.76","0","      1.59","0"
"USC00396947","1978","44.12055","-103.28417","1060.4","RAPID CITY 4 NW, SD US","","","","","","","","","","","","","","","","","","","","","","","","","","","        47"," ","","","","","","","","","","","","","","","","","","","","","","","","","","","","","","","","","","","","","","","","","","","",""
"USC00396947","1979","44.12055","-103.28417","1060.4","RAPID CITY 4 NW, SD US","    307.7","","     307.7","0","        92","0","        31","0","         2","0","       68","","         8","0","        33","0","       180","0","        41","0","       149","0","        26","0","","","        56"," ","  -31.7","0,0114, ","   152"," ,0,0113, ","    76"," ,0,0112, ","  46.5"," ,0,0622, ","   39.4","0,0613, ","0.0","0,0914","-2.2","0,1013","-4.4","0,1022","-6.7","0,1103","-9.4","0,1122","0.0","0,0512","-4.4","0,0511","-4.4","0,0511","-6.7","0,0413","-8.9","0,0405","    4408.4","4","    4408.4","0","    398.7"," ,0","      501"," ,0","      8.02","0","     15.74","0","      0.30","0"
"USC00396947","1980","44.12055","-103.28417","1060.4","RAPID CITY 4 NW, SD US","    404.4","","     404.4","0","        84","0","        35","0","         1","0","","","        11","0","        17","0","       152","0","        30","0","       149","0","        42","0","","","","","  -26.7","0,0129,+","","","   114"," ,0,0304, ","  52.1"," ,0,1015, ","   41.7","0,0729, ","-2.8","0,1011","-2.8","0,1011","-6.7","0,1024","-6.7","0,1024","-9.4","0,1116","-2.8","0,0508","-2.8","0,0508","-4.4","0,0409","-7.8","0,0327","-8.9","0,0310","    3591.7","7","    3591.7","0","    339.8"," ,0","      649"," ,0","      9.54","0","     17.26","0","      1.82","0"
"USC00396947","1982","44.12055","-103.28417","1060.4","RAPID CITY 4 NW, SD US","    242.4","","     242.4","0","        99","0","        51","0","         5","0","","","","","        27","0","       176","0","        42","0","       126","0","        14","0","","","","","  -31.1","0,0110, ","","","","","  65.8"," ,0,0725, ","   36.1","0,0720, ","0.0","0,0921","-2.8","0,1007","-6.7","0,1020","-6.7","0,1020","-12.2","0,1104","0.0","0,0531","-2.2","0,0421","-10.0","0,0410","-10.0","0,0410","-10.0","0,0410","","","","","    695.0"," ,0","","","      7.32","0","     14.73","0","     -0.09","0"
"USC00396947","1983","44.12055","-103.28417","1060.4","RAPID CITY 4 NW, SD US","","","","","","","","","","","","","","","","","","","","","","","","","","","","","","","","","","","","","","","","","","","","","","","","","","","","","","","","","","","    3746.1","1","    3746.1","0","","","","","","","","","",""
"USC00396947","1987","44.12055","-103.28417","1060.4","RAPID CITY 4 NW, SD US","    397.6","","     397.6","0","        59","0","        41","0","         1","0","       14","","         8","0","         1","0","       142","0","        20","0","       156","0","        22","0","","","","","  -17.8","0,0116, ","   127"," ,0,0301,+","   114"," ,0,0204, ","  36.1"," ,0,0525, ","   38.9","0,0725, ","0.0","0,1007","-2.2","0,1009","-7.2","0,1020","-7.2","0,1020","-9.4","0,1118","-1.1","0,0421","-3.3","0,0411","-4.4","0,0403","-11.7","0,0330","-11.7","0,0330","","","","","    360.6"," ,0","      530"," ,0","     10.70","0","     17.90","0","      3.50","0"
"USC00396947","1988","44.12055","-103.28417","1060.4","RAPID CITY 4 NW, SD US","    573.8","","     573.8","0","        60","0","        28","0","         2","0","","","         7","0","        17","0","       145","0","        28","0","       165","0","        49","0","","","","","  -25.6","0,0109, ","","","   127"," ,0,0426, ","  34.3"," ,0,1017, ","   39.4","0,0714, ","-0.6","0,1007","-10.0","0,1028","-10.0","0,1028","-10.0","0,1028","-10.0","0,1028","0.0","0,0504","-2.8","0,0427","-6.1","0,0426","-6.7","0,0318","-14.4","0,0316","    3307.5","5","    3307.5","0","    263.2"," ,0","      373"," ,0","     10.70","0","     18.36","0","      3.04","0"
"USC00396947","1989","44.12055","-103.28417","1060.4","RAPID CITY 4 NW, SD US","    338.5","","     338.5","0","        74","0","        42","0","         3","0","","","        10","0","        32","0","       161","0","        54","0","       129","0","        31","0","         1"," ","","","  -33.9","0,1222, ","","","   114"," ,0,0317, ","  48.8"," ,0,0921, ","   40.0","0,0709, ","-2.2","0,0911","-2.2","0,0911","-5.0","0,1017","-7.8","0,1030","-15.6","0,1116","-2.8","0,0507","-2.8","0,0507","-4.4","0,0502","-8.9","0,0411","-8.9","0,0411","    3836.2","2","    3836.2","0","    422.5"," ,0","      762"," ,0","      7.17","0","     14.37","0","     -0.03","0"
"USC00396947","1990","44.12055","-103.28417","1060.4","RAPID CITY 4 NW, SD US","    308.2","","     308.2","0","        64","0","        38","0","         0","0","","","        11","0","        11","0","       168","0","        22","0","       129","0","        24","0","","","","","  -33.3","0,1231,+","","","   102"," ,0,1215, ","  21.3"," ,0,0822,+","   38.9","0,0703, ","-2.2","0,1007","-2.2","0,1007","-5.0","0,1018","-11.7","0,1107","-11.7","0,1107","0.0","0,0513","-2.2","0,0511","-5.0","0,0502","-6.7","0,0418","-10.0","0,0412","    3851.7","7","    3851.7","0","    383.5"," ,0","      691"," ,0","      8.39","0","     15.69","0","      1.09","0"
"USC00396947","1991","44.12055","-103.28417","1060.4","RAPID CITY 4 NW, SD US","    268.2","","     268.2","0","        69","0","        47","0","         2","0","","","        11","0","        19","0","       169","0","        30","0","       139","0","        24","0","         1"," ","","","  -26.1","0,0129, ","","","   229"," ,0,0412, ","  50.0"," ,0,0512, ","   37.2","0,0828,+","-3.3","0,0918","-3.3","0,0918","-5.6","0,1006","-11.1","0,1028","-11.1","0,1028","-2.2","0,0507","-2.2","0,0507","-7.2","0,0414","-7.2","0,0414","-15.6","0,0303","    3563.0","0","    3563.0","0","    528.0"," ,0","     1035"," ,0","      8.38","0","     15.45","0","      1.31","0"
"USC00396947","1992","44.12055","-103.28417","1060.4","RAPID CITY 4 NW, SD US","","","","","        62","0","        30","0","         1","0","","","","","        10","0","       155","0","","","","","","","         3"," ","","","  -24.4","0,1231, ","","","","","  25.7"," ,0,0522, ","","","0.0","0,0918","-3.3","0,1008","-4.4","0,1015","-10.0","0,1016","-10.0","0,1016","-0.6","0,0518","-2.2","0,0426","-5.0","0,0423","-7.2","0,0413","-9.4","0,0401","    3317.7","7","    3317.7","0","    412.3"," ,0","","","","","","","      1.01","0"
"USC00396947","1993","44.12055","-103.28417","1060.4","RAPID CITY 4 NW, SD US","","","","","","","","","","","","","         7","0","","","","","","","","","","","","","         1"," ","","","","","   305"," ,0,0109, ","","","","","","","","","","","","","","","","","","","","","","","","","","","","","    542.9"," ,0","      882"," ,0","","","","","",""
"USC00396947","1994","44.12055","-103.28417","1060.4","RAPID CITY 4 NW, SD US","","","","","        54","0","        30","0","         1","0","","","        14","0","","","","","        45","0","       138","0","        20","0","         1"," ","","","","","","","   216"," ,0,0427, ","  35.1"," ,0,1016, ","   37.2","0,0827, ","","","","","","","","","","","","","","","","","","","","","","","","","    315.6"," ,0","      911"," ,0","","","     15.23","0","",""
"USC00396947","1995","44.12055","-103.28417","1060.4","RAPID CITY 4 NW, SD US","    239.3","","     239.3","0","        82","0","        51","0","         6","0","","","        13","0","        17","0","       167","0","        42","0","       113","0","        21","0","","","","","  -26.1","0,0308,+","","","   127"," ,0,1023,+","  50.8"," ,0,0719, ","   36.1","0,0818,+","0.0","0,0920","-3.3","0,0921","-5.0","0,1101","-13.9","0,1102","-13.9","0,1102","-0.6","0,0502","-3.3","0,0427","-4.4","0,0419","-8.3","0,0331","-26.1","0,0308","","","","","    593.6"," ,0","      931"," ,0","      7.55","0","     14.37","0","      0.73","0"
"USC00396947","1996","44.12055","-103.28417","1060.4","RAPID CITY 4 NW, SD US","","","","","","","","","","","","","        18","0","        37","0","       163","0","        66","0","       118","0","        18","0","","","","","  -33.3","0,0202, ","","","   178"," ,0,0412, ","","","   35.0","0,0813, ","-1.7","0,1023","-2.2","0,1028","-8.3","0,1030","-8.3","0,1030","-10.6","0,1116","-2.2","0,0511","-2.2","0,0511","-7.2","0,0413","-7.2","0,0413","-8.9","0,0329","    4131.3","3","    4131.3","0","    559.4"," ,0","     1388"," ,0","      6.10","0","     12.59","0","     -0.40","0"
"USC00396947","1997","44.12055","-103.28417","1060.4","RAPID CITY 4 NW, SD US","","","","","        68","0","        39","0","         5","0","","","        12","0","","","","","        50","0","       127","0","        10","0","         1"," ","","","","","","","   152"," ,0,0410,+","  68.6"," ,0,1009, ","   34.4","0,0716,+","","","","","","","","","","","","","","","","","","","","","","","","","    524.5"," ,0","      990"," ,0","","","     14.30","0","",""
"USC00396947","1998","44.12055","-103.28417","1060.4","RAPID CITY 4 NW, SD US","    297.8","","     297.8","0","","","","","","","","","         9","0","        20","0","       144","0","        36","0","       128","0","        18","0","","","","","  -27.8","0,0311, ","","","   165"," ,0,1109, ","","","   38.3","0,0720,+","-0.6","0,1012","-3.9","0,1104","-7.8","0,1108","-7.8","0,1108","-9.4","0,1206","0.0","0,0603","-5.0","0,0417","-5.0","0,0417","-8.3","0,0316","-8.9","0,0315","","","","","    652.4"," ,0","      973"," ,0","      8.55","0","     15.24","0","      1.86","0"
"USC00396947","1999","44.12055","-103.28417","1060.4","RAPID CITY 4 NW, SD US","","","","","        78","0","        47","0","         5","0","","","        14","0","         2","0","       151","0","        20","0","       127","0","        18","0","","","","","  -23.3","0,0104, ","","","   244"," ,0,0306, "," 101.6"," ,0,0603, ","   37.2","0,0729, ","0.0","0,0928","-3.9","0,1017","-7.2","0,1102","-7.2","0,1102","-9.4","0,1209","0.0","0,0512","-2.2","0,0418","-11.1","0,0405","-11.1","0,0405","-11.1","0,0405","","","","","    675.8"," ,0","     1047"," ,0","      9.23","0","     16.23","0","      2.22","0"
"USC00396947","2000","44.12055","-103.28417","1060.4","RAPID CITY 4 NW, SD US","","","","","        71","0","        37","0","         4","0","","","        14","0","","","","","","","","","","","","","","","","","","","   267"," ,0,0420, ","  52.8"," ,0,0419, ","","","","","","","","","","","","","","","","","","","","","","","    3305.8","8","    3305.8","0","    452.1"," ,0","      943"," ,0","","","","","",""
"USC00396947","2006","44.12055","-103.28417","1060.4","RAPID CITY 4 NW, SD US","    370.0","","     370.0","0","","","","","","","","","        10","0","         9","0","       161","0","        23","0","       129","0","        31","0","","","","","  -28.3","0,0218, ","","","   254"," ,0,0313, ","","","   41.1","0,0716, ","-1.1","0,0919","-3.9","0,1011","-7.8","0,1012","-7.8","0,1012","-13.3","0,1031","0.0","0,0504","-2.8","0,0427","-7.2","0,0326","-7.2","0,0326","-10.6","0,0325","    3356.1","1","    3356.1","0","","","     1013"," ,0","      9.04","0","     15.99","0","      2.10","0"
"USC00396947","2007","44.12055","-103.28417","1060.4","RAPID CITY 4 NW, SD US","","","","","","","","","","","","","","","","","","","","","","","","","","","","","","","","","","","","","","","","","","","","","","","","","","","","","","","","","","","    3787.6","6","    3787.6"," ","","","","","","","","","",""
"USC00396947","2010","44.12055","-103.28417","1060.4","RAPID CITY 4 NW, SD US","    235.0","","     235.0","0","        78","0","        47","0","         4","0","       31","","        12","0","        11","0","       165","0","        55","0","       126","0","        16","0","","","","","  -26.1","0,0108, ","   102"," ,0,1231, ","    76"," ,0,1122,+","  50.8"," ,0,0525, ","   37.2","0,0823, ","0.0","0,1019","-3.3","0,1105","-5.6","0,1112","-7.8","0,1114","-10.6","0,1120","0.0","0,0514","-3.3","0,0508","-6.7","0,0325","-6.7","0,0325","-8.9","0,0321","","","","","    522.7"," ,0","      506"," ,0","      7.65","0","     14.09","0","      1.21","0"
"USC00396947","2011","44.12055","-103.28417","1060.4","RAPID CITY 4 NW, SD US","","","","","","","","","","","","","","","","","","","","","","","","","         1"," ","","","","","","","","","","","","","","","","","","","","","","","","","","","","","","","","","    4329.3","3","    4329.3","7","","","","","","","","","",""
"USC00396947","2012","44.12055","-103.28417","1060.4","RAPID CITY 4 NW, SD US","    435.9","","     435.9","7","        44","7","        26","7","         0","7","       12","","         4","7","        11","7","       155","7","        24","7","       158","7","        42","7","","","         1"," ","  -22.2","7,1226,+","    51"," ,7,1229,+","    51"," ,7,1225, ","  12.7"," ,7,0718, ","   41.1","7,0627, ","-0.6","7,1004","-3.3","7,1007","-5.0","7,1025","-7.2","7,1026","-15.6","7,1111","0.0","7,0423","-3.9","7,0411","-7.2","7,0303","-7.2","7,0303","-9.4","7,0229","","","","","    178.8"," ,7","      126"," ,7","      9.97","7","     17.45","7","      2.49","7"
"USC00396947","2013","44.12055","-103.28417","1060.4","RAPID CITY 4 NW, SD US","    295.0","","     295.0","7","        71","7","        49","7","         5","7","       47","","        23","7","        15","7","       186","7","        51","7","       125","7","        12","7","","","","","  -26.7","7,1209,+","   356"," ,7,1006, ","   254"," ,7,1005, ","  50.8"," ,7,0530, ","   36.1","7,0828, ","-0.6","7,1004","-2.2","7,1005","-4.4","7,1029","-8.3","7,1106","-10.6","7,1112","-1.1","7,0505","-2.2","7,0504","-10.6","7,0424","-10.6","7,0424","-10.6","7,0424","    4018.0","0","    4018.0","7","    562.9"," ,7","     1775"," ,7","      7.46","7","     14.01","7","      0.90","7"
"USC00396947","2014","44.12055","-103.28417","1060.4","RAPID CITY 4 NW, SD US","    192.3","","     192.3","7","        73","7","        54","7","         2","7","       44","","        22","7","        33","7","       169","7","        51","7","       117","7","         8","7","","","","","  -27.2","7,0207,+","   152"," ,7,1230,+","   102"," ,7,0403, ","  69.9"," ,7,0930, ","   36.7","7,0722, ","0.0","7,0911","-2.2","7,1028","-7.8","7,1110","-7.8","7,1110","-15.6","7,1111","0.0","7,0515","-2.2","7,0417","-5.0","7,0416","-7.2","7,0405","-9.4","7,0404","    4367.1","1","    4367.1","7","    535.2"," ,7","     1153"," ,7","      7.04","7","     13.61","7","      0.47","7"
"USC00396947","2015","44.12055","-103.28417","1060.4","RAPID CITY 4 NW, SD US","    265.5","","     265.5","7","        82","7","        48","7","         5","7","       31","","        12","7","        17","7","       160","7","        38","7","       130","7","        14","7","","","","","  -22.8","7,0228,+","   127"," ,7,1201,+","   178"," ,7,0510, ","  37.6"," ,7,0516, ","   36.1","7,0830,+","-1.1","7,1016","-6.7","7,1029","-6.7","7,1029","-6.7","7,1029","-11.1","7,1121","0.0","7,0512","-2.8","7,0424","-7.2","7,0404","-7.2","7,0404","-14.4","7,0306","    3919.3","3","    3919.3","7","    531.3"," ,7","      852"," ,7","      8.79","7","     15.59","7","      1.99","7"
"USC00396947","2016","44.12055","-103.28417","1060.4","RAPID CITY 4 NW, SD US","    311.0","","     311.0","7","        60","7","        41","7","         1","7","       24","","        11","7","        10","7","       144","7","        31","7","       149","7","        17","7","","","","","  -28.3","7,1218, ","   178"," ,7,1219,+","   178"," ,7,1217, ","  38.1"," ,7,0704, ","   37.8","7,0804, ","-0.6","7,1007","-2.8","7,1008","-5.6","7,1013","-9.4","7,1119","-9.4","7,1119","0.0","7,0516","-2.2","7,0515","-5.0","7,0402","-7.2","7,0327","-9.4","7,0321","    3522.4","4","    3522.4","7","    366.9"," ,7","      678"," ,7","      9.55","7","     16.38","7","      2.72","7"
"USC00396947","2017","44.12055","-103.28417","1060.4","RAPID CITY 4 NW, SD US","    299.7","","     299.7","7","        71","7","        42","7","         0","7","       29","","        14","7","        19","7","       157","7","        44","7","       136","7","        27","7","","","","","  -28.3","7,1231, ","    76"," ,7,1231,+","    76"," ,7,0224,+","  21.3"," ,7,0815, ","   37.8","7,0710,+","-0.6","7,0917","-2.2","7,1011","-6.7","7,1027","-6.7","7,1027","-10.0","7,1031","-1.1","7,0501","-2.2","7,0430","-4.4","7,0426","-7.2","7,0315","-13.3","7,0314","    3698.1","1","    3698.1","7","    316.1"," ,7","      679"," ,7","      8.58","7","     15.46","7","      1.70","7"
"USC00396947","2019","44.12055","-103.28417","1060.4","RAPID CITY 4 NW, SD US","    193.2","","     193.2","7","        76","7","        53","7","         8","7","       74","","        25","7","        25","7","       187","7","        56","7","       115","7","         6","7","","","","","  -28.3","7,0208, ","   330"," ,7,0411, ","   305"," ,7,1202, ","  76.2"," ,7,0529, ","   35.6","7,0916, ","-1.7","7,1003","-6.7","7,1010","-6.7","7,1010","-6.7","7,1010","-11.1","7,1028","0.0","7,0523","-2.8","7,0503","-4.4","7,0413","-7.8","7,0412","-10.0","7,0311","    4474.5","5","    4474.5","7","    850.6"," ,7","     2254"," ,7","      6.33","7","     12.38","7","      0.27","7"
"USC00396947","2020","44.12055","-103.28417","1060.4","RAPID CITY 4 NW, SD US","","","","","","","","","","","","","","","","","","","","","","","","","","","","","","","","","","","","","","","","","","","","","","","","","","","","","","","","","","","    4088.9","9","    4088.9","H","","","","","","","","","",""
