"STATION","DATE","LATITUDE","LONGITUDE","ELEVATION","NAME","CDSD","CDSD_ATTRIBUTES","CLDD","CLDD_ATTRIBUTES","DP01","DP01_ATTRIBUTES","DP10","DP10_ATTRIBUTES","DP1X","DP1X_ATTRIBUTES","DT00","DT00_ATTRIBUTES","DT32","DT32_ATTRIBUTES","DX32","DX32_ATTRIBUTES","DX70","DX70_ATTRIBUTES","DX90","DX90_ATTRIBUTES","EMNT","EMNT_ATTRIBUTES","EMXP","EMXP_ATTRIBUTES","EMXT","EMXT_ATTRIBUTES","FZF0","FZF0_ATTRIBUTES","FZF1","FZF1_ATTRIBUTES","FZF2","FZF2_ATTRIBUTES","FZF3","FZF3_ATTRIBUTES","FZF4","FZF4_ATTRIBUTES","FZF5","FZF5_ATTRIBUTES","FZF6","FZF6_ATTRIBUTES","FZF7","FZF7_ATTRIBUTES","FZF8","FZF8_ATTRIBUTES","FZF9","FZF9_ATTRIBUTES","HDSD","HDSD_ATTRIBUTES","HTDD","HTDD_ATTRIBUTES","PRCP","PRCP_ATTRIBUTES","TAVG","TAVG_ATTRIBUTES","TMAX","TMAX_ATTRIBUTES","TMIN","TMIN_ATTRIBUTES"
"USC00101005","1903","42.05","-114.466667","983.0","BLUE LAKES, ID US","    369.3","","     369.3","6","        65","6","        36","6","         0","6","         8","6","       139","6","        16","6","       170","6","        45","6","  -23.3","6,0213, ","  24.4"," ,6,0126, ","   40.0","6,0818, ","0.0","6,0915","-4.4","6,1030","-4.4","6,1030","-6.7","6,1109","-10.0","6,1117","-0.6","6,0520","-2.8","6,0413","-5.6","6,0412","-7.2","6,0307","-11.7","6,0302","","","","","    299.2"," ,6","     10.60","6","     18.45","6","      2.75","6"
"USC00101005","1904","42.05","-114.466667","983.0","BLUE LAKES, ID US","    427.8","","     427.8","6","        72","6","        36","6","         0","6","         1","6","       140","6","         4","6","       186","6","        52","6","  -17.8","6,1226, ","  24.1"," ,6,0110, ","   39.4","6,0805, ","0.0","6,1017","-3.9","6,1018","-6.1","6,1111","-6.7","6,1129","-8.9","6,1202","-0.6","6,0625","-2.2","6,0408","-4.4","6,0324","-12.8","6,0210","-12.8","6,0210","    2878.7","7","    2878.7","6","    283.8"," ,6","     12.02","6","     20.17","6","      3.86","6"
"USC00101005","1905","42.05","-114.466667","983.0","BLUE LAKES, ID US","","","","","","","","","","","","","","","","","","","","","","","","","","","","","","","","","","","","","","","","","","","","","","","    2573.2","2","    2573.2","6","","","","","","","",""
