"STATION","DATE","LATITUDE","LONGITUDE","ELEVATION","NAME","DP01","DP01_ATTRIBUTES","DP10","DP10_ATTRIBUTES","DP1X","DP1X_ATTRIBUTES","EMXP","EMXP_ATTRIBUTES","PRCP","PRCP_ATTRIBUTES"
"USC00382800","1931","33.233333","-81.65","23.2","ELLENTON, SC US","        72","6","        57","6","         4","6","  32.8"," ,6,0806, ","    674.9"," ,6"
"USC00382800","1933","33.233333","-81.65","23.2","ELLENTON, SC US","        59","6","        48","6","        13","6","  86.9"," ,6,0818, ","    911.8"," ,6"
"USC00382800","1934","33.233333","-81.65","23.2","ELLENTON, SC US","        78","6","        62","6","        10","6","  83.8"," ,6,0719, ","    976.5"," ,6"
