"STATION","DATE","LATITUDE","LONGITUDE","ELEVATION","NAME","CDSD","CDSD_ATTRIBUTES","CLDD","CLDD_ATTRIBUTES","DP01","DP01_ATTRIBUTES","DP10","DP10_ATTRIBUTES","DP1X","DP1X_ATTRIBUTES","DSND","DSND_ATTRIBUTES","DSNW","DSNW_ATTRIBUTES","DT00","DT00_ATTRIBUTES","DT32","DT32_ATTRIBUTES","DX32","DX32_ATTRIBUTES","DX70","DX70_ATTRIBUTES","DX90","DX90_ATTRIBUTES","DYTS","DYTS_ATTRIBUTES","EMNT","EMNT_ATTRIBUTES","EMSD","EMSD_ATTRIBUTES","EMSN","EMSN_ATTRIBUTES","EMXP","EMXP_ATTRIBUTES","EMXT","EMXT_ATTRIBUTES","FZF0","FZF0_ATTRIBUTES","FZF1","FZF1_ATTRIBUTES","FZF2","FZF2_ATTRIBUTES","FZF3","FZF3_ATTRIBUTES","FZF4","FZF4_ATTRIBUTES","FZF5","FZF5_ATTRIBUTES","FZF6","FZF6_ATTRIBUTES","FZF7","FZF7_ATTRIBUTES","FZF8","FZF8_ATTRIBUTES","FZF9","FZF9_ATTRIBUTES","HDSD","HDSD_ATTRIBUTES","HTDD","HTDD_ATTRIBUTES","PRCP","PRCP_ATTRIBUTES","SNOW","SNOW_ATTRIBUTES","TAVG","TAVG_ATTRIBUTES","TMAX","TMAX_ATTRIBUTES","TMIN","TMIN_ATTRIBUTES"
"USC00504110","1965","58.41667","-134.53333","36.9","JUNEAU 9 NW, AK US","","","","","","","","","","","","","","","","","","","","","","","","","         1"," ","","","","","","","","","","","","","","","","","","","","","","","","","","","","","","","","","","","","","","","","","","","",""
"USC00504110","1966","58.41667","-134.53333","36.9","JUNEAU 9 NW, AK US","      0.0","","       0.0","0","       207","0","       152","0","        17","0","      139","","        29","0","        27","0","       172","0","        67","0","         4","0","         0","0","","","  -30.0","0,0128, ","   737"," ,0,0311, ","   229"," ,0,0115, ","  64.8"," ,0,0904, ","   21.7","0,0724, ","0.0","0,1005","-2.8","0,1012","-6.1","0,1024","-11.1","0,1110","-11.1","0,1110","0.0","0,0530","-2.2","0,0509","-6.7","0,0412","-6.7","0,0412","-11.7","0,0309","","","","","   2163.5"," ,0","     2980"," ,0","      2.53","0","      6.58","0","     -1.51","0"
"USC00504110","1967","58.41667","-134.53333","36.9","JUNEAU 9 NW, AK US","","","","","       202","0","       154","0","        19","0","      128","","        29","0","","","","","        47","0","         3","0","         0","0","","","","","   660"," ,0,0202, ","   178"," ,0,1128, ","  59.9"," ,0,1124, ","   21.7","0,0617, ","","","","","","","","","","","","","","","","","","","","","    5284.7","7","    5284.7","0","   1952.9"," ,0","     2217"," ,0","","","      7.95","0","",""
"USC00504110","1968","58.41667","-134.53333","36.9","JUNEAU 9 NW, AK US","","","","","","","","","","","","","        24","0","","","","","","","","","","","","","","","","","   267"," ,0,0115, ","","","","","","","","","","","","","","","","","","","","","","","","","","","","","   1438.8"," ,0","     2174"," ,0","","","","","",""
"USC00504110","1969","58.41667","-134.53333","36.9","JUNEAU 9 NW, AK US","","","","","","","","","","","       92","","        17","0","","","","","","","","","","","","","","","   635"," ,0,0204,+","   249"," ,0,0201, ","","","","","","","","","","","","","","","","","","","","","","","","","","","","","   1472.8"," ,0","     1576"," ,0","","","","","",""
"USC00504110","1974","58.41667","-134.53333","36.9","JUNEAU 9 NW, AK US","","","","","","","","","","","","","","","","","","","","","","","","","         1"," ","","","","","","","","","","","","","","","","","","","","","","","","","","","","","","","","","","","","","","","","","","","",""
"USC00504110","1976","58.41667","-134.53333","36.9","JUNEAU 9 NW, AK US","","","","","","","","","","","      122","","","","","","","","","","","","","","","","","","   533"," ,0,0115,+","","","","","","","","","","","","","","","","","","","","","","","","","","","","","","","","","","","","","","","",""
"USC00504110","1977","58.41667","-134.53333","36.9","JUNEAU 9 NW, AK US","","","","","       201","0","       146","0","        17","0","","","        19","0","         6","0","       142","0","","","","","","","","","  -24.4","0,1205, ","","","   160"," ,0,1126, ","  63.5"," ,0,0912, ","","","-0.6","0,0924","-2.8","0,1002","-4.4","0,1102","-7.2","0,1109","-9.4","0,1110","0.0","0,0603","-2.2","0,0511","-6.7","0,0325","-6.7","0,0325","-10.0","0,0102","    4483.7","7","    4483.7","0","   1752.4"," ,0","     1268"," ,0","","","","","      0.74","0"
