"STATION","DATE","LATITUDE","LONGITUDE","ELEVATION","NAME","DSNW","DSNW_ATTRIBUTES","DYTS","DYTS_ATTRIBUTES","EMSN","EMSN_ATTRIBUTES","SNOW","SNOW_ATTRIBUTES"
"USC00103734","1909","47.35","-115.716667","998.2","GRAND FORKS, ID US","","","         1"," ","","","",""
"USC00103734","1911","47.35","-115.716667","998.2","GRAND FORKS, ID US","","","         1"," ","","","",""
"USC00103734","1912","47.35","-115.716667","998.2","GRAND FORKS, ID US","        37","6","","","   279"," ,6,1229, ","     4037"," ,6"
