"STATION","DATE","LATITUDE","LONGITUDE","ELEVATION","NAME","DP01","DP01_ATTRIBUTES","DP10","DP10_ATTRIBUTES","DP1X","DP1X_ATTRIBUTES","DSND","DSND_ATTRIBUTES","DSNW","DSNW_ATTRIBUTES","DYFG","DYFG_ATTRIBUTES","DYTS","DYTS_ATTRIBUTES","EMSD","EMSD_ATTRIBUTES","EMSN","EMSN_ATTRIBUTES","EMXP","EMXP_ATTRIBUTES","PRCP","PRCP_ATTRIBUTES","SNOW","SNOW_ATTRIBUTES"
"USC00275813","1998","43.6","-71.63111","213.4","NEW HAMPTON, NH US","","","","","","","","","","","        16"," ","         3"," ","","","","","","","","","",""
"USC00275813","1999","43.6","-71.63111","213.4","NEW HAMPTON, NH US","       119","0","        79","0","        11","0","       91","","        19","0","        16"," ","        11"," ","   584"," ,0,0202,+","   188"," ,0,0307, "," 148.6"," ,0,0917, ","   1204.7"," ,0","     1461"," ,0"
"USC00275813","2000","43.6","-71.63111","213.4","NEW HAMPTON, NH US","       147","0","        94","0","        12","0","","","        16","0","        26"," ","        14"," ","","","   236"," ,0,1231, ","  43.4"," ,0,1218, ","   1205.1"," ,0","     2086"," ,0"
"USC00275813","2001","43.6","-71.63111","213.4","NEW HAMPTON, NH US","       131","0","        70","0","         5","0","      127","","        20","0","        22"," ","        15"," ","   965"," ,0,0206, ","   737"," ,0,0206, ","  65.8"," ,0,0603, ","    857.2"," ,0","     2719"," ,0"
"USC00275813","2002","43.6","-71.63111","213.4","NEW HAMPTON, NH US","       140","0","        77","0","         9","0","","","        22","0","        12"," ","         9"," ","","","   356"," ,0,1226, ","  45.5"," ,0,0916, ","   1003.5"," ,0","     2289"," ,0"
"USC00275813","2003","43.6","-71.63111","213.4","NEW HAMPTON, NH US","       144","0","        87","0","        14","0","      130","","        25","0","        10"," ","         9"," ","   737"," ,0,0219, ","   381"," ,0,0104, ","  70.1"," ,0,1218, ","   1283.0"," ,0","     2541"," ,0"
"USC00275813","2004","43.6","-71.63111","213.4","NEW HAMPTON, NH US","","","","","","","       94","","        13","0","        17"," ","        13"," ","   406"," ,0,0208,+","   140"," ,0,0204, ","","","   1056.2"," ,0","      968"," ,0"
"USC00275813","2005","43.6","-71.63111","213.4","NEW HAMPTON, NH US","","","","","","","","","","","         5"," ","         5"," ","","","","","","","","","",""
