"STATION","DATE","LATITUDE","LONGITUDE","ELEVATION","NAME","DP01","DP01_ATTRIBUTES","DP10","DP10_ATTRIBUTES","DP1X","DP1X_ATTRIBUTES","DSND","DSND_ATTRIBUTES","EMSD","EMSD_ATTRIBUTES","EMXP","EMXP_ATTRIBUTES","PRCP","PRCP_ATTRIBUTES"
"USC00016760","2012","33.7075","-86.18444","146.3","RAGLAND 2 SSW, AL US","       110","N","        84","N","        15","N","","","","","  96.5"," ,N,0324, ","   1346.8"," ,N"
"USC00016760","2013","33.7075","-86.18444","146.3","RAGLAND 2 SSW, AL US","       119","N","        98","N","        30","N","","","",""," 128.0"," ,N,0518, ","   2093.9"," ,N"
"USC00016760","2015","33.7075","-86.18444","146.3","RAGLAND 2 SSW, AL US","       123","N","        93","N","        21","N","","","",""," 104.1"," ,N,1226, ","   1695.7"," ,N"
"USC00016760","2018","33.7075","-86.18444","146.3","RAGLAND 2 SSW, AL US","","","","","","","        0","","     0"," ,7,1231,+","","","",""
"USC00016760","2019","33.7075","-86.18444","146.3","RAGLAND 2 SSW, AL US","","","","","","","        0","","     0"," ,7,1231,+","","","",""
