"STATION","DATE","LATITUDE","LONGITUDE","ELEVATION","NAME","CDSD","CDSD_ATTRIBUTES","CLDD","CLDD_ATTRIBUTES","DP01","DP01_ATTRIBUTES","DP10","DP10_ATTRIBUTES","DP1X","DP1X_ATTRIBUTES","DSND","DSND_ATTRIBUTES","DSNW","DSNW_ATTRIBUTES","DT00","DT00_ATTRIBUTES","DT32","DT32_ATTRIBUTES","DX32","DX32_ATTRIBUTES","DX70","DX70_ATTRIBUTES","DX90","DX90_ATTRIBUTES","DYFG","DYFG_ATTRIBUTES","DYTS","DYTS_ATTRIBUTES","EMNT","EMNT_ATTRIBUTES","EMSD","EMSD_ATTRIBUTES","EMSN","EMSN_ATTRIBUTES","EMXP","EMXP_ATTRIBUTES","EMXT","EMXT_ATTRIBUTES","FZF0","FZF0_ATTRIBUTES","FZF1","FZF1_ATTRIBUTES","FZF2","FZF2_ATTRIBUTES","FZF3","FZF3_ATTRIBUTES","FZF4","FZF4_ATTRIBUTES","FZF5","FZF5_ATTRIBUTES","FZF6","FZF6_ATTRIBUTES","FZF7","FZF7_ATTRIBUTES","FZF8","FZF8_ATTRIBUTES","FZF9","FZF9_ATTRIBUTES","HDSD","HDSD_ATTRIBUTES","HTDD","HTDD_ATTRIBUTES","PRCP","PRCP_ATTRIBUTES","SNOW","SNOW_ATTRIBUTES","TAVG","TAVG_ATTRIBUTES","TMAX","TMAX_ATTRIBUTES","TMIN","TMIN_ATTRIBUTES"
"USC00223107","1930","32.3599","-89.4208","137.2","FOREST 3 S, MS US","   1150.6","","    1150.6","0","        65","0","        62","0","        14","0","        2","","         2","0","         0","0","        42","0","         0","0","       242","0","        77","0","","","","","  -11.1","0,0119, ","    51"," ,0,0129, ","    51"," ,0,0129, ","  82.6"," ,0,0204, ","   41.7","0,0712, ","0.0","0,1026","-2.2","0,1031","-5.0","0,1101","-6.7","0,1223","","","0.0","0,0331","-2.8","0,0303","-5.6","0,0130","-8.3","0,0124","-9.4","0,0123","","","","","   1127.4"," ,0","       87"," ,0","     18.04","0","     24.98","0","     11.10","0"
"USC00223107","1931","32.3599","-89.4208","137.2","FOREST 3 S, MS US","","","","","        76","0","        66","0","        18","0","        0","","         0","0","","","","","","","","","","","","","","","","","     0"," ,0,1231,+","     0"," ,0,1231,+","  63.5"," ,0,1119, ","","","","","","","","","","","","","","","","","","","","","","","    1474.0","0","    1474.0","0","   1193.2"," ,0","        0"," ,0","","","","","",""
"USC00223107","1932","32.3599","-89.4208","137.2","FOREST 3 S, MS US","","","","","       101","0","        86","0","        21","0","        0","","         0","0","         0","0","        36","0","","","","","","","","","","","  -10.6","0,0310, ","     0"," ,0,1231,+","     0","T,0,1216, "," 110.5"," ,0,1016, ","","","-1.1","0,1112","-3.9","0,1113","-4.4","0,1129","-8.3","0,1217","","","-1.7","0,0324","-3.9","0,0315","-7.2","0,0313","-7.2","0,0313","-10.6","0,0310","","","","","   1555.2"," ,0","        0","T,0","","","","","     11.44","0"
"USC00223107","1933","32.3599","-89.4208","137.2","FOREST 3 S, MS US","   1378.0","","    1378.0","0","        81","0","        68","0","        16","0","        0","","         0","0","         0","0","        30","0","         0","0","       287","0","       120","0","","","","","  -11.7","0,0209, ","     0","T,0,0209, ","     0","T,0,0209, ","  93.5"," ,0,1001, ","   38.9","0,0621,+","0.0","0,1108","-2.8","0,1116","-5.0","0,1227","","","","","-1.7","0,0321","-6.1","0,0212","-6.1","0,0212","-6.7","0,0210","-11.7","0,0209","","","","","   1113.0"," ,0","        0","T,0","     19.73","0","     26.92","0","     12.55","0"
"USC00223107","1934","32.3599","-89.4208","137.2","FOREST 3 S, MS US","   1174.9","","    1174.9","0","        80","0","        66","0","        17","0","        0","","         0","0","         0","0","        52","0","         0","0","       269","0","        90","0","         2"," ","","","  -11.1","0,1212, ","     0"," ,0,1231,+","     0"," ,0,1231,+","  83.8"," ,0,1103, ","   37.2","0,0806,+","-2.2","0,1112","-2.2","0,1112","-4.4","0,1115","-7.2","0,1211","-11.1","0,1212","-0.6","0,0328","-2.8","0,0320","-6.7","0,0311","-6.7","0,0311","-9.4","0,0130","    1021.0","0","    1021.0","0","   1333.8"," ,0","        0"," ,0","     18.33","0","     25.61","0","     11.03","0"
"USC00223107","1935","32.3599","-89.4208","137.2","FOREST 3 S, MS US","","","","","        70","0","        60","0","        15","0","        2","","         1","0","","","","","","","","","","","","","","","","","    51"," ,0,0122, ","    89"," ,0,0122, "," 104.1"," ,0,0411, ","","","","","","","","","","","","","","","","","","","","","","","    1016.8","8","    1016.8","0","   1175.8"," ,0","      102"," ,0","","","","","",""
"USC00223107","1936","32.3599","-89.4208","137.2","FOREST 3 S, MS US","","","","","        72","0","        62","0","        15","0","        0","","         0","0","","","","","","","","","","","","","","","","","     0","T,0,0131, ","     5"," ,0,0123, ","  67.8"," ,0,0106, ","","","","","","","","","","","","","","","","","","","","","","","","","","","   1123.1"," ,0","        8"," ,0","","","","","",""
"USC00223107","1937","32.3599","-89.4208","137.2","FOREST 3 S, MS US","","","","","        86","0","        72","0","        21","0","        0","","         0","0","","","","","         0","0","       260","0","        89","0","","","         6"," ","","","     0"," ,0,1231,+","     0"," ,0,1231,+","  66.0"," ,0,0119, ","   38.3","0,0810, ","","","","","","","","","","","","","","","","","","","","","","","","","   1327.9"," ,0","        0"," ,0","","","     24.98","0","",""
"USC00223107","1938","32.3599","-89.4208","137.2","FOREST 3 S, MS US","","","","","","","","","","","        0","","         0","0","","","","","         0","0","       280","0","        90","0","","","         5"," ","","","     0"," ,0,1231,+","     5"," ,0,1124, ","","","   38.9","0,0827, ","","","","","","","","","","","","","","","","","","","","","","","","","","","        5"," ,0","","","     25.75","0","",""
"USC00223107","1939","32.3599","-89.4208","137.2","FOREST 3 S, MS US","   1177.1","","    1177.1","0","        70","0","        70","0","        14","0","        0","","         0","0","         0","0","        47","0","         0","0","       258","0","        99","0","","","","","   -5.6","0,0223,+","     0"," ,0,1231,+","     0","T,0,0326, "," 119.4"," ,0,0330, ","   37.2","0,0913,+","-1.1","0,1031","-2.8","0,1101","-5.0","0,1214","","","","","-0.6","0,0408","-5.6","0,0223","-5.6","0,0223","","","","","","","","","   1304.3"," ,0","        0","T,0","     18.13","0","     25.42","0","     10.84","0"
"USC00223107","1940","32.3599","-89.4208","137.2","FOREST 3 S, MS US","","","","","       100","0","        83","0","        22","0","        0","","         2","0","","","","","         7","0","       230","0","        65","0","","","","","","","     0","T,0,0131, ","   292"," ,0,0123, ","  86.4"," ,0,0430, ","   35.0","0,0909,+","","","","","","","","","","","","","","","","","","","","","    1641.0","0","    1641.0","0","   1648.9"," ,0","      368"," ,0","","","     23.29","0","",""
"USC00223107","1941","32.3599","-89.4208","137.2","FOREST 3 S, MS US","","","","","        91","0","        80","0","        11","0","        0","","         0","0","","","","","         0","0","       238","0","        92","0","","","","","","","     0"," ,0,1231,+","     0","T,0,0404, ","  86.4"," ,0,0712, ","   36.1","0,0826, ","","","","","","","","","","","","","","","","","","","","","","","","","   1306.3"," ,0","        0","T,0","","","     24.13","0","",""
"USC00223107","1942","32.3599","-89.4208","137.2","FOREST 3 S, MS US","","","","","        99","0","        75","0","        11","0","        0","","         0","0","","","","","         1","0","       254","0","        75","0","","","         1"," ","","","     0"," ,0,1231,+","    18"," ,0,0227, ","  77.2"," ,0,1227, ","   37.2","0,0721, ","","","","","","","","","","","","","","","","","","","","","","","","","   1093.1"," ,0","       18"," ,0","","","     24.46","0","",""
"USC00223107","1943","32.3599","-89.4208","137.2","FOREST 3 S, MS US","","","","","        88","0","        66","0","        10","0","        0","","         0","0","         0","0","        55","0","         2","0","       262","0","       109","0","","","","","  -10.6","0,0120, ","     0"," ,0,1231,+","     0"," ,0,1231,+","  71.9"," ,0,0320, ","   40.0","0,0827,+","-1.7","0,1017","-3.3","0,1110","-5.6","0,1117","-9.4","0,1216","-9.4","0,1216","-0.6","0,0415","-3.3","0,0308","-8.9","0,0304","-8.9","0,0304","-8.9","0,0304","    1089.7","7","    1089.7","0","   1064.3"," ,0","        0"," ,0","     18.36","0","     25.61","0","     11.11","0"
"USC00223107","1944","32.3599","-89.4208","137.2","FOREST 3 S, MS US","","","","","       114","0","        93","0","        18","0","        0","","         0","0","         0","0","        41","0","         0","0","       250","0","        92","0","         2"," ","","","   -8.3","0,0110, ","     0"," ,0,1231,+","     0","T,0,0115, ","  62.2"," ,0,0929, ","   37.8","0,0728, ","-0.6","0,1028","-3.3","0,1128","-4.4","0,1202","-6.7","0,1213","","","-0.6","0,0406","-3.3","0,0215","-5.6","0,0212","-8.3","0,0110","","","","","","","   1483.7"," ,0","        0","T,0","     18.11","0","     24.73","0","     11.48","0"
"USC00223107","1945","32.3599","-89.4208","137.2","FOREST 3 S, MS US","   1178.9","","    1178.9","0","       101","0","        90","0","        22","0","        0","","         1","0","         0","0","        41","0","         0","0","       253","0","        83","0","         6"," ","","","  -11.1","0,1220, ","     0"," ,0,1231,+","    25"," ,0,1205, ","  73.7"," ,0,0516, ","   36.7","0,0923, ","-0.6","0,1115","-7.2","0,1124","-7.2","0,1124","-7.2","0,1124","-9.4","0,1217","-0.6","0,0310","-2.2","0,0223","-5.0","0,0201","-6.7","0,0131","","","    1232.9","9","    1232.9","0","   1569.8"," ,0","       25"," ,0","     18.09","0","     24.59","0","     11.59","0"
"USC00223107","1946","32.3599","-89.4208","137.2","FOREST 3 S, MS US","   1057.4","","    1057.4","0","       114","0","        88","0","        22","0","        0","","         0","0","         0","0","        33","0","         0","0","       268","0","        46","0","         6"," ","","","   -9.4","0,0123, ","     0"," ,0,1231,+","     0"," ,0,1231,+","  73.7"," ,0,1111, ","   35.0","0,0817,+","-0.6","0,1123","-3.9","0,1203","","","","","","","0.0","0,0312","-2.8","0,0221","-5.6","0,0201","-7.2","0,0128","-9.4","0,0123","    1297.7","7","    1297.7","0","   1647.9"," ,0","        0"," ,0","     18.27","0","     24.58","0","     11.94","0"
"USC00223107","1947","32.3599","-89.4208","137.2","FOREST 3 S, MS US","","","","","","","","","","","        0","","         0","0","","","","","","","","","","","","","         2"," ","","","     0"," ,0,1231,+","     0","T,0,0302, ","","","","","","","","","","","","","","","","","","","","","","","","","    1350.4","4","    1350.4","0","","","        0","T,0","","","","","",""
"USC00223107","1948","32.3599","-89.4208","137.2","FOREST 3 S, MS US","   1098.8","","    1098.8","0","       107","0","        78","0","        18","0","        3","","         2","0","         0","0","        47","0","         5","0","       252","0","        75","0","","","         3"," ","  -13.9","0,0124, ","    51"," ,0,0117, ","   127"," ,0,0124, "," 104.1"," ,0,1128, ","   36.7","0,0710, ","-1.7","0,1018","-2.2","0,1019","-5.0","0,1231","","","","","-1.7","0,0329","-5.0","0,0313","-5.0","0,0313","-9.4","0,0125","-9.4","0,0125","","","","","   1447.8"," ,0","      170"," ,0","     17.59","0","     23.86","0","     11.32","0"
"USC00223107","1949","32.3599","-89.4208","137.2","FOREST 3 S, MS US","","","","","       133","0","        89","0","        18","0","        2","","         2","0","","","","","","","","","","","         9"," ","        52"," ","","","    76"," ,0,0131, ","    51"," ,0,0131, "," 127.0"," ,0,0105, ","","","","","","","","","","","","","","","","","","","","","","","","","","","   1538.3"," ,0","       76"," ,0","","","","","",""
"USC00223107","1950","32.3599","-89.4208","137.2","FOREST 3 S, MS US","","","","","       115","0","        79","0","        19","0","        0","","         0","0","","","","","","","","","","","         5"," ","        14"," ","","","     0"," ,0,1231,+","     0","T,0,0304, "," 186.2"," ,0,0106, ","","","","","","","","","","","","","","","","","","","","","","","","","","","   1690.9"," ,0","        0","T,0","","","","","",""
"USC00223107","1951","32.3599","-89.4208","137.2","FOREST 3 S, MS US","","","","","       102","0","        61","0","        12","0","        3","","         1","0","","","","","","","","","","","","","","","","","    51"," ,0,0202, ","    25"," ,0,0201, ","  71.1"," ,0,1209, ","","","","","","","","","","","","","","","","","","","","","","","","","","","   1008.9"," ,0","       38"," ,0","","","","","",""
"USC00223107","1953","32.3599","-89.4208","137.2","FOREST 3 S, MS US","","","","","        82","0","        73","0","        20","0","        0","","         0","0","","","","","","","","","","","","","","","","","     0"," ,0,1231,+","     0"," ,0,1231,+","  83.8"," ,0,0722, ","","","","","","","","","","","","","","","","","","","","","","","","","","","   1517.8"," ,0","        0"," ,0","","","","","",""
"USC00223107","1954","32.3599","-89.4208","137.2","FOREST 3 S, MS US","   1277.2","","    1277.2","0","        89","0","        58","0","        13","0","        0","","         0","0","         0","0","        57","0","         0","0","       234","0","       109","0","","","","","   -6.7","0,0208, ","     0"," ,0,1231,+","     0"," ,0,1231,+"," 113.0"," ,0,0622, ","   38.3","0,0829,+","0.0","0,1020","-2.8","0,1103","-5.0","0,1207","","","","","-4.4","0,0316","-4.4","0,0316","-4.4","0,0316","-6.7","0,0208","","","    1385.3","3","    1385.3","0","   1132.0"," ,0","        0"," ,0","     18.04","0","     25.29","0","     10.78","0"
"USC00223107","1955","32.3599","-89.4208","137.2","FOREST 3 S, MS US","   1204.2","","    1204.2","0","        88","0","        70","0","        15","0","        0","","         0","0","         0","0","        56","0","         0","0","       249","0","        77","0","","","","","   -9.4","0,1217,+","     0"," ,0,1231,+","     0"," ,0,1231,+"," 105.2"," ,0,0413, ","   35.0","0,0921,+","-1.1","0,1025","-2.8","0,1026","-7.8","0,1104","-7.8","0,1104","-8.9","0,1209","-2.8","0,0330","-2.8","0,0330","-8.3","0,0327","-8.3","0,0327","","","    1312.0","0","    1312.0","0","   1254.0"," ,0","        0"," ,0","     17.73","0","     24.51","0","     10.96","0"
"USC00223107","1956","32.3599","-89.4208","137.2","FOREST 3 S, MS US","   1067.7","","    1067.7","0","        94","0","        76","0","        16","0","        0","","         0","0","         0","0","        41","0","         0","0","       254","0","        91","0","","","","","   -7.2","0,1130, ","     0"," ,0,1231,+","     0"," ,0,1231,+","  97.8"," ,0,0406, ","   36.7","0,0811,+","-2.2","0,1109","-2.2","0,1109","-4.4","0,1118","-7.2","0,1130","","","-2.8","0,0321","-2.8","0,0321","-5.6","0,0118","-6.7","0,0117","","","    1374.2","2","    1374.2","0","   1332.6"," ,0","        0"," ,0","     17.95","0","     24.80","0","     11.09","0"
"USC00223107","1957","32.3599","-89.4208","137.2","FOREST 3 S, MS US","","","","","","","","","","","        0","","         0","0","","","","","","","","","","","","","","","","","     0"," ,0,1231,+","     0","T,0,1209,+","","","","","","","","","","","","","","","","","","","","","","","","","","","","","","","        0","T,0","","","","","",""
"USC00223107","1958","32.3599","-89.4208","137.2","FOREST 3 S, MS US","","","","","        86","0","        78","0","        25","0","        2","","         0","0","","","","","","","","","","","","","","","","","    51"," ,0,0210,+","     0"," ,0,1231,+"," 123.2"," ,0,1001, ","","","","","","","","","","","","","","","","","","","","","","","","","","","   1655.3"," ,0","        0"," ,0","","","","","",""
"USC00223107","1959","32.3599","-89.4208","137.2","FOREST 3 S, MS US","   1133.6","","    1133.6","0","       107","0","        89","0","        10","0","        0","","         0","0","         0","0","        65","0","         2","0","       236","0","        69","0","","","","","   -8.9","0,0106,+","     0"," ,0,1231,+","     0"," ,0,1231,+","  71.1"," ,0,0523, ","   35.0","0,0629,+","0.0","0,1106","-5.0","0,1107","-5.0","0,1107","-7.8","0,1118","","","-0.6","0,0323","-2.2","0,0307","-6.7","0,0222","-6.7","0,0222","-8.9","0,0106","    1511.1","1","    1511.1","0","   1198.8"," ,0","        0"," ,0","     17.13","0","     23.68","0","     10.59","0"
"USC00223107","1960","32.3599","-89.4208","137.2","FOREST 3 S, MS US","   1050.0","","    1050.0","0","       101","0","        73","0","        14","0","","","","","         0","0","        81","0","         1","0","       231","0","        94","0","","","","","  -12.2","0,0215,+","","","","","  80.0"," ,0,0507, ","   37.2","0,0728,+","-0.6","0,1107","-3.3","0,1112","-7.2","0,1202","-7.2","0,1202","-9.4","0,1222","-2.8","0,0322","-2.8","0,0322","-6.7","0,0307","-6.7","0,0307","-12.2","0,0215","    1813.4","4","    1813.4","0","   1249.2"," ,0","","","     16.34","0","     23.22","0","      9.46","0"
"USC00223107","1961","32.3599","-89.4208","137.2","FOREST 3 S, MS US","    962.3","","     962.3","0","       115","0","        89","0","        26","0","        0","","         0","0","         0","0","        51","0","         2","0","       235","0","        55","0","","","","","   -8.9","0,0122, ","     0"," ,0,1231,+","     0"," ,0,1231,+"," 151.6"," ,0,0626, ","   35.0","0,0831,+","-0.6","0,1027","-3.3","0,1109","-6.1","0,1130","-6.7","0,1230","","","-0.6","0,0311","-2.8","0,0211","-4.4","0,0205","-7.2","0,0130","-8.9","0,0122","    1513.1","1","    1513.1","0","   1921.0"," ,0","        0"," ,0","     16.81","0","     23.50","0","     10.12","0"
"USC00223107","1962","32.3599","-89.4208","137.2","FOREST 3 S, MS US","   1255.6","","    1255.6","0","        95","0","        68","0","        12","0","        1","","         1","0","         2","0","        57","0","         4","0","       238","0","        98","0","","","","","  -17.8","0,0112,+","    25"," ,0,0110, ","    25"," ,0,0110, ","  67.8"," ,0,0412, ","   37.8","0,0724, ","-0.6","0,1026","-2.8","0,1207","-5.0","0,1210","-11.7","0,1212","-11.7","0,1212","-0.6","0,0416","-2.2","0,0317","-5.6","0,0208","-12.2","0,0114","-12.2","0,0114","    1524.5","5","    1524.5","0","   1101.1"," ,0","       25"," ,0","     17.44","0","     24.36","0","     10.51","0"
"USC00223107","1963","32.3599","-89.4208","137.2","FOREST 3 S, MS US","   1215.8","","    1215.8","0","        99","0","        61","0","        13","0","        1","","         0","0","         0","0","        82","0","         6","0","       250","0","        92","0","","","","","  -16.7","0,0125, ","    76"," ,0,1221, ","     0","T,0,0212, ","  54.6"," ,0,0313,+","   38.3","0,0616,+","-0.6","0,1029","-4.4","0,1114","-4.4","0,1114","-8.9","0,1215","-8.9","0,1215","-0.6","0,0323","-6.7","0,0228","-6.7","0,0228","-6.7","0,0228","-9.4","0,0223","    1649.5","5","    1649.5","0","   1078.1"," ,0","        0","T,0","     17.04","0","     24.13","0","      9.95","0"
"USC00223107","1964","32.3599","-89.4208","137.2","FOREST 3 S, MS US","   1163.6","","    1163.6","0","       119","0","        85","0","        25","0","        0","","         1","0","         0","0","        58","0","         2","0","       251","0","        72","0","","","","","  -11.1","0,0115, ","     0"," ,0,1231,+","   140"," ,0,0101, "," 132.1"," ,0,1005, ","   36.1","0,0805,+","-0.6","0,1121","-5.6","0,1122","-5.6","0,1122","","","","","-2.2","0,0331","-2.2","0,0331","-7.2","0,0224","-7.2","0,0224","-10.6","0,0116","    1609.5","5","    1609.5","0","   1833.2"," ,0","      140"," ,0","     17.32","0","     23.92","0","     10.71","0"
"USC00223107","1965","32.3599","-89.4208","137.2","FOREST 3 S, MS US","   1184.2","","    1184.2","0","        97","0","        69","0","        15","0","        0","","         0","0","         0","0","        56","0","         1","0","       260","0","        84","0","","","","","   -9.4","0,0117, ","     0"," ,0,1231,+","     0"," ,0,1231,+","  71.1"," ,0,0930, ","   35.6","0,0703, ","0.0","0,1025","-3.3","0,1130","-5.6","0,1208","","","","","-1.7","0,0323","-6.1","0,0322","-6.1","0,0322","-7.2","0,0203","-8.9","0,0118","    1405.6","6","    1405.6","0","   1192.5"," ,0","        0"," ,0","     17.87","0","     24.69","0","     11.06","0"
"USC00223107","1966","32.3599","-89.4208","137.2","FOREST 3 S, MS US","","","","","       104","0","        93","0","        28","0","        0","","         0","0","","","","","","","","","","","","","","","","","     0"," ,0,1231,+","     0"," ,0,1231,+","  93.7"," ,0,0519, ","","","","","","","","","","","","","","","","","","","","","","","    1450.6","6","    1450.6","0","   1667.0"," ,0","        0"," ,0","","","","","",""
"USC00223107","1967","32.3599","-89.4208","137.2","FOREST 3 S, MS US","   1108.2","","    1108.2","0","        80","0","        71","0","        14","0","        0","","         0","0","         0","0","        41","0","         0","0","       264","0","        60","0","","","","","   -8.3","0,0208, ","     0"," ,0,1231,+","     0"," ,0,1231,+","  97.8"," ,0,0502, ","   37.2","0,0619, ","0.0","0,1104","-2.2","0,1204","-5.0","0,1223","","","","","-1.1","0,0318","-5.6","0,0226","-5.6","0,0226","-7.8","0,0225","","","","","","","   1249.3"," ,0","        0"," ,0","     18.17","0","     24.64","0","     11.69","0"
"USC00223107","1968","32.3599","-89.4208","137.2","FOREST 3 S, MS US","","","","","        78","0","        73","0","        22","0","        0","","         0","0","","","","","","","","","","","","","","","","","     0"," ,0,1231,+","     0"," ,0,1231,+"," 148.6"," ,0,1231, ","","","","","","","","","","","","","","","","","","","","","","","    1378.1","1","    1378.1","0","   1505.6"," ,0","        0"," ,0","","","","","",""
"USC00223107","1969","32.3599","-89.4208","137.2","FOREST 3 S, MS US","   1015.7","","    1015.7","0","        91","0","        64","0","        18","0","        0","","         0","0","         0","0","        65","0","         0","0","       240","0","        70","0","","","","","  -11.1","0,0105, ","     0"," ,0,1231,+","     0"," ,0,1231,+","  76.7"," ,0,0725, ","   37.8","0,0629,+","-3.3","0,1104","-3.3","0,1104","-4.4","0,1105","-9.4","0,1115","-9.4","0,1115","-2.2","0,0328","-2.2","0,0328","-4.4","0,0327","-11.1","0,0105","-11.1","0,0105","","","","","   1284.1"," ,0","        0"," ,0","     16.97","0","     24.15","0","      9.79","0"
"USC00223107","1970","32.3599","-89.4208","137.2","FOREST 3 S, MS US","   1069.7","","    1069.7","0","       100","0","        78","0","        16","0","        0","","         0","0","         0","0","        67","0","         4","0","       244","0","        82","0","","","","","  -15.6","0,0109, ","     0"," ,0,1231,+","     0"," ,0,1231,+"," 113.5"," ,0,0502, ","   38.3","0,0703, ","-1.7","0,1103","-2.2","0,1104","-5.6","0,1117","-9.4","0,1124","-9.4","0,1124","-1.1","0,0403","-4.4","0,0315","-4.4","0,0315","-6.7","0,0221","-13.9","0,0204","    1577.9","9","    1577.9","0","   1333.1"," ,0","        0"," ,0","     17.02","0","     24.16","0","      9.89","0"
"USC00223107","1971","32.3599","-89.4208","137.2","FOREST 3 S, MS US","   1025.1","","    1025.1","0","       109","0","        85","0","        20","0","        0","","         0","0","         0","0","        59","0","         1","0","       265","0","        61","0","","","","","  -12.2","0,0210, ","     0"," ,0,1231,+","     0"," ,0,1231,+"," 102.1"," ,0,0917, ","   35.6","0,0713,+","-0.6","0,1105","-2.8","0,1108","","","","","","","-1.1","0,0504","-2.2","0,0408","-6.7","0,0308","-6.7","0,0308","-8.9","0,0214","    1432.9","9","    1432.9","0","   1661.0"," ,0","        0"," ,0","     17.56","0","     24.62","0","     10.50","0"
"USC00223107","1972","32.3599","-89.4208","137.2","FOREST 3 S, MS US","   1127.1","","    1127.1","0","       105","0","        77","0","        17","0","        0","","         0","0","         0","0","        47","0","         0","0","       265","0","        97","0","","","","","  -11.7","0,0116, ","     0"," ,0,1231,+","     0"," ,0,1231,+","  77.5"," ,0,1023, ","   37.2","0,0807, ","0.0","0,1109","-2.2","0,1127","-4.4","0,1216","-9.4","0,1217","-9.4","0,1217","-0.6","0,0401","-3.9","0,0306","-6.1","0,0220","-7.8","0,0205","-10.6","0,0117","    1079.3","3","    1079.3","0","   1424.1"," ,0","        0"," ,0","     17.94","0","     25.14","0","     10.74","0"
"USC00223107","1973","32.3599","-89.4208","137.2","FOREST 3 S, MS US","   1102.9","","    1102.9","0","       127","0","        94","0","        26","0","        0","","         0","0","         0","0","        57","0","         1","0","       265","0","        62","0","","","","","   -9.4","0,0113, ","     0"," ,0,1231,+","     0"," ,0,1231,+","  74.9"," ,0,0417, ","   35.6","0,0810, ","0.0","0,1030","-2.8","0,1206","-5.6","0,1208","-7.2","0,1211","-8.9","0,1221","-3.3","0,0411","-3.3","0,0411","-4.4","0,0222","-8.9","0,0211","-8.9","0,0211","    1408.1","1","    1408.1","0","   1855.3"," ,0","        0"," ,0","     17.80","0","     24.65","0","     10.95","0"
"USC00223107","1974","32.3599","-89.4208","137.2","FOREST 3 S, MS US","    950.0","","     950.0","0","       119","0","        92","0","        25","0","        0","","         0","0","         0","0","        45","0","         0","0","       274","0","        48","0","","","","","   -9.4","0,0226, ","     0"," ,0,1231,+","     0"," ,0,1231,+"," 145.3"," ,0,0413, ","   36.7","0,0620, ","-2.2","0,1113","-2.2","0,1113","-5.0","0,1115","-6.7","0,1204","","","0.0","0,0410","-6.7","0,0227","-6.7","0,0227","-6.7","0,0227","-9.4","0,0226","    1006.5","5","    1006.5","0","   1951.8"," ,0","        0"," ,0","     17.78","0","     24.82","0","     10.73","0"
"USC00223107","1975","32.3599","-89.4208","137.2","FOREST 3 S, MS US","    992.4","","     992.4","0","       123","0","        97","0","        14","0","        0","","         0","0","         0","0","        56","0","         1","0","       261","0","        60","0","","","","","  -10.6","0,1219, ","     0"," ,0,1231,+","     0"," ,0,1231,+"," 147.8"," ,0,1017, ","   35.0","0,0907,+","-3.9","0,1114","-3.9","0,1114","-5.0","0,1122","-10.6","0,1219","-10.6","0,1219","-1.7","0,0404","-5.6","0,0305","-5.6","0,0305","-6.7","0,0208","","","    1251.4","4","    1251.4","0","   1638.3"," ,0","        0"," ,0","     17.57","0","     24.47","0","     10.66","0"
"USC00223107","1976","32.3599","-89.4208","137.2","FOREST 3 S, MS US","","","","","        93","0","        72","0","        18","0","        0","","         0","0","","","","","         0","0","       252","0","        63","0","","","","","","","     0"," ,0,1231,+","     0"," ,0,1231,+","  81.3"," ,0,0331, ","   35.0","0,0801,+","","","","","","","","","","","","","","","","","","","","","    1299.2","2","    1299.2","0","   1327.7"," ,0","        0"," ,0","","","     24.04","0","",""
"USC00223107","1977","32.3599","-89.4208","137.2","FOREST 3 S, MS US","   1189.9","","    1189.9","0","       109","0","        83","0","        32","0","        0","","         2","0","         1","0","        63","0","         2","0","       254","0","        88","0","","","","","  -18.3","0,0119, ","     0"," ,0,1231,+","    76"," ,0,0118, ","  90.4"," ,0,0304, ","   37.8","0,0611,+","-0.6","0,1017","-2.8","0,1111","-5.6","0,1207","-6.7","0,1210","","","-1.7","0,0323","-2.2","0,0308","-5.0","0,0221","-8.3","0,0216","-10.0","0,0201","","","","","   1880.1"," ,0","      147"," ,0","     17.66","0","     24.68","0","     10.64","0"
"USC00223107","1978","32.3599","-89.4208","137.2","FOREST 3 S, MS US","","","","","        92","0","        81","0","        14","0","        1","","         1","0","","","","","","","","","","","","","","","","","    25"," ,0,0120, ","    33"," ,0,0120, "," 104.1"," ,0,1209, ","","","","","","","","","","","","","","","","","","","","","","","","","","","   1193.1"," ,0","       41"," ,0","","","","","",""
"USC00223107","1979","32.3599","-89.4208","137.2","FOREST 3 S, MS US","    978.2","","     978.2","0","       100","0","        92","0","        33","0","        0","","         0","0","         0","0","        66","0","         0","0","       246","0","        66","0","","","","","  -12.8","0,0109, ","     0"," ,0,1231,+","     0"," ,0,1231,+","  97.0"," ,0,0413, ","   36.7","0,0705, ","-1.1","0,1104","-3.9","0,1115","-9.4","0,1130","-9.4","0,1130","-9.4","0,1130","-3.3","0,0326","-3.3","0,0326","-4.4","0,0227","-6.7","0,0211","-10.6","0,0210","    1248.4","4","    1248.4","0","   2244.2"," ,0","        0"," ,0","     16.82","0","     23.82","0","      9.83","0"
"USC00223107","1980","32.3599","-89.4208","137.2","FOREST 3 S, MS US","","","","","        78","0","        68","0","        18","0","        0","","         0","0","         0","0","        60","0","         0","0","       241","0","       102","0","","","","","  -13.9","0,0302, ","     0"," ,0,1231,+","     0"," ,0,1231,+"," 143.5"," ,0,1115, ","   39.4","0,0716, ","0.0","0,1026","-3.3","0,1119","-5.6","0,1222","-6.7","0,1228","","","-0.6","0,0322","-11.7","0,0303","-11.7","0,0303","-11.7","0,0303","-11.7","0,0303","","","","","   1606.6"," ,0","        0"," ,0","     17.61","0","     24.96","0","     10.25","0"
"USC00223107","1981","32.3599","-89.4208","137.2","FOREST 3 S, MS US","   1157.2","","    1157.2","0","        80","0","        66","0","        18","0","        0","","         0","0","         0","0","        61","0","         0","0","       253","0","        91","0","","","","","  -12.8","0,1219, ","     0"," ,0,1231,+","     0"," ,0,1231,+","  82.8"," ,0,1026, ","   38.3","0,0815, ","-0.6","0,1020","-5.6","0,1121","-5.6","0,1121","-12.8","0,1219","-12.8","0,1219","0.0","0,0326","-2.2","0,0320","-5.0","0,0213","-11.1","0,0212","-11.1","0,0212","    1421.6","6","    1421.6","0","   1348.7"," ,0","        0"," ,0","     17.61","0","     24.83","0","     10.38","0"
"USC00223107","1982","32.3599","-89.4208","137.2","FOREST 3 S, MS US","   1190.9","","    1190.9","0","       107","0","        82","0","        21","0","","","         0","0","         1","0","        49","0","         3","0","       266","0","        92","0","","","","","  -18.3","0,0111, ","","","     0"," ,0,1231,+"," 139.7"," ,0,1204, ","   36.1","0,0608, ","0.0","0,1025","-3.9","0,1105","-4.4","0,1116","","","","","-2.8","0,0309","-2.8","0,0309","-5.6","0,0308","-12.8","0,0117","-12.8","0,0117","    1307.6","6","    1307.6","0","   1623.4"," ,0","        0"," ,0","     18.26","0","     25.02","0","     11.49","0"
"USC00223107","1983","32.3599","-89.4208","137.2","FOREST 3 S, MS US","   1022.0","","    1022.0","0","       106","0","        78","0","        28","0","","","         0","0","         0","0","        52","0","         4","0","       239","0","        68","0","","","","","  -15.0","0,1226,+","","","     0"," ,0,1231,+","  78.0"," ,0,0516, ","   37.8","0,0821, ","0.0","0,1106","-2.8","0,1117","-4.4","0,1129","-10.6","0,1224","-10.6","0,1224","0.0","0,0416","-3.9","0,0322","-5.6","0,0208","","","","","    1329.3","3","    1329.3","0","   1809.8"," ,0","        0"," ,0","     16.89","0","     23.59","0","     10.18","0"
"USC00223107","1984","32.3599","-89.4208","137.2","FOREST 3 S, MS US","   1121.2","","    1121.2","0","       110","0","        78","0","        23","0","","","         0","0","         0","0","        52","0","         0","0","       265","0","        62","0","","","","","  -12.8","0,0122, ","","","     0"," ,0,1231,+","  95.3"," ,0,1021, ","   36.1","0,0901,+","-0.6","0,1112","-2.2","0,1122","-8.3","0,1207","-8.3","0,1207","","","0.0","0,0330","-5.0","0,0307","-5.0","0,0307","-6.7","0,0301","-12.8","0,0122","    1515.8","8","    1515.8","0","   1435.9"," ,0","        0"," ,0","     17.92","0","     24.91","0","     10.92","0"
"USC00223107","1985","32.3599","-89.4208","137.2","FOREST 3 S, MS US","   1168.2","","    1168.2","0","       106","0","        76","0","        16","0","","","","","         1","0","        60","0","         4","0","       253","0","        74","0","","","","","  -18.3","0,0121, ","","","","","  58.4"," ,0,0908, ","   37.2","0,0801,+","-0.6","0,1106","-3.9","0,1203","-4.4","0,1207","-10.0","0,1215","-10.0","0,1215","-0.6","0,0319","-2.2","0,0217","-7.8","0,0216","-7.8","0,0216","-8.9","0,0203","    1221.8","8","    1221.8","0","   1300.0"," ,0","","","     17.85","0","     24.65","0","     11.04","0"
"USC00223107","1986","32.3599","-89.4208","137.2","FOREST 3 S, MS US","   1155.6","","    1155.6","0","        97","0","        75","0","        21","0","        0","","         0","0","         0","0","        46","0","         0","0","       271","0","        84","0","","","","","  -11.1","0,0213, ","     0"," ,0,1231,+","     0"," ,0,1231,+","  90.9"," ,0,0629, ","   37.8","0,0801, ","-2.8","0,1114","-2.8","0,1114","-5.0","0,1229","","","","","-3.9","0,0323","-3.9","0,0323","-6.1","0,0322","-8.3","0,0301","-11.1","0,0213","    1176.5","5","    1176.5","0","   1524.0"," ,0","        0"," ,0","     18.23","0","     25.01","0","     11.45","0"
"USC00223107","1987","32.3599","-89.4208","137.2","FOREST 3 S, MS US","   1042.3","","    1042.3","0","        76","0","        66","0","        23","0","        0","","         0","0","         0","0","        53","0","         0","0","       248","0","        62","0","","","","","   -7.8","0,0127, ","     0"," ,0,1231,+","     0"," ,0,1231,+","  59.2"," ,0,1117, ","   36.7","0,0801, ","-1.7","0,1022","-5.0","0,1112","-5.0","0,1112","","","","","-2.8","0,0405","-2.8","0,0405","-6.1","0,0210","-7.8","0,0127","","","    1326.4","4","    1326.4","0","   1294.4"," ,0","        0"," ,0","     17.52","0","     24.53","0","     10.51","0"
"USC00223107","1988","32.3599","-89.4208","137.2","FOREST 3 S, MS US","   1023.6","","    1023.6","0","        87","0","        76","0","        14","0","","","","","         0","0","        63","0","         2","0","       256","0","        69","0","","","","","  -11.7","0,0207, ","","","",""," 135.9"," ,0,1120, ","   40.0","0,0629, ","0.0","0,1124","-2.8","0,1129","-4.4","0,1206","-7.2","0,1218","","","-1.1","0,0321","-2.8","0,0317","-6.1","0,0316","-7.8","0,0315","-8.9","0,0212","    1442.8","8","    1442.8","0","   1420.0"," ,0","","","     17.16","0","     24.20","0","     10.12","0"
"USC00223107","1989","32.3599","-89.4208","137.2","FOREST 3 S, MS US","","","","","        93","0","        81","0","        21","0","        0","","         0","0","","","","","","","","","","","","","","","","","     0"," ,0,1231,+","     0"," ,0,1231,+"," 101.6"," ,0,1108, ","","","","","","","","","","","","","","","","","","","","","","","","","","","   1613.5"," ,0","        0"," ,0","","","","","",""
"USC00223107","1990","32.3599","-89.4208","137.2","FOREST 3 S, MS US","","","","","        85","0","        73","0","        25","0","        0","","         0","0","","","","","","","","","","","","","","","","","     0"," ,0,1231,+","     0"," ,0,1231,+"," 123.2"," ,0,0216, ","","","","","","","","","","","","","","","","","","","","","","","    1231.6","6","    1231.6","0","   1712.0"," ,0","        0"," ,0","","","","","",""
"USC00223107","1991","32.3599","-89.4208","137.2","FOREST 3 S, MS US","   1170.0","","    1170.0","0","       100","0","        86","0","        24","0","        0","","         0","0","         0","0","        48","0","         0","0","       250","0","        67","0","","","","","  -10.0","0,0216, ","     0"," ,0,1231,+","     0"," ,0,1231,+"," 128.3"," ,0,0329, ","   36.1","0,0702,+","-1.1","0,1103","-6.1","0,1104","-6.1","0,1104","-7.2","0,1105","","","-1.1","0,0315","-2.2","0,0310","-10.0","0,0216","-10.0","0,0216","-10.0","0,0216","","","","","   1752.0"," ,0","        0"," ,0","     18.06","0","     24.47","0","     11.66","0"
"USC00223107","1992","32.3599","-89.4208","137.2","FOREST 3 S, MS US","    902.6","","     902.6","0","        98","0","        90","0","        18","0","        0","","         1","0","         0","0","        41","0","         0","0","       238","0","        52","0","","","","","   -7.8","0,0120,+","     0"," ,0,1231,+","    33"," ,0,0118, "," 138.2"," ,0,0827, ","   35.0","0,0713,+","-2.2","0,1107","-2.2","0,1107","-4.4","0,1129","","","","","-0.6","0,0403","-2.2","0,0402","-4.4","0,0208","-7.8","0,0120","","","    1316.6","6","    1316.6","0","   1686.3"," ,0","       33"," ,0","     17.24","0","     23.82","0","     10.67","0"
"USC00223107","1993","32.3599","-89.4208","137.2","FOREST 3 S, MS US","","","","","        93","0","        81","0","        19","0","        0","","         0","0","","","","","","","","","","","","","","","","","     0"," ,0,1231,+","     0"," ,0,1231,+"," 196.9"," ,0,0625, ","","","","","","","","","","","","","","","","","","","","","","","    1304.1","1","    1304.1","0","   1772.2"," ,0","        0"," ,0","","","","","",""
"USC00223107","1994","32.3599","-89.4208","137.2","FOREST 3 S, MS US","   1012.7","","    1012.7","0","        90","0","        75","0","        17","0","        0","","         0","0","         0","0","        49","0","         0","0","       249","0","        53","0","","","","","  -10.6","0,0119, ","     0"," ,0,1231,+","     0"," ,0,1231,+","  98.0"," ,0,0128, ","   35.0","0,0831,+","-0.6","0,1124","-3.3","0,1201","-5.6","0,1212","","","","","-1.1","0,0401","-2.2","0,0227","-5.0","0,0214","-7.2","0,0203","-9.4","0,0202","","","","","   1453.9"," ,0","        0"," ,0","     17.60","0","     23.98","0","     11.23","0"
"USC00223107","1995","32.3599","-89.4208","137.2","FOREST 3 S, MS US","   1096.0","","    1096.0","0","        95","0","        76","0","        23","0","        0","","         0","0","         0","0","        53","0","         0","0","       244","0","        74","0","","","","","   -8.9","0,1210, ","     0"," ,0,1231,+","     0"," ,0,1231,+"," 110.5"," ,0,0922, ","   36.7","0,0728, ","0.0","0,1021","-2.8","0,1121","-8.9","0,1210","-8.9","0,1210","-8.9","0,1210","-1.1","0,0311","-2.8","0,0310","-4.4","0,0211","-8.3","0,0209","","","    1120.6","6","    1120.6","0","   1636.3"," ,0","        0"," ,0","     17.65","0","     24.42","0","     10.89","0"
"USC00223107","1996","32.3599","-89.4208","137.2","FOREST 3 S, MS US","    995.8","","     995.8","0","        93","0","        72","0","        16","0","        0","","         0","0","         0","0","        63","0","         3","0","       253","0","        51","0","","","","","  -14.4","0,0205, ","     0"," ,0,1231,+","     0"," ,0,1231,+","  84.6"," ,0,0307, ","   36.1","0,0706,+","-0.6","0,1023","-3.3","0,1202","-8.3","0,1219","-8.3","0,1219","-11.7","0,1220","-1.1","0,0407","-2.8","0,0322","-4.4","0,0312","-6.7","0,0310","-10.0","0,0309","    1547.7","7","    1547.7","0","   1330.6"," ,0","        0"," ,0","     17.16","0","     23.87","0","     10.45","0"
"USC00223107","1998","32.3599","-89.4208","137.2","FOREST 3 S, MS US","","","","","        87","0","        74","0","        21","0","","","         0","0","","","","","","","","","","","","","","","","","","","     0"," ,0,1231,+"," 106.4"," ,0,0122, ","","","","","","","","","","","","","","","","","","","","","","","    1366.1","1","    1366.1"," ","   1538.2"," ,0","        0"," ,0","","","","","",""
"USC00223107","2000","32.3599","-89.4208","137.2","FOREST 3 S, MS US","   1120.8","","    1120.8","0","        61","0","        58","0","        15","0","        0","","         0","0","         0","0","        55","0","         0","0","       253","0","        93","0","","","","","  -12.8","0,1220, ","     0"," ,0,1231,+","     0"," ,0,1231,+","  50.8"," ,0,0627,+","   39.4","0,0830,+","-1.1","0,1114","-3.9","0,1115","-5.0","0,1121","-7.2","0,1122","-8.9","0,1218","-1.7","0,0409","-2.8","0,0313","-8.3","0,0207","-8.3","0,0207","","","    1155.4","4","    1155.4","0","   1012.6"," ,0","        0"," ,0","     17.71","0","     25.10","0","     10.31","0"
"USC00223107","2001","32.3599","-89.4208","137.2","FOREST 3 S, MS US","","","","","        74","0","        71","0","        26","0","","","","","","","","","","","","","","","","","","","","","","","","","  96.5"," ,0,1014, ","","","","","","","","","","","","","","","","","","","","","","","    1535.2","2","    1535.2","0","   1545.1"," ,0","","","","","","","",""
"USC00223107","2002","32.3599","-89.4208","137.2","FOREST 3 S, MS US","   1173.6","","    1173.6","0","        80","0","        73","0","        26","0","        0","","         0","0","         0","0","        60","0","         0","0","       236","0","        57","0","","","","","  -10.6","0,0104, ","     0"," ,0,1231,+","     0","T,0,0514, ","  85.1"," ,0,0927, ","   35.6","0,0911,+","-0.6","0,1113","-2.2","0,1123","-6.1","0,1207","","","","","0.0","0,0324","-2.2","0,0323","-5.6","0,0306","-7.8","0,0305","-10.0","0,0301","","","","","   1628.1"," ,0","        0","T,0","     17.84","0","     24.07","0","     11.60","0"
"USC00223107","2003","32.3599","-89.4208","137.2","FOREST 3 S, MS US","   1082.5","","    1082.5","0","        88","0","        75","0","        17","0","        0","","         0","0","         0","0","        54","0","         0","0","       250","0","        64","0","","","","","  -12.2","0,0124, ","     0"," ,0,1231,+","     0"," ,0,1231,+"," 127.0"," ,0,0705, ","   35.0","0,0820,+","-4.4","0,1125","-4.4","0,1125","-4.4","0,1125","","","","","0.0","0,0304","-2.8","0,0218","-5.0","0,0211","-11.7","0,0125","-11.7","0,0125","    1280.8","8","    1280.8","0","   1579.2"," ,0","        0"," ,0","     17.92","0","     24.79","0","     11.05","0"
"USC00223107","2004","32.3599","-89.4208","137.2","FOREST 3 S, MS US","","","","","","","","","","","","","","","","","","","","","","","","","","","","","","","","","","","","","","","","","","","","","","","","","","","","","","","","","","","    1217.7","7","    1217.7"," ","","","","","","","","","",""
"USC00223107","2006","32.3599","-89.4208","137.2","FOREST 3 S, MS US","","","","","        64","0","        60","0","        21","0","","","         0","0","","","","","","","","","","","","","","","","","","","     0"," ,0,1231,+","  99.1"," ,0,1017, ","","","","","","","","","","","","","","","","","","","","","","","","","","","   1278.9"," ,0","        0"," ,0","","","","","",""
"USC00223107","2007","32.3599","-89.4208","137.2","FOREST 3 S, MS US","","","","","        66","0","        58","0","        11","0","","","         0","0","","","","","         0","0","       268","0","       104","0","","","","","","","","","     0"," ,0,1231,+","  68.6"," ,0,1220, ","   40.0","0,0823,+","","","","","","","","","","","","","","","","","","","","","","","","","    891.3"," ,0","        0"," ,0","","","     26.03","0","",""
"USC00223107","2008","32.3599","-89.4208","137.2","FOREST 3 S, MS US","   1124.5","","    1124.5","0","","","","","","","","","         1","0","         0","0","        61","0","         0","0","       268","0","        86","0","","","","","  -11.7","0,0120, ","","","    64"," ,0,1211, ","","","   37.2","0,0802, ","-2.2","0,1029","-2.2","0,1029","-5.0","0,1119","-7.2","0,1122","","","-1.1","0,0415","-3.3","0,0325","-4.4","0,0228","-6.7","0,0214","-11.7","0,0120","","","","","   1666.5"," ,0","       77"," ,0","     18.20","0","     25.61","0","     10.79","0"
"USC00223107","2010","32.3599","-89.4208","137.2","FOREST 3 S, MS US","   1209.6","","    1209.6","0","        95","0","        65","0","        18","0","","","         1","0","         0","0","        81","0","         4","0","       239","0","        96","0","","","","","  -11.7","0,0111,+","","","   160"," ,0,0212, ","  70.4"," ,0,0820, ","   38.3","0,0804, ","-1.7","0,1030","-2.8","0,1106","-4.4","0,1127","-8.3","0,1207","-9.4","0,1209","-2.2","0,0307","-2.2","0,0307","-4.4","0,0306","-7.8","0,0225","-9.4","0,0113","    1782.5","5","    1782.5","0","   1213.3"," ,0","      160"," ,0","     16.76","0","     23.95","0","      9.56","0"
"USC00223107","2011","32.3599","-89.4208","137.2","FOREST 3 S, MS US","   1188.9","","    1188.9","7","        83","7","        65","7","        15","7","        1","","         0","7","         0","7","        59","7","         2","7","       261","7","        97","7","","","","","  -10.6","7,0113, ","    25"," ,7,0210, ","    13"," ,7,0210, "," 298.4"," ,7,0905, ","   37.8","7,0824, ","-1.1","7,1021","-2.2","7,1030","-4.4","7,1118","-6.7","7,1211","","","-1.7","7,0311","-2.8","7,0213","-7.2","7,0212","-7.2","7,0212","-10.0","7,0211","    1498.6","6","    1498.6","7","   1571.6"," ,7","       16"," ,7","     17.75","7","     25.19","7","     10.31","7"
"USC00223107","2012","32.3599","-89.4208","137.2","FOREST 3 S, MS US","   1119.1","","    1119.1","7","        92","7","        73","7","        26","7","        0","","         0","7","         0","7","        46","7","         0","7","       281","7","        62","7","","","","","   -7.2","7,0212,+","     0"," ,7,1231,+","     0"," ,7,1231,+"," 138.4"," ,7,0322, ","   36.7","7,0705,+","0.0","7,1108","-2.8","7,1113","-5.6","7,1125","","","","","-1.1","7,0304","-2.2","K,0225","-6.1","K,0213","-7.2","K,0212","","","    1011.9","9","    1011.9","7","   1659.3"," ,7","        0"," ,7","     18.52","7","     25.74","7","     11.30","7"
