"STATION","DATE","LATITUDE","LONGITUDE","ELEVATION","NAME","DP01","DP01_ATTRIBUTES","DP10","DP10_ATTRIBUTES","DP1X","DP1X_ATTRIBUTES","DSND","DSND_ATTRIBUTES","DSNW","DSNW_ATTRIBUTES","DYFG","DYFG_ATTRIBUTES","DYTS","DYTS_ATTRIBUTES","EMSD","EMSD_ATTRIBUTES","EMSN","EMSN_ATTRIBUTES","EMXP","EMXP_ATTRIBUTES","PRCP","PRCP_ATTRIBUTES","SNOW","SNOW_ATTRIBUTES"
"USC00115313","2003","41.36389","-87.99889","202.7","MANHATTAN 4 SW, IL US","       128","0","        68","0","         9","0","       28","","         8","0","         1"," ","","","   102"," ,0,0306,+","    66"," ,0,0215, ","  40.9"," ,0,0715, ","    905.9"," ,0","      442"," ,0"
"USC00115313","2004","41.36389","-87.99889","202.7","MANHATTAN 4 SW, IL US","       124","0","        65","0","         7","0","       37","","         5","0","        19"," ","        12"," ","   102"," ,0,0210,+","    76"," ,0,0105, ","  67.1"," ,0,0828, ","    961.4"," ,0","      380"," ,0"
"USC00115313","2005","41.36389","-87.99889","202.7","MANHATTAN 4 SW, IL US","","","","","","","","","","","         3"," ","","","","","","","","","","","",""
"USC00115313","2009","41.36389","-87.99889","202.7","MANHATTAN 4 SW, IL US","       128","0","        83","0","        17","0","","","         7","0","","","","","","","    86"," ,0,0406, ","  65.3"," ,0,1023, ","   1197.0"," ,0","      425"," ,0"
