"STATION","DATE","LATITUDE","LONGITUDE","ELEVATION","NAME","DP01","DP01_ATTRIBUTES","DP10","DP10_ATTRIBUTES","DP1X","DP1X_ATTRIBUTES","DT00","DT00_ATTRIBUTES","DT32","DT32_ATTRIBUTES","DX32","DX32_ATTRIBUTES","DX70","DX70_ATTRIBUTES","DX90","DX90_ATTRIBUTES","DYFG","DYFG_ATTRIBUTES","DYTS","DYTS_ATTRIBUTES","EMNT","EMNT_ATTRIBUTES","EMXP","EMXP_ATTRIBUTES","EMXT","EMXT_ATTRIBUTES","FZF0","FZF0_ATTRIBUTES","FZF1","FZF1_ATTRIBUTES","FZF2","FZF2_ATTRIBUTES","FZF3","FZF3_ATTRIBUTES","FZF4","FZF4_ATTRIBUTES","FZF5","FZF5_ATTRIBUTES","FZF6","FZF6_ATTRIBUTES","FZF7","FZF7_ATTRIBUTES","FZF8","FZF8_ATTRIBUTES","FZF9","FZF9_ATTRIBUTES","PRCP","PRCP_ATTRIBUTES","TAVG","TAVG_ATTRIBUTES","TMAX","TMAX_ATTRIBUTES","TMIN","TMIN_ATTRIBUTES"
"USC00443583","1946","38.88333","-77.18333","103.9","FALLS CHURCH 2 SW, VA US","       114","6","        73","6","         9","6","         0","6","        96","6","        10","6","       182","6","        10","6","","","","","  -16.1","6,0129, ","  63.5"," ,6,0723, ","   35.0","6,0720, ","-2.8","6,1113","-2.8","6,1113","-4.4","6,1123","-7.2","6,1202","-10.0","6,1203","-1.7","6,0428","-5.0","6,0313","-5.0","6,0313","-8.9","6,0216","-8.9","6,0216","    886.8"," ,6","     12.84","6","     18.92","6","      6.76","6"
"USC00443583","1949","38.88333","-77.18333","103.9","FALLS CHURCH 2 SW, VA US","","","","","","","","","","","","","","","","","         3"," ","        14"," ","","","","","","","","","","","","","","","","","","","","","","","","","","","","","","","","","",""
