"STATION","DATE","LATITUDE","LONGITUDE","ELEVATION","NAME","CDSD","CDSD_ATTRIBUTES","CLDD","CLDD_ATTRIBUTES","DP01","DP01_ATTRIBUTES","DP10","DP10_ATTRIBUTES","DP1X","DP1X_ATTRIBUTES","DSND","DSND_ATTRIBUTES","DSNW","DSNW_ATTRIBUTES","DT00","DT00_ATTRIBUTES","DT32","DT32_ATTRIBUTES","DX32","DX32_ATTRIBUTES","DX70","DX70_ATTRIBUTES","DX90","DX90_ATTRIBUTES","DYTS","DYTS_ATTRIBUTES","EMNT","EMNT_ATTRIBUTES","EMSD","EMSD_ATTRIBUTES","EMSN","EMSN_ATTRIBUTES","EMXP","EMXP_ATTRIBUTES","EMXT","EMXT_ATTRIBUTES","HDSD","HDSD_ATTRIBUTES","HTDD","HTDD_ATTRIBUTES","PRCP","PRCP_ATTRIBUTES","SNOW","SNOW_ATTRIBUTES","TAVG","TAVG_ATTRIBUTES","TMAX","TMAX_ATTRIBUTES","TMIN","TMIN_ATTRIBUTES"
"USC00084050","2003","26.0281","-80.1341","2.7","HOLLYWOOD, FL US","   2411.4","","    2411.4","0","       133","0","        93","0","        19","0","        0","","         0","0","         0","0","         0","0","         0","0","       346","0","        40","0","","","    2.2","0,0124, ","     0"," ,0,1231,+","     0"," ,0,1231,+"," 223.3"," ,0,0528, ","   33.9","0,0908,+","","","","","   1719.4"," ,0","        0"," ,0","     24.61","0","     28.51","0","     20.71","0"
"USC00084050","2004","26.0281","-80.1341","2.7","HOLLYWOOD, FL US","   2337.9","","    2337.9","0","       125","0","        78","0","        12","0","        0","","         0","0","         0","0","         0","0","         0","0","       355","0","        79","0","","","    6.7","0,1216,+","     0"," ,0,1231,+","     0"," ,0,1231,+","  85.9"," ,0,0201, ","   34.4","0,0813,+","      91.0","0","      91.0","0","   1205.0"," ,0","        0"," ,0","     24.51","0","     28.54","0","     20.49","0"
"USC00084050","2005","26.0281","-80.1341","2.7","HOLLYWOOD, FL US","   2273.5","","    2273.5","0","       137","0","        81","0","        26","0","        0","","         0","0","         0","0","         0","0","         0","0","       351","0","        68","0","","","    5.0","0,0125,+","     0"," ,0,1231,+","     0"," ,0,1231,+"," 106.4"," ,0,0709, ","   35.0","0,0903,+","     103.4","4","     103.4","0","   1658.4"," ,0","        0"," ,0","     24.28","0","     28.22","0","     20.34","0"
"USC00084050","2006","26.0281","-80.1341","2.7","HOLLYWOOD, FL US","   2308.1","","    2308.1","0","       118","0","        85","0","        16","0","        0","","         0","0","         0","0","         0","0","         0","0","       349","0","        58","0","","","    5.0","0,0215,+","     0"," ,0,1231,+","     0"," ,0,1231,+","  91.4"," ,0,0904, ","   36.1","0,0824, ","      99.3","3","      99.3","0","   1327.8"," ,0","        0"," ,0","     24.39","0","     28.46","0","     20.33","0"
"USC00084050","2007","26.0281","-80.1341","2.7","HOLLYWOOD, FL US","   2406.7","","    2406.7","0","       153","0","        96","0","        21","0","        0","","         0","0","         0","0","         0","0","         0","0","       358","0","        69","0","","","    5.0","0,0218,+","     0"," ,0,1231,+","     0"," ,0,1231,+"," 111.8"," ,0,0602, ","   34.4","0,0623, ","      60.5","5","      60.5","0","   1633.1"," ,0","        0"," ,0","     24.78","0","     28.58","0","     20.99","0"
"USC00084050","2008","26.0281","-80.1341","2.7","HOLLYWOOD, FL US","   2289.5","","    2289.5","0","       130","0","        93","0","        17","0","        0","","         0","0","         0","0","         0","0","         0","0","       355","0","        32","0","         2"," ","    2.8","0,0103, ","     0"," ,0,1231,+","     0"," ,0,1231,+","  95.0"," ,0,0823, ","   33.9","0,0814,+","      52.3","3","      52.3","0","   1496.5"," ,0","        0"," ,0","     24.38","0","     28.15","0","     20.61","0"
"USC00084050","2009","26.0281","-80.1341","2.7","HOLLYWOOD, FL US","   2359.9","","    2359.9","0","       123","0","        87","0","        16","0","        0","","         0","0","         0","0","         0","0","         0","0","       347","0","        61","0","","","    1.7","0,0205, ","     0"," ,0,1231,+","     0"," ,0,1231,+","  85.6"," ,0,0322, ","   35.6","0,0623, ","     124.8","8","     124.8","0","   1408.1"," ,0","        0"," ,0","     24.42","0","     28.30","0","     20.54","0"
"USC00084050","2010","26.0281","-80.1341","2.7","HOLLYWOOD, FL US","   2159.8","","    2159.8","0","       124","0","        86","0","        28","0","        0","","         0","0","         0","0","         0","0","         0","0","       323","0","        64","0","","","    1.1","0,1214,+","     0"," ,0,1231,+","     0"," ,0,1231,+"," 141.2"," ,0,0706, ","   34.4","0,0714, ","     262.0","0","     262.0","0","   1982.2"," ,0","        0"," ,0","     23.25","0","     27.23","0","     19.26","0"
"USC00084050","2011","26.0281","-80.1341","2.7","HOLLYWOOD, FL US","   2451.7","","    2451.7","7","       129","7","        84","7","        12","7","","","","","         0","7","         0","7","         0","7","       355","7","        77","7","","","    5.6","7,0124,+","","","",""," 121.9"," ,7,1030, ","   34.4","7,0828, ","     181.0","0","     181.0","7","   1294.1"," ,7","","","     24.87","7","     28.66","7","     21.07","7"
"USC00084050","2012","26.0281","-80.1341","2.7","HOLLYWOOD, FL US","   2342.6","","    2342.6","7","       133","7","        95","7","        22","7","","","","","         0","7","         0","7","         0","7","       356","7","        43","7","","","    5.0","7,0104, ","","","",""," 102.4"," ,7,0827, ","   34.4","7,0819, ","      51.8","8","      51.8","7","   1755.4"," ,7","","","     24.54","7","     28.23","7","     20.86","7"
"USC00084050","2013","26.0281","-80.1341","2.7","HOLLYWOOD, FL US","   2450.1","","    2450.1","7","       132","7","       104","7","        22","7","","","","","         0","7","         0","7","         0","7","       358","7","        19","7","","","    6.7","7,0305,+","","","",""," 194.3"," ,7,0608, ","   33.9","7,0726, ","      74.0","0","      74.0","7","   2066.5"," ,7","","","     24.87","7","     28.33","7","     21.41","7"
"USC00084050","2014","26.0281","-80.1341","2.7","HOLLYWOOD, FL US","   2379.2","","    2379.2","7","       127","7","       105","7","        20","7","","","","","         0","7","         0","7","         0","7","       352","7","        58","7","","","    6.1","7,0120,+","","","","","  71.1"," ,7,0516, ","   34.4","7,0731,+","      52.5","5","      52.5","7","   1546.7"," ,7","","","     24.63","7","     28.62","7","     20.64","7"
"USC00084050","2015","26.0281","-80.1341","2.7","HOLLYWOOD, FL US","   2744.3","","    2744.3","7","       120","7","        90","7","        19","7","","","","","         0","7","         0","7","         0","7","       358","7","        72","7","","","    3.9","7,0221,+","","","",""," 147.3"," ,7,0301, ","   35.6","7,0731,+","      75.5","5","      75.5","7","   1518.0"," ,7","","","     25.68","7","     29.15","7","     22.21","7"
"USC00084050","2016","26.0281","-80.1341","2.7","HOLLYWOOD, FL US","   2523.9","","    2523.9","7","       129","7","       108","7","        17","7","","","","","         0","7","         0","7","         0","7","       352","7","        65","7","","","    6.1","7,0125, ","","","","","  64.8"," ,7,1016, ","   36.1","7,0708, ","      72.8","8","      72.8","7","   1395.1"," ,7","","","     25.00","7","     28.58","7","     21.42","7"
"USC00084050","2017","26.0281","-80.1341","2.7","HOLLYWOOD, FL US","   2486.3","","    2486.3","7","       119","7","        96","7","        20","7","","","","","         0","7","         0","7","         0","7","       356","7","        63","7","","","    6.7","7,1214, ","","","",""," 182.9"," ,7,0607, ","   33.9","7,0529, ","      25.5","5","      25.5","7","   1972.2"," ,7","","","     25.05","7","     28.83","7","     21.28","7"
"USC00084050","2018","26.0281","-80.1341","2.7","HOLLYWOOD, FL US","   2494.8","","    2494.8","7","       109","7","        91","7","        17","7","","","","","         0","7","         0","7","         0","7","       355","7","        52","7","","","    3.9","7,0105,+","","","",""," 106.7"," ,7,0520, ","   35.0","7,0722, ","      96.2","2","      96.2","7","   1382.5"," ,7","","","     24.90","7","     28.68","7","     21.12","7"
"USC00084050","2019","26.0281","-80.1341","2.7","HOLLYWOOD, FL US","   2484.7","","    2484.7","7","       127","7","       103","7","        21","7","","","","","         0","7","         0","7","         0","7","       348","7","        69","7","         1"," ","    6.1","7,0122, ","","","",""," 223.5"," ,7,1223, ","   35.0","7,0907, ","      61.7","7","      61.7","7","   1861.2"," ,7","","","     25.26","7","     29.08","7","     21.44","7"
"USC00084050","2020","26.0281","-80.1341","2.7","HOLLYWOOD, FL US","","","","","","","","","","","","","","","","","","","","","","","","","","","","","","","","","","","","","      49.3","3","      49.3","H","","","","","","","","","",""
