"STATION","DATE","LATITUDE","LONGITUDE","ELEVATION","NAME","CDSD","CDSD_ATTRIBUTES","CLDD","CLDD_ATTRIBUTES","DP01","DP01_ATTRIBUTES","DP10","DP10_ATTRIBUTES","DP1X","DP1X_ATTRIBUTES","DSND","DSND_ATTRIBUTES","DSNW","DSNW_ATTRIBUTES","DT00","DT00_ATTRIBUTES","DT32","DT32_ATTRIBUTES","DX32","DX32_ATTRIBUTES","DX70","DX70_ATTRIBUTES","DX90","DX90_ATTRIBUTES","EMNT","EMNT_ATTRIBUTES","EMSD","EMSD_ATTRIBUTES","EMSN","EMSN_ATTRIBUTES","EMXP","EMXP_ATTRIBUTES","EMXT","EMXT_ATTRIBUTES","EVAP","EVAP_ATTRIBUTES","FZF0","FZF0_ATTRIBUTES","FZF1","FZF1_ATTRIBUTES","FZF2","FZF2_ATTRIBUTES","FZF3","FZF3_ATTRIBUTES","FZF4","FZF4_ATTRIBUTES","FZF5","FZF5_ATTRIBUTES","FZF6","FZF6_ATTRIBUTES","FZF7","FZF7_ATTRIBUTES","FZF8","FZF8_ATTRIBUTES","FZF9","FZF9_ATTRIBUTES","HDSD","HDSD_ATTRIBUTES","HTDD","HTDD_ATTRIBUTES","PRCP","PRCP_ATTRIBUTES","SNOW","SNOW_ATTRIBUTES","TAVG","TAVG_ATTRIBUTES","TMAX","TMAX_ATTRIBUTES","TMIN","TMIN_ATTRIBUTES"
"USC00291153","1988","32.5158","-104.3828","979.3","BRANTLEY DAM, NM US","    919.9","","     919.9","0","        41","0","        24","0","         2","0","","","         2","0","         0","0","        99","0","         1","0","       255","0","       104","0","  -11.7","0,0105, ","","","   132"," ,0,1208, ","  76.2"," ,0,0921, ","   39.4","0,0515, ","","","-2.8","0,1116","-2.8","0,1116","-5.0","0,1121","-7.2","0,1122","-10.6","0,1228","0.0","0,0402","-4.4","0,0319","-4.4","0,0319","-7.2","0,0314","-10.0","0,0125","","","","","    379.7"," ,0","      249"," ,0","     16.27","0","     25.11","0","      7.43","0"
"USC00291153","1989","32.5158","-104.3828","979.3","BRANTLEY DAM, NM US","   1163.7","","    1163.7","0","        48","0","        15","0","         1","0","        1","","         1","0","         0","0","        89","0","         3","0","       254","0","       120","0","  -16.7","0,1223, ","    25"," ,0,0206, ","   127"," ,0,0321, ","  27.2"," ,0,0818, ","   43.3","0,0702, ","","","-2.2","0,1019","-2.2","0,1019","-6.1","0,1102","-14.4","0,1212","-14.4","0,1212","-2.8","0,0322","-2.8","0,0322","-6.7","0,0306","-6.7","0,0306","-8.9","0,0305","    1542.9","9","    1542.9","0","    174.7"," ,0","      140"," ,0","     16.81","0","     25.78","0","      7.85","0"
"USC00291153","1990","32.5158","-104.3828","979.3","BRANTLEY DAM, NM US","","","","","        58","0","        31","0","         2","0","        0","","         0","0","","","","","         1","0","       253","0","        88","0","","","     0"," ,0,1231,+","     0"," ,0,1231,+","  32.8"," ,0,0712, ","   43.3","0,0625, ","","","","","","","","","","","","","","","","","","","","","","","    1737.8","8","    1737.8","0","    350.2"," ,0","        0"," ,0","","","     25.13","0","",""
"USC00291153","1991","32.5158","-104.3828","979.3","BRANTLEY DAM, NM US","   1199.8","","    1199.8","0","        71","0","        42","0","         4","0","        0","","         0","0","         0","0","        72","0","         1","0","       247","0","       106","0","   -7.2","0,0123,+","     0"," ,0,1231,+","     0"," ,0,1231,+","  39.4"," ,0,0725, ","   42.8","0,0618, ","","","-5.0","0,1031","-5.0","0,1031","-5.0","0,1031","","","","","-5.0","0,0331","-5.0","0,0331","-5.0","0,0331","-6.7","0,0201","","","","","","","    546.9"," ,0","        0"," ,0","     17.27","0","     25.15","0","      9.39","0"
"USC00291153","1992","32.5158","-104.3828","979.3","BRANTLEY DAM, NM US","","","","","","","","","","","        0","","         0","0","","","","","         0","0","       251","0","       112","0","","","     0"," ,0,1231,+","     0"," ,0,1231,+","","","   41.1","0,0706, ","","","","","","","","","","","","","","","","","","","","","","","","","","","","","        0"," ,0","","","     25.27","0","",""
"USC00291153","1993","32.5158","-104.3828","979.3","BRANTLEY DAM, NM US","","","","","","","","","","","        0","","         0","0","","","","","         1","0","       234","0","       107","0","","","     0","T,0,1114, ","     0"," ,0,1231,+","","","   40.0","0,0706, ","","","","","","","","","","","","","","","","","","","","","","","","","","","","","        0"," ,0","","","     25.03","0","",""
"USC00291153","1994","32.5158","-104.3828","979.3","BRANTLEY DAM, NM US","   1247.2","","    1247.2","0","        46","0","        20","0","         2","0","        2","","         0","0","         0","0","        76","0","         1","0","       250","0","       112","0","  -11.7","0,0201, ","    25"," ,0,0131,+","     3"," ,0,0131,+","  76.2"," ,0,0510, ","   46.7","0,0627, ","","","0.0","0,1118","-4.4","0,1128","-4.4","0,1128","-6.7","0,1130","","","-1.1","0,0407","-2.2","0,0406","-5.0","0,0310","-8.3","0,0214","-8.9","0,0203","","","","","    251.2"," ,0","        6"," ,0","     17.49","0","     26.30","0","      8.68","0"
"USC00291153","1995","32.5158","-104.3828","979.3","BRANTLEY DAM, NM US","   1150.5","","    1150.5","0","        39","0","        19","0","         2","0","        0","","         0","0","         0","0","        69","0","         0","0","       267","0","       116","0","   -6.7","0,1211, ","     0"," ,0,1231,+","     0"," ,0,1231,+","  36.8"," ,0,0630, ","   43.3","0,0727,+","","","-1.1","0,1124","-2.8","0,1129","-6.1","0,1209","-6.7","0,1211","","","0.0","0,0423","-3.9","0,0308","-5.0","0,0125","","","","","    1368.6","6","    1368.6","0","    235.8"," ,0","        0"," ,0","     17.63","0","     26.15","0","      9.10","0"
"USC00291153","1996","32.5158","-104.3828","979.3","BRANTLEY DAM, NM US","   1244.9","","    1244.9","0","        33","0","        22","0","         1","0","        0","","         0","0","         0","0","        93","0","         4","0","       266","0","       111","0","  -15.0","0,1218, ","     0"," ,0,1231,+","     0"," ,0,1231,+","  32.0"," ,0,0829, ","   41.7","0,0621,+","","","-1.7","0,1023","-2.8","0,1109","-4.4","0,1125","-15.0","0,1218","-15.0","0,1218","-0.6","0,0327","-3.9","0,0326","-5.0","0,0310","-8.3","0,0309","-9.4","0,0307","    1368.1","1","    1368.1","0","    250.5"," ,0","        0"," ,0","     17.60","0","     26.54","0","      8.65","0"
"USC00291153","1997","32.5158","-104.3828","979.3","BRANTLEY DAM, NM US","   1121.1","","    1121.1","0","        51","0","        37","0","         3","0","","","         3","0","         0","0","        85","0","         3","0","       237","0","       118","0","  -17.2","0,1227, ","","","   203"," ,0,1226, ","  49.5"," ,0,0627, ","   40.6","0,0630,+","","","-1.1","0,1026","-3.3","0,1115","-5.0","0,1116","-7.8","0,1212","-11.7","0,1226","-0.6","0,0413","-3.3","0,0306","-4.4","0,0227","-6.7","0,0210","-10.6","0,0114","    1607.4","4","    1607.4","0","    432.1"," ,0","      445"," ,0","     16.38","0","     24.50","0","      8.25","0"
"USC00291153","1998","32.5158","-104.3828","979.3","BRANTLEY DAM, NM US","   1381.2","","    1381.2","0","        32","0","        12","0","         0","0","","","         0","0","         0","0","        64","0","         0","0","       247","0","       143","0","  -10.0","0,1223, ","","","     0"," ,0,1231,+","  15.2"," ,0,0813, ","   43.9","0,0628,+","","","-1.1","0,1111","-5.0","0,1208","-5.0","0,1208","-8.9","0,1222","-8.9","0,1222","-0.6","0,0418","-2.2","0,0313","-5.0","0,0311","","","","","    1663.7","7","    1663.7","0","    114.0"," ,0","        0"," ,0","     18.04","0","     26.84","0","      9.23","0"
"USC00291153","1999","32.5158","-104.3828","979.3","BRANTLEY DAM, NM US","   1127.1","","    1127.1","0","        34","0","        25","0","         3","0","        0","","         1","0","         0","0","        68","0","         0","0","       282","0","       115","0","  -10.0","0,0105, ","     0"," ,0,1231,+","    51"," ,0,0129, ","  43.2"," ,0,0825, ","   42.2","0,0701, ","","","-0.6","0,1103","-2.8","0,1124","-5.6","0,1125","-7.8","0,1213","","","0.0","0,0320","-7.2","0,0213","-7.2","0,0213","-7.2","0,0213","-10.0","0,0105","    1181.6","6","    1181.6","0","    291.1"," ,0","       51"," ,0","     17.87","0","     26.83","0","      8.91","0"
"USC00291153","2000","32.5158","-104.3828","979.3","BRANTLEY DAM, NM US","   1348.5","","    1348.5","0","        42","0","        25","0","         2","0","        2","","         1","0","         0","0","        74","0","         0","0","       257","0","       140","0","   -9.4","0,0130,+","    51"," ,0,1118,+","    25"," ,0,1227, ","  37.3"," ,0,1104, ","   42.8","0,0524, ","","","-1.1","0,1108","-2.2","0,1118","-6.7","0,1119","-6.7","0,1119","","","0.0","0,0319","-3.9","0,0317","-4.4","0,0203","-9.4","0,0130","-9.4","0,0130","    1259.7","7","    1259.7","0","    278.7"," ,0","       38"," ,0","     17.98","0","     26.44","0","      9.52","0"
"USC00291153","2001","32.5158","-104.3828","979.3","BRANTLEY DAM, NM US","   1327.3","","    1327.3","0","        44","0","        17","0","         1","0","","","         2","0","         0","0","        73","0","         0","0","       245","0","       136","0","   -7.8","0,1225,+","","","    64"," ,0,0128, ","  27.9"," ,0,0728, ","   41.1","0,0716,+","","","-1.1","0,1120","-5.0","0,1128","-5.0","0,1128","-7.8","0,1129","","","0.0","0,0305","-2.2","0,0211","-4.4","0,0203","-6.7","0,0202","","","    1683.3","3","    1683.3","0","    211.9"," ,0","      110"," ,0","     17.85","0","     26.23","0","      9.47","0"
"USC00291153","2002","32.5158","-104.3828","979.3","BRANTLEY DAM, NM US","   1374.5","","    1374.5","0","        56","0","        25","0","         2","0","        0","","         2","0","         0","0","        76","0","         0","0","       240","0","       133","0","  -10.6","0,0304, ","     0"," ,0,1231,+","    51"," ,0,0101, ","  34.5"," ,0,0704, ","   42.2","0,0828,+","","","-0.6","0,1106","-2.8","0,1127","-5.0","0,1225","","","","","0.0","0,0323","-6.7","0,0305","-6.7","0,0305","-6.7","0,0305","-10.6","0,0304","    1440.0","0","    1440.0","0","    337.7"," ,0","      115"," ,0","     17.63","0","     25.78","0","      9.48","0"
"USC00291153","2003","32.5158","-104.3828","979.3","BRANTLEY DAM, NM US","   1247.9","","    1247.9","0","        34","0","        19","0","         0","0","        0","","         0","0","         0","0","        73","0","         1","0","       264","0","       114","0","   -9.4","0,1224, ","     0"," ,0,1231,+","     0"," ,0,1231,+","  22.4"," ,0,0829, ","   41.7","0,0805, ","","","0.0","0,1119","-5.6","0,1124","-5.6","0,1124","-6.7","0,1128","-9.4","0,1224","0.0","0,0409","-2.2","0,0228","-6.7","0,0226","-6.7","0,0226","","","    1534.2","2","    1534.2","0","    189.7"," ,0","        0"," ,0","     17.81","0","     26.33","0","      9.29","0"
"USC00291153","2004","32.5158","-104.3828","979.3","BRANTLEY DAM, NM US","   1016.3","","    1016.3","0","        80","0","        40","0","         5","0","        0","","         3","0","         0","0","        64","0","         4","0","       224","0","       100","0","  -12.2","0,0214, ","     0"," ,0,1231,+","   102"," ,0,1224, "," 114.3"," ,0,0404, ","   40.6","0,0616, ","","","-1.7","0,1103","-4.4","0,1130","-4.4","0,1130","-9.4","0,1224","-9.4","0,1224","0.0","0,0227","-2.8","0,0218","-11.1","0,0215","-11.1","0,0215","-11.1","0,0215","    1515.6","6","    1515.6","0","    664.4"," ,0","      152"," ,0","     16.30","0","     23.95","0","      8.65","0"
"USC00291153","2005","32.5158","-104.3828","979.3","BRANTLEY DAM, NM US","","","","","","","","","","","","","","","","","","","","","","","","","","","","","","","","","","","","","","","","","","","","","","","","","","","","","","","","","    1717.6","6","    1717.6","0","","","","","","","","","",""
"USC00291153","2007","32.5158","-104.3828","979.3","BRANTLEY DAM, NM US","    985.7","","     985.7","0","        62","0","        38","0","         4","0","","","         8","0","         0","0","        90","0","         7","0","       252","0","        86","0","   -8.3","0,1229,+","","","   114"," ,0,0123, ","  53.6"," ,0,0921, ","   41.7","0,0821, ","","","-1.1","0,1023","-3.3","0,1115","-4.4","0,1213","-7.8","0,1216","","","-1.7","0,0409","-2.2","0,0408","-4.4","0,0306","-6.7","0,0304","","","","","","","    505.9"," ,0","      457"," ,0","     16.26","0","     24.50","0","      8.03","0"
"USC00291153","2010","32.5158","-104.3828","979.3","BRANTLEY DAM, NM US","   1071.0","","    1071.0","0","        54","0","        33","0","         5","0","        3","","         2","0","         0","0","        94","0","         1","0","       249","0","       104","0","  -10.6","0,1126, ","    25"," ,0,0223,+","    25"," ,0,0223,+","  67.6"," ,0,0617, ","   44.4","0,0606, ","","","0.0","0,1110","-3.3","0,1113","-10.6","0,1126","-10.6","0,1126","-10.6","0,1126","-1.1","0,0409","-2.2","0,0408","-6.1","0,0225","-6.7","0,0130","-10.0","0,0109","    1839.6","6","    1839.6","0","    457.9"," ,0","       63"," ,0","     16.62","0","     25.20","0","      8.04","0"
"USC00291153","2011","32.5158","-104.3828","979.3","BRANTLEY DAM, NM US","   1414.4","","    1414.4","K","","","","","","","","","","","         3","K","        96","K","         7","K","       264","K","       139","K","  -21.1","K,0204, ","","","","","","","   43.3","K,0625, ","","","-2.8","K,1103","-2.8","K,1103","-7.8","K,1127","-7.8","K,1127","-12.2","K,1206","-0.6","K,0311","-4.4","K,0301","-4.4","K,0301","-11.1","K,0212","-11.1","K,0212","    1535.3","3","    1535.3","K","","","","","     17.45","K","     26.70","K","      8.20","K"
"USC00291153","2016","32.5158","-104.3828","979.3","BRANTLEY DAM, NM US","","","","","        41","7","        25","7","         3","7","        1","","         1","7","","","","","","","","","","","","","   203"," ,7,0101, ","    25"," ,7,0101, ","  78.2"," ,7,0908, ","","","    2777.9","7","","","","","","","","","","","","","","","","","","","","","","","","","    321.1"," ,7","       25"," ,7","","","","","",""
"USC00291153","2017","32.5158","-104.3828","979.3","BRANTLEY DAM, NM US","   1191.7","","    1191.7","7","        43","7","        29","7","         2","7","        0","","         0","7","         0","7","        53","7","         1","7","       271","7","       113","7","  -12.2","7,0107, ","     0"," ,7,1231,+","    20"," ,7,1207, ","  40.6"," ,7,0413, ","   42.8","7,0618, ","    2821.7","7","0.0","7,1028","-3.3","7,1119","-4.4","7,1120","-6.7","7,1213","","","0.0","7,0304","-2.2","7,0217","-7.8","7,0128","-7.8","7,0128","-10.0","7,0108","","","","","    346.3"," ,7","       20"," ,7","     18.20","7","     26.54","7","      9.85","7"
"USC00291153","2018","32.5158","-104.3828","979.3","BRANTLEY DAM, NM US","   1354.6","","    1354.6","7","        41","7","        21","7","         2","7","        0","","         0","7","         0","7","        88","7","         3","7","       248","7","       121","7","  -14.4","7,0103, ","     0"," ,7,1231,+","    13"," ,7,1230, ","  35.6"," ,7,1024, ","   42.8","7,0623, ","    3009.3","7","-7.2","7,1113","-7.2","7,1113","-7.2","7,1113","-7.2","7,1113","","","-1.7","7,0308","-5.0","7,0307","-5.0","7,0307","-7.2","7,0226","-8.9","7,0125","    1525.9","9","    1525.9","7","    261.5"," ,7","       13"," ,7","     17.33","7","     25.70","7","      8.97","7"
"USC00291153","2019","32.5158","-104.3828","979.3","BRANTLEY DAM, NM US","   1320.7","","    1320.7","7","        34","7","        23","7","         2","7","        0","","         0","7","         0","7","        64","7","         2","7","       249","7","       122","7","   -8.9","7,1219, ","     0"," ,7,1231,+","     0"," ,7,1231,+","  72.9"," ,7,1001, ","   43.3","7,0827, ","    2881.8","7","-2.2","7,1025","-2.2","7,1025","-7.8","7,1031","-7.8","7,1031","-8.9","7,1219","-7.8","7,0306","-7.8","7,0306","-7.8","7,0306","-7.8","7,0306","","","    1666.0","0","    1666.0","7","    288.6"," ,7","        0"," ,7","     17.44","7","     25.59","7","      9.29","7"
"USC00291153","2020","32.5158","-104.3828","979.3","BRANTLEY DAM, NM US","","","","","","","","","","","","","","","","","","","","","","","","","","","","","","","","","","","","","","","","","","","","","","","","","","","","","","","","","    1608.4","4","    1608.4","H","","","","","","","","","",""
