"STATION","DATE","LATITUDE","LONGITUDE","ELEVATION","NAME","CDSD","CDSD_ATTRIBUTES","CLDD","CLDD_ATTRIBUTES","DP01","DP01_ATTRIBUTES","DP10","DP10_ATTRIBUTES","DP1X","DP1X_ATTRIBUTES","DSND","DSND_ATTRIBUTES","DSNW","DSNW_ATTRIBUTES","DT00","DT00_ATTRIBUTES","DT32","DT32_ATTRIBUTES","DX32","DX32_ATTRIBUTES","DX70","DX70_ATTRIBUTES","DX90","DX90_ATTRIBUTES","DYFG","DYFG_ATTRIBUTES","DYTS","DYTS_ATTRIBUTES","EMNT","EMNT_ATTRIBUTES","EMSD","EMSD_ATTRIBUTES","EMSN","EMSN_ATTRIBUTES","EMXP","EMXP_ATTRIBUTES","EMXT","EMXT_ATTRIBUTES","FZF0","FZF0_ATTRIBUTES","FZF1","FZF1_ATTRIBUTES","FZF2","FZF2_ATTRIBUTES","FZF3","FZF3_ATTRIBUTES","FZF4","FZF4_ATTRIBUTES","FZF5","FZF5_ATTRIBUTES","FZF6","FZF6_ATTRIBUTES","FZF7","FZF7_ATTRIBUTES","FZF8","FZF8_ATTRIBUTES","FZF9","FZF9_ATTRIBUTES","HDSD","HDSD_ATTRIBUTES","HTDD","HTDD_ATTRIBUTES","PRCP","PRCP_ATTRIBUTES","SNOW","SNOW_ATTRIBUTES","TAVG","TAVG_ATTRIBUTES","TMAX","TMAX_ATTRIBUTES","TMIN","TMIN_ATTRIBUTES"
"USC00391539","1919","43.5771","-101.019","717.8","CEDAR BUTTE, SD US","","","","","","","","","","","","","","","","","","","","","","","","","         1"," ","","","","","","","","","","","","","","","","","","","","","","","","","","","","","","","","","","","","","","","","","","","","","",""
"USC00391539","1920","43.5771","-101.019","717.8","CEDAR BUTTE, SD US","    408.3","","     408.3","6","","","","","","","","","","","        28","6","       183","6","        29","6","       136","6","        44","6","","","","","  -30.0","6,1224,+","","","","","","","   41.1","6,0722, ","-7.8","6,0929","-7.8","6,0929","-7.8","6,0929","-7.8","6,0929","-8.9","6,1028","0.0","6,0520","-2.8","6,0430","-5.0","6,0427","-7.2","6,0426","-12.8","6,0405","","","","","","","","","      7.63","6","     15.72","6","     -0.47","6"
"USC00391539","1951","43.5771","-101.019","717.8","CEDAR BUTTE, SD US","","","","","","","","","","","","","","","","","","","","","","","","","         3"," ","","","","","","","","","","","","","","","","","","","","","","","","","","","","","","","","","","","","","","","","","","","","","",""
"USC00391539","1952","43.5771","-101.019","717.8","CEDAR BUTTE, SD US","","","","","        53","0","        35","0","         1","0","","","        11","0","","","","","","","","","","","        10"," ","         5"," ","","","","","   203"," ,0,1117, ","  30.5"," ,0,0509, ","","","","","","","","","","","","","","","","","","","","","","","","","","","    325.9"," ,0","      732"," ,0","","","","","",""
"USC00391539","1953","43.5771","-101.019","717.8","CEDAR BUTTE, SD US","","","","","        56","0","        36","0","         3","0","","","        15","0","","","","","","","","","","","        20"," ","         9"," ","","","","","   152"," ,0,0402, ","  49.5"," ,0,0627, ","","","","","","","","","","","","","","","","","","","","","","","","","","","    453.8"," ,0","      995"," ,0","","","","","",""
"USC00391539","1954","43.5771","-101.019","717.8","CEDAR BUTTE, SD US","","","","","        61","0","        32","0","         4","0","","","        11","0","","","","","","","","","","","        11"," ","","","","","","","   203"," ,0,0312, ","  44.5"," ,0,0602, ","","","","","","","","","","","","","","","","","","","","","","","","","","","    391.6"," ,0","      888"," ,0","","","","","",""
"USC00391539","1955","43.5771","-101.019","717.8","CEDAR BUTTE, SD US","","","","","        40","0","        23","0","         3","0","       76","","        16","0","","","","","","","","","","","         3"," ","         1"," ","","","   279"," ,0,1211,+","   203"," ,0,1203, ","  38.4"," ,0,0920, ","","","","","","","","","","","","","","","","","","","","","","","","","","","    329.3"," ,0","     1115"," ,0","","","","","",""
"USC00391539","1956","43.5771","-101.019","717.8","CEDAR BUTTE, SD US","","","","","        62","0","        34","0","         6","0","","","        12","0","","","","","","","","","","","         7"," ","        12"," ","","","","","   279"," ,0,0310, ","  69.1"," ,0,0807, ","","","","","","","","","","","","","","","","","","","","","","","","","","","    429.3"," ,0","     1029"," ,0","","","","","",""
"USC00391539","1957","43.5771","-101.019","717.8","CEDAR BUTTE, SD US","","","","","        68","0","        48","0","         1","0","","","        11","0","","","","","","","","","","","        10"," ","        19"," ","","","","","   178"," ,0,0404, ","  61.0"," ,0,0719, ","","","","","","","","","","","","","","","","","","","","","","","","","","","    429.2"," ,0","      789"," ,0","","","","","",""
"USC00391539","1958","43.5771","-101.019","717.8","CEDAR BUTTE, SD US","","","","","        61","0","        41","0","         1","0","","","","","","","","","","","","","","","        18"," ","        13"," ","","","","","","","  29.2"," ,0,0423, ","","","","","","","","","","","","","","","","","","","","","","","","","","","    336.8"," ,0","","","","","","","",""
"USC00391539","1959","43.5771","-101.019","717.8","CEDAR BUTTE, SD US","","","","","        76","0","        30","0","         1","0","","","        19","0","","","","","        31","0","       131","0","        65","0","         4"," ","        23"," ","","","","","   152"," ,0,0420, ","  31.5"," ,0,0530, ","   43.3","0,0811, ","","","","","","","","","","","","","","","","","","","","","","","","","    344.4"," ,0","     1127"," ,0","","","     16.66","0","",""
"USC00391539","1960","43.5771","-101.019","717.8","CEDAR BUTTE, SD US","","","","","        73","0","        43","0","         3","0","","","        18","0","","","","","","","","","","","        16"," ","        10"," ","","","","","   102"," ,0,1205,+","  61.0"," ,0,0825, ","","","","","","","","","","","","","","","","","","","","","","","","","","","    490.5"," ,0","      989"," ,0","","","","","",""
"USC00391539","1961","43.5771","-101.019","717.8","CEDAR BUTTE, SD US","","","","","        56","0","        33","0","         5","0","       29","","         8","0","","","","","","","","","","","         3"," ","        32"," ","","","    51"," ,0,1105,+","    51"," ,0,0930,+","  52.8"," ,0,0727, ","","","","","","","","","","","","","","","","","","","","","","","","","","","    387.3"," ,0","      338"," ,0","","","","","",""
"USC00391539","1962","43.5771","-101.019","717.8","CEDAR BUTTE, SD US","","","","","        73","0","        44","0","         7","0","       59","","         8","0","","","","","        47","0","       158","0","        25","0","        17"," ","        26"," ","","","   406"," ,0,0224,+","   279"," ,0,0217, ","  60.7"," ,0,0701, ","   38.9","0,0827,+","","","","","","","","","","","","","","","","","","","","","","","","","    674.0"," ,0","      758"," ,0","","","     16.61","0","",""
"USC00391539","1963","43.5771","-101.019","717.8","CEDAR BUTTE, SD US","    613.7","","     613.7","0","        72","0","        29","0","         6","0","       46","","         8","0","        29","0","       134","0","        41","0","       176","0","        63","0","        16"," ","        40"," ","  -31.1","0,0119, ","   178"," ,0,0120,+","    76"," ,0,0403,+","  53.8"," ,0,0615, ","   38.9","0,0811,+","-3.9","0,1028","-3.9","0,1028","-6.7","0,1112","-6.7","0,1112","-10.6","0,1113","-4.4","0,0523","-4.4","0,0523","-4.4","0,0523","-12.2","0,0317","-12.2","0,0317","","","","","    470.4"," ,0","      514"," ,0","     10.57","0","     18.22","0","      2.92","0"
"USC00391539","1964","43.5771","-101.019","717.8","CEDAR BUTTE, SD US","","","","","        65","0","        36","0","         1","0","       37","","        13","0","        22","0","       165","0","","","","","","","","","        33"," ","  -28.3","0,1217,+","   178"," ,0,1227,+","   102"," ,0,0405, ","  27.7"," ,0,0622, ","","","0.0","0,0927","-5.6","0,1009","-5.6","0,1009","-9.4","0,1116","-9.4","0,1116","-0.6","0,0513","-8.9","0,0408","-8.9","0,0408","-8.9","0,0408","-8.9","0,0408","    3327.7","7","    3327.7","0","    368.8"," ,0","      715"," ,0","","","","","      1.51","0"
"USC00391539","1965","43.5771","-101.019","717.8","CEDAR BUTTE, SD US","    441.8","","     441.8","0","        80","0","        42","0","         1","0","       60","","        10","0","        24","0","       145","0","        45","0","       150","0","        35","0","","","        48"," ","  -23.9","0,0223, ","   178"," ,0,1211, ","   178"," ,0,1211, ","  71.1"," ,0,0514, ","   42.8","0,0813,+","0.0","0,0916","-4.4","0,0926","-4.4","0,0926","-7.2","0,1112","-10.0","0,1117","-2.8","0,0427","-2.8","0,0427","-8.9","0,0330","-8.9","0,0330","-8.9","0,0330","","","","","    441.7"," ,0","      710"," ,0","      9.22","0","     16.56","0","      1.88","0"
"USC00391539","1966","43.5771","-101.019","717.8","CEDAR BUTTE, SD US","","","","","","","","","","","       77","","        19","0","","","","","","","","","","","","","        26"," ","","","   203"," ,0,0221,+","   152"," ,0,0209, ","","","","","","","","","","","","","","","","","","","","","","","","","    3755.9","9","    3755.9"," ","","","     1027"," ,0","","","","","",""
"USC00391539","1967","43.5771","-101.019","717.8","CEDAR BUTTE, SD US","    408.0","","     408.0","0","        71","0","        40","0","         3","0","       57","","        12","0","        14","0","       149","0","        42","0","       140","0","        46","0","","","        37"," ","  -30.0","0,1231, ","   178"," ,0,1222,+","   127"," ,0,1217,+","  64.0"," ,0,0612, ","   40.0","0,0721, ","-2.2","0,0927","-2.2","0,0927","-4.4","0,1025","-9.4","0,1105","-9.4","0,1105","-0.6","0,0511","-4.4","0,0505","-4.4","0,0505","-6.7","0,0422","-10.6","0,0317","","","","","    414.4"," ,0","      725"," ,0","      9.36","0","     16.69","0","      2.03","0"
"USC00391539","1968","43.5771","-101.019","717.8","CEDAR BUTTE, SD US","","","","","        75","0","        39","0","         6","0","       59","","        15","0","        22","0","       132","0","        44","0","       149","0","        33","0","","","        24"," ","  -29.4","0,1230, ","   330"," ,0,1231,+","   203"," ,0,0403, ","  71.1"," ,0,0809, ","   40.6","0,0720, ","-1.7","0,1003","-3.9","0,1018","-4.4","0,1107","-8.3","0,1111","-10.6","0,1119","-1.1","0,0520","-2.8","0,0424","-10.6","0,0405","-10.6","0,0405","-10.6","0,0405","","","","","    543.0"," ,0","     1031"," ,0","      9.08","0","     16.44","0","      1.72","0"
"USC00391539","1969","43.5771","-101.019","717.8","CEDAR BUTTE, SD US","","","","","        79","0","        37","0","         1","0","       92","","        14","0","        13","0","       150","0","        52","0","       159","0","        51","0","","","        31"," ","  -26.1","0,0125, ","   254"," ,0,0104,+","   102"," ,0,0220, ","  27.9"," ,0,0720, ","   41.1","0,0816,+","-3.3","0,1012","-3.3","0,1012","-6.1","0,1014","-9.4","0,1027","-9.4","0,1027","0.0","0,0517","-3.9","0,0405","-9.4","0,0330","-9.4","0,0330","-9.4","0,0330","","","","","    354.5"," ,0","      727"," ,0","      9.48","0","     16.72","0","      2.23","0"
"USC00391539","1970","43.5771","-101.019","717.8","CEDAR BUTTE, SD US","","","","","        66","0","        33","0","         4","0","       77","","        16","0","","","","","","","","","","","","","        30"," ","","","   254"," ,0,0412, ","   305"," ,0,0412, ","  38.9"," ,0,0615, ","","","","","","","","","","","","","","","","","","","","","","","","","","","    416.0"," ,0","     1533"," ,0","","","","","",""
"USC00391539","1971","43.5771","-101.019","717.8","CEDAR BUTTE, SD US","","","","","        68","0","        34","0","         2","0","       73","","        16","0","        18","0","       151","0","        45","0","       145","0","        51","0","","","        26"," ","  -28.9","0,0207, ","   229"," ,0,0221, ","   203"," ,0,0219, "," 108.0"," ,0,0420, ","   41.1","0,0823,+","-0.6","0,1009","-5.0","0,1029","-5.0","0,1029","-7.8","0,1031","-12.2","0,1106","0.0","0,0502","-2.2","0,0414","-6.7","0,0405","-6.7","0,0405","-11.1","0,0323","    3686.7","7","    3686.7","0","    536.4"," ,0","     1377"," ,0","      8.99","0","     16.20","0","      1.78","0"
"USC00391539","1972","43.5771","-101.019","717.8","CEDAR BUTTE, SD US","","","","","        87","0","        45","0","         0","0","       56","","         8","0","","","","","","","","","","","","","        20"," ","","","   127"," ,0,1116,+","   140"," ,0,1112, ","  21.6"," ,0,0501, ","","","","","","","","","","","","","","","","","","","","","","","","","","","    451.0"," ,0","      629"," ,0","","","","","",""
"USC00391539","1973","43.5771","-101.019","717.8","CEDAR BUTTE, SD US","","","","","        63","0","        40","0","         5","0","       45","","         8","0","","","","","","","","","","","","","        24"," ","","","   127"," ,0,1104,+","    76"," ,0,1103,+","  66.5"," ,0,0527, ","","","","","","","","","","","","","","","","","","","","","","","","","","","    527.8"," ,0","      489"," ,0","","","","","",""
"USC00391539","1974","43.5771","-101.019","717.8","CEDAR BUTTE, SD US","","","","","        55","0","        26","0","         0","0","       24","","         5","0","","","","","","","","","","","","","        24"," ","","","    51"," ,0,0311, ","    51"," ,0,0311, ","  19.6"," ,0,0718, ","","","","","","","","","","","","","","","","","","","","","","","","","","","    255.9"," ,0","      252"," ,0","","","","","",""
"USC00391539","1975","43.5771","-101.019","717.8","CEDAR BUTTE, SD US","","","","","        75","0","        37","0","         2","0","       74","","        23","0","","","","","","","","","","","","","        26"," ","","","   356"," ,0,0329,+","   356"," ,0,0327, ","  31.5"," ,0,0731, ","","","","","","","","","","","","","","","","","","","","","","","","","","","    409.0"," ,0","     1443"," ,0","","","","","",""
"USC00391539","1976","43.5771","-101.019","717.8","CEDAR BUTTE, SD US","","","","","        55","0","        33","0","         2","0","       56","","        10","0","","","","","","","","","","","","","        18"," ","","","   127"," ,0,0205,+","   127"," ,0,0101, ","  33.8"," ,0,0703, ","","","","","","","","","","","","","","","","","","","","","","","","","","","    254.1"," ,0","      646"," ,0","","","","","",""
"USC00391539","1977","43.5771","-101.019","717.8","CEDAR BUTTE, SD US","","","","","        83","0","        52","0","         6","0","       97","","        27","0","        28","0","       128","0","        47","0","       163","0","        38","0","","","        36"," ","  -28.3","0,0128, ","   203"," ,0,1231,+","   152"," ,0,0329,+","  39.6"," ,0,1001, ","   42.2","0,0718,+","-0.6","0,1011","-2.2","0,1107","-5.6","0,1109","-7.8","0,1110","-11.7","0,1120","-2.2","0,0405","-2.2","0,0405","-8.3","0,0331","-8.3","0,0331","-11.7","0,0321","    3477.9","9","    3477.9"," ","    610.3"," ,0","     1653"," ,0","     10.04","0","     16.84","0","      3.25","0"
"USC00391539","1978","43.5771","-101.019","717.8","CEDAR BUTTE, SD US","","","","","","","","","","","","","","","","","","","","","","","","","","","        14"," ","","","","","","","","","","","","","","","","","","","","","","","","","","","","","","","","","","","","","","","","","","","",""
"USC00391539","1979","43.5771","-101.019","717.8","CEDAR BUTTE, SD US","","","","","        62","0","        37","0","         7","0","       71","","        13","0","        35","0","       150","0","        47","0","       145","0","        36","0","","","        30"," ","  -29.4","0,0216,+","   152"," ,0,0213,+","   127"," ,0,0112, ","  75.9"," ,0,0619, ","   42.2","0,0613, ","-2.2","0,1010","-2.2","0,1010","-5.0","0,1023","-7.8","0,1106","-9.4","0,1108","-2.8","0,0511","-2.8","0,0511","-5.6","0,0429","-8.9","0,0406","-8.9","0,0406","","","","","    540.8"," ,0","      690"," ,0","      8.46","0","     15.56","0","      1.34","0"
"USC00391539","1980","43.5771","-101.019","717.8","CEDAR BUTTE, SD US","","","","","","","","","","","       37","","        15","0","","","","","","","","","","","","","        26"," ","","","   279"," ,0,0329, ","   229"," ,0,0328, ","","","","","","","","","","","","","","","","","","","","","","","","","","","","","","","     1079"," ,0","","","","","",""
"USC00391539","1981","43.5771","-101.019","717.8","CEDAR BUTTE, SD US","","","","","        72","0","        47","0","         2","0","","","","","","","","","","","","","","","","","        40"," ","","","","","","","  37.6"," ,0,0702, ","","","","","","","","","","","","","","","","","","","","","","","","","","","    433.2"," ,0","","","","","","","",""
"USC00391539","1982","43.5771","-101.019","717.8","CEDAR BUTTE, SD US","","","","","        91","0","        55","0","         5","0","       82","","        20","0","","","","","","","","","","","         9"," ","        24"," ","","","   305"," ,0,0123,+","   127"," ,0,0319, ","  46.7"," ,0,0513, ","","","","","","","","","","","","","","","","","","","","","","","","","","","    628.2"," ,0","     1051"," ,0","","","","","",""
"USC00391539","1983","43.5771","-101.019","717.8","CEDAR BUTTE, SD US","","","","","        85","0","        44","0","         2","0","       61","","        16","0","","","","","","","","","","","        23"," ","        12"," ","","","   330"," ,0,1229,+","   152"," ,0,1108, ","  71.9"," ,0,0501, ","","","","","","","","","","","","","","","","","","","","","","","    3516.7","7","    3516.7","0","    487.8"," ,0","     1140"," ,0","","","","","",""
"USC00391539","1984","43.5771","-101.019","717.8","CEDAR BUTTE, SD US","","","","","        80","0","        39","0","         3","0","","","        17","0","","","","","","","","","","","        28"," ","        40"," ","","","","","   152"," ,0,0316, ","  35.6"," ,0,0726, ","","","","","","","","","","","","","","","","","","","","","","","","","","","    438.5"," ,0","      937"," ,0","","","","","",""
"USC00391539","1985","43.5771","-101.019","717.8","CEDAR BUTTE, SD US","","","","","        77","0","        44","0","         0","0","","","        16","0","","","","","","","","","","","        13"," ","        21"," ","","","","","   229"," ,0,1108, ","  22.9"," ,0,1108, ","","","","","","","","","","","","","","","","","","","","","","","","","","","    387.8"," ,0","     1469"," ,0","","","","","",""
"USC00391539","1986","43.5771","-101.019","717.8","CEDAR BUTTE, SD US","","","","","        78","0","        45","0","         6","0","       70","","         8","0","","","","","","","","","","","        31"," ","        39"," ","","","   457"," ,0,0318, ","   406"," ,0,0317, ","  50.3"," ,0,0317, ","","","","","","","","","","","","","","","","","","","","","","","","","","","    585.3"," ,0","      752"," ,0","","","","","",""
"USC00391539","1987","43.5771","-101.019","717.8","CEDAR BUTTE, SD US","","","","","        64","0","        42","0","         2","0","       38","","        17","0","","","","","        21","0","       169","0","        51","0","        22"," ","        27"," ","","","   381"," ,0,0228, ","   203"," ,0,0324, ","  38.4"," ,0,0503, ","   41.1","0,0731, ","","","","","","","","","","","","","","","","","","","","","","","","","    458.5"," ,0","     1204"," ,0","","","     19.04","0","",""
"USC00391539","1988","43.5771","-101.019","717.8","CEDAR BUTTE, SD US","","","","","        57","0","        33","0","         3","0","       62","","        13","0","","","","","","","","","","","         4"," ","        19"," ","","","   178"," ,0,1226, ","   102"," ,0,1222,+","  77.5"," ,0,0630, ","","","","","","","","","","","","","","","","","","","","","","","","","","","    443.8"," ,0","      803"," ,0","","","","","",""
"USC00391539","1989","43.5771","-101.019","717.8","CEDAR BUTTE, SD US","    597.1","","     597.1","0","        68","0","        41","0","         3","0","       70","","        13","0","        30","0","       154","0","        42","0","       168","0","        65","0","        15"," ","        33"," ","  -34.4","0,1222, ","   254"," ,0,0306,+","   152"," ,0,0302, ","  42.4"," ,0,0713, ","   44.4","0,0705, ","-0.6","0,0911","-4.4","0,1017","-4.4","0,1017","-7.2","0,1018","-10.6","0,1115","-3.3","0,0506","-3.3","0,0506","-5.6","0,0411","-8.9","0,0410","-8.9","0,0410","    3503.0","0","    3503.0","0","    406.2"," ,0","     1000"," ,0","      9.46","0","     17.59","0","      1.34","0"
"USC00391539","1990","43.5771","-101.019","717.8","CEDAR BUTTE, SD US","    566.3","","     566.3","0","        67","0","        42","0","         5","0","       32","","        10","0","        13","0","       154","0","        22","0","       159","0","        59","0","        14"," ","        43"," ","  -33.3","0,1230,+","   127"," ,0,0216,+","   127"," ,0,0307, ","  95.8"," ,0,0616, ","   40.6","0,0903,+","0.0","0,1007","-3.3","0,1009","-4.4","0,1018","-6.7","0,1104","-10.0","0,1107","0.0","0,0512","-2.2","0,0511","-4.4","0,0430","-7.2","0,0417","-10.0","0,0412","    3395.1","1","    3395.1","0","    502.0"," ,0","      579"," ,0","     10.70","0","     18.58","0","      2.82","0"
"USC00391539","1991","43.5771","-101.019","717.8","CEDAR BUTTE, SD US","    639.7","","     639.7","0","        62","0","        42","0","         6","0","       45","","        10","0","        14","0","       155","0","        33","0","       167","0","        52","0","        30"," ","        36"," ","  -23.3","0,0107,+","   279"," ,0,0218, ","   203"," ,0,0218, ","  67.3"," ,0,0614, ","   42.2","0,0825, ","-2.2","0,0918","-2.2","0,0918","-5.6","0,0919","-10.0","0,1028","-10.0","0,1028","-2.2","0,0507","-2.2","0,0507","-6.7","0,0329","-6.7","0,0329","-10.6","0,0314","    3328.2","2","    3328.2","0","    593.9"," ,0","      791"," ,0","     10.58","0","     18.01","0","      3.15","0"
"USC00391539","1992","43.5771","-101.019","717.8","CEDAR BUTTE, SD US","    309.1","","     309.1","0","        63","0","        34","0","         1","0","       47","","        12","0","         6","0","       155","0","        26","0","       163","0","        29","0","        47"," ","        34"," ","  -25.6","0,0115, ","   178"," ,0,0109,+","   203"," ,0,0107, ","  41.1"," ,0,0705, ","   36.7","0,0519, ","0.0","0,0928","-2.8","0,1013","-5.0","0,1015","-6.7","0,1016","-11.1","0,1105","-0.6","0,0527","-4.4","0,0426","-4.4","0,0426","-6.7","0,0412","-10.0","0,0401","    3221.9","9","    3221.9","0","    398.3"," ,0","      792"," ,0","      9.86","0","     17.17","0","      2.56","0"
"USC00391539","1993","43.5771","-101.019","717.8","CEDAR BUTTE, SD US","    261.3","","     261.3","0","        90","0","        57","0","         5","0","       79","","        15","0","        20","0","       163","0","        51","0","       143","0","        11","0","        41"," ","         6"," ","  -29.4","0,0217, ","   305"," ,0,0226,+","   178"," ,0,0109, ","  38.9"," ,0,0607, ","   37.8","0,0824, ","-2.8","0,0914","-2.8","0,0914","-6.7","0,1009","-6.7","0,1009","-10.6","0,1030","-2.8","0,0421","-2.8","0,0421","-4.4","0,0411","-13.9","0,0317","-13.9","0,0317","    3949.8","8","    3949.8","0","    623.6"," ,0","      997"," ,0","      8.23","0","     15.16","0","      1.30","0"
"USC00391539","1994","43.5771","-101.019","717.8","CEDAR BUTTE, SD US","    443.3","","     443.3","0","        69","0","        45","0","         5","0","       64","","        13","0","        17","0","       149","0","        45","0","       164","0","        35","0","        31"," ","         9"," ","  -25.0","0,0208, ","   203"," ,0,1216,+","   127"," ,0,1214,+"," 103.6"," ,0,0621, ","   38.9","0,0822, ","-0.6","0,1023","-3.9","0,1024","-4.4","0,1025","-12.8","0,1119","-12.8","0,1119","-5.6","0,0430","-5.6","0,0430","-5.6","0,0430","-8.3","0,0405","-11.7","0,0328","    3589.5","5","    3589.5","0","    609.2"," ,0","      908"," ,0","      9.76","0","     17.18","0","      2.33","0"
"USC00391539","1995","43.5771","-101.019","717.8","CEDAR BUTTE, SD US","","","","","","","","","","","","","","","","","","","","","","","","","        29"," ","        12"," ","","","","","","","","","","","","","","","","","","","","","","","","","","","","","","","","","","","","","","","","","","","",""
"USC00391539","1996","43.5771","-101.019","717.8","CEDAR BUTTE, SD US","","","","","        70","0","        39","0","         3","0","","","","","        36","0","       164","0","        56","0","       138","0","        44","0","        26"," ","        25"," ","  -33.9","0,0202, ","","","","","  52.6"," ,0,0306, ","   38.9","0,0905, ","-0.6","0,1003","-3.3","0,1018","-5.0","0,1022","-7.2","0,1030","-10.0","0,1116","0.0","0,0505","-4.4","0,0430","-4.4","0,0430","-10.0","0,0405","-10.0","0,0405","","","","","    504.7"," ,0","","","      7.62","0","     14.98","0","      0.27","0"
"USC00391539","1997","43.5771","-101.019","717.8","CEDAR BUTTE, SD US","    458.5","","     458.5","0","        60","0","        45","0","         5","0","","","        13","0","        14","0","       159","0","        44","0","       151","0","        40","0","        18"," ","        22"," ","  -28.3","0,0127, ","","","   203"," ,0,0406, ","  71.9"," ,0,0603, ","   38.9","0,0716, ","-1.1","0,1013","-5.0","0,1021","-5.0","0,1021","-7.2","0,1024","-13.9","0,1026","-0.6","0,0520","-3.9","0,0416","-8.9","0,0413","-8.9","0,0413","-8.9","0,0413","    4050.7","7","    4050.7","0","    635.6"," ,0","     1015"," ,0","      9.30","0","     16.34","0","      2.24","0"
"USC00391539","1998","43.5771","-101.019","717.8","CEDAR BUTTE, SD US","","","","","","","","","","","","","","","","","","","","","","","","","        10"," ","        14"," ","","","","","","","","","","","","","","","","","","","","","","","","","","","","","","","","","","","","","","","","","","","",""
"USC00391539","1999","43.5771","-101.019","717.8","CEDAR BUTTE, SD US","    429.3","","     429.3","0","        95","0","        47","0","         4","0","","","        12","0","         6","0","       141","0","        19","0","       155","0","        41","0","        14"," ","        16"," ","  -27.2","0,0104, ","","","   114"," ,0,1119, ","  38.1"," ,0,0829, ","   40.0","0,0828,+","-7.2","0,1002","-7.2","0,1002","-7.2","0,1002","-7.2","0,1002","-11.1","0,1209","0.0","0,0427","-7.2","0,0417","-7.2","0,0417","-7.2","0,0417","-10.0","0,0307","    3226.2","2","    3226.2","0","    553.1"," ,0","      760"," ,0","     10.50","0","     17.89","0","      3.12","0"
"USC00391539","2000","43.5771","-101.019","717.8","CEDAR BUTTE, SD US","","","","","        82","0","        39","0","         3","0","","","        10","0","","","","","        48","0","       154","0","        59","0","         7"," ","        28"," ","","","","","   127"," ,0,1112, ","  40.6"," ,0,0419, ","   41.7","0,0609, ","","","","","","","","","","","","","","","","","","","","","    3064.8","8","    3064.8","0","    400.6"," ,0","      693"," ,0","","","     16.88","0","",""
"USC00391539","2001","43.5771","-101.019","717.8","CEDAR BUTTE, SD US","    534.6","","     534.6","0","        86","0","        43","0","         3","0","       64","","        14","0","        12","0","       144","0","        39","0","       154","0","        52","0","        14"," ","        25"," ","  -24.4","0,0210,+","   356"," ,0,0423, ","   343"," ,0,0423, ","  52.8"," ,0,0530, ","   41.1","0,0905, ","-3.9","0,1006","-3.9","0,1006","-5.6","0,1108","-8.9","0,1119","-8.9","0,1119","-8.3","0,0423","-8.3","0,0423","-8.3","0,0423","-8.3","0,0423","-11.1","0,0326","","","","","    532.3"," ,0","     1332"," ,0","      9.94","0","     17.06","0","      2.83","0"
"USC00391539","2002","43.5771","-101.019","717.8","CEDAR BUTTE, SD US","","","","","","","","","","","","","","","","","","","","","","","","","        11"," ","        21"," ","","","","","","","","","","","","","","","","","","","","","","","","","","","","","","","","","","","","","","","","","","","",""
"USC00391539","2003","43.5771","-101.019","717.8","CEDAR BUTTE, SD US","    619.2","","     619.2","0","        84","0","        45","0","         2","0","       62","","        16","0","        17","0","       140","0","        39","0","       158","0","        61","0","        13"," ","        16"," ","  -27.8","0,0123, ","   178"," ,0,1124,+","   140"," ,0,1123, ","  48.5"," ,0,0705, ","   43.3","0,0726,+","-0.6","0,1001","-4.4","0,1026","-4.4","0,1026","-7.8","0,1104","-11.1","0,1105","-1.7","0,0520","-3.3","0,0408","-8.3","0,0405","-8.3","0,0405","-10.6","0,0329","","","","","    433.2"," ,0","     1119"," ,0","      9.79","0","     17.16","0","      2.41","0"
"USC00391539","2004","43.5771","-101.019","717.8","CEDAR BUTTE, SD US","","","","","","","","","","","","","","","","","","","","","","","","","        13"," ","        21"," ","","","","","","","","","","","","","","","","","","","","","","","","","","","","","","","","","","","","","","","","","","","",""
"USC00391539","2005","43.5771","-101.019","717.8","CEDAR BUTTE, SD US","    587.6","","     587.6","0","        82","0","        40","0","         3","0","","","        15","0","        18","0","       148","0","        34","0","       156","0","        58","0","        11"," ","        23"," ","  -26.7","0,0116, ","","","   269"," ,0,0105, ","  51.8"," ,0,0422, ","   41.7","0,0724, ","-0.6","0,1006","-8.3","0,1007","-8.3","0,1007","-8.3","0,1007","-8.9","0,1024","0.0","0,0515","-5.6","0,0503","-5.6","0,0503","-7.2","0,0325","-10.6","0,0320","","","","","    516.8"," ,0","     1215"," ,0","     10.25","0","     17.55","0","      2.94","0"
"USC00391539","2006","43.5771","-101.019","717.8","CEDAR BUTTE, SD US","","","","","","","","","","","","","","","","","","","","","","","","","         4"," ","        13"," ","","","","","","","","","","","","","","","","","","","","","","","","","","","","","","","","","","","","","","","","","","","",""
"USC00391539","2007","43.5771","-101.019","717.8","CEDAR BUTTE, SD US","","","","","","","","","","","","","","","","","","","","","","","","","        17"," ","         7"," ","","","","","","","","","","","","","","","","","","","","","","","","","","","","","","","    3575.3","3","    3575.3","0","","","","","","","","","",""
"USC00391539","2008","43.5771","-101.019","717.8","CEDAR BUTTE, SD US","    427.4","","     427.4","0","        98","0","        44","0","         5","0","","","        14","0","        22","0","       165","0","        49","0","       155","0","        34","0","         9"," ","        21"," ","  -26.7","0,1215, ","","","   218"," ,0,1107, ","  50.5"," ,0,0523, ","   38.9","0,0803,+","-1.7","0,1013","-7.8","0,1027","-7.8","0,1027","-7.8","0,1027","-10.6","0,1110","-1.7","0,0511","-2.8","0,0503","-4.4","0,0429","-8.9","0,0408","-8.9","0,0408","","","","","    531.0"," ,0","     1047"," ,0","      8.49","0","     15.52","0","      1.47","0"
"USC00391539","2009","43.5771","-101.019","717.8","CEDAR BUTTE, SD US","    328.9","","     328.9","0","       101","0","        52","0","         3","0","       50","","        18","0","        21","0","       170","0","        56","0","       138","0","        21","0","         1"," ","         6"," ","  -24.4","0,0115, ","   406"," ,0,1229,+","   305"," ,0,0405, ","  35.1"," ,0,0713, ","   37.8","0,0520, ","-0.6","0,1003","-3.3","0,1005","-8.3","0,1010","-8.3","0,1010","-9.4","0,1128","-0.6","0,0517","-2.2","0,0411","-14.4","0,0407","-14.4","0,0407","-14.4","0,0407","    3953.9","9","    3953.9","0","    520.7"," ,0","     1565"," ,0","      7.98","0","     14.80","0","      1.16","0"
"USC00391539","2010","43.5771","-101.019","717.8","CEDAR BUTTE, SD US","    530.4","","     530.4","0","        92","0","        49","0","         5","0","       66","","        11","0","        16","0","       152","0","        59","0","       157","0","        42","0","         8"," ","","","  -28.3","0,0108, ","   356"," ,0,0110,+","   152"," ,0,1231,+","  38.1"," ,0,0309, ","   41.1","0,0828, ","0.0","0,1002","-3.3","0,1028","-6.7","0,1113","-6.7","0,1113","-12.2","0,1120","0.0","0,0513","-3.3","0,0508","-6.1","0,0325","-6.7","0,0321","-9.4","0,0320","    4149.8","8","    4149.8","0","    560.4"," ,0","      917"," ,0","      8.99","0","     15.76","0","      2.23","0"
"USC00391539","2011","43.5771","-101.019","717.8","CEDAR BUTTE, SD US","    435.6","","     435.6","K","        95","K","        55","K","         4","K","","","","","        25","K","       153","K","        53","K","       138","K","        31","K","","","","","  -26.7","K,0202, ","","","","","  49.5"," ,K,0621, ","   39.4","K,0802, ","-0.6","K,0922","-5.6","7,1020","-5.6","7,1020","-6.7","7,1110","-8.9","7,1116","-1.1","K,0503","-3.9","K,0420","-5.6","K,0416","-11.7","K,0328","-11.7","K,0328","    4152.3","3","    4152.3","K","    600.5"," ,K","","","      8.50","K","     15.31","K","      1.68","K"
"USC00391539","2012","43.5771","-101.019","717.8","CEDAR BUTTE, SD US","","","","","        64","7","        33","7","         2","7","","","","","","","","","","","","","","","","","","","","","","","","","  34.3"," ,7,0415, ","","","","","","","","","","","","","","","","","","","","","","","    3101.8","8","    3101.8","7","    358.8"," ,7","","","","","","","",""
"USC00391539","2013","43.5771","-101.019","717.8","CEDAR BUTTE, SD US","","","","","        84","7","        45","7","         4","7","       59","","        25","7","","","","","","","","","","","","","","","","","   305"," ,7,0411, ","   178"," ,7,0422,+","  46.7"," ,7,1005, ","","","","","","","","","","","","","","","","","","","","","","","","","","","    541.7"," ,7","     1632"," ,7","","","","","",""
"USC00391539","2014","43.5771","-101.019","717.8","CEDAR BUTTE, SD US","    378.4","","     378.4","7","        87","7","        45","7","         6","7","       54","","        17","7","        29","7","       158","7","        55","7","       155","7","        24","7","","","","","  -28.3","7,0302, ","   229"," ,7,1120,+","   152"," ,7,1115, ","  49.3"," ,7,0828, ","   40.0","7,0725, ","-2.2","7,1004","-2.2","7,1004","-5.6","7,1029","-7.8","7,1031","-13.9","7,1111","-2.2","7,0515","-2.2","7,0515","-7.8","7,0415","-7.8","7,0415","-12.2","7,0402","","","","","    521.2"," ,7","     1150"," ,7","      8.35","7","     15.55","7","      1.15","7"
"USC00391539","2015","43.5771","-101.019","717.8","CEDAR BUTTE, SD US","","","","","        76","7","        48","7","         5","7","       61","","        12","7","","","","","","","","","","","","","","","","","   203"," ,7,1202, ","   178"," ,7,1215, ","  61.2"," ,7,0510, ","","","","","","","","","","","","","","","","","","","","","","","    3594.0","0","    3594.0","7","    567.0"," ,7","     1203"," ,7","","","","","",""
