"STATION","DATE","LATITUDE","LONGITUDE","ELEVATION","NAME","CDSD","CDSD_ATTRIBUTES","CLDD","CLDD_ATTRIBUTES","DP01","DP01_ATTRIBUTES","DP10","DP10_ATTRIBUTES","DP1X","DP1X_ATTRIBUTES","DSND","DSND_ATTRIBUTES","DSNW","DSNW_ATTRIBUTES","DT00","DT00_ATTRIBUTES","DT32","DT32_ATTRIBUTES","DX32","DX32_ATTRIBUTES","DX70","DX70_ATTRIBUTES","DX90","DX90_ATTRIBUTES","DYFG","DYFG_ATTRIBUTES","DYTS","DYTS_ATTRIBUTES","EMNT","EMNT_ATTRIBUTES","EMSD","EMSD_ATTRIBUTES","EMSN","EMSN_ATTRIBUTES","EMXP","EMXP_ATTRIBUTES","EMXT","EMXT_ATTRIBUTES","FZF0","FZF0_ATTRIBUTES","FZF1","FZF1_ATTRIBUTES","FZF2","FZF2_ATTRIBUTES","FZF3","FZF3_ATTRIBUTES","FZF4","FZF4_ATTRIBUTES","FZF5","FZF5_ATTRIBUTES","FZF6","FZF6_ATTRIBUTES","FZF7","FZF7_ATTRIBUTES","FZF8","FZF8_ATTRIBUTES","FZF9","FZF9_ATTRIBUTES","HDSD","HDSD_ATTRIBUTES","HTDD","HTDD_ATTRIBUTES","PRCP","PRCP_ATTRIBUTES","SNOW","SNOW_ATTRIBUTES","TAVG","TAVG_ATTRIBUTES","TMAX","TMAX_ATTRIBUTES","TMIN","TMIN_ATTRIBUTES"
"USC00404666","2009","36.3471","-82.3459","487.1","JOHNSON CITY 2, TN US","","","","","","","","","","","","","","","","","","","","","","","","","        28"," ","        27"," ","","","","","","","","","","","","","","","","","","","","","","","","","","","","","","","","","","","","","","","","","","","",""
"USC00404666","2010","36.3471","-82.3459","487.1","JOHNSON CITY 2, TN US","","","","","","","","","","","       29","","         7","0","","","","","","","","","","","        34"," ","        21"," ","","","   127"," ,0,0131,+","   117"," ,0,0130, ","","","","","","","","","","","","","","","","","","","","","","","","","    2612.7","7","    2612.7","0","   1019.2"," ,0","      612"," ,0","","","","","",""
"USC00404666","2011","36.3471","-82.3459","487.1","JOHNSON CITY 2, TN US","","","","","","","","","","","","","","","","","","","","","","","","","        11"," ","        33"," ","","","","","","","","","","","","","","","","","","","","","","","","","","","","","","","","","","","","","","","","","","","",""
"USC00404666","2012","36.3471","-82.3459","487.1","JOHNSON CITY 2, TN US","","","","","","","","","","","","","","","","","","","","","","","","","        31"," ","        23"," ","","","","","","","","","","","","","","","","","","","","","","","","","","","","","","","","","","","","","","","","","","","",""
"USC00404666","2013","36.3471","-82.3459","487.1","JOHNSON CITY 2, TN US","","","","","","","","","","","","","","","","","","","","","","","","","        18"," ","        10"," ","","","","","","","","","","","","","","","","","","","","","","","","","","","","","","","","","","","","","","","","","","","",""
"USC00404666","2016","36.3471","-82.3459","487.1","JOHNSON CITY 2, TN US","","","","","","","","","","","        8","","         3","7","","","","","","","","","","","","","","","","","    76"," ,7,0214,+","    66"," ,7,0214,+","","","","","","","","","","","","","","","","","","","","","","","","","","","","","","","      201"," ,7","","","","","",""
"USC00404666","2017","36.3471","-82.3459","487.1","JOHNSON CITY 2, TN US","    662.0","","     662.0","7","       148","7","       114","7","        16","7","        3","","         2","7","         0","7","        92","7","         2","7","       216","7","        16","7","","","","","  -13.3","7,0109, ","   102"," ,7,0107, ","   114"," ,7,0107, ","  59.7"," ,7,0423, ","   35.0","7,0722, ","0.0","7,1026","-2.2","7,1115","-5.0","7,1120","-7.8","7,1213","-10.6","7,1228","-1.1","7,0408","-2.8","7,0320","-6.1","7,0317","-9.4","7,0316","-9.4","7,0316","    1763.3","3","    1763.3","7","   1576.7"," ,7","      155"," ,7","     14.90","7","     21.58","7","      8.22","7"
