"STATION","DATE","LATITUDE","LONGITUDE","ELEVATION","NAME","CDSD","CDSD_ATTRIBUTES","CLDD","CLDD_ATTRIBUTES","DP01","DP01_ATTRIBUTES","DP10","DP10_ATTRIBUTES","DP1X","DP1X_ATTRIBUTES","DSND","DSND_ATTRIBUTES","DSNW","DSNW_ATTRIBUTES","DT00","DT00_ATTRIBUTES","DT32","DT32_ATTRIBUTES","DX32","DX32_ATTRIBUTES","DX70","DX70_ATTRIBUTES","DX90","DX90_ATTRIBUTES","DYFG","DYFG_ATTRIBUTES","DYTS","DYTS_ATTRIBUTES","EMNT","EMNT_ATTRIBUTES","EMSD","EMSD_ATTRIBUTES","EMSN","EMSN_ATTRIBUTES","EMXP","EMXP_ATTRIBUTES","EMXT","EMXT_ATTRIBUTES","FZF0","FZF0_ATTRIBUTES","FZF1","FZF1_ATTRIBUTES","FZF2","FZF2_ATTRIBUTES","FZF3","FZF3_ATTRIBUTES","FZF4","FZF4_ATTRIBUTES","FZF5","FZF5_ATTRIBUTES","FZF6","FZF6_ATTRIBUTES","FZF7","FZF7_ATTRIBUTES","FZF8","FZF8_ATTRIBUTES","FZF9","FZF9_ATTRIBUTES","HDSD","HDSD_ATTRIBUTES","HTDD","HTDD_ATTRIBUTES","PRCP","PRCP_ATTRIBUTES","SNOW","SNOW_ATTRIBUTES","TAVG","TAVG_ATTRIBUTES","TMAX","TMAX_ATTRIBUTES","TMIN","TMIN_ATTRIBUTES"
"USC00308833","1977","42.05","-76.05","454.2","VESTAL, NY US","","","","","","","","","","","","","","","","","","","","","","","","","","","        16"," ","","","","","","","","","","","","","","","","","","","","","","","","","","","","","","","","","","","","","","","","","","","",""
"USC00308833","1978","42.05","-76.05","454.2","VESTAL, NY US","    198.3","","     198.3","0","       146","0","        78","0","         8","0","      100","","        21","0","         7","0","       176","0","        78","0","       102","0","         2","0","","","        19"," ","  -22.8","0,0206,+","   660"," ,0,0122, ","   300"," ,0,0207, ","  47.5"," ,0,0109, ","   32.2","0,0724,+","-0.6","0,0929","-4.4","0,1017","-4.4","0,1017","-6.7","0,1122","-10.6","0,1126","-2.2","0,0504","-2.2","0,0504","-4.4","0,0501","-7.8","0,0403","-8.9","0,0318","","","","","   1032.5"," ,0","     2065"," ,0","      6.64","0","     11.95","0","      1.32","0"
"USC00308833","1979","42.05","-76.05","454.2","VESTAL, NY US","","","","","","","","","","","       75","","        12","0","","","","","","","","","","","","","        17"," ","","","   279"," ,0,0220,+","   117"," ,0,0208, ","","","","","","","","","","","","","","","","","","","","","","","","","    4176.7","7","    4176.7","0","","","      964"," ,0","","","","","",""
"USC00308833","1980","42.05","-76.05","454.2","VESTAL, NY US","","","","","       154","0","        66","0","         6","0","       64","","        14","0","","","","","","","","","","","","","        27"," ","","","   279"," ,0,1118, ","   269"," ,0,1118, ","  56.1"," ,0,0410, ","","","","","","","","","","","","","","","","","","","","","","","","","","","    840.7"," ,0","     1371"," ,0","","","","","",""
"USC00308833","1981","42.05","-76.05","454.2","VESTAL, NY US","    169.3","","     169.3","0","       168","0","        82","0","         3","0","       69","","        13","0","        12","0","       153","0","        57","0","       108","0","         0","0","","","        20"," ","  -25.0","0,0114,+","   254"," ,0,0124, ","   122"," ,0,0209, ","  41.7"," ,0,1028, ","   31.1","0,0710,+","-0.6","0,0930","-2.2","0,1012","-6.7","0,1110","-6.7","0,1110","-8.9","0,1210","-0.6","0,0518","-5.6","0,0422","-5.6","0,0422","-8.3","0,0322","-10.0","0,0321","","","","","    873.0"," ,0","     1019"," ,0","      7.49","0","     12.59","0","      2.40","0"
"USC00308833","1982","42.05","-76.05","454.2","VESTAL, NY US","    132.7","","     132.7","0","       156","0","        88","0","         5","0","","","        20","0","        12","0","       149","0","        60","0","       116","0","         0","0","        81"," ","        15"," ","  -25.0","0,0118, ","","","   155"," ,0,1223, ","  53.3"," ,0,0801, ","   31.7","0,0719, ","0.0","0,1017","-2.8","0,1018","-5.0","0,1110","-6.7","0,1116","-11.1","0,1128","0.0","0,0429","-3.3","0,0415","-5.0","0,0410","-6.7","0,0409","-12.8","0,0408","    4340.3","3","    4340.3","0","    922.9"," ,0","     1600"," ,0","      7.46","0","     12.88","0","      2.05","0"
"USC00308833","1983","42.05","-76.05","454.2","VESTAL, NY US","    306.7","","     306.7","0","       144","0","        79","0","        11","0","       56","","        13","0","        12","0","       157","0","        50","0","       119","0","         6","0","        39"," ","        16"," ","  -21.1","0,1227,+","   457"," ,0,0116, ","   422"," ,0,0116, ","  78.0"," ,0,0416, ","   34.4","0,0911, ","0.0","0,1016","-3.9","0,1021","-4.4","0,1030","-7.8","0,1114","-11.1","0,1219","-2.2","0,0518","-2.2","0,0518","-4.4","0,0402","-6.7","0,0331","-9.4","0,0327","    3845.7","7","    3845.7","0","   1102.9"," ,0","     1411"," ,0","      8.09","0","     13.51","0","      2.68","0"
"USC00308833","1984","42.05","-76.05","454.2","VESTAL, NY US","    202.1","","     202.1","0","       158","0","        89","0","         9","0","       86","","        13","0","        12","0","       139","0","        53","0","       111","0","         0","0","        84"," ","        14"," ","  -24.4","0,0116, ","   559"," ,0,0331, ","   399"," ,0,0331, ","  46.5"," ,0,0406, ","   31.1","0,0611,+","-4.4","0,1006","-4.4","0,1006","-4.4","0,1006","-6.7","0,1108","-8.9","0,1120","0.0","0,0503","-2.8","0,0422","-4.4","0,0410","-6.7","0,0328","-8.9","0,0327","    4145.7","7","    4145.7","0","   1059.0"," ,0","     1631"," ,0","      7.79","0","     13.00","0","      2.57","0"
"USC00308833","1985","42.05","-76.05","454.2","VESTAL, NY US","","","","","","","","","","","","","","","","","","","","","","","","","        19"," ","        14"," ","","","","","","","","","","","","","","","","","","","","","","","","","","","","","","","","","","","","","","","","","","","",""
