"STATION","DATE","LATITUDE","LONGITUDE","ELEVATION","NAME","CDSD","CDSD_ATTRIBUTES","CLDD","CLDD_ATTRIBUTES","DT00","DT00_ATTRIBUTES","DT32","DT32_ATTRIBUTES","DX32","DX32_ATTRIBUTES","DX70","DX70_ATTRIBUTES","DX90","DX90_ATTRIBUTES","EMNT","EMNT_ATTRIBUTES","EMXT","EMXT_ATTRIBUTES","FZF0","FZF0_ATTRIBUTES","FZF1","FZF1_ATTRIBUTES","FZF2","FZF2_ATTRIBUTES","FZF3","FZF3_ATTRIBUTES","FZF4","FZF4_ATTRIBUTES","FZF5","FZF5_ATTRIBUTES","FZF6","FZF6_ATTRIBUTES","FZF7","FZF7_ATTRIBUTES","FZF8","FZF8_ATTRIBUTES","FZF9","FZF9_ATTRIBUTES","HDSD","HDSD_ATTRIBUTES","HTDD","HTDD_ATTRIBUTES","TAVG","TAVG_ATTRIBUTES","TMAX","TMAX_ATTRIBUTES","TMIN","TMIN_ATTRIBUTES"
"USC00503378","1942","64.55","-163.0167","3.7","GOLOVIN, AK US","      2.5","","       2.5","6","        90","6","       242","6","       147","6","        12","6","         0","6","  -37.2","6,1217, ","   26.7","6,0624,+","-0.6","6,0913","-3.3","6,0914","-5.6","6,1006","-7.8","6,1008","-11.7","6,1010","0.0","6,0603","-2.8","6,0524","-6.1","6,0523","-7.8","6,0522","-17.2","6,0508","    7153.6","6","    7153.6","6","     -2.35","6","      2.39","6","     -7.08","6"
"USC00503378","1943","64.55","-163.0167","3.7","GOLOVIN, AK US","      0.0","","       0.0","6","        92","6","       238","6","       147","6","         3","6","         0","6","  -40.0","6,0106, ","   24.4","6,0624,+","-1.7","6,0917","-2.2","6,0924","-5.6","6,0925","-6.7","6,0926","-10.6","6,1027","-1.1","6,0528","-2.2","6,0527","-6.1","6,0518","-15.0","6,0427","-15.0","6,0427","    8007.0","0","    8007.0","6","     -3.16","6","      1.62","6","     -7.93","6"
"USC00503378","1944","64.55","-163.0167","3.7","GOLOVIN, AK US","      0.6","","       0.6","6","        90","6","       241","6","       154","6","         9","6","         0","6","  -40.0","6,0126,+","   25.0","6,0622, ","-1.1","6,0904","-2.8","6,0905","-4.4","6,0909","-9.4","6,1020","-9.4","6,1020","-0.6","6,0611","-2.2","6,0607","-7.2","6,0510","-7.2","6,0510","-11.7","6,0507","    7724.2","2","    7724.2","6","     -3.52","6","      1.44","6","     -8.47","6"
