"STATION","DATE","LATITUDE","LONGITUDE","ELEVATION","NAME","DP01","DP01_ATTRIBUTES","DP10","DP10_ATTRIBUTES","DP1X","DP1X_ATTRIBUTES","DSNW","DSNW_ATTRIBUTES","EMSN","EMSN_ATTRIBUTES","EMXP","EMXP_ATTRIBUTES","PRCP","PRCP_ATTRIBUTES","SNOW","SNOW_ATTRIBUTES"
"USC00053570","1979","39.18333","-104.85","2097.9","GREENLAND, CO US","       101","0","        59","0","         4","0","        32","0","   419"," ,0,1120, ","  40.4"," ,0,1120, ","    603.1"," ,0","     3710"," ,0"
"USC00053570","1980","39.18333","-104.85","2097.9","GREENLAND, CO US","        76","0","        39","0","         2","0","        23","0","   160"," ,0,0411, ","  26.4"," ,0,0515, ","    341.9"," ,0","     1575"," ,0"
