"STATION","DATE","LATITUDE","LONGITUDE","ELEVATION","NAME","DP01","DP01_ATTRIBUTES","DP10","DP10_ATTRIBUTES","DP1X","DP1X_ATTRIBUTES","DSND","DSND_ATTRIBUTES","DSNW","DSNW_ATTRIBUTES","DYFG","DYFG_ATTRIBUTES","DYTS","DYTS_ATTRIBUTES","EMSD","EMSD_ATTRIBUTES","EMSN","EMSN_ATTRIBUTES","EMXP","EMXP_ATTRIBUTES","PRCP","PRCP_ATTRIBUTES","SNOW","SNOW_ATTRIBUTES"
"USC00140676","1973","37.826","-99.6541","720.9","BELLEFONT 3S., KS US","        86","6","        57","6","        12","6","","","","","","","","","","","",""," 119.4"," ,6,0926, ","    956.5"," ,6","",""
"USC00140676","1974","37.826","-99.6541","720.9","BELLEFONT 3S., KS US","        63","6","        35","6","         5","6","","","","","","","","","","","","","  41.4"," ,6,0814, ","    478.3"," ,6","",""
"USC00140676","1979","37.826","-99.6541","720.9","BELLEFONT 3S., KS US","        64","0","        44","0","         4","0","       40","","         9","0","","","","","   102"," ,0,0114,+","    76"," ,0,0130, ","  87.6"," ,0,0716, ","    596.3"," ,0","      367"," ,0"
"USC00140676","1980","37.826","-99.6541","720.9","BELLEFONT 3S., KS US","        51","0","        39","0","         4","0","       25","","         7","0","","","","","   152"," ,0,0325,+","   152"," ,0,0324, ","  34.0"," ,0,0815, ","    442.5"," ,0","      600"," ,0"
"USC00140676","1981","37.826","-99.6541","720.9","BELLEFONT 3S., KS US","        54","0","        39","0","         8","0","        6","","         2","0","","","","","    76"," ,0,0308, ","    76"," ,0,0308, ","  90.4"," ,0,0727, ","    650.6"," ,0","      127"," ,0"
"USC00140676","1982","37.826","-99.6541","720.9","BELLEFONT 3S., KS US","        51","0","        38","0","         2","0","","","         8","0","","","","","","","   102"," ,0,1128, ","  30.5"," ,0,1002, ","    350.0"," ,0","      444"," ,0"
"USC00140676","1985","37.826","-99.6541","720.9","BELLEFONT 3S., KS US","        57","0","        43","0","         7","0","","","         3","0","","","","","","","    76"," ,0,0331, ","  53.3"," ,0,0331, ","    587.1"," ,0","      152"," ,0"
"USC00140676","1986","37.826","-99.6541","720.9","BELLEFONT 3S., KS US","        52","0","        39","0","         9","0","        3","","         3","0","","","","","    51"," ,0,1209, ","    51"," ,0,1209, ","  71.6"," ,0,0814, ","    650.4"," ,0","      101"," ,0"
"USC00140676","1987","37.826","-99.6541","720.9","BELLEFONT 3S., KS US","        60","0","        45","0","         8","0","","","         2","0","","","","","","","    74"," ,0,0109, ","  58.4"," ,0,0704, ","    672.8"," ,0","       99"," ,0"
"USC00140676","1988","37.826","-99.6541","720.9","BELLEFONT 3S., KS US","        41","0","        31","0","         4","0","","","         1","0","","","","","","","   152"," ,0,0107, ","  35.6"," ,0,0719, ","    377.5"," ,0","      152"," ,0"
"USC00140676","1989","37.826","-99.6541","720.9","BELLEFONT 3S., KS US","        35","0","        31","0","         7","0","","","         0","0","","","","","","","    13"," ,0,1217,+","  58.9"," ,0,0813, ","    542.4"," ,0","       26"," ,0"
"USC00140676","1990","37.826","-99.6541","720.9","BELLEFONT 3S., KS US","        37","0","        30","0","         3","0","","","         3","0","","","","","","","   203"," ,0,0119, ","  57.4"," ,0,0425, ","    375.5"," ,0","      292"," ,0"
"USC00140676","1991","37.826","-99.6541","720.9","BELLEFONT 3S., KS US","        34","0","        32","0","         3","0","        2","","         1","0","","","","","    76"," ,0,0110, ","   102"," ,0,1101, ","  57.2"," ,0,0712, ","    409.1"," ,0","      102"," ,0"
"USC00140676","1992","37.826","-99.6541","720.9","BELLEFONT 3S., KS US","        51","0","        44","0","         7","0","","","         1","0","","","","","","","   330"," ,0,1125, ","  83.8"," ,0,0628, ","    617.8"," ,0","      330"," ,0"
"USC00140676","1993","37.826","-99.6541","720.9","BELLEFONT 3S., KS US","        50","0","        44","0","         6","0","","","         5","0","","","","","","","   305"," ,0,0216, ","  36.8"," ,0,0718, ","    640.9"," ,0","      737"," ,0"
"USC00140676","1994","37.826","-99.6541","720.9","BELLEFONT 3S., KS US","        37","0","        37","0","         2","0","        2","","         2","0","","","","","    51"," ,0,0222, ","    51"," ,0,0222, ","  31.0"," ,0,0802, ","    441.4"," ,0","       76"," ,0"
"USC00140676","1995","37.826","-99.6541","720.9","BELLEFONT 3S., KS US","        46","0","        40","0","         6","0","","","         6","0","","","","","","","   102"," ,0,0302, ","  98.0"," ,0,0720, ","    648.6"," ,0","      435"," ,0"
"USC00140676","1996","37.826","-99.6541","720.9","BELLEFONT 3S., KS US","        50","0","        43","0","        12","0","        1","","         2","0","","","","","    25"," ,0,0307, ","   102"," ,0,1022, ","  69.1"," ,0,1116, ","    835.1"," ,0","      127"," ,0"
"USC00140676","1997","37.826","-99.6541","720.9","BELLEFONT 3S., KS US","        47","0","        44","0","         7","0","","","         5","0","","","","","","","   254"," ,0,1224, ","  69.1"," ,0,0807, ","    637.6"," ,0","      623"," ,0"
"USC00140676","1998","37.826","-99.6541","720.9","BELLEFONT 3S., KS US","        44","0","        39","0","         5","0","","","         4","0","         2"," ","","","","","   241"," ,0,0319, ","  61.2"," ,0,1002, ","    557.0"," ,0","      456"," ,0"
"USC00140676","1999","37.826","-99.6541","720.9","BELLEFONT 3S., KS US","        61","0","        43","0","         7","0","        9","","         5","0","         2"," ","        31"," ","   203"," ,0,0313, ","   203"," ,0,0313, ","  66.5"," ,0,0701, ","    628.5"," ,0","      456"," ,0"
"USC00140676","2000","37.826","-99.6541","720.9","BELLEFONT 3S., KS US","        54","0","        42","0","         6","0","       14","","         7","0","         8"," ","        33"," ","    76"," ,0,1231,+","    76"," ,0,1231,+","  45.5"," ,0,0323, ","    564.7"," ,0","      303"," ,0"
"USC00140676","2001","37.826","-99.6541","720.9","BELLEFONT 3S., KS US","        35","0","        27","0","         8","0","       22","","         7","0","        16"," ","        23"," ","   279"," ,0,0129,+","   279"," ,0,0128, ","  48.0"," ,0,0505, ","    456.5"," ,0","      633"," ,0"
"USC00140676","2002","37.826","-99.6541","720.9","BELLEFONT 3S., KS US","        41","0","        28","0","         3","0","       18","","         6","0","","","        16"," ","   102"," ,0,1205,+","   102"," ,0,1204,+","  51.6"," ,0,0824, ","    419.4"," ,0","      330"," ,0"
"USC00140676","2003","37.826","-99.6541","720.9","BELLEFONT 3S., KS US","        38","0","        30","0","         6","0","       21","","         5","0","         7"," ","        18"," ","   127"," ,0,1213, ","   102"," ,0,0223,+","  55.4"," ,0,0911, ","    499.3"," ,0","      356"," ,0"
"USC00140676","2004","37.826","-99.6541","720.9","BELLEFONT 3S., KS US","","","","","","","       14","","         5","0","        10"," ","        16"," ","    51"," ,0,1202,+","    51"," ,0,0205, ","","","","","      151"," ,0"
"USC00140676","2005","37.826","-99.6541","720.9","BELLEFONT 3S., KS US","        59","0","        43","0","         6","0","       13","","         5","0","","","        33"," ","   102"," ,0,1220,+","    74"," ,0,1218, ","  41.9"," ,0,0601, ","    568.7"," ,0","      174"," ,0"
"USC00140676","2006","37.826","-99.6541","720.9","BELLEFONT 3S., KS US","        52","0","        43","0","         7","0","        5","","         2","0","","","        25"," ","   152"," ,0,0321, ","   152"," ,0,0321, ","  59.9"," ,0,1230, ","    649.8"," ,0","      177"," ,0"
"USC00140676","2007","37.826","-99.6541","720.9","BELLEFONT 3S., KS US","        52","0","        42","0","         9","0","       32","","         9","0","         3"," ","        39"," ","   254"," ,0,1217,+","   254"," ,0,1215, ","  95.5"," ,0,0712, ","    708.7"," ,0","      722"," ,0"
"USC00140676","2008","37.826","-99.6541","720.9","BELLEFONT 3S., KS US","        59","0","        46","0","         8","0","","","         4","0","         4"," ","        31"," ","","","    25"," ,0,1217,+","  41.9"," ,0,0903, ","    633.8"," ,0","      100"," ,0"
"USC00140676","2009","37.826","-99.6541","720.9","BELLEFONT 3S., KS US","        58","0","        45","0","         7","0","        8","","         5","0","        12"," ","        35"," ","   254"," ,0,0327, ","   254"," ,0,0327, ","  42.7"," ,0,0602, ","    607.0"," ,0","      406"," ,0"
"USC00140676","2010","37.826","-99.6541","720.9","BELLEFONT 3S., KS US","        53","0","        40","0","         7","0","       14","","         5","0","         6"," ","        24"," ","   152"," ,0,0201,+","   152"," ,0,0130, ","  57.7"," ,0,0613, ","    555.0"," ,0","      380"," ,0"
"USC00140676","2011","37.826","-99.6541","720.9","BELLEFONT 3S., KS US","","","","","","","","","","","         6"," ","        23"," ","","","","","","","","","",""
"USC00140676","2012","37.826","-99.6541","720.9","BELLEFONT 3S., KS US","","","","","","","","","","","","","         4"," ","","","","","","","","","",""
"USC00140676","2013","37.826","-99.6541","720.9","BELLEFONT 3S., KS US","        61","7","        44","7","         5","7","","","","","         3"," ","        32"," ","","","","","  58.4"," ,7,0804, ","    591.0"," ,7","",""
"USC00140676","2014","37.826","-99.6541","720.9","BELLEFONT 3S., KS US","        61","7","        41","7","        10","7","       23","","        12","7","         7"," ","        23"," ","   229"," ,7,0211, ","   102"," ,7,0210,+","  57.9"," ,7,1010, ","    659.4"," ,7","      589"," ,7"
"USC00140676","2015","37.826","-99.6541","720.9","BELLEFONT 3S., KS US","        71","7","        57","7","         3","7","       16","","         6","7","        12"," ","        46"," ","   102"," ,7,1214,+","   102"," ,7,1214, ","  58.9"," ,7,0612, ","    751.6"," ,7","      355"," ,7"
"USC00140676","2016","37.826","-99.6541","720.9","BELLEFONT 3S., KS US","","","","","","","        3","","         1","7","        14"," ","        33"," ","    25"," ,7,1220,+","    25"," ,7,1218, ","","","    624.8"," ,7","       38"," ,7"
"USC00140676","2017","37.826","-99.6541","720.9","BELLEFONT 3S., KS US","        52","7","        31","7","        12","7","        3","","         3","7","         9"," ","        20"," ","    25"," ,7,0430,+","    76"," ,7,0501, ","  46.0"," ,7,0430, ","    727.6"," ,7","      126"," ,7"
"USC00140676","2018","37.826","-99.6541","720.9","BELLEFONT 3S., KS US","        65","7","        43","7","        11","7","        7","","         6","7","        13"," ","        38"," ","    51"," ,7,1113,+","    76"," ,7,0407, ","  85.9"," ,7,0814, ","    818.3"," ,7","      266"," ,7"
"USC00140676","2019","37.826","-99.6541","720.9","BELLEFONT 3S., KS US","        60","7","        46","7","         6","7","        7","","         4","7","        11"," ","        32"," ","   102"," ,7,0224, ","   102"," ,7,0224, ","  62.2"," ,7,0521, ","    639.6"," ,7","      280"," ,7"
"USC00140676","2020","37.826","-99.6541","720.9","BELLEFONT 3S., KS US","","","","","","","","","","","        11"," ","        24"," ","","","","","","","","","",""
