"STATION","DATE","LATITUDE","LONGITUDE","ELEVATION","NAME","CDSD","CDSD_ATTRIBUTES","CLDD","CLDD_ATTRIBUTES","DP01","DP01_ATTRIBUTES","DP10","DP10_ATTRIBUTES","DP1X","DP1X_ATTRIBUTES","DSND","DSND_ATTRIBUTES","DSNW","DSNW_ATTRIBUTES","DT00","DT00_ATTRIBUTES","DT32","DT32_ATTRIBUTES","DX32","DX32_ATTRIBUTES","DX70","DX70_ATTRIBUTES","DX90","DX90_ATTRIBUTES","DYFG","DYFG_ATTRIBUTES","DYTS","DYTS_ATTRIBUTES","EMNT","EMNT_ATTRIBUTES","EMSD","EMSD_ATTRIBUTES","EMSN","EMSN_ATTRIBUTES","EMXP","EMXP_ATTRIBUTES","EMXT","EMXT_ATTRIBUTES","FZF0","FZF0_ATTRIBUTES","FZF1","FZF1_ATTRIBUTES","FZF2","FZF2_ATTRIBUTES","FZF3","FZF3_ATTRIBUTES","FZF4","FZF4_ATTRIBUTES","FZF5","FZF5_ATTRIBUTES","FZF6","FZF6_ATTRIBUTES","FZF7","FZF7_ATTRIBUTES","FZF8","FZF8_ATTRIBUTES","FZF9","FZF9_ATTRIBUTES","HDSD","HDSD_ATTRIBUTES","HTDD","HTDD_ATTRIBUTES","PRCP","PRCP_ATTRIBUTES","SNOW","SNOW_ATTRIBUTES","TAVG","TAVG_ATTRIBUTES","TMAX","TMAX_ATTRIBUTES","TMIN","TMIN_ATTRIBUTES"
"USC00489208","2005","44.1619","-104.3541","1594.1","UPTON 14 ENE, WY US","","","","","","","","","","","","","","","","","","","","","","","","","         9"," ","        15"," ","","","","","","","","","","","","","","","","","","","","","","","","","","","","","","","","","","","","","","","","","","","",""
"USC00489208","2006","44.1619","-104.3541","1594.1","UPTON 14 ENE, WY US","","","","","","","","","","","","","","","","","","","","","","","","","        15"," ","        30"," ","","","","","","","","","","","","","","","","","","","","","","","","","","","","","","","","","","","","","","","","","","","",""
"USC00489208","2007","44.1619","-104.3541","1594.1","UPTON 14 ENE, WY US","    238.4","","     238.4","0","       108","0","        48","0","         1","0","","","        17","0","        37","0","       199","0","        70","0","       116","0","        23","0","        19"," ","        39"," ","  -33.3","0,0202, ","","","   292"," ,0,0217, ","  35.8"," ,0,0601, ","   36.7","0,0723, ","-2.8","0,0910","-2.8","0,0910","-5.6","0,1016","-7.2","0,1019","-11.1","0,1031","-1.1","0,0609","-2.2","0,0608","-5.0","0,0415","-11.7","0,0413","-11.7","0,0413","    4892.3","3","    4892.3","0","    427.4"," ,0","     1608"," ,0","      5.66","0","     13.18","0","     -1.86","0"
"USC00489208","2008","44.1619","-104.3541","1594.1","UPTON 14 ENE, WY US","     84.4","","      84.4","0","       141","0","        75","0","         3","0","      158","","        43","0","        41","0","       225","0","        72","0","        97","0","         3","0","        25"," ","        41"," ","  -33.9","0,0122, ","   533"," ,0,0125,+","   229"," ,0,0502, ","  33.0"," ,0,1010, ","   33.3","0,0802, ","0.0","0,0904","-2.2","0,0914","-10.0","0,1013","-10.0","0,1013","-10.0","0,1013","0.0","0,0712","-3.9","0,0511","-10.6","0,0504","-10.6","0,0504","-10.6","0,0504","    5185.2","2","    5185.2","0","    680.4"," ,0","     3015"," ,0","      3.78","0","     11.10","0","     -3.55","0"
"USC00489208","2009","44.1619","-104.3541","1594.1","UPTON 14 ENE, WY US","     50.5","","      50.5","0","       124","0","        61","0","         0","0","      131","","        39","0","        32","0","       218","0","        70","0","        94","0","         1","0","        23"," ","        36"," ","  -32.8","0,1209, ","   610"," ,0,1228,+","   229"," ,0,1227, ","  22.1"," ,0,0808,+","   32.8","0,0823, ","0.0","0,0923","-7.2","0,0928","-7.2","0,0928","-7.2","0,0928","-17.8","0,1010","0.0","0,0609","-5.0","0,0517","-5.0","0,0517","-8.3","0,0428","-8.9","0,0427","    5108.0","0","    5108.0","0","    485.2"," ,0","     2703"," ,0","      4.08","0","     11.20","0","     -3.05","0"
"USC00489208","2010","44.1619","-104.3541","1594.1","UPTON 14 ENE, WY US","    100.3","","     100.3","0","       119","0","        56","0","         4","0","      148","","        32","0","        25","0","       210","0","        64","0","       106","0","         5","0","        51"," ","        39"," ","  -33.3","0,0108, ","   457"," ,0,1130, ","   229"," ,0,0125, ","  31.2"," ,0,0614, ","   35.0","0,0823, ","-0.6","0,0903","-5.6","0,1013","-5.6","0,1013","-6.7","0,1027","-9.4","0,1028","-0.6","0,0618","-2.2","0,0514","-4.4","0,0509","-8.9","0,0508","-8.9","0,0508","    5254.8","8","    5254.8","0","    582.3"," ,0","     2201"," ,0","      4.91","0","     12.08","0","     -2.27","0"
"USC00489208","2011","44.1619","-104.3541","1594.1","UPTON 14 ENE, WY US","    145.9","","     145.9","K","       131","K","        67","K","         1","K","","","","","        32","K","       213","K","        64","K","       109","K","        10","K","        32"," ","        40"," ","  -32.2","K,0209,+","","","","","  53.6"," ,K,0522, ","   35.0","K,0826,+","0.0","K,0904","-2.8","K,0921","-6.7","7,1019","-6.7","7,1019","-9.4","7,1027","-2.2","K,0528","-2.2","K,0528","-5.6","K,0505","-7.8","K,0502","-10.0","K,0420","    5199.6","6","    5199.6","K","    636.9"," ,K","","","      4.56","K","     11.69","K","     -2.57","K"
"USC00489208","2012","44.1619","-104.3541","1594.1","UPTON 14 ENE, WY US","    286.3","","     286.3","7","        84","7","        31","7","         0","7","","","","","        23","7","       199","7","        53","7","       135","7","        36","7","         6"," ","        22"," ","  -24.4","7,0117, ","","","","","  20.3"," ,7,0226, ","   37.8","7,0720, ","0.0","7,0922","-2.8","7,1004","-5.6","7,1006","-10.6","7,1007","-10.6","7,1007","-1.7","7,0529","-5.0","7,0512","-5.0","7,0512","-6.7","7,0404","-10.6","7,0309","    4481.9","9","    4481.9","7","    270.7"," ,7","","","      6.89","7","     15.02","7","     -1.23","7"
"USC00489208","2013","44.1619","-104.3541","1594.1","UPTON 14 ENE, WY US","","","","","","","","","","","","","","","","","","","","","","","","","         5"," ","         1"," ","","","","","","","","","","","","","","","","","","","","","","","","","","","","","","","","","","","","","","","","","","","",""
