"STATION","DATE","LATITUDE","LONGITUDE","ELEVATION","NAME","CDSD","CDSD_ATTRIBUTES","CLDD","CLDD_ATTRIBUTES","DP01","DP01_ATTRIBUTES","DP10","DP10_ATTRIBUTES","DP1X","DP1X_ATTRIBUTES","DT00","DT00_ATTRIBUTES","DT32","DT32_ATTRIBUTES","DX32","DX32_ATTRIBUTES","DX70","DX70_ATTRIBUTES","DX90","DX90_ATTRIBUTES","DYFG","DYFG_ATTRIBUTES","EMNT","EMNT_ATTRIBUTES","EMXP","EMXP_ATTRIBUTES","EMXT","EMXT_ATTRIBUTES","FZF0","FZF0_ATTRIBUTES","FZF1","FZF1_ATTRIBUTES","FZF2","FZF2_ATTRIBUTES","FZF3","FZF3_ATTRIBUTES","FZF4","FZF4_ATTRIBUTES","FZF5","FZF5_ATTRIBUTES","FZF6","FZF6_ATTRIBUTES","FZF7","FZF7_ATTRIBUTES","FZF8","FZF8_ATTRIBUTES","FZF9","FZF9_ATTRIBUTES","HDSD","HDSD_ATTRIBUTES","HTDD","HTDD_ATTRIBUTES","PRCP","PRCP_ATTRIBUTES","TAVG","TAVG_ATTRIBUTES","TMAX","TMAX_ATTRIBUTES","TMIN","TMIN_ATTRIBUTES"
"USC00306028","1901","43.183333","-76.883333","118.9","NORTH ROSE, NY US","","","","","","","","","","","","","","","","","","","","","         1"," ","","","","","","","","","","","","","","","","","","","","","","","","","","","","","","","","","","","","","",""
"USC00306028","1902","43.183333","-76.883333","118.9","NORTH ROSE, NY US","","","","","       149","6","       110","6","         6","6","","","","","","","","","","","","","","","  39.9"," ,6,0708, ","","","","","","","","","","","","","","","","","","","","","","","","","","","   1151.2"," ,6","","","","","",""
"USC00306028","1903","43.183333","-76.883333","118.9","NORTH ROSE, NY US","","","","","       126","6","        97","6","         8","6","","","","","","","","","","","","","","","  65.5"," ,6,0611, ","","","","","","","","","","","","","","","","","","","","","","","","","","","   1093.0"," ,6","","","","","",""
"USC00306028","1908","43.183333","-76.883333","118.9","NORTH ROSE, NY US","","","","","","","","","","","","","","","","","","","","","","","","","","","","","","","","","","","","","","","","","","","","","","","","","    3823.3","3","    3823.3","6","","","","","","","",""
"USC00306028","1920","43.183333","-76.883333","118.9","NORTH ROSE, NY US","    210.6","","     210.6","6","","","","","","","        10","6","       140","6","        57","6","       128","6","         1","6","","","  -27.2","6,0131, ","","","   32.8","6,0628, ","0.0","6,1030","-4.4","6,1109","-4.4","6,1109","-10.6","6,1209","-10.6","6,1209","-1.7","6,0505","-3.9","6,0411","-5.0","6,0410","-6.7","6,0408","-15.0","6,0314","    3958.8","8","    3958.8","6","","","      8.00","6","     13.26","6","      2.74","6"
"USC00306028","1921","43.183333","-76.883333","118.9","NORTH ROSE, NY US","    393.6","","     393.6","6","","","","","","","         4","6","       128","6","        20","6","       146","6","        14","6","","","  -21.1","6,0119, ","","","   35.0","6,0708,+","-5.6","6,1026","-5.6","6,1026","-5.6","6,1026","-6.7","6,1108","-9.4","6,1215","-0.6","6,0517","-2.2","6,0412","-6.1","6,0411","-7.8","6,0329","-9.4","6,0305","    3068.5","5","    3068.5","6","","","     10.18","6","     15.71","6","      4.65","6"
