"STATION","DATE","LATITUDE","LONGITUDE","ELEVATION","NAME","CDSD","CDSD_ATTRIBUTES","CLDD","CLDD_ATTRIBUTES","DP01","DP01_ATTRIBUTES","DP10","DP10_ATTRIBUTES","DP1X","DP1X_ATTRIBUTES","DSND","DSND_ATTRIBUTES","DT00","DT00_ATTRIBUTES","DT32","DT32_ATTRIBUTES","DX32","DX32_ATTRIBUTES","DX70","DX70_ATTRIBUTES","DX90","DX90_ATTRIBUTES","EMNT","EMNT_ATTRIBUTES","EMSD","EMSD_ATTRIBUTES","EMXP","EMXP_ATTRIBUTES","EMXT","EMXT_ATTRIBUTES","FZF0","FZF0_ATTRIBUTES","FZF1","FZF1_ATTRIBUTES","FZF2","FZF2_ATTRIBUTES","FZF3","FZF3_ATTRIBUTES","FZF4","FZF4_ATTRIBUTES","FZF5","FZF5_ATTRIBUTES","FZF6","FZF6_ATTRIBUTES","FZF7","FZF7_ATTRIBUTES","FZF8","FZF8_ATTRIBUTES","FZF9","FZF9_ATTRIBUTES","HDSD","HDSD_ATTRIBUTES","HTDD","HTDD_ATTRIBUTES","PRCP","PRCP_ATTRIBUTES","TAVG","TAVG_ATTRIBUTES","TMAX","TMAX_ATTRIBUTES","TMIN","TMIN_ATTRIBUTES"
"USC00303069","1894","42.19083","-78.14583","473.0","FRIENDSHIP, NY US","","","","","       138","6","        92","6","        12","6","","","","","","","","","","","","","","","","","  67.8"," ,6,0520, ","","","","","","","","","","","","","","","","","","","","","","","","","","","   1229.5"," ,6","","","","","",""
"USC00303069","1895","42.19083","-78.14583","473.0","FRIENDSHIP, NY US","","","","","       119","6","        68","6","         6","6","","","","","","","","","","","","","","","","","  63.8"," ,6,0621, ","","","","","","","","","","","","","","","","","","","","","","","","","","","    822.2"," ,6","","","","","",""
"USC00303069","1896","42.19083","-78.14583","473.0","FRIENDSHIP, NY US","    207.0","","     207.0","6","       125","6","        97","6","         8","6","","","        14","6","       160","6","        57","6","       137","6","         8","6","  -30.6","6,0106, ","","","  38.4"," ,6,1012, ","   33.9","6,0805, ","0.0","6,0901","-2.2","6,0923","-4.4","6,1010","-6.7","6,1110","-10.6","6,1201","0.0","6,0603","-5.6","6,0409","-5.6","6,0409","-7.8","6,0405","-9.4","6,0404","","","","","    923.1"," ,6","      7.91","6","     14.45","6","      1.37","6"
"USC00303069","1897","42.19083","-78.14583","473.0","FRIENDSHIP, NY US","","","","","","","","","","","","","","","","","","","","","","","","","","","","","","","","","","","","","","","","","","","","","","","","","","","    3990.5","5","    3990.5","6","","","","","","","",""
"USC00303069","1952","42.19083","-78.14583","473.0","FRIENDSHIP, NY US","","","","","       108","0","        78","0","         7","0","","","","","","","","","","","","","","","","","  43.2"," ,0,0512, ","","","","","","","","","","","","","","","","","","","","","","","","","","","    842.3"," ,0","","","","","",""
"USC00303069","1953","42.19083","-78.14583","473.0","FRIENDSHIP, NY US","","","","","       129","0","        90","0","         8","0","       68","","","","","","","","","","","","","","   406"," ,0,1109,+","  68.1"," ,0,0621, ","","","","","","","","","","","","","","","","","","","","","","","","","","","    905.9"," ,0","","","","","",""
"USC00303069","1954","42.19083","-78.14583","473.0","FRIENDSHIP, NY US","","","","","       130","0","        91","0","         4","0","       77","","","","","","","","","","","","","","   102"," ,0,1226,+","  35.6"," ,0,1016, ","","","","","","","","","","","","","","","","","","","","","","","","","","","    876.5"," ,0","","","","","",""
"USC00303069","1955","42.19083","-78.14583","473.0","FRIENDSHIP, NY US","","","","","       131","0","        78","0","         7","0","       83","","","","","","","","","","","","","","   279"," ,0,0209,+","  63.5"," ,0,1015, ","","","","","","","","","","","","","","","","","","","","","","","","","","","    940.5"," ,0","","","","","",""
