"STATION","DATE","LATITUDE","LONGITUDE","ELEVATION","NAME","DP01","DP01_ATTRIBUTES","DP10","DP10_ATTRIBUTES","DP1X","DP1X_ATTRIBUTES","DSND","DSND_ATTRIBUTES","DSNW","DSNW_ATTRIBUTES","DT00","DT00_ATTRIBUTES","DT32","DT32_ATTRIBUTES","DX32","DX32_ATTRIBUTES","DX70","DX70_ATTRIBUTES","DX90","DX90_ATTRIBUTES","DYTS","DYTS_ATTRIBUTES","EMNT","EMNT_ATTRIBUTES","EMSD","EMSD_ATTRIBUTES","EMSN","EMSN_ATTRIBUTES","EMXP","EMXP_ATTRIBUTES","EMXT","EMXT_ATTRIBUTES","FZF0","FZF0_ATTRIBUTES","FZF1","FZF1_ATTRIBUTES","FZF2","FZF2_ATTRIBUTES","FZF3","FZF3_ATTRIBUTES","FZF5","FZF5_ATTRIBUTES","FZF6","FZF6_ATTRIBUTES","FZF7","FZF7_ATTRIBUTES","FZF8","FZF8_ATTRIBUTES","FZF9","FZF9_ATTRIBUTES","PRCP","PRCP_ATTRIBUTES","SNOW","SNOW_ATTRIBUTES","TAVG","TAVG_ATTRIBUTES","TMAX","TMAX_ATTRIBUTES","TMIN","TMIN_ATTRIBUTES"
"USC00501316","1975","55.96667","-133.8","14.9","CAPE POLE, AK US","       189","0","       152","0","        23","0","       41","","        23","0","         2","0","       114","0","        24","0","         2","0","         0","0","         1"," ","  -18.9","0,0110, ","   559"," ,0,1213, ","   157"," ,0,0214, ","  77.5"," ,0,0218, ","   21.7","0,0708, ","0.0","0,1021","-2.8","0,1028","-8.3","0,1204","-8.3","0,1204","-2.2","0,0516","-2.2","0,0516","-5.0","0,0326","-16.7","0,0213","-16.7","0,0213","   2128.2"," ,0","     1447"," ,0","      5.40","0","      8.06","0","      2.73","0"
"USC00501316","1977","55.96667","-133.8","14.9","CAPE POLE, AK US","","","","","","","","","","","","","","","","","","","","","         1"," ","","","","","","","","","","","","","","","","","","","","","","","","","","","","","","","","","","","","","",""
