"STATION","DATE","LATITUDE","LONGITUDE","ELEVATION","NAME","CDSD","CDSD_ATTRIBUTES","CLDD","CLDD_ATTRIBUTES","DP01","DP01_ATTRIBUTES","DP10","DP10_ATTRIBUTES","DP1X","DP1X_ATTRIBUTES","DSND","DSND_ATTRIBUTES","DSNW","DSNW_ATTRIBUTES","DT00","DT00_ATTRIBUTES","DT32","DT32_ATTRIBUTES","DX32","DX32_ATTRIBUTES","DX70","DX70_ATTRIBUTES","DX90","DX90_ATTRIBUTES","DYFG","DYFG_ATTRIBUTES","DYTS","DYTS_ATTRIBUTES","EMNT","EMNT_ATTRIBUTES","EMSD","EMSD_ATTRIBUTES","EMSN","EMSN_ATTRIBUTES","EMXP","EMXP_ATTRIBUTES","EMXT","EMXT_ATTRIBUTES","FZF0","FZF0_ATTRIBUTES","FZF1","FZF1_ATTRIBUTES","FZF2","FZF2_ATTRIBUTES","FZF3","FZF3_ATTRIBUTES","FZF4","FZF4_ATTRIBUTES","FZF5","FZF5_ATTRIBUTES","FZF6","FZF6_ATTRIBUTES","FZF7","FZF7_ATTRIBUTES","FZF8","FZF8_ATTRIBUTES","FZF9","FZF9_ATTRIBUTES","HDSD","HDSD_ATTRIBUTES","HTDD","HTDD_ATTRIBUTES","PRCP","PRCP_ATTRIBUTES","SNOW","SNOW_ATTRIBUTES","TAVG","TAVG_ATTRIBUTES","TMAX","TMAX_ATTRIBUTES","TMIN","TMIN_ATTRIBUTES"
"USC00135837","1936","41.4076","-91.0727","167.3","MUSCATINE, IA US","    763.8","","     763.8","6","","","","","","","","","        16","6","        33","6","       151","6","        54","6","       159","6","        62","6","","","","","  -31.1","6,0205,+","","","   127"," ,6,0208, ","","","   43.9","6,0715,+","-0.6","6,1002","-5.6","6,1023","-5.6","6,1023","-7.8","6,1027","-9.4","6,1104","-0.6","6,0423","-2.8","6,0422","-8.9","6,0408","-8.9","6,0408","-8.9","6,0408","","","","","","","      773"," ,6","      9.75","6","     16.53","6","      2.98","6"
"USC00135837","1937","41.4076","-91.0727","167.3","MUSCATINE, IA US","    603.1","","     603.1","6","        92","6","        61","6","         4","6","","","        11","6","         7","6","       152","6","        62","6","       158","6","        47","6","","","","","  -21.1","6,0202, ","","","    89"," ,6,1118, ","  41.9"," ,6,0108, ","   38.3","6,0816, ","-0.6","6,0927","-2.8","6,1008","-4.4","6,1014","-7.2","6,1015","-8.9","6,1104","-0.6","6,0506","-3.9","6,0411","-6.1","6,0329","-8.3","6,0327","-8.9","6,0326","    3583.4","4","    3583.4","6","    668.1"," ,6","      594"," ,6","      9.41","6","     15.48","6","      3.34","6"
"USC00135837","1938","41.4076","-91.0727","167.3","MUSCATINE, IA US","    588.1","","     588.1","6","","","","","","","","","","","         7","6","       127","6","        26","6","       175","6","        34","6","","","","","  -21.1","6,0131, ","","","","","","","   36.7","6,0803,+","0.0","6,1020","-2.8","6,1024","-5.6","6,1108","-7.8","6,1119","-11.1","6,1124","0.0","6,0422","-2.2","6,0410","-6.1","6,0308","-8.9","6,0306","-8.9","6,0306","    3360.6","6","    3360.6","6","","","","","     11.37","6","     17.48","6","      5.26","6"
"USC00135837","1939","41.4076","-91.0727","167.3","MUSCATINE, IA US","    592.1","","     592.1","6","","","","","","","","","         9","6","         3","6","       143","6","        27","6","       168","6","        38","6","","","         1"," ","  -20.0","6,0210, ","","","   102"," ,6,0216, ","","","   37.8","6,0712, ","-4.4","6,1014","-4.4","6,1014","-4.4","6,1014","-7.8","6,1104","-9.4","6,1128","-2.2","6,0422","-2.2","6,0422","-7.2","6,0413","-7.2","6,0413","-12.2","6,0318","    3285.9","9","    3285.9","6","","","      485"," ,6","     10.96","6","     17.79","6","      4.11","6"
"USC00135837","1940","41.4076","-91.0727","167.3","MUSCATINE, IA US","    521.7","","     521.7","6","        86","6","        59","6","         5","6","","","        10","6","        21","6","       146","6","        58","6","       159","6","        38","6","","","         2"," ","  -28.3","6,0118, ","","","   157"," ,6,0114, ","  33.3"," ,6,0818, ","   42.2","6,0725, ","-1.7","6,0926","-2.2","6,1106","-6.7","6,1107","-6.7","6,1107","-8.9","6,1111","-1.1","6,0504","-2.2","6,0421","-5.0","6,0413","-6.7","6,0412","-13.9","6,0325","    3646.0","0","    3646.0","6","    626.1"," ,6","      665"," ,6","      9.39","6","     15.73","6","      3.05","6"
"USC00135837","1941","41.4076","-91.0727","167.3","MUSCATINE, IA US","    622.4","","     622.4","6","       111","6","        76","6","         6","6","","","         9","6","         3","6","       133","6","        36","6","       177","6","        46","6","","","","","  -21.1","6,0219, ","","","   203"," ,6,0126, ","  45.2"," ,6,1022, ","   38.9","6,0729, ","-5.0","6,1028","-5.0","6,1028","-5.0","6,1028","-7.2","6,1111","-8.9","6,1123","-0.6","6,0425","-3.9","6,0329","-4.4","6,0325","-15.0","6,0318","-15.0","6,0318","    3365.7","7","    3365.7","6","   1014.7"," ,6","      805"," ,6","     11.16","6","     17.34","6","      4.98","6"
"USC00135837","1942","41.4076","-91.0727","167.3","MUSCATINE, IA US","    560.4","","     560.4","6","       107","6","        63","6","         4","6","","","        10","6","        17","6","       146","6","        41","6","       163","6","        31","6","","","","","  -30.6","6,0108, ","","","   102"," ,6,0101, ","  67.1"," ,6,1226, ","   36.7","6,0801, ","-0.6","6,0924","-5.0","6,0928","-5.0","6,0928","-8.3","6,1026","-10.6","6,1126","-0.6","6,0516","-2.8","6,0411","-6.7","6,0330","-6.7","6,0330","-9.4","6,0222","    3164.8","8","    3164.8","6","    794.7"," ,6","      585"," ,6","     10.11","6","     16.10","6","      4.12","6"
"USC00135837","1943","41.4076","-91.0727","167.3","MUSCATINE, IA US","    559.8","","     559.8","6","       105","6","        75","6","         6","6","","","","","        18","6","       156","6","        39","6","       146","6","        34","6","","","","","  -26.7","6,0119, ","","","","","  56.1"," ,6,0427, ","   35.6","6,0626, ","0.0","6,1014","-3.9","6,1017","-8.9","6,1111","-8.9","6,1111","-8.9","6,1111","-0.6","6,0501","-3.3","6,0421","-6.1","6,0415","-8.9","6,0322","-8.9","6,0322","    3746.1","1","    3746.1","6","    897.0"," ,6","","","      9.41","6","     15.66","6","      3.16","6"
"USC00135837","1944","41.4076","-91.0727","167.3","MUSCATINE, IA US","    594.2","","     594.2","6","       117","6","        80","6","         5","6","","","        10","6","        10","6","       136","6","        38","6","       155","6","        38","6","","","         1"," ","  -23.9","6,0212, ","","","   198"," ,6,1210, ","  37.6"," ,6,0616, ","   36.1","6,0810,+","-2.2","6,1012","-2.2","6,1012","-4.4","6,1129","-7.8","6,1130","-8.9","6,1201","0.0","6,0505","-3.3","6,0417","-5.0","6,0406","-6.7","6,0403","-13.9","6,0310","    3599.0","0","    3599.0","6","    943.5"," ,6","      800"," ,6","     10.46","6","     16.40","6","      4.51","6"
"USC00135837","1945","41.4076","-91.0727","167.3","MUSCATINE, IA US","    396.6","","     396.6","6","","","","","","","","","","","        16","6","       134","6","        51","6","       152","6","        23","6","","","","","  -23.9","6,0109,+","","","","","","","   38.3","6,0731,+","-2.2","6,1009","-2.2","6,1009","-5.0","6,1104","-8.9","6,1115","-8.9","6,1115","-3.3","6,0509","-3.3","6,0509","-7.8","6,0308","-7.8","6,0308","-9.4","6,0227","    3376.4","4","    3376.4","6","","","","","      9.56","6","     15.50","6","      3.62","6"
"USC00135837","1946","41.4076","-91.0727","167.3","MUSCATINE, IA US","    414.9","","     414.9","6","","","","","","","","","","","         7","6","       119","6","        19","6","       166","6","        19","6","","","","","  -22.2","6,0101, ","","","","","","","   36.1","6,0718, ","-0.6","6,1001","-3.9","6,1113","-4.4","6,1116","-7.8","6,1117","-8.9","6,1122","-1.7","6,0416","-3.9","6,0412","-8.9","6,0311","-8.9","6,0311","-8.9","6,0311","    3345.9","9","    3345.9","6","","","","","     11.02","6","     17.60","6","      4.45","6"
"USC00135837","1948","41.4076","-91.0727","167.3","MUSCATINE, IA US","    582.0","","     582.0","0","        95","0","        56","0","         8","0","       57","","         6","0","        13","0","       126","0","        52","0","       162","0","        26","0","        15"," ","        17"," ","  -21.1","0,0123,+","   229"," ,0,0303,+","   178"," ,0,1229, "," 104.4"," ,0,0721, ","   37.8","0,0706, ","-1.7","0,1017","-3.9","0,1018","-8.3","0,1123","-8.3","0,1123","-9.4","0,1208","-2.8","0,0409","-2.8","0,0409","-5.6","6,0328","-11.7","6,0313","-11.7","6,0313","    3359.0","0","    3359.0","0","    910.0"," ,0","      669"," ,0","     10.56","0","     16.42","0","      4.71","0"
"USC00135837","1949","41.4076","-91.0727","167.3","MUSCATINE, IA US","    656.1","","     656.1","0","        94","0","        66","0","         6","0","       46","","         7","0","         7","0","       124","0","        40","0","       175","0","        29","0","        18"," ","        22"," ","  -23.3","0,0130,+","   178"," ,0,0101, ","    94"," ,0,0118, "," 113.8"," ,0,0729, ","   36.7","0,0703,+","-0.6","0,0929","-4.4","0,1026","-4.4","0,1026","-8.3","0,1122","-12.2","0,1208","-1.7","0,0419","-4.4","0,0416","-4.4","0,0416","-8.9","0,0319","-8.9","0,0319","    3337.8","8","    3337.8","0","    904.9"," ,0","      386"," ,0","     11.12","0","     17.13","0","      5.10","0"
"USC00135837","1950","41.4076","-91.0727","167.3","MUSCATINE, IA US","    409.5","","     409.5","0","       101","0","        55","0","         6","0","       55","","        12","0","        12","0","       151","0","        54","0","       165","0","         8","0","        29"," ","        20"," ","  -23.3","0,1227,+","   203"," ,0,0225, ","   114"," ,0,0225, ","  72.4"," ,0,0618, ","   33.9","0,0625, ","0.0","0,1004","-2.8","0,1025","-4.4","0,1105","-7.2","0,1110","-10.6","0,1111","-1.1","0,0501","-2.8","0,0421","-5.0","0,0414","-7.2","0,0413","-10.6","0,0313","    3364.7","7","    3364.7","0","    806.1"," ,0","      617"," ,0","      9.30","0","     15.27","0","      3.32","0"
"USC00135837","1951","41.4076","-91.0727","167.3","MUSCATINE, IA US","    473.9","","     473.9","0","       130","0","        90","0","         8","0","       73","","        17","0","        20","0","       145","0","        53","0","       152","0","        16","0","        30"," ","        34"," ","  -25.6","0,0202, ","   457"," ,0,0313, ","   191"," ,0,1214, ","  59.9"," ,0,1113, ","   35.6","0,0830, ","0.0","0,1008","-5.6","0,1101","-5.6","0,1101","-10.0","0,1102","-10.0","0,1102","-1.1","0,0423","-5.0","0,0417","-5.0","0,0417","-10.0","0,0324","-10.0","0,0324","    3741.0","0","    3741.0","0","   1111.3"," ,0","     1330"," ,0","      9.28","0","     14.75","0","      3.81","0"
"USC00135837","1952","41.4076","-91.0727","167.3","MUSCATINE, IA US","    654.9","","     654.9","0","        82","0","        58","0","         8","0","       45","","         9","0","         4","0","       151","0","        31","0","       165","0","        48","0","        12"," ","        27"," ","  -20.6","0,0124, ","   305"," ,0,0304, ","   102"," ,0,0214, ","  83.8"," ,0,0718, ","   36.1","0,0628, ","-0.6","0,1003","-3.9","0,1006","-6.1","0,1018","-6.7","0,1020","-13.9","0,1128","0.0","0,0416","-2.8","0,0411","-6.7","0,0327","-6.7","0,0327","-13.9","0,0307","    3515.9","9","    3515.9","0","    864.5"," ,0","      597"," ,0","     10.97","0","     16.91","0","      5.03","0"
"USC00135837","1953","41.4076","-91.0727","167.3","MUSCATINE, IA US","    712.8","","     712.8","0","        90","0","        54","0","         6","0","       50","","        11","0","         3","0","       129","0","        34","0","       168","0","        50","0","        10"," ","        31"," ","  -21.1","0,1217, ","   152"," ,0,1209,+","   152"," ,0,1209,+","  58.9"," ,0,0705, ","   37.8","0,0901,+","-0.6","0,1007","-2.2","0,1029","-6.7","0,1105","-6.7","0,1105","-9.4","0,1212","0.0","0,0427","-2.2","0,0420","-8.9","0,0309","-8.9","0,0309","-8.9","0,0309","    3315.4","4","    3315.4","0","    659.1"," ,0","      889"," ,0","     11.63","0","     17.64","0","      5.63","0"
"USC00135837","1954","41.4076","-91.0727","167.3","MUSCATINE, IA US","    699.9","","     699.9","0","        92","0","        56","0","         8","0","       21","","         7","0","         2","0","       129","0","        23","0","       160","0","        46","0","         3"," ","        39"," ","  -22.8","0,0117, ","   229"," ,0,1230,+","   229"," ,0,1229, "," 128.3"," ,0,1010, ","   38.3","0,0712, ","0.0","0,1019","-3.9","0,1030","-5.0","0,1031","-8.9","0,1206","-8.9","0,1206","0.0","0,0504","-3.9","0,0404","-6.7","0,0403","-6.7","0,0403","-8.9","0,0330","    3089.3","3","    3089.3","0","   1035.3"," ,0","      703"," ,0","     11.49","0","     17.19","0","      5.80","0"
"USC00135837","1955","41.4076","-91.0727","167.3","MUSCATINE, IA US","    719.3","","     719.3","0","        93","0","        51","0","         7","0","       43","","         8","0","         8","0","       130","0","        46","0","       174","0","        50","0","         8"," ","        37"," ","  -25.0","0,0127, ","   178"," ,0,0101, ","   127"," ,0,0322, ","  52.3"," ,0,0419, ","   37.8","0,0728,+","0.0","0,1019","-5.6","0,1103","-5.6","0,1103","-10.0","0,1116","-10.0","0,1116","-0.6","0,0407","-5.6","0,0329","-5.6","0,0329","-8.3","0,0328","-14.4","0,0326","    3194.6","6","    3194.6","0","    680.6"," ,0","      645"," ,0","     10.92","0","     16.82","0","      5.01","0"
"USC00135837","1956","41.4076","-91.0727","167.3","MUSCATINE, IA US","    663.1","","     663.1","0","        94","0","        46","0","         4","0","       29","","         7","0","         5","0","       138","0","        38","0","       173","0","        35","0","         9"," ","        36"," ","  -23.3","0,0121, ","   102"," ,0,0202, ","    51"," ,0,0202, ","  42.4"," ,0,0801, ","   40.0","0,0701, ","-1.1","0,1108","-4.4","0,1109","-4.4","0,1109","-6.7","0,1116","-10.6","0,1122","-1.1","0,0430","-5.6","0,0424","-5.6","0,0424","-6.7","0,0324","-11.7","0,0313","    3560.1","1","    3560.1","0","    517.7"," ,0","      382"," ,0","     11.12","0","     17.15","0","      5.08","0"
"USC00135837","1957","41.4076","-91.0727","167.3","MUSCATINE, IA US","    593.2","","     593.2","0","       100","0","        60","0","         9","0","       26","","         8","0","         9","0","       124","0","        28","0","       154","0","        32","0","        17"," ","        32"," ","  -26.1","0,0114, ","   152"," ,0,1231,+","   152"," ,0,1231,+","  37.6"," ,0,0403, ","   36.7","0,0815,+","-0.6","0,1019","-2.8","0,1027","-4.4","0,1106","-6.7","0,1109","-12.2","0,1130","-3.3","0,0414","-3.3","0,0414","-4.4","0,0413","-11.1","0,0308","-11.1","0,0308","    3211.0","0","    3211.0","0","    802.8"," ,0","      712"," ,0","     10.81","0","     16.20","0","      5.43","0"
"USC00135837","1958","41.4076","-91.0727","167.3","MUSCATINE, IA US","    437.3","","     437.3","0","        99","0","        56","0","         9","0","       69","","        10","0","        19","0","       136","0","        57","0","       164","0","        12","0","         6"," ","        33"," ","  -25.6","0,0217, ","   203"," ,0,0125,+","   178"," ,0,0121, ","  50.3"," ,0,0714, ","   34.4","0,0830, ","0.0","0,1001","-2.8","0,1107","-9.4","0,1126","-9.4","0,1126","-9.4","0,1126","-2.8","0,0429","-2.8","0,0429","-6.1","0,0322","-6.7","0,0222","-18.9","0,0220","    3465.5","5","    3465.5","0","    804.9"," ,0","      612"," ,0","      9.82","0","     15.34","0","      4.30","0"
"USC00135837","1959","41.4076","-91.0727","167.3","MUSCATINE, IA US","    656.3","","     656.3","0","       111","0","        75","0","        10","0","       78","","        19","0","        12","0","       137","0","        47","0","       153","0","        19","0","        26"," ","        30"," ","  -25.0","0,0105, ","   229"," ,0,0306,+","   279"," ,0,0305, ","  50.0"," ,0,1006, ","   35.0","0,0824, ","-1.7","0,1012","-2.2","0,1105","-7.2","0,1106","-7.2","0,1106","-13.9","0,1114","-0.6","0,0422","-2.8","0,0413","-7.2","0,0322","-7.2","0,0322","-10.0","0,0317","    3520.5","5","    3520.5","0","    996.5"," ,0","     1445"," ,0","     10.21","0","     15.34","0","      5.08","0"
"USC00135837","1960","41.4076","-91.0727","167.3","MUSCATINE, IA US","    542.1","","     542.1","0","       104","0","        62","0","         8","0","       78","","        14","0","        17","0","       135","0","        68","0","       163","0","        22","0","        35"," ","        33"," ","  -25.0","0,0306, ","   406"," ,0,0316, ","   152"," ,0,0209, ","  71.6"," ,0,1031, ","   36.7","0,0902, ","-3.3","0,1020","-3.3","0,1020","-7.8","0,1110","-7.8","0,1110","-10.0","0,1130","0.0","0,0418","-5.6","0,0410","-5.6","0,0410","-8.9","0,0326","-8.9","0,0326","    3802.6","6","    3802.6","0","    880.9"," ,0","     1144"," ,0","      9.75","0","     15.07","0","      4.42","0"
"USC00135837","1961","41.4076","-91.0727","167.3","MUSCATINE, IA US","    543.8","","     543.8","0","       101","0","        77","0","         8","0","       47","","        13","0","        11","0","       137","0","        39","0","       150","0","        16","0","        22"," ","        34"," ","  -23.9","0,1228, ","   203"," ,0,1225,+","   127"," ,0,0308, "," 136.1"," ,0,0913, ","   33.9","0,0629, ","0.0","0,0928","-2.2","0,1103","-4.4","0,1108","-6.7","0,1118","-11.1","0,1208","0.0","0,0501","-3.3","0,0416","-5.6","0,0402","-7.2","0,0310","-9.4","0,0219","    3371.6","6","    3371.6","0","   1097.9"," ,0","      701"," ,0","     10.31","0","     15.66","0","      4.95","0"
"USC00135837","1962","41.4076","-91.0727","167.3","MUSCATINE, IA US","    563.6","","     563.6","0","       104","0","        74","0","         4","0","       84","","        13","0","        18","0","       139","0","        51","0","       159","0","        14","0","        24"," ","        30"," ","  -27.2","0,0301, ","   279"," ,0,0224,+","   152"," ,0,0106, ","  62.5"," ,0,1019, ","   33.9","0,0823, ","-1.7","0,1024","-2.8","0,1025","-4.4","0,1105","-7.8","0,1206","-8.9","0,1207","-3.3","0,0416","-3.3","0,0416","-4.4","0,0415","-7.8","0,0317","-9.4","0,0316","    3653.1","1","    3653.1","0","    758.8"," ,0","      992"," ,0","      9.87","0","     15.34","0","      4.40","0"
"USC00135837","1963","41.4076","-91.0727","167.3","MUSCATINE, IA US","","","","","        89","0","        54","0","         4","0","       72","","        12","0","","","","","","","","","","","        16"," ","        31"," ","","","   178"," ,0,0203,+","    89"," ,0,1211, ","  72.4"," ,0,0824, ","","","","","","","","","","","","","","","","","","","","","","","    3569.3","3","    3569.3","0","    686.0"," ,0","      681"," ,0","","","","","",""
"USC00135837","1964","41.4076","-91.0727","167.3","MUSCATINE, IA US","    595.9","","     595.9","0","        93","0","        51","0","         7","0","       35","","        12","0","         4","0","       132","0","        35","0","       172","0","        23","0","","","        32"," ","  -19.4","0,1218,+","   152"," ,0,1206,+","   127"," ,0,0305, ","  51.8"," ,0,0821, ","   35.6","0,0724, ","0.0","0,1006","-2.2","0,1020","-11.1","0,1120","-11.1","0,1120","-11.1","0,1120","-1.7","0,0409","-3.3","0,0404","-11.1","0,0330","-11.1","0,0330","-11.1","0,0330","","","","","    760.8"," ,0","      768"," ,0","     11.14","0","     16.76","0","      5.51","0"
"USC00135837","1965","41.4076","-91.0727","167.3","MUSCATINE, IA US","    509.4","","     509.4","0","       110","0","        85","0","        13","0","       43","","        13","0","        11","0","       123","0","        38","0","       154","0","        12","0","","","        42"," ","  -25.0","0,0202, ","   127"," ,0,0325,+","   127"," ,0,0304, "," 117.6"," ,0,0424, ","   35.6","0,0723, ","-3.3","0,1024","-3.3","0,1024","-7.2","0,1114","-7.2","0,1114","-10.6","0,1129","-0.6","0,0419","-3.3","0,0331","-5.0","0,0330","-8.9","0,0327","-8.9","0,0327","    3560.1","1","    3560.1","0","   1249.5"," ,0","      852"," ,0","     10.34","0","     15.68","0","      4.99","0"
"USC00135837","1966","41.4076","-91.0727","167.3","MUSCATINE, IA US","    516.4","","     516.4","0","        92","0","        48","0","        11","0","       31","","         3","0","        14","0","       128","0","        53","0","       151","0","        24","0","","","        36"," ","  -28.9","0,0129, ","   127"," ,0,1229,+","   140"," ,0,1228, ","  42.2"," ,0,1013, ","   37.2","0,0718,+","-1.7","0,1025","-8.3","0,1102","-8.3","0,1102","-8.3","0,1102","-9.4","0,1103","-0.6","0,0510","-2.2","0,0409","-6.7","0,0328","-6.7","0,0328","-8.9","0,0324","    3383.5","5","    3383.5","0","    802.5"," ,0","      353"," ,0","     10.12","0","     15.91","0","      4.33","0"
"USC00135837","1967","41.4076","-91.0727","167.3","MUSCATINE, IA US","    402.0","","     402.0","0","       114","0","        71","0","        10","0","       53","","        11","0","         9","0","       129","0","        37","0","       149","0","         7","0","","","        45"," ","  -24.4","0,0118, ","   203"," ,0,0127, ","   178"," ,0,1026,+"," 241.6"," ,0,0607, ","   33.3","0,0726,+","-0.6","0,0929","-3.3","0,1028","-5.6","0,1104","-6.7","0,1115","-9.4","0,1128","0.0","0,0503","-3.9","0,0424","-12.2","0,0318","-12.2","0,0318","-12.2","0,0318","    3351.9","9","    3351.9","0","   1149.3"," ,0","      843"," ,0","      9.85","0","     15.28","0","      4.43","0"
"USC00135837","1968","41.4076","-91.0727","167.3","MUSCATINE, IA US","    554.2","","     554.2","0","       101","0","        63","0","         3","0","       34","","        11","0","        12","0","       129","0","        40","0","       157","0","        20","0","","","        26"," ","  -26.1","0,0107, ","   152"," ,0,0114,+","    51"," ,0,1227,+","  50.3"," ,0,0924, ","   36.1","0,0823, ","-0.6","0,1004","-3.3","0,1025","-6.7","0,1112","-6.7","0,1112","-10.6","0,1207","-0.6","0,0425","-3.3","0,0401","-8.3","0,0323","-8.3","0,0323","-9.4","0,0313","    3393.8","8","    3393.8","0","    765.3"," ,0","      496"," ,0","     10.64","0","     16.27","0","      5.02","0"
"USC00135837","1969","41.4076","-91.0727","167.3","MUSCATINE, IA US","    513.3","","     513.3","0","       109","0","        70","0","         8","0","       60","","        11","0","        10","0","       142","0","        50","0","       149","0","        10","0","","","        38"," ","  -23.9","0,0104, ","   152"," ,0,1228,+","   178"," ,0,1207, ","  38.4"," ,0,0608, ","   34.4","0,0716,+","-1.1","0,1014","-3.9","0,1023","-4.4","0,1027","-10.0","0,1114","-10.0","0,1114","-1.1","0,0419","-10.0","0,0331","-10.0","0,0331","-10.0","0,0331","-10.0","0,0331","    3487.7","7","    3487.7","0","    886.4"," ,0","      749"," ,0","      9.93","0","     15.32","0","      4.54","0"
"USC00135837","1970","41.4076","-91.0727","167.3","MUSCATINE, IA US","    587.4","","     587.4","0","       115","0","        72","0","        12","0","       52","","         8","0","        15","0","       132","0","        42","0","       152","0","        15","0","","","        39"," ","  -29.4","0,0121, ","   178"," ,0,0123,+","   127"," ,0,0325, ","  94.0"," ,0,0921, ","   36.1","0,0701, ","-1.1","0,1016","-3.9","0,1115","-7.8","0,1122","-7.8","0,1122","-13.9","0,1123","-0.6","0,0410","-2.8","0,0404","-5.6","0,0330","-7.8","0,0329","-13.3","0,0328","    3632.7","7","    3632.7","0","   1039.0"," ,0","      680"," ,0","     10.24","0","     15.54","0","      4.94","0"
"USC00135837","1971","41.4076","-91.0727","167.3","MUSCATINE, IA US","    622.0","","     622.0","0","        93","0","        59","0","         6","0","       50","","         7","0","        15","0","       128","0","        37","0","       174","0","        25","0","","","        32"," ","  -25.0","0,0120, ","   330"," ,0,0103, ","   330"," ,0,0103, "," 146.1"," ,0,0710, ","   37.2","0,0619, ","-3.3","0,1104","-3.3","0,1104","-6.7","0,1106","-6.7","0,1106","-9.4","0,1107","0.0","0,0424","-4.4","0,0406","-4.4","0,0406","-9.4","0,0324","-9.4","0,0324","    3507.5","5","    3507.5","0","    795.2"," ,0","      623"," ,0","     10.81","0","     16.43","0","      5.20","0"
"USC00135837","1972","41.4076","-91.0727","167.3","MUSCATINE, IA US","    544.8","","     544.8","0","       116","0","        71","0","         8","0","       65","","        15","0","        20","0","       141","0","        51","0","       147","0","        18","0","","","        33"," ","  -26.7","0,0116,+","   279"," ,0,0211,+","   165"," ,0,0123, ","  72.9"," ,0,0806, ","   35.6","0,0603, ","0.0","0,0930","-8.3","0,1019","-8.3","0,1019","-8.3","0,1019","-9.4","0,1115","-1.1","0,0425","-8.3","0,0408","-8.3","0,0408","-8.3","0,0408","-15.0","0,0305","    3410.2","2","    3410.2","0","   1006.7"," ,0","     1306"," ,0","      9.39","0","     14.60","0","      4.17","0"
"USC00135837","1973","41.4076","-91.0727","167.3","MUSCATINE, IA US","    542.4","","     542.4","0","       130","0","        93","0","        13","0","       25","","         9","0","         8","0","        99","0","        37","0","       151","0","        16","0","","","        36"," ","  -22.2","0,1221, ","   178"," ,0,1221,+","   102"," ,0,1219, ","  72.9"," ,0,0927, ","   35.0","0,0708, ","-1.7","0,1103","-7.2","0,1105","-7.2","0,1105","-7.2","0,1105","-10.6","0,1206","-2.2","0,0413","-2.2","0,0413","-5.6","0,0410","-7.8","0,0222","-17.8","0,0217","    3339.7","7","    3339.7","0","   1221.1"," ,0","      510"," ,0","     11.30","0","     16.30","0","      6.29","0"
"USC00135837","1974","41.4076","-91.0727","167.3","MUSCATINE, IA US","    438.7","","     438.7","0","       117","0","        77","0","         4","0","       39","","        11","0","         9","0","       120","0","        40","0","       148","0","        18","0","","","        38"," ","  -29.4","0,0112, ","   203"," ,0,1130,+","   229"," ,0,1130, ","  39.6"," ,0,0518, ","   36.7","0,0718,+","-0.6","0,0922","-3.3","0,1002","-5.0","0,1114","-7.2","0,1125","-8.9","0,1202","0.0","0,0506","-3.3","0,0408","-7.8","0,0325","-7.8","0,0325","-16.7","0,0324","    3244.2","2","    3244.2","0","    917.9"," ,0","     1059"," ,0","     10.43","0","     15.75","0","      5.11","0"
"USC00135837","1975","41.4076","-91.0727","167.3","MUSCATINE, IA US","    586.8","","     586.8","0","       121","0","        66","0","         6","0","       54","","        15","0","         5","0","       134","0","        38","0","       162","0","        26","0","","","        51"," ","  -22.8","0,0209, ","   279"," ,0,0224, ","   229"," ,0,0224, ","  36.6"," ,0,0723, ","   36.1","0,0804, ","-1.1","0,1002","-2.2","0,1019","-6.7","0,1114","-6.7","0,1114","-12.2","0,1128","0.0","0,0413","-2.2","0,0412","-10.6","0,0404","-10.6","0,0404","-10.6","0,0404","    3485.1","1","    3485.1","0","    815.5"," ,0","     1220"," ,0","     10.64","0","     15.96","0","      5.33","0"
"USC00135837","1976","41.4076","-91.0727","167.3","MUSCATINE, IA US","    467.6","","     467.6","0","        82","0","        55","0","         9","0","       47","","         5","0","        19","0","       142","0","        38","0","       155","0","        12","0","","","        33"," ","  -25.0","0,1231, ","   127"," ,0,1208,+","   127"," ,0,0125, ","  84.3"," ,0,0304, ","   36.1","0,0714, ","-0.6","0,0924","-2.2","0,1016","-5.6","0,1022","-10.0","0,1108","-10.0","0,1108","-0.6","0,0503","-2.2","0,0412","-6.1","0,0322","-7.2","0,0317","-9.4","0,0306","    3036.2","2","    3036.2","0","    820.3"," ,0","      432"," ,0","      9.87","0","     15.96","0","      3.77","0"
"USC00135837","1977","41.4076","-91.0727","167.3","MUSCATINE, IA US","    622.8","","     622.8","0","       122","0","        75","0","         9","0","       74","","        18","0","        29","0","       114","0","        59","0","       165","0","        20","0","","","        47"," ","  -28.9","0,0116, ","   203"," ,0,1209,+","   140"," ,0,1205, ","  90.9"," ,0,0630, ","   37.2","0,0714, ","-1.1","0,1016","-5.0","0,1111","-5.0","0,1111","-7.2","0,1112","-15.6","0,1125","-6.7","0,0406","-6.7","0,0406","-6.7","0,0406","-6.7","0,0406","-8.9","0,0301","    3668.1","1","    3668.1","0","   1087.8"," ,0","     1099"," ,0","     10.58","0","     16.08","0","      5.09","0"
"USC00135837","1978","41.4076","-91.0727","167.3","MUSCATINE, IA US","","","","","","","","","","","","","","","","","","","","","","","","","","","        38"," ","","","","","","","","","","","","","","","","","","","","","","","","","","","","","","","","","","","","","","","","","","","",""
"USC00135837","1979","41.4076","-91.0727","167.3","MUSCATINE, IA US","    540.1","","     540.1","0","       107","0","        59","0","         8","0","       75","","         7","0","        28","0","       140","0","        56","0","       154","0","        11","0","","","        23"," ","  -28.3","0,0209,+","   610"," ,0,0119, ","   330"," ,0,0113, ","  46.2"," ,0,0703, ","   34.4","0,0807,+","0.0","0,1007","-2.8","0,1013","-6.1","0,1102","-6.7","0,1110","-13.3","0,1202","0.0","0,0410","-2.2","0,0407","-8.3","0,0406","-8.3","0,0406","-13.9","0,0315","    3931.8","8","    3931.8","0","    775.4"," ,0","      720"," ,0","      9.24","0","     14.99","0","      3.49","0"
"USC00135837","1980","41.4076","-91.0727","167.3","MUSCATINE, IA US","","","","","        98","0","        61","0","         8","0","","","","","","","","","        46","0","       152","0","        32","0","","","","","","","","","","","  63.8"," ,0,0804, ","   37.8","0,0714, ","","","","","","","","","","","","","","","","","","","","","","","","","    834.6"," ,0","","","","","     16.07","0","",""
"USC00135837","1982","41.4076","-91.0727","167.3","MUSCATINE, IA US","","","","","       113","0","        74","0","        12","0","","","","","        22","0","       134","0","","","","","","","         5"," ","         2"," ","  -33.3","0,0110, ","","","","","  80.0"," ,0,0805, ","","","0.0","0,1016","-5.0","0,1022","-5.0","0,1022","-7.8","0,1112","-10.6","0,1113","-2.2","0,0421","-2.2","0,0421","-6.7","0,0411","-6.7","0,0411","-10.0","0,0407","","","","","   1267.5"," ,0","","","","","","","      3.76","0"
"USC00135837","1983","41.4076","-91.0727","167.3","MUSCATINE, IA US","    683.1","","     683.1","0","       124","0","        74","0","         8","0","       47","","        15","0","        15","0","       133","0","        44","0","       148","0","        50","0","         9"," ","         5"," ","  -28.9","0,1219, ","   152"," ,0,1228,+","    97"," ,0,1206, ","  64.5"," ,0,0822, ","   40.0","0,0728,+","0.0","0,0922","-3.3","0,1105","-5.0","0,1117","-7.8","0,1130","-10.0","0,1201","-3.3","0,0420","-3.3","0,0420","-6.1","0,0419","-6.7","0,0324","-8.9","0,0323","","","","","    901.1"," ,0","      786"," ,0","     10.54","0","     16.21","0","      4.87","0"
"USC00135837","1984","41.4076","-91.0727","167.3","MUSCATINE, IA US","","","","","       111","0","        70","0","         8","0","       51","","        12","0","        12","0","       141","0","","","","","","","         7"," ","         4"," ","  -27.8","0,0121, ","   229"," ,0,0102, ","   102"," ,0,0130, ","  79.5"," ,0,1019, ","","","-0.6","0,0926","-3.3","0,0929","-6.1","0,1102","-7.2","0,1112","-8.9","0,1120","-2.2","0,0508","-2.2","0,0508","-4.4","0,0323","-7.2","0,0313","-13.3","0,0312","","","","","    974.1"," ,0","      668"," ,0","","","","","      4.04","0"
"USC00135837","1985","41.4076","-91.0727","167.3","MUSCATINE, IA US","    516.3","","     516.3","0","       114","0","        75","0","         9","0","       83","","        11","0","        26","0","       129","0","        66","0","       160","0","        20","0","         3"," ","         7"," ","  -30.6","0,0120, ","   203"," ,0,0215,+","   206"," ,0,0101, ","  56.6"," ,0,0810, ","   36.7","0,0907,+","-1.1","0,1004","-3.9","0,1105","-6.1","0,1119","-11.1","0,1120","-11.1","0,1120","-6.1","0,0409","-6.1","0,0409","-6.1","0,0409","-8.3","0,0306","-8.9","0,0220","    3268.1","1","    3268.1","0","   1025.9"," ,0","      886"," ,0","      9.41","0","     15.31","0","      3.51","0"
"USC00135837","1986","41.4076","-91.0727","167.3","MUSCATINE, IA US","","","","","       107","0","        77","0","         8","0","","","         3","0","","","","","","","","","","","","","         2"," ","","","","","   127"," ,0,0207, ","  75.4"," ,0,0526, ","","","","","","","","","","","","","","","","","","","","","","","    3484.6","6","    3484.6","0","   1002.4"," ,0","      340"," ,0","","","","","",""
"USC00135837","1987","41.4076","-91.0727","167.3","MUSCATINE, IA US","    784.9","","     784.9","0","        99","0","        50","0","         6","0","       28","","         4","0","         4","0","       134","0","        18","0","       168","0","        49","0","","","         1"," ","  -21.1","0,0123, ","   254"," ,0,1217,+","   254"," ,0,1215, ","  87.9"," ,0,0826, ","   40.0","0,0801, ","-2.8","0,1003","-2.8","0,1003","-5.0","0,1011","-10.0","0,1121","-10.0","0,1121","0.0","0,0408","-8.9","0,0404","-8.9","0,0404","-8.9","0,0404","-8.9","0,0404","","","","","    712.2"," ,0","      419"," ,0","     12.30","0","     18.50","0","      6.11","0"
"USC00135837","1988","41.4076","-91.0727","167.3","MUSCATINE, IA US","    780.0","","     780.0","0","","","","","","","","","","","        19","0","       154","0","        40","0","       168","0","        66","0","","","         1"," ","  -25.0","0,0213, ","","","","","","","   40.6","0,0817,+","-0.6","0,1003","-3.3","0,1005","-4.4","0,1006","-7.2","0,1011","-11.1","0,1127","-2.2","0,0424","-2.2","0,0424","-5.0","0,0327","-7.8","0,0315","-9.4","0,0314","    3309.5","5","    3309.5","0","","","","","     10.74","0","     17.93","0","      3.55","0"
"USC00135837","1989","41.4076","-91.0727","167.3","MUSCATINE, IA US","    558.1","","     558.1","0","        94","0","        55","0","         5","0","","","        10","0","        24","0","       148","0","        43","0","       160","0","        21","0","","","         3"," ","  -30.6","0,1223, ","","","   102"," ,0,0213, ","  55.9"," ,0,0907, ","   38.3","0,0710, ","-0.6","0,0924","-2.2","0,1004","-7.2","0,1116","-7.2","0,1116","-11.7","0,1117","0.0","0,0507","-2.8","0,0419","-6.7","0,0413","-6.7","0,0413","-8.9","0,0322","    3587.3","3","    3587.3","0","    680.1"," ,0","      474"," ,0","      9.64","0","     16.04","0","      3.24","0"
"USC00135837","1990","41.4076","-91.0727","167.3","MUSCATINE, IA US","    603.7","","     603.7","0","       125","0","        75","0","        15","0","","","         5","0","         6","0","       120","0","        17","0","       156","0","        17","0","","","","","  -21.1","0,1222, ","","","   198"," ,0,0125, "," 104.6"," ,0,0617, ","   36.7","0,0827,+","0.0","0,1011","-2.8","0,1022","-6.7","0,1108","-6.7","0,1108","-12.2","0,1204","-3.3","0,0418","-3.3","0,0418","-4.4","0,0412","-8.3","0,0228","-8.9","0,0226","    3266.4","4","    3266.4","0","   1280.8"," ,0","      591"," ,0","     11.67","0","     17.08","0","      6.27","0"
"USC00135837","1991","41.4076","-91.0727","167.3","MUSCATINE, IA US","    808.3","","     808.3","0","       109","0","        61","0","         7","0","       44","","         6","0","         6","0","       125","0","        39","0","       164","0","        42","0","","","","","  -22.2","0,0122, ","   152"," ,0,0107,+","   127"," ,0,0105, ","  42.7"," ,0,0313, ","   38.9","0,0802, ","-1.7","0,0920","-2.2","0,1016","-8.9","0,1102","-8.9","0,1102","-8.9","0,1102","-1.1","0,0401","-5.0","0,0330","-5.0","0,0330","-6.7","0,0310","-8.9","0,0226","    3132.2","2","    3132.2","0","    728.7"," ,0","      420"," ,0","     11.54","0","     17.13","0","      5.95","0"
"USC00135837","1992","41.4076","-91.0727","167.3","MUSCATINE, IA US","    391.4","","     391.4","0","       111","0","        72","0","         8","0","       23","","         7","0","         4","0","       115","0","        24","0","       155","0","         7","0","","","","","  -22.2","0,0116, ","   152"," ,0,1211,+","   152"," ,0,1210, ","  73.9"," ,0,0910, ","   33.9","0,0617,+","-3.9","0,1017","-3.9","0,1017","-5.6","0,1019","-9.4","0,1128","-9.4","0,1128","-0.6","0,0506","-3.9","0,0402","-5.0","0,0323","-11.1","0,0313","-11.1","0,0313","    3160.4","4","    3160.4","0","   1013.5"," ,0","      465"," ,0","     10.66","0","     15.84","0","      5.47","0"
"USC00135837","1993","41.4076","-91.0727","167.3","MUSCATINE, IA US","    509.7","","     509.7","0","       141","0","        81","0","        21","0","       38","","         8","0","         7","0","       132","0","        57","0","       141","0","         5","0","","","","","  -22.8","0,0224, ","   127"," ,0,0111,+","   102"," ,0,0110, ","  85.1"," ,0,0816, ","   33.9","0,0826,+","-1.7","0,1010","-4.4","0,1031","-4.4","0,1031","-7.2","0,1101","-8.9","0,1126","-0.6","0,0422","-2.8","0,0417","-5.0","0,0402","-9.4","0,0318","-9.4","0,0318","    3581.8","8","    3581.8","0","   1503.6"," ,0","      406"," ,0","      9.94","0","     14.66","0","      5.22","0"
"USC00135837","1994","41.4076","-91.0727","167.3","MUSCATINE, IA US","    546.9","","     546.9","0","        91","0","        63","0","         4","0","","","         9","0","        17","0","       115","0","        47","0","       165","0","        21","0","","","","","  -31.1","0,0119, ","","","   152"," ,0,0223, ","  34.8"," ,0,0619, ","   33.9","0,0914,+","-0.6","0,1030","-3.9","0,1116","-4.4","0,1119","-8.9","0,1210","-8.9","0,1210","-6.7","0,0407","-6.7","0,0407","-6.7","0,0407","-6.7","0,0407","-20.6","0,0227","    3570.7","7","    3570.7","0","    697.0"," ,0","      660"," ,0","     10.73","0","     16.38","0","      5.07","0"
"USC00135837","1995","41.4076","-91.0727","167.3","MUSCATINE, IA US","    635.6","","     635.6","0","       102","0","        69","0","         8","0","       45","","         9","0","         6","0","       132","0","        49","0","       148","0","        34","0","         2"," ","","","  -23.3","0,0104, ","   203"," ,0,0122,+","   203"," ,0,0120, ","  58.4"," ,0,0810, ","   38.3","0,0713, ","-0.6","0,1015","-2.8","0,1022","-8.3","0,1104","-8.3","0,1104","-11.1","0,1112","0.0","0,0425","-7.8","0,0404","-7.8","0,0404","-7.8","0,0404","-15.0","0,0309","    3091.3","3","    3091.3","0","    951.6"," ,0","      562"," ,0","     10.38","0","     15.74","0","      5.01","0"
"USC00135837","1996","41.4076","-91.0727","167.3","MUSCATINE, IA US","    494.1","","     494.1","0","        96","0","        61","0","         7","0","       29","","         5","0","        17","0","       139","0","        50","0","       142","0","        19","0","         5"," ","","","  -36.7","0,0203, ","   178"," ,0,0127, ","   152"," ,0,0127, ","  87.6"," ,0,0510, ","   35.6","0,0629, ","-2.2","0,1019","-2.2","0,1019","-6.1","0,1101","-6.7","0,1103","-11.1","0,1112","0.0","0,0501","-3.9","0,0410","-6.1","0,0409","-7.8","0,0327","-10.0","0,0326","    3686.8","8","    3686.8","0","    803.3"," ,0","      422"," ,0","      9.52","0","     14.93","0","      4.11","0"
"USC00135837","1997","41.4076","-91.0727","167.3","MUSCATINE, IA US","","","","","       118","0","        70","0","         8","0","","","        18","0","","","","","        45","0","       154","0","        19","0","","","","","","","","","   229"," ,0,0412, ","  67.1"," ,0,0817, ","   36.7","0,0727,+","","","","","","","","","","","","","","","","","","","","","    3586.7","7","    3586.7","0","    896.5"," ,0","     1214"," ,0","","","     15.46","0","",""
"USC00135837","1998","41.4076","-91.0727","167.3","MUSCATINE, IA US","    674.8","","     674.8","0","       124","0","        80","0","        13","0","","","         6","0","         3","0","        91","0","        24","0","       163","0","        23","0","","","","","  -22.2","0,1231, ","","","    51"," ,0,0115,+","  78.7"," ,0,0828, ","   36.7","0,0720, ","-0.6","0,1022","-2.8","0,1105","-5.0","0,1107","-7.2","0,1121","-11.1","0,1221","-4.4","0,0324","-4.4","0,0324","-4.4","0,0324","-7.8","0,0314","-15.6","0,0312","","","","","   1253.3"," ,0","      236"," ,0","     12.43","0","     17.29","0","      7.57","0"
"USC00135837","1999","41.4076","-91.0727","167.3","MUSCATINE, IA US","    597.8","","     597.8","0","        95","0","        58","0","         9","0","       45","","         7","0","         8","0","       111","0","        29","0","       169","0","        26","0","","","","","  -31.7","0,0105, ","   381"," ,0,0111,+","   178"," ,0,0309,+","  69.1"," ,0,0928, ","   37.8","0,0729, ","-1.7","0,1018","-3.9","0,1024","-5.0","0,1103","-6.7","0,1125","-9.4","0,1130","-3.3","0,0327","-3.3","0,0327","-5.6","0,0326","-8.9","0,0312","-8.9","0,0312","    2971.4","4","    2971.4","0","    841.7"," ,0","      762"," ,0","     11.61","0","     17.28","0","      5.94","0"
"USC00135837","2000","41.4076","-91.0727","167.3","MUSCATINE, IA US","","","","","       112","0","        74","0","         9","0","","","        13","0","","","","","        47","0","       172","0","        15","0","","","","","","","","","   178"," ,0,0219, ","  91.7"," ,0,0625, ","   37.2","0,0901, ","","","","","","","","","","","","","","","","","","","","","","","","","   1087.4"," ,0","      998"," ,0","","","     16.56","0","",""
"USC00135837","2001","41.4076","-91.0727","167.3","MUSCATINE, IA US","    612.0","","     612.0","0","       125","0","        80","0","        14","0","       42","","         6","0","         6","0","       120","0","        41","0","       156","0","        23","0","","","","","  -23.9","0,0101, ","   457"," ,0,0102,+","    51"," ,0,0316,+","  74.7"," ,0,0919, ","   36.1","0,0809, ","-1.1","0,1006","-2.8","0,1017","-6.7","0,1209","-6.7","0,1209","-10.0","0,1224","-1.7","0,0418","-3.9","0,0401","-8.3","0,0329","-8.3","0,0329","-10.6","0,0326","    3556.3","3","    3556.3","0","   1108.4"," ,0","      290"," ,0","     11.38","0","     16.79","0","      5.97","0"
"USC00135837","2002","41.4076","-91.0727","167.3","MUSCATINE, IA US","    687.5","","     687.5","0","       107","0","        62","0","         8","0","       22","","         5","0","         1","0","       127","0","        21","0","       153","0","        36","0","","","","","  -22.8","0,0304, ","   254"," ,0,0131, ","   241"," ,0,0131, ","  58.4"," ,0,0512, ","   35.6","0,0708, ","0.0","0,1016","-3.3","0,1020","-5.0","0,1101","-10.0","0,1125","-10.0","0,1125","-1.7","0,0406","-5.0","0,0405","-5.0","0,0405","-10.0","0,0322","-10.0","0,0322","    2898.1","1","    2898.1","0","    857.8"," ,0","      492"," ,0","     11.43","0","     17.04","0","      5.82","0"
"USC00135837","2003","41.4076","-91.0727","167.3","MUSCATINE, IA US","    545.7","","     545.7","0","        99","0","        55","0","         7","0","       25","","         9","0","         5","0","       129","0","        43","0","       168","0","        21","0","","","","","  -22.2","0,0127, ","   152"," ,0,0305, ","   152"," ,0,0305, ","  66.0"," ,0,0626, ","   36.7","0,0826, ","-3.9","0,1002","-3.9","0,1002","-5.6","0,1107","-7.8","0,1108","-9.4","0,1129","-0.6","0,0411","-3.3","0,0410","-5.0","0,0409","-11.7","0,0311","-11.7","0,0311","    3431.7","7","    3431.7","0","    718.4"," ,0","      526"," ,0","     10.65","0","     16.46","0","      4.84","0"
"USC00135837","2004","41.4076","-91.0727","167.3","MUSCATINE, IA US","    471.4","","     471.4","0","       116","0","        73","0","         7","0","       35","","         9","0","         9","0","       110","0","        39","0","       168","0","         5","0","","","","","  -23.9","0,0201,+","   254"," ,0,0208,+","   127"," ,0,0316, ","  49.5"," ,0,0530, ","   33.9","0,0713, ","0.0","0,1002","-2.2","0,1005","-5.0","0,1113","-7.8","0,1125","-11.1","0,1214","0.0","0,0503","-7.8","0,0322","-7.8","0,0322","-7.8","0,0322","-9.4","0,0312","    3074.0","0","    3074.0","0","    877.9"," ,0","      693"," ,0","     11.09","0","     16.53","0","      5.66","0"
"USC00135837","2005","41.4076","-91.0727","167.3","MUSCATINE, IA US","    751.2","","     751.2","0","       107","0","        55","0","         1","0","","","        11","0","         9","0","       123","0","        36","0","       173","0","        40","0","","","","","  -23.9","0,1207, ","","","   165"," ,0,0106, ","  33.8"," ,0,0412, ","   38.3","0,0724, ","-0.6","0,1026","-2.2","0,1028","-4.4","0,1110","-6.7","0,1116","-12.2","0,1117","-2.2","0,0504","-2.2","0,0504","-8.9","0,0315","-8.9","0,0315","-8.9","0,0315","    3009.0","0","    3009.0","0","    541.8"," ,0","      583"," ,0","     11.66","0","     17.23","0","      6.09","0"
"USC00135837","2006","41.4076","-91.0727","167.3","MUSCATINE, IA US","    621.4","","     621.4","0","       120","0","        70","0","         4","0","","","         5","0","         2","0","       113","0","        15","0","       159","0","        22","0","","","         1"," ","  -22.2","0,0218, ","","","   102"," ,0,0121, ","  53.8"," ,0,0129, ","   37.2","0,0717, ","-1.1","0,1012","-3.3","0,1013","-6.1","0,1101","-8.9","0,1103","-8.9","0,1103","-0.6","0,0426","-5.0","0,0326","-5.0","0,0326","-6.7","0,0322","-11.7","0,0226","    3017.5","5","    3017.5","0","    813.4"," ,0","      318"," ,0","     11.99","0","     17.47","0","      6.52","0"
"USC00135837","2007","41.4076","-91.0727","167.3","MUSCATINE, IA US","    697.4","","     697.4","0","       113","0","        71","0","        11","0","","","","","        14","0","       131","0","        53","0","       182","0","        17","0","","","","","  -23.3","0,0205, ","","","","","  81.3"," ,0,0622, ","   34.4","0,0616, ","-1.7","0,1028","-2.2","0,1102","-6.7","0,1107","-6.7","0,1107","-8.9","0,1129","-2.8","0,0415","-2.8","0,0415","-7.8","0,0407","-7.8","0,0407","-12.8","0,0304","    3170.3","3","    3170.3","0","   1164.1"," ,0","","","     11.24","0","     16.74","0","      5.74","0"
"USC00135837","2008","41.4076","-91.0727","167.3","MUSCATINE, IA US","    491.6","","     491.6","0","       140","0","        88","0","        14","0","","","        14","0","        15","0","       127","0","        52","0","       156","0","         4","0","         1"," ","         1"," ","  -24.4","0,0124, ","","","   254"," ,0,0206, ","  84.8"," ,0,0913, ","   34.4","0,0804, ","-3.9","0,1028","-3.9","0,1028","-5.6","0,1110","-8.3","0,1118","-11.1","0,1121","-1.7","0,0429","-2.8","0,0402","-6.1","0,0311","-15.0","0,0308","-15.0","0,0308","    3472.8","8","    3472.8","0","   1325.2"," ,0","     1053"," ,0","      9.75","0","     15.21","0","      4.29","0"
"USC00135837","2009","41.4076","-91.0727","167.3","MUSCATINE, IA US","    374.9","","     374.9","0","       143","0","        89","0","        19","0","       44","","        12","0","        11","0","       116","0","        50","0","       150","0","         6","0","","","","","  -33.3","0,0116, ","   229"," ,0,0115,+","   279"," ,0,0113, "," 103.1"," ,0,0827, ","   35.6","0,0623, ","-3.3","0,1010","-3.3","0,1010","-4.4","0,1105","-8.3","0,1204","-13.9","0,1209","0.0","0,0415","-2.2","0,0409","-4.4","0,0408","-12.2","0,0312","-12.2","0,0312","    3444.3","3","    3444.3","0","   1443.5"," ,0","      894"," ,0","     10.05","0","     15.30","0","      4.80","0"
"USC00135837","2010","41.4076","-91.0727","167.3","MUSCATINE, IA US","    693.7","","     693.7","0","       125","0","        90","0","        18","0","       65","","         8","0","        11","0","       116","0","        62","0","       168","0","        16","0","","","","","  -26.7","0,0110, ","   203"," ,0,0111,+","   114"," ,0,1225, ","  48.8"," ,0,0624, ","   33.9","0,0714, ","-3.9","0,1029","-3.9","0,1029","-5.6","0,1106","-8.9","0,1126","-8.9","0,1126","-1.7","0,0409","-3.3","0,0326","-6.7","0,0305","-6.7","0,0305","-10.0","0,0228","    3278.7","7","    3278.7","0","   1359.4"," ,0","      589"," ,0","     10.99","0","     16.38","0","      5.60","0"
"USC00135837","2011","41.4076","-91.0727","167.3","MUSCATINE, IA US","    707.7","","     707.7","K","       103","K","        67","K","         9","K","","","","","         7","K","       123","K","        40","K","       152","K","        33","K","","","","","  -27.2","K,0210, ","","","","","  40.1"," ,K,0723, ","   37.2","K,0901,+","-1.7","K,1021","-3.3","K,1028","-7.2","K,1117","-7.2","K,1117","-9.4","K,1130","-2.2","K,0504","-2.2","K,0504","-4.4","K,0328","-6.7","K,0302","-8.9","K,0212","    3428.6","6","    3428.6","K","    846.0"," ,K","","","     11.18","K","     16.69","K","      5.67","K"
"USC00135837","2012","41.4076","-91.0727","167.3","MUSCATINE, IA US","    775.0","","     775.0","7","        89","7","        62","7","         7","7","       27","","         8","7","         1","7","       118","7","        19","7","       184","7","        52","7","","","","","  -19.4","7,0114, ","   127"," ,7,1223,+","   127"," ,7,1221, ","  64.3"," ,7,0415, ","   40.0","7,0723, ","0.0","7,0924","-3.9","7,1006","-4.4","7,1029","-6.7","7,1113","-8.9","7,1123","-2.2","K,0412","-2.2","K,0412","-12.8","K,0305","-12.8","K,0305","-12.8","K,0305","    2604.8","8","    2604.8","7","    818.4"," ,7","      433"," ,7","     12.73","7","     19.06","7","      6.40","7"
"USC00135837","2013","41.4076","-91.0727","167.3","MUSCATINE, IA US","    594.8","","     594.8","7","       119","7","        68","7","         8","7","       55","","        12","7","        12","7","       146","7","        56","7","       155","7","        26","7","","","","","  -25.0","7,1225, ","   152"," ,7,0307,+","   127"," ,7,0306, ","  82.3"," ,7,0418, ","   38.3","7,0910,+","-1.1","7,1022","-4.4","7,1025","-4.4","7,1025","-7.8","7,1112","-9.4","7,1113","-1.7","7,0420","-3.3","7,0404","-7.2","7,0402","-7.2","7,0402","-11.7","7,0321","    3540.6","6","    3540.6","7","   1008.0"," ,7","      826"," ,7","      9.60","7","     15.40","7","      3.80","7"
"USC00135837","2014","41.4076","-91.0727","167.3","MUSCATINE, IA US","    452.4","","     452.4","7","       117","7","        67","7","        12","7","       48","","        16","7","        32","7","       144","7","        66","7","       149","7","         5","7","","","","","  -28.9","7,0212, ","   178"," ,7,0218,+","   152"," ,7,0218, "," 127.0"," ,7,0701, ","   33.9","7,0826,+","0.0","7,1020","-3.9","7,1101","-5.0","7,1102","-6.7","7,1113","-10.6","7,1114","-1.7","7,0419","-3.3","7,0416","-8.9","7,0327","-8.9","7,0327","-8.9","7,0327","    4157.6","6","    4157.6","7","   1095.5"," ,7","      956"," ,7","      8.22","7","     14.11","7","      2.32","7"
"USC00135837","2015","41.4076","-91.0727","167.3","MUSCATINE, IA US","    525.6","","     525.6","7","       120","7","        74","7","        14","7","       41","","         9","7","        22","7","       134","7","        41","7","       162","7","        13","7","","","","","  -27.8","7,0301,+","   152"," ,7,0106, ","   152"," ,7,0106, "," 125.0"," ,7,0707, ","   35.6","7,0907, ","-2.8","7,1017","-2.8","7,1017","-4.4","7,1111","-15.6","7,1121","-15.6","7,1121","-2.2","7,0424","-2.2","7,0424","-5.0","7,0405","-14.4","7,0307","-14.4","7,0307","    3770.7","7","    3770.7","7","   1246.0"," ,7","      738"," ,7","     10.35","7","     16.31","7","      4.40","7"
"USC00135837","2016","41.4076","-91.0727","167.3","MUSCATINE, IA US","    619.9","","     619.9","7","       111","7","        67","7","        11","7","       23","","         4","7","         9","7","       119","7","        42","7","       167","7","        19","7","","","","","  -26.1","7,1219, ","   102"," ,7,1219,+","    76"," ,7,1218, ","  82.3"," ,7,0622, ","   35.6","7,0616, ","0.0","7,1013","-3.3","7,1112","-7.2","7,1120","-7.2","7,1120","-9.4","7,1208","-0.6","7,0413","-2.2","7,0412","-11.7","7,0303","-11.7","7,0303","-11.7","7,0303","    3068.4","4","    3068.4","7","    935.0"," ,7","      234"," ,7","     11.54","7","     17.09","7","      5.99","7"
"USC00135837","2017","41.4076","-91.0727","167.3","MUSCATINE, IA US","    507.9","","     507.9","7","       120","7","        71","7","        11","7","        9","","         1","7","         7","7","       132","7","        25","7","       177","7","        26","7","","","","","  -23.3","7,1228,+","   127"," ,7,1230, ","    64"," ,7,1230, ","  59.7"," ,7,0921, ","   35.6","7,0614, ","-5.6","7,1029","-5.6","7,1029","-5.6","7,1029","-6.7","7,1108","-8.9","7,1122","0.0","7,0408","-3.9","7,0319","-5.0","7,0317","-11.7","7,0316","-11.7","7,0316","    2989.8","8","    2989.8","7","    988.4"," ,7","      137"," ,7","     11.01","7","     17.04","7","      4.98","7"
"USC00135837","2018","41.4076","-91.0727","167.3","MUSCATINE, IA US","","","","","       129","7","        87","7","        13","7","       31","","         7","7","        19","7","       156","7","","","","","","","","","","","  -30.6","7,0103,+","   178"," ,7,1126, ","   178"," ,7,1126, ","  94.0"," ,7,0903, ","","","0.0","7,1016","-3.9","7,1021","-4.4","7,1022","-10.6","7,1110","-10.6","7,1110","-2.8","7,0421","-2.8","7,0421","-4.4","7,0411","-7.8","7,0409","-9.4","7,0408","    3650.5","5","    3650.5","7","   1234.4"," ,7","      641"," ,7","","","","","      4.08","7"
"USC00135837","2019","41.4076","-91.0727","167.3","MUSCATINE, IA US","    603.2","","     603.2","7","       150","7","        91","7","        14","7","       66","","        16","7","        14","7","       149","7","        47","7","       150","7","        26","7","","","","","  -35.0","7,0131, ","   305"," ,7,0202,+","   191"," ,7,0123, ","  53.1"," ,7,0529, ","   36.7","7,0721, ","0.0","7,1014","-2.2","7,1030","-5.6","7,1101","-10.6","7,1108","-10.6","7,1108","-1.1","7,0428","-2.2","7,0415","-4.4","7,0401","-7.8","7,0308","-13.9","7,0307","","","","","   1278.1"," ,7","      918"," ,7","      9.96","7","     15.67","7","      4.25","7"
"USC00135837","2020","41.4076","-91.0727","167.3","MUSCATINE, IA US","","","","","","","","","","","","","","","","","","","","","","","","","","","","","","","","","","","","","","","","","","","","","","","","","","","","","","","","","","","    3367.5","5","    3367.5","H","","","","","","","","","",""
