"STATION","DATE","LATITUDE","LONGITUDE","ELEVATION","NAME","CDSD","CDSD_ATTRIBUTES","CLDD","CLDD_ATTRIBUTES","DP01","DP01_ATTRIBUTES","DP10","DP10_ATTRIBUTES","DP1X","DP1X_ATTRIBUTES","DSND","DSND_ATTRIBUTES","DSNW","DSNW_ATTRIBUTES","DT00","DT00_ATTRIBUTES","DT32","DT32_ATTRIBUTES","DX32","DX32_ATTRIBUTES","DX70","DX70_ATTRIBUTES","DX90","DX90_ATTRIBUTES","DYFG","DYFG_ATTRIBUTES","DYTS","DYTS_ATTRIBUTES","EMNT","EMNT_ATTRIBUTES","EMSD","EMSD_ATTRIBUTES","EMSN","EMSN_ATTRIBUTES","EMXP","EMXP_ATTRIBUTES","EMXT","EMXT_ATTRIBUTES","FZF0","FZF0_ATTRIBUTES","FZF1","FZF1_ATTRIBUTES","FZF2","FZF2_ATTRIBUTES","FZF3","FZF3_ATTRIBUTES","FZF4","FZF4_ATTRIBUTES","FZF5","FZF5_ATTRIBUTES","FZF6","FZF6_ATTRIBUTES","FZF7","FZF7_ATTRIBUTES","FZF8","FZF8_ATTRIBUTES","FZF9","FZF9_ATTRIBUTES","HDSD","HDSD_ATTRIBUTES","HTDD","HTDD_ATTRIBUTES","PRCP","PRCP_ATTRIBUTES","SNOW","SNOW_ATTRIBUTES","TAVG","TAVG_ATTRIBUTES","TMAX","TMAX_ATTRIBUTES","TMIN","TMIN_ATTRIBUTES"
"USC00502607","1907","64.7856","-141.2036","259.1","EAGLE, AK US","","","","","","","","","","","","","","","       131"," ","       253","6","","","","","","","","","","","  -47.2","6,0120, ","","","","","","","","","-0.6","6,0823","-2.2","6,0824","-5.0","6,0902","-7.2","6,0918","-8.9","6,1002","-0.6","6,0719","-3.3","6,0517","-6.1","6,0509","-6.7","6,0425","-8.9","6,0424","","","","","","","","","","","","","    -11.96","6"
"USC00502607","1908","64.7856","-141.2036","259.1","EAGLE, AK US","","","","","","","","","","","","","","","       132","6","       266","6","","","","","","","","","","","  -46.7","6,1229, ","","","","","","","","","0.0","6,0805","-2.2","6,0823","-5.0","6,0909","-6.7","6,0911","-9.4","6,0923","0.0","6,0720","-4.4","6,0518","-4.4","6,0518","-12.2","6,0422","-12.2","6,0422","","","","","","","","","","","","","    -11.39","6"
"USC00502607","1918","64.7856","-141.2036","259.1","EAGLE, AK US","","","","","       104","6","        36","6","         0","6","","","","","       125","6","       236","6","","","","","","","","","","","  -49.4","6,1204,+","","","","","  12.2"," ,6,0403, ","","","-2.2","6,0820","-2.2","6,0820","-7.8","6,0907","-7.8","6,0907","-10.0","6,1014","-2.2","6,0630","-2.2","6,0630","-5.6","6,0522","-8.9","6,0424","-8.9","6,0424","","","","","    227.1"," ,6","","","","","","","    -11.15","6"
"USC00502607","1919","64.7856","-141.2036","259.1","EAGLE, AK US","      5.1","","       5.1","6","       114","6","        42","6","         0","6","","","","","       130","6","       246","6","       176","6","        47","6","         0","6","","","","","  -51.7","6,1216, ","","","","","  15.0"," ,6,0829, ","   30.0","6,0728,+","0.0","6,0822","-4.4","6,0901","-4.4","6,0901","-10.6","6,1001","-10.6","6,1001","-0.6","6,0620","-2.2","6,0617","-6.1","6,0509","-7.8","6,0508","-11.1","6,0421","","","","","    264.9"," ,6","","","     -4.61","6","      1.07","6","    -10.28","6"
"USC00502607","1920","64.7856","-141.2036","259.1","EAGLE, AK US","","","","","        83","6","        21","6","         0","6","","","","","       100","6","       258","6","       159","6","        58","6","         2","6","","","","","  -53.3","6,0115,+","","","","","  15.0"," ,6,0630, ","   33.9","6,0710, ","0.0","6,0810","-2.8","6,0823","-6.7","6,0915","-6.7","6,0915","-9.4","6,0916","0.0","6,0717","-2.2","6,0528","-7.2","6,0509","-7.2","6,0509","-9.4","6,0507","    8168.9","9","    8168.9","6","    160.5"," ,6","","","     -4.25","6","      1.92","6","    -10.42","6"
"USC00502607","1921","64.7856","-141.2036","259.1","EAGLE, AK US","      3.0","","       3.0","6","        93","6","        25","6","         0","6","","","","","       111","6","       246","6","       160","6","        70","6","         0","6","","","","","  -48.9","6,0114, ","","","","","  10.4"," ,6,0716, ","   30.0","6,0805,+","0.0","6,0814","-3.3","6,0906","-8.9","6,0907","-8.9","6,0907","-8.9","6,0907","-1.1","6,0601","-3.9","6,0514","-4.4","6,0509","-8.3","6,0502","-10.0","6,0428","","","","","    200.7"," ,6","","","     -4.26","6","      1.73","6","    -10.25","6"
"USC00502607","1922","64.7856","-141.2036","259.1","EAGLE, AK US","      0.0","","       0.0","6","       104","6","        25","6","         1","6","","","","","       117","6","       249","6","       163","6","        39","6","         0","6","","","","","  -47.8","6,0207, ","","","","","  26.2"," ,6,0626, ","   29.4","6,0529, ","-1.7","6,0820","-2.2","6,0829","-8.9","6,0830","-8.9","6,0830","-8.9","6,0830","-1.1","6,0719","-2.2","6,0525","-6.7","6,0511","-6.7","6,0511","-12.2","6,0508","    7746.4","4","    7746.4","6","    205.9"," ,6","","","     -4.43","6","      1.22","6","    -10.09","6"
"USC00502607","1923","64.7856","-141.2036","259.1","EAGLE, AK US","     18.7","","      18.7","6","        99","6","        24","6","         0","6","","","","","       104","6","       231","6","       149","6","        74","6","         2","6","","","","","  -48.9","6,1229, ","","","","","  19.8"," ,6,0624, ","   32.8","6,0607, ","0.0","6,0830","-2.2","6,0915","-5.6","6,0924","-7.8","6,1015","-12.8","6,1016","0.0","6,0527","-2.2","6,0510","-5.6","6,0508","-15.6","6,0503","-15.6","6,0503","    8111.6","6","    8111.6","6","    224.2"," ,6","","","     -2.95","6","      3.33","6","     -9.22","6"
"USC00502607","1924","64.7856","-141.2036","259.1","EAGLE, AK US","      5.3","","       5.3","6","       111","6","        37","6","         0","6","","","","","       118","6","       243","6","       155","6","        40","6","         0","6","","","","","  -54.4","6,1212, ","","","","","  16.8"," ,6,0727, ","   28.9","6,0718,+","-1.1","6,0816","-5.0","6,0817","-5.0","6,0817","-6.7","6,0924","-12.2","6,0925","0.0","6,0724","-3.9","6,0514","-4.4","6,0510","-12.2","6,0426","-12.2","6,0426","    7864.6","6","    7864.6","6","    268.6"," ,6","","","     -4.61","6","      1.14","6","    -10.37","6"
"USC00502607","1925","64.7856","-141.2036","259.1","EAGLE, AK US","     17.8","","      17.8","6","       115","6","        35","6","         0","6","","","","","       109","6","       219","6","       151","6","        58","6","         2","6","","","","","  -56.1","6,0122, ","","","","","  21.1"," ,6,0902, ","   35.0","6,0725, ","-3.9","6,0824","-3.9","6,0824","-5.0","6,0930","-11.1","6,1024","-11.1","6,1024","-1.1","6,0710","-2.2","6,0510","-5.6","6,0504","-10.6","6,0422","-10.6","6,0422","    8436.3","3","    8436.3","6","    276.6"," ,6","","","     -3.98","6","      1.91","6","     -9.87","6"
"USC00502607","1926","64.7856","-141.2036","259.1","EAGLE, AK US","      0.5","","       0.5","6","","","","","","","","","        13","6","        84","6","       226","6","       132","6","        52","6","         0","6","","","","","  -47.2","6,1223, ","","","   170"," ,6,0108, ","","","   29.4","6,0622, ","-1.1","6,0806","-6.1","6,0914","-6.1","6,0914","-6.7","6,1012","-14.4","6,1014","-0.6","6,0731","-5.0","6,0524","-5.0","6,0524","-6.7","6,0417","-11.1","6,0414","    6768.7","7","    6768.7","6","","","     1081"," ,6","     -0.91","6","      4.91","6","     -6.74","6"
"USC00502607","1927","64.7856","-141.2036","259.1","EAGLE, AK US","     18.2","","      18.2","6","","","","","","","","","","","       135","6","       244","6","       170","6","        72","6","         0","6","","","","","  -51.7","6,1227, ","","","","","","","   31.1","6,0717,+","-0.6","6,0824","-4.4","6,0902","-4.4","6,0902","-11.1","6,0923","-11.1","6,0923","-1.7","6,0528","-2.2","6,0519","-6.1","6,0506","-10.0","6,0502","-10.0","6,0502","    7784.5","5","    7784.5","6","","","","","     -5.28","6","      0.73","6","    -11.29","6"
"USC00502607","1928","64.7856","-141.2036","259.1","EAGLE, AK US","      2.3","","       2.3","6","       107","6","        43","6","         0","6","","","","","        92","6","       251","6","       175","6","        33","6","         0","6","","","","","  -42.8","6,0307, ","","","","","  15.5"," ,6,0709, ","   26.7","6,0609, ","-1.1","6,0817","-2.8","6,0905","-6.7","6,0911","-6.7","6,0911","-9.4","6,0914","0.0","6,0529","-3.3","6,0513","-6.1","6,0503","-13.9","6,0420","-13.9","6,0420","    8346.2","2","    8346.2","6","    288.8"," ,6","","","     -2.77","6","      2.64","6","     -8.19","6"
"USC00502607","1929","64.7856","-141.2036","259.1","EAGLE, AK US","      0.3","","       0.3","6","       120","6","        34","6","         0","6","","","","","        94","6","       238","6","       155","6","        42","6","         0","6","","","","","  -47.8","6,0126, ","","","","","  24.6"," ,6,0610, ","   28.9","6,0804, ","-1.1","6,0809","-2.2","6,0825","-5.0","6,0901","-8.3","6,1015","-11.7","6,1020","-0.6","6,0731","-2.8","6,0514","-5.0","6,0513","-15.6","6,0422","-15.6","6,0422","    7385.7","7","    7385.7","6","    296.1"," ,6","","","     -2.57","6","      3.09","6","     -8.23","6"
"USC00502607","1930","64.7856","-141.2036","259.1","EAGLE, AK US","      8.7","","       8.7","6","       130","6","        43","6","         1","6","      201","","        19","6","       117","6","       241","6","       161","6","        63","6","         0","6","","","","","  -53.9","6,0211, ","   584"," ,6,0316, ","   178"," ,6,0316, ","  30.0"," ,6,0831, ","   28.9","6,0807,+","-1.7","6,0814","-6.7","6,0918","-6.7","6,0918","-6.7","6,0918","-10.6","6,1003","0.0","6,0527","-2.8","6,0511","-4.4","6,0508","-6.7","6,0421","-13.9","6,0416","    8085.2","2","    8085.2","6","    335.5"," ,6","     1506"," ,6","     -4.18","6","      1.72","6","    -10.08","6"
"USC00502607","1931","64.7856","-141.2036","259.1","EAGLE, AK US","      0.6","","       0.6","6","","","","","","","","","        14","6","       104","6","       252","6","       159","6","        43","6","         0","6","","","","","  -49.4","6,0122, ","","","   109"," ,6,1101, ","","","   26.1","6,0715,+","0.0","6,0803","-4.4","6,0820","-4.4","6,0820","-6.7","6,0924","-13.9","6,1004","-0.6","6,0604","-3.9","6,0603","-6.7","6,0510","-6.7","6,0510","-16.7","6,0504","    7615.1","1","    7615.1","6","","","     1148"," ,6","     -2.89","6","      3.22","6","     -8.99","6"
"USC00502607","1932","64.7856","-141.2036","259.1","EAGLE, AK US","      1.7","","       1.7","6","       112","6","        32","6","         0","6","","","        11","6","       134","6","       252","6","       154","6","        39","6","         0","6","","","","","  -50.0","6,0221, ","","","   109"," ,6,0204, ","  18.5"," ,6,0808, ","   28.9","6,0730,+","-1.1","6,0818","-2.2","6,0829","-4.4","6,0907","-6.7","6,0916","-12.2","6,1013","-0.6","6,0601","-2.2","6,0514","-5.0","6,0509","-6.7","6,0421","-16.7","6,0420","    8218.4","4","    8218.4","6","    272.1"," ,6","      840"," ,6","     -5.55","6","      0.70","6","    -11.80","6"
"USC00502607","1933","64.7856","-141.2036","259.1","EAGLE, AK US","","","","","       104","6","        28","6","         0","6","      207","","        27","6","       134","6","       257","6","","","","","","","","","","","  -56.1","6,1219, ","   813"," ,6,1212, ","   254"," ,6,1210,+","  14.7"," ,6,1115, ","","","0.0","6,0808","-3.3","6,0827","-5.6","6,0903","-6.7","6,0924","-18.9","6,1007","0.0","6,0720","-2.8","6,0606","-5.0","6,0604","-11.7","6,0422","-11.7","6,0422","    8706.2","2","    8706.2","6","    196.0"," ,6","     2293"," ,6","","","","","    -12.79","6"
"USC00502607","1946","64.7856","-141.2036","259.1","EAGLE, AK US","","","","","","","","","","","","","","","","","","","","","","","","","         2"," ","","","","","","","","","","","","","","","","","","","","","","","","","","","","","","","","","","","","","","","","","","","","","",""
"USC00502607","1947","64.7856","-141.2036","259.1","EAGLE, AK US","     44.9","","      44.9","6","        57","6","        31","6","         0","6","","","","","        80","6","       232","6","       145","6","        48","6","         0","6","","","","","  -56.1","6,0126, ","","","","","  20.1"," ,6,0629, ","   30.0","6,0724,+","0.0","6,0916","-3.3","6,0919","-6.7","6,0922","-6.7","6,0922","-18.3","6,1021","-2.8","6,0604","-2.8","6,0604","-5.6","6,0601","-7.2","6,0514","-11.1","6,0423","","","","","    277.4"," ,6","","","     -1.94","6","      3.19","6","     -7.07","6"
"USC00502607","1948","64.7856","-141.2036","259.1","EAGLE, AK US","      9.8","","       9.8","6","","","","","","","","","","","       122","6","       252","6","       169","6","        46","6","         0","6","","","","","  -49.4","6,1207, ","","","","","","","   31.7","6,0618, ","-3.9","6,0824","-3.9","6,0824","-6.7","6,0923","-6.7","6,0923","-10.0","6,1008","-0.6","6,0729","-2.2","6,0510","-4.4","6,0508","-13.3","6,0503","-13.3","6,0503","    7518.9","9","    7518.9","6","","","","","     -5.09","6","      0.36","6","    -10.54","6"
"USC00502607","1949","64.7856","-141.2036","259.1","EAGLE, AK US","","","","","","","","","","","","","","","","","","","","","","","","","        25"," ","        11"," ","","","","","","","","","","","","","","","","","","","","","","","","","","","","","","","    8434.3","3","    8434.3","6","","","","","","","","","",""
"USC00502607","1950","64.7856","-141.2036","259.1","EAGLE, AK US","","","","","","","","","","","","","","","","","","","","","","","","","        37"," ","         2"," ","","","","","","","","","","","","","","","","","","","","","","","","","","","","","","","","","","","","","","","","","","","",""
"USC00502607","1951","64.7856","-141.2036","259.1","EAGLE, AK US","      9.2","","       9.2","0","        85","0","        39","0","         0","0","      199","","","","       131","0","       244","0","       166","0","        65","0","         0","0","        41"," ","         6"," ","  -56.1","0,0119, ","   940"," ,0,0326,+","","","  21.3"," ,0,0817, ","   30.6","0,0717,+","-1.7","0,0824","-2.2","0,0826","-10.0","0,0925","-10.0","0,0925","-10.0","0,0925","0.0","0,0625","-3.3","0,0609","-6.1","0,0514","-10.0","0,0513","-10.0","0,0513","","","","","    341.1"," ,0","","","     -5.05","0","      1.44","0","    -11.53","0"
"USC00502607","1952","64.7856","-141.2036","259.1","EAGLE, AK US","      9.9","","       9.9","0","       100","0","        43","0","         0","0","      196","","","","       115","0","       252","0","       148","0","        47","0","         0","0","        43"," ","        12"," ","  -57.2","0,0119, ","  1041"," ,0,0416, ","","","  16.8"," ,0,0808, ","   29.4","0,0720,+","0.0","0,0822","-2.2","0,0824","-9.4","0,0907","-9.4","0,0907","-9.4","0,0907","0.0","0,0603","-2.8","0,0517","-5.6","0,0513","-10.0","0,0512","-10.0","0,0512","    8340.9","9","    8340.9","0","    323.2"," ,0","","","     -3.72","0","      2.35","0","     -9.78","0"
"USC00502607","1953","64.7856","-141.2036","259.1","EAGLE, AK US","     21.8","","      21.8","0","        75","0","        28","0","         0","0","      185","","","","       113","0","       232","0","       143","0","        67","0","         0","0","        41"," ","         2"," ","  -50.0","0,0131, ","   356"," ,0,0331, ","","","  15.2"," ,0,0717, ","   31.7","0,0725, ","-1.1","0,0830","-2.8","0,0907","-5.0","0,0922","-8.3","0,1001","-8.9","0,1003","-1.1","0,0516","-5.6","0,0511","-5.6","0,0511","-7.8","0,0503","-10.6","0,0416","    7493.5","5","    7493.5","0","    226.9"," ,0","","","     -2.62","0","      4.00","0","     -9.24","0"
"USC00502607","1954","64.7856","-141.2036","259.1","EAGLE, AK US","      4.4","","       4.4","0","        71","0","        37","0","         2","0","      191","","        14","0","       118","0","       245","0","       145","0","        62","0","         0","0","        31"," ","        13"," ","  -53.3","0,0128, ","   432"," ,0,1231,+","    89"," ,0,0111, ","  33.5"," ,0,0721, ","   29.4","0,0809,+","-1.7","0,0822","-2.2","0,0826","-6.7","0,0913","-6.7","0,0913","-11.1","0,0920","-0.6","0,0617","-2.8","0,0520","-4.4","0,0516","-6.7","0,0515","-10.6","0,0513","    8158.0","0","    8158.0","0","    323.8"," ,0","      856"," ,0","     -4.70","0","      2.04","0","    -11.45","0"
"USC00502607","1955","64.7856","-141.2036","259.1","EAGLE, AK US","     20.3","","      20.3","0","        88","0","        47","0","         0","0","      208","","        17","0","       132","0","       247","0","       157","0","        54","0","         4","0","        58"," ","         1"," ","  -50.6","0,0209, ","   991"," ,0,0412,+","   119"," ,0,1006, ","  11.9"," ,0,1006, ","   33.3","0,0726,+","-1.1","0,0814","-2.2","0,0830","-4.4","0,0916","-6.7","0,0919","-11.7","0,0927","-1.1","0,0603","-2.2","0,0528","-5.0","0,0508","-8.3","0,0429","-11.1","0,0427","    8076.7","7","    8076.7","0","    313.6"," ,0","     1239"," ,0","     -5.33","0","      1.03","0","    -11.69","0"
"USC00502607","1956","64.7856","-141.2036","259.1","EAGLE, AK US","      4.2","","       4.2","0","        86","0","        43","0","         0","0","      207","","        18","0","       137","0","       247","0","       163","0","        41","0","         0","0","        24"," ","","","  -52.2","0,0220, ","  1016"," ,0,0315,+","    97"," ,0,1123, ","  14.0"," ,0,0920, ","   29.4","0,0715,+","-1.1","0,0813","-3.9","0,0902","-6.1","0,0903","-10.0","0,0928","-10.0","0,0928","-1.1","0,0608","-2.2","0,0526","-4.4","0,0517","-11.7","0,0429","-11.7","0,0429","    8986.2","2","    8986.2","0","    275.5"," ,0","     1197"," ,0","     -6.59","0","     -0.30","0","    -12.89","0"
"USC00502607","1957","64.7856","-141.2036","259.1","EAGLE, AK US","","","","","","","","","","","","","","","","","","","","","","","","","        30"," ","         7"," ","","","","","","","","","","","","","","","","","","","","","","","","","","","","","","","","","","","","","","","","","","","",""
"USC00502607","1958","64.7856","-141.2036","259.1","EAGLE, AK US","     12.8","","      12.8","0","        91","0","        41","0","         1","0","","","","","       142","0","       251","0","       169","0","        59","0","         0","0","        20"," ","        12"," ","  -45.0","0,1231, ","","","","","  28.7"," ,0,0724, ","   31.7","0,0704, ","0.0","0,0821","-3.9","0,0828","-5.6","0,0916","-9.4","0,0917","-9.4","0,0917","-1.1","0,0528","-2.2","0,0517","-7.2","0,0515","-7.2","0,0515","-15.6","0,0422","    7538.2","2","    7538.2","0","    288.6"," ,0","","","     -4.11","0","      2.62","0","    -10.83","0"
"USC00502607","1959","64.7856","-141.2036","259.1","EAGLE, AK US","","","","","        80","0","        35","0","         0","0","","","","","","","","","","","","","","","         8"," ","         5"," ","","","","","","","  16.3"," ,0,0915, ","","","","","","","","","","","","","","","","","","","","","","","    8776.3","3","    8776.3"," ","    271.1"," ,0","","","","","","","",""
"USC00502607","1960","64.7856","-141.2036","259.1","EAGLE, AK US","","","","","","","","","","","","","","","","","","","","","","","","","","","         6"," ","","","","","","","","","","","","","","","","","","","","","","","","","","","","","","","","","","","","","","","","","","","",""
"USC00502607","1961","64.7856","-141.2036","259.1","EAGLE, AK US","      0.8","","       0.8","0","        99","0","        46","0","         2","0","","","","","       137","0","       249","0","       178","0","        45","0","         0","0","         2"," ","         3"," ","  -56.1","0,1229, ","","","","","  30.5"," ,0,0806, ","   28.9","0,0726, ","-1.1","0,0812","-2.2","0,0813","-5.0","0,0902","-6.7","0,0925","-12.8","0,1007","-1.7","0,0603","-2.2","0,0518","-5.6","0,0512","-7.2","0,0507","-10.6","0,0502","    8000.2","2","    8000.2","0","    383.9"," ,0","","","     -6.72","0","     -0.37","0","    -13.07","0"
"USC00502607","1962","64.7856","-141.2036","259.1","EAGLE, AK US","","","","","","","","","","","","","","","","","","","","","","","","","         2"," ","         3"," ","","","","","","","","","","","","","","","","","","","","","","","","","","","","","","","","","","","","","","","","","","","",""
"USC00502607","1963","64.7856","-141.2036","259.1","EAGLE, AK US","","","","","","","","","","","","","","","","","","","","","","","","","         1"," ","","","","","","","","","","","","","","","","","","","","","","","","","","","","","","","","","","","","","","","","","","","","","",""
"USC00502607","1964","64.7856","-141.2036","259.1","EAGLE, AK US","      6.2","","       6.2","0","        60","0","        28","0","         0","0","","","","","       120","0","       250","0","       156","0","        36","0","         0","0","","","","","  -53.9","0,1213, ","","","","","  17.8"," ,0,0711, ","   28.9","0,0619, ","0.0","0,0828","-3.3","0,0907","-4.4","0,0921","-6.7","0,1019","-11.1","0,1024","-1.1","0,0528","-5.0","0,0524","-5.0","0,0524","-17.2","0,0511","-17.2","0,0511","","","","","    187.9"," ,0","","","     -5.56","0","      0.42","0","    -11.55","0"
"USC00502607","1965","64.7856","-141.2036","259.1","EAGLE, AK US","","","","","","","","","","","","","","","","","","","","","","","","","","","","","","","","","","","","","","","","","","","","","","","","","","","","","","","","","","","    8376.1","1","    8376.1","0","","","","","","","","","",""
"USC00502607","1968","64.7856","-141.2036","259.1","EAGLE, AK US","","","","","","","","","","","","","","","","","","","","","","","","","","","        10"," ","","","","","","","","","","","","","","","","","","","","","","","","","","","","","","","","","","","","","","","","","","","",""
"USC00502607","1969","64.7856","-141.2036","259.1","EAGLE, AK US","","","","","        50","0","        24","0","         0","0","","","         8","0","","","","","","","","","","","","","","","","","","","    89"," ,0,1104, ","  18.8"," ,0,0428, ","","","","","","","","","","","","","","","","","","","","","","","","","","","    171.4"," ,0","      542"," ,0","","","","","",""
"USC00502607","1970","64.7856","-141.2036","259.1","EAGLE, AK US","","","","","","","","","","","","","","","","","","","","","","","","","","","         1"," ","","","","","","","","","","","","","","","","","","","","","","","","","","","","","","","","","","","","","","","","","","","",""
"USC00502607","1974","64.7856","-141.2036","259.1","EAGLE, AK US","      8.8","","       8.8","0","","","","","","","","","","","       146","0","       261","0","       178","0","        46","0","         0","0","","","","","  -50.6","0,1230, ","","","","","","","   29.4","0,0730,+","-1.1","0,0820","-2.8","0,0821","-4.4","0,0907","-15.6","0,0929","-15.6","0,0929","-1.1","0,0702","-3.9","0,0604","-6.1","0,0507","-8.9","0,0506","-8.9","0,0506","","","","","","","","","     -6.70","0","      0.22","0","    -13.61","0"
"USC00502607","1975","64.7856","-141.2036","259.1","EAGLE, AK US","     28.1","","      28.1","0","","","","","","","","","","","       143","0","       239","0","       166","0","        53","0","         2","0","","","","","  -56.7","0,0107,+","","","","","","","   33.9","0,0712, ","-1.7","0,0811","-2.2","0,0828","-7.8","0,0926","-7.8","0,0926","-9.4","0,1010","-2.2","0,0524","-2.2","0,0524","-5.6","0,0515","-6.7","0,0505","-9.4","0,0424","    8728.4","4","    8728.4","0","","","","","     -6.23","0","      0.38","0","    -12.83","0"
"USC00502607","1976","64.7856","-141.2036","259.1","EAGLE, AK US","     18.0","","      18.0","0","        80","0","        29","0","         0","0","      191","","        23","0","       121","0","       247","0","       148","0","        58","0","         0","0","","","","","  -49.4","0,0222, ","   483"," ,0,0318,+","   102"," ,0,0121, ","  24.9"," ,0,0709, ","   30.6","0,0802, ","0.0","0,0826","-2.2","0,0831","-7.2","0,0906","-7.2","0,0906","-13.3","0,1002","0.0","0,0605","-2.2","0,0514","-5.0","0,0508","-6.7","0,0419","-12.2","0,0417","    8762.8","8","    8762.8","0","    219.8"," ,0","     1145"," ,0","     -3.41","0","      3.59","0","    -10.40","0"
"USC00502607","1977","64.7856","-141.2036","259.1","EAGLE, AK US","     30.6","","      30.6","0","       108","0","        47","0","         0","0","      207","","        36","0","       115","0","       245","0","       160","0","        65","0","         4","0","","","","","  -49.4","0,1214, ","   483"," ,0,0413, ","   152"," ,0,1016,+","  18.3"," ,0,0812, ","   33.9","0,0806, ","0.0","0,0825","-4.4","0,0828","-4.4","0,0828","-8.3","0,1001","-10.0","0,1002","0.0","0,0704","-3.3","0,0523","-8.3","0,0430","-8.3","0,0430","-17.2","0,0429","    7179.4","4","    7179.4","0","    345.3"," ,0","     1973"," ,0","     -3.30","0","      3.19","0","     -9.78","0"
"USC00502607","1978","64.7856","-141.2036","259.1","EAGLE, AK US","     16.5","","      16.5","0","        94","0","        45","0","         1","0","","","        33","0","       109","0","       238","0","       154","0","        55","0","         0","0","","","","","  -40.0","0,1217, ","","","   152"," ,0,1208, ","  27.9"," ,0,0617, ","   30.6","0,0802,+","0.0","0,0812","-2.8","0,0819","-6.7","0,1003","-6.7","0,1003","-11.1","0,1012","-1.1","0,0530","-2.2","0,0514","-5.0","0,0510","-6.7","Z,0423","-11.1","Z,0414","    8120.3","3","    8120.3","0","    297.2"," ,0","     1844"," ,0","     -2.43","0","      4.05","0","     -8.91","0"
"USC00502607","1979","64.7856","-141.2036","259.1","EAGLE, AK US","      5.1","","       5.1","0","        81","0","        41","0","         1","0","      173","","        24","0","       120","0","       243","0","       153","0","        66","0","         0","0","","","","","  -53.3","0,0208, ","   914"," ,0,0320, ","   178"," ,0,1221, ","  26.9"," ,0,0903, ","   30.0","0,0725, ","0.0","0,0829","-2.2","0,0910","-5.6","0,0925","-6.7","0,0927","-8.9","0,1023","0.0","0,0616","-3.3","0,0521","-4.4","0,0515","-6.7","0,0509","-16.1","0,0418","    8353.1","1","    8353.1","0","    281.0"," ,0","     1666"," ,0","     -4.31","0","      2.34","0","    -10.95","0"
"USC00502607","1980","64.7856","-141.2036","259.1","EAGLE, AK US","     10.1","","      10.1","0","        95","0","        50","0","         1","0","      190","","        32","0","       102","0","       251","0","       144","0","        54","0","         0","0","","","","","  -55.0","0,0114, ","   610"," ,0,0205,+","   114"," ,0,0202,+","  47.2"," ,0,0814, ","   31.1","0,0606, ","-0.6","0,0821","-2.2","0,0830","-4.4","0,0903","-11.1","0,0921","-11.1","0,0921","-1.1","0,0523","-2.2","0,0519","-4.4","0,0430","-8.9","0,0421","-8.9","0,0421","    7457.3","3","    7457.3","0","    366.5"," ,0","     1701"," ,0","     -4.02","0","      2.19","0","    -10.23","0"
"USC00502607","1981","64.7856","-141.2036","259.1","EAGLE, AK US","      0.5","","       0.5","0","       115","0","        54","0","         1","0","      207","","        21","0","        77","0","       243","0","       132","0","        44","0","         0","0","","","","","  -43.3","0,1230, ","   406"," ,0,1207,+","   127"," ,0,1206, ","  27.4"," ,0,0719, ","   27.2","0,0530, ","0.0","0,0817","-2.2","0,0829","-6.1","0,0928","-7.2","0,1003","-11.1","0,1004","-0.6","0,0604","-2.8","0,0603","-4.4","0,0430","-7.8","0,0420","-11.1","0,0419","    7488.2","2","    7488.2","0","    398.2"," ,0","     1311"," ,0","     -1.24","0","      4.76","0","     -7.25","0"
"USC00502607","1983","64.7856","-141.2036","259.1","EAGLE, AK US","     41.6","","      41.6","0","        96","0","        38","0","         0","0","","","        23","0","       131","0","       254","0","       178","0","        47","0","         2","0","","","","","  -51.1","0,0114,+","","","   140"," ,0,1028, ","  19.6"," ,0,0731, ","   35.0","0,0601, ","-1.1","0,0818","-7.8","0,0903","-7.8","0,0903","-7.8","0,0903","-9.4","0,0925","0.0","0,0524","-7.8","0,0522","-7.8","0,0522","-7.8","0,0522","-8.9","0,0505","    8252.9","9","    8252.9","0","    286.6"," ,0","     1297"," ,0","     -4.99","0","      1.05","0","    -11.03","0"
"USC00502607","1984","64.7856","-141.2036","259.1","EAGLE, AK US","      3.7","","       3.7","0","        95","0","        37","0","         1","0","      201","","        38","0","       125","0","       262","0","       150","0","        49","0","         0","0","","","","","  -48.3","0,0204, ","   686"," ,0,0302, ","   152"," ,0,0302, ","  25.4"," ,0,0526, ","   28.3","0,0624, ","-1.7","0,0813","-3.3","0,0815","-4.4","0,0902","-7.2","0,0922","-11.1","0,1005","0.0","0,0528","-2.8","0,0514","-7.2","0,0512","-7.2","0,0512","-8.9","Z,0420","    8045.6","6","    8045.6","0","    317.8"," ,0","     2248"," ,0","     -4.10","0","      2.01","0","    -10.22","0"
"USC00502607","1985","64.7856","-141.2036","259.1","EAGLE, AK US","","","","","","","","","","","","","","","","","","","","","","","","","","","","","","","","","","","","","","","","","","","","","","","","","","","","","","","","","","","    8118.9","9","    8118.9","0","","","","","","","","","",""
"USC00502607","1986","64.7856","-141.2036","259.1","EAGLE, AK US","     14.8","","      14.8","0","        80","0","        42","0","         0","0","","","","","       115","0","       256","0","       165","0","        52","0","         0","0","","","","","  -44.4","0,1121,+","","","","","  19.3"," ,0,0611, ","   30.6","0,0707,+","0.0","0,0818","-2.2","0,0820","-7.2","0,0823","-7.2","0,0823","-12.8","0,0926","-1.1","0,0603","-2.8","Z,0524","-4.4","Z,0514","-7.2","0,0429","-8.9","0,0428","","","","","    275.8"," ,0","","","     -4.25","0","      2.14","0","    -10.64","0"
"USC00502607","1987","64.7856","-141.2036","259.1","EAGLE, AK US","      9.1","","       9.1","0","       108","0","        48","0","         0","0","      187","","        33","0","       100","0","       250","0","       145","0","        44","0","         0","0","","","","","  -44.4","0,0307,+","   508"," ,0,1222, ","   165"," ,0,1109, ","  16.8"," ,0,0604, ","   30.0","0,0701, ","-1.1","0,0821","-7.2","0,0831","-7.2","0,0831","-7.2","0,0831","-9.4","0,1017","0.0","0,0525","-2.8","0,0518","-7.2","0,0517","-7.2","0,0517","-8.9","Z,0415","    7678.1","1","    7678.1","0","    351.6"," ,0","     1559"," ,0","     -2.59","0","      3.48","0","     -8.66","0"
"USC00502607","1988","64.7856","-141.2036","259.1","EAGLE, AK US","      6.7","","       6.7","0","       107","0","        44","0","         0","0","","","        36","0","       131","0","       243","0","       162","0","        53","0","         0","0","","","","","  -42.8","0,0205,+","","","   114"," ,0,1130, ","  19.6"," ,0,0809, ","   28.3","0,0714, ","-1.1","0,0810","-3.3","0,0907","-6.7","0,0915","-6.7","0,0915","-11.1","0,1001","0.0","0,0521","-4.4","0,0504","-4.4","0,0504","-9.4","0,0415","-9.4","0,0415","    7721.5","5","    7721.5","0","    312.6"," ,0","     1804"," ,0","     -3.88","0","      2.23","0","    -10.00","0"
"USC00502607","1989","64.7856","-141.2036","259.1","EAGLE, AK US","     18.4","","      18.4","0","        99","0","        43","0","         0","0","","","","","       129","0","       232","0","       163","0","        70","0","         0","0","","","","","  -52.2","0,0201,+","","","","","  20.8"," ,0,0606, ","   31.7","0,0714, ","0.0","0,0822","-2.2","0,0914","-7.8","0,0916","-7.8","0,0916","-8.9","0,0919","-1.7","Z,0521","-2.8","Z,0513","-4.4","Z,0511","-8.9","0,0422","-8.9","0,0422","    8381.9","9","    8381.9","0","    323.6"," ,0","","","     -4.40","0","      2.18","0","    -10.98","0"
"USC00502607","1990","64.7856","-141.2036","259.1","EAGLE, AK US","     27.1","","      27.1","0","        98","0","        43","0","         0","0","      202","","        32","0","       126","0","       240","0","       157","0","        71","0","         2","0","       169"," ","","","  -50.6","0,0131,+","   914"," ,0,0306, ","   279"," ,0,0306, ","  24.6"," ,0,0820, ","   32.2","0,0707,+","-3.3","0,0908","-3.3","0,0908","-5.6","0,0919","-7.8","0,1004","-10.0","0,1005","-0.6","0,0515","-2.8","0,0510","-4.4","0,0507","-9.4","0,0415","-9.4","0,0415","    8033.0","0","    8033.0","0","    313.1"," ,0","     1863"," ,0","     -5.20","0","      1.30","0","    -11.71","0"
"USC00502607","1991","64.7856","-141.2036","259.1","EAGLE, AK US","     22.9","","      22.9","0","        74","0","        32","0","         0","0","      201","","        24","0","       123","0","       243","0","       160","0","        53","0","         0","0","       160"," ","","","  -45.6","0,0209,+","   686"," ,0,0328, ","   102"," ,0,1126,+","  22.9"," ,0,0804, ","   31.1","0,0701,+","-2.2","0,0820","-2.2","0,0820","-5.6","0,0925","-7.2","0,1006","-10.0","0,1008","-1.7","0,0518","-2.8","0,0513","-5.0","0,0417","-7.2","0,0413","-10.6","0,0411","    7994.7","7","    7994.7","0","    216.6"," ,0","     1361"," ,0","     -3.88","0","      2.87","0","    -10.62","0"
"USC00502607","1992","64.7856","-141.2036","259.1","EAGLE, AK US","     14.6","","      14.6","0","        96","0","        44","0","         0","0","","","        38","0","       136","0","       255","0","       161","0","        56","0","         0","0","       176"," ","","","  -46.1","0,1227,+","","","   229"," ,0,1204, ","  14.2"," ,0,0721, ","   31.7","0,0701,+","-1.1","0,0820","-2.2","0,0903","-4.4","0,0912","-10.6","0,0916","-10.6","0,0916","-1.1","0,0608","-2.2","0,0519","-4.4","0,0517","-11.1","0,0506","-11.1","0,0506","    8214.9","9","    8214.9","0","    299.4"," ,0","     2641"," ,0","     -4.79","0","      1.29","0","    -10.88","0"
"USC00502607","1993","64.7856","-141.2036","259.1","EAGLE, AK US","     11.8","","      11.8","0","        83","0","        40","0","         0","0","","","        27","0","        95","0","       234","0","       149","0","        63","0","         0","0","","","","","  -51.1","0,0204, ","","","   203"," ,0,0207, ","  22.9"," ,0,0929, ","   31.1","0,0716, ","0.0","0,0825","-3.9","0,0918","-11.1","0,0923","-11.1","0,0923","-11.1","0,0923","-2.2","0,0522","-2.2","0,0522","-6.7","0,0427","-6.7","0,0427","-8.9","0,0425","    7917.8","8","    7917.8","0","    269.5"," ,0","     1447"," ,0","     -1.99","0","      4.42","0","     -8.40","0"
"USC00502607","1994","64.7856","-141.2036","259.1","EAGLE, AK US","     51.2","","      51.2","0","        90","0","        44","0","         1","0","","","        32","0","       111","0","       238","0","       166","0","        61","0","         4","0","         2"," ","","","  -48.3","0,0109, ","","","   254"," ,0,0305, ","  35.1"," ,0,0526, ","   33.3","0,0807, ","-2.2","0,0824","-2.2","0,0824","-5.6","0,0910","-7.8","0,0928","-12.2","0,1011","-2.2","0,0530","-2.2","0,0530","-8.9","0,0419","-8.9","0,0419","-8.9","0,0419","    7779.0","0","    7779.0","0","    303.8"," ,0","     2095"," ,0","     -4.16","0","      2.00","0","    -10.32","0"
"USC00502607","1995","64.7856","-141.2036","259.1","EAGLE, AK US","     17.0","","      17.0","0","        88","0","        35","0","         1","0","      189","","        21","0","       121","0","       242","0","       157","0","        55","0","         0","0","","","","","  -50.6","0,1206, ","   610"," ,0,0317,+","   102"," ,0,1026, ","  39.4"," ,0,0715, ","   29.4","0,0612,+","-1.7","0,0822","-2.8","0,0905","-4.4","0,0917","-6.7","0,1013","-14.4","0,1015","0.0","0,0531","-4.4","0,0523","-4.4","0,0523","-6.7","0,0522","-11.1","0,0409","    7746.5","5","    7746.5","0","    316.2"," ,0","      836"," ,0","     -4.02","0","      2.10","0","    -10.13","0"
"USC00502607","1996","64.7856","-141.2036","259.1","EAGLE, AK US","      9.2","","       9.2","0","        88","0","        43","0","         0","0","","","        28","0","       136","0","       258","0","       175","0","        48","0","         0","0","         2"," ","","","  -50.0","0,0112, ","","","   152"," ,0,0208, ","  11.2"," ,0,0817, ","   29.4","0,0729,+","-0.6","0,0808","-2.8","0,0823","-5.0","0,0906","-9.4","0,1002","-9.4","0,1002","-1.1","0,0606","-3.3","0,0605","-6.7","0,0509","-6.7","0,0509","-11.7","0,0425","    8526.9","9","    8526.9","0","    271.8"," ,0","     1766"," ,0","     -5.89","0","      0.37","0","    -12.13","0"
"USC00502607","1997","64.7856","-141.2036","259.1","EAGLE, AK US","     10.7","","      10.7","0","       100","0","        48","0","         1","0","","","        32","0","       116","0","       242","0","       169","0","        57","0","         0","0","","","","","  -55.6","0,0108,+","","","   152"," ,0,1202,+","  25.9"," ,0,0613, ","   29.4","0,0702, ","-1.7","0,0820","-2.2","0,0915","-5.0","0,0920","-6.7","0,0930","-10.0","0,1005","-2.2","0,0602","-2.2","0,0602","-5.0","0,0508","-7.8","0,0507","-11.1","0,0422","    8516.4","4","    8516.4","0","    382.2"," ,0","     1775"," ,0","     -3.31","0","      3.10","0","     -9.72","0"
"USC00502607","1998","64.7856","-141.2036","259.1","EAGLE, AK US","     24.4","","      24.4","0","        85","0","        42","0","         1","0","","","        16","0","       108","0","       239","0","       140","0","        53","0","         1","0","","","         1"," ","  -48.3","0,0104, ","","","   127"," ,0,1212, ","  34.5"," ,0,0511, ","   33.3","0,0705, ","-1.7","0,0819","-2.2","0,0905","-6.1","0,0915","-8.9","0,0930","-8.9","0,0930","-3.3","0,0515","-3.3","0,0515","-7.8","0,0427","-7.8","0,0427","-11.1","0,0403","    7411.7","7","    7411.7","0","    313.6"," ,0","      940"," ,0","     -2.96","0","      3.15","0","     -9.07","0"
"USC00502607","1999","64.7856","-141.2036","259.1","EAGLE, AK US","     30.4","","      30.4","0","        82","0","        41","0","         0","0","      199","","        36","0","       129","0","       257","0","       154","0","        53","0","         0","0","         4"," ","","","  -51.1","0,0205, ","   559"," ,0,1221, ","   178"," ,0,1221,+","  22.9"," ,0,0923, ","   31.1","0,0807,+","-1.1","0,0827","-2.2","0,0829","-4.4","0,0929","-16.1","0,0930","-16.1","0,0930","-1.1","0,0601","-2.2","0,0527","-6.1","0,0506","-7.8","0,0505","-9.4","0,0429","    8156.5","5","    8156.5","0","    318.1"," ,0","     1941"," ,0","     -5.05","0","      1.42","0","    -11.52","0"
"USC00502607","2000","64.7856","-141.2036","259.1","EAGLE, AK US","      7.0","","       7.0","0","        91","0","        54","0","         0","0","      205","","","","        96","0","       254","0","       164","0","        38","0","         0","0","","","         6"," ","  -50.0","0,0113, ","   508"," ,0,0329,+","","","  20.8"," ,0,0718, ","   29.4","0,0626, ","-2.2","0,0816","-2.2","0,0816","-4.4","0,0929","-6.7","0,0930","-17.2","0,1002","0.0","0,0705","-2.2","0,0528","-5.0","0,0516","-8.9","0,0515","-8.9","0,0515","    7931.3","3","    7931.3","0","    354.0"," ,0","","","     -3.23","0","      2.61","0","     -9.07","0"
"USC00502607","2001","64.7856","-141.2036","259.1","EAGLE, AK US","      8.1","","       8.1","0","        96","0","        46","0","         1","0","      203","","        31","0","       103","0","       246","0","       159","0","        44","0","         0","0","","","        10"," ","  -40.0","0,1202, ","   610"," ,0,0313, ","   127"," ,0,0104, ","  42.4"," ,0,0724, ","   30.6","0,0720, ","-2.8","0,0909","-2.8","0,0909","-4.4","0,0916","-7.2","0,0928","-16.1","0,1014","-0.6","0,0529","-2.2","0,0518","-5.6","0,0512","-6.7","0,0506","-9.4","0,0501","    7604.6","6","    7604.6","0","    321.1"," ,0","     1513"," ,0","     -2.94","0","      3.25","0","     -9.14","0"
"USC00502607","2002","64.7856","-141.2036","259.1","EAGLE, AK US","      9.9","","       9.9","0","       105","0","        52","0","         0","0","","","        28","0","        75","0","       232","0","       137","0","        53","0","         0","0","       119"," ","         3"," ","  -42.2","0,0126, ","","","   279"," ,0,0502, ","  19.1"," ,0,1016, ","   30.6","0,0804, ","-0.6","0,0820","-2.2","0,0911","-4.4","0,0922","-10.6","0,1005","-10.6","0,1005","-2.8","0,0528","-2.8","0,0528","-7.8","0,0506","-7.8","0,0506","-12.8","0,0505","    7787.5","5","    7787.5","0","    341.7"," ,0","     1803"," ,0","     -0.99","0","      5.30","0","     -7.27","0"
"USC00502607","2003","64.7856","-141.2036","259.1","EAGLE, AK US","     10.3","","      10.3","0","        99","0","        49","0","         1","0","","","        36","0","       104","0","       248","0","       142","0","        63","0","         0","0","        10"," ","        43"," ","  -43.3","0,0219, ","","","    89"," ,0,0303, ","  36.8"," ,0,0901, ","   31.7","0,0702, ","-1.1","0,0809","-7.2","0,0913","-7.2","0,0913","-7.2","0,0913","-10.6","0,0915","-0.6","0,0612","-2.8","0,0515","-5.0","0,0506","-8.3","0,0504","-8.9","0,0415","    6780.9","9","    6780.9","0","    357.5"," ,0","     1804"," ,0","     -2.54","0","      4.05","0","     -9.12","0"
"USC00502607","2004","64.7856","-141.2036","259.1","EAGLE, AK US","     50.6","","      50.6","0","        94","0","        43","0","         0","0","","","        32","0","       125","0","       255","0","       160","0","        81","0","         3","0","         2"," ","        41"," ","  -47.2","0,0117, ","","","   178"," ,0,0206, ","  15.2"," ,0,0722, ","   34.4","0,0621, ","-1.7","0,0825","-5.0","0,0826","-5.0","0,0826","-7.2","0,0907","-8.9","0,0915","-1.1","0,0527","-2.2","0,0510","-5.0","0,0509","-6.7","0,0508","-9.4","0,0418","    8004.7","7","    8004.7","0","    290.7"," ,0","     1990"," ,0","     -3.66","0","      3.34","0","    -10.66","0"
"USC00502607","2005","64.7856","-141.2036","259.1","EAGLE, AK US","      9.9","","       9.9","0","        88","0","        44","0","         0","0","","","        32","0","        93","0","       233","0","       142","0","        73","0","         1","0","         3"," ","         4"," ","  -48.9","0,0204,+","","","   178"," ,0,0107, ","  11.9"," ,0,0603, ","   32.2","0,0611, ","-2.2","0,0819","-2.2","0,0819","-5.0","0,0927","-7.2","0,1003","-12.8","0,1014","-1.1","0,0731","-3.3","0,0505","-5.0","0,0502","-7.2","0,0420","-11.1","0,0417","    7620.5","5","    7620.5","0","    259.3"," ,0","     1827"," ,0","     -2.50","0","      3.99","0","     -8.98","0"
"USC00502607","2006","64.7856","-141.2036","259.1","EAGLE, AK US","","","","","","","","","","","","","","","","","","","","","","","","","","","        45"," ","","","","","","","","","","","","","","","","","","","","","","","","","","","","","","","    7800.5","5","    7800.5","0","","","","","","","","","",""
"USC00502607","2007","64.7856","-141.2036","259.1","EAGLE, AK US","     22.8","","      22.8","0","        88","0","        44","0","         1","0","      196","","        20","0","       110","0","       243","0","       167","0","        80","0","         0","0","        14"," ","        22"," ","  -48.9","0,0224,+","   559"," ,0,0126,+","   102"," ,0,0124, ","  44.2"," ,0,0814, ","   31.7","0,0605, ","-1.7","0,0829","-2.8","0,0903","-8.9","0,0923","-8.9","0,0923","-8.9","0,0923","0.0","0,0522","-3.9","0,0518","-5.6","0,0501","-7.2","0,0418","-15.6","0,0404","","","","","    307.0"," ,0","     1236"," ,0","     -3.27","0","      3.39","0","     -9.92","0"
"USC00502607","2008","64.7856","-141.2036","259.1","EAGLE, AK US","      3.0","","       3.0","0","       105","0","        49","0","         1","0","      203","","        24","0","       120","0","       248","0","       167","0","        42","0","         0","0","","","         8"," ","  -49.4","0,0208, ","   432"," ,0,1209,+","   102"," ,0,0216, ","  25.9"," ,0,0702, ","   28.9","0,0717, ","0.0","0,0812","-3.9","0,0830","-5.0","0,0831","-7.8","0,0928","-11.1","0,1004","-1.7","0,0531","-3.3","0,0514","-5.6","0,0424","-16.7","0,0419","-16.7","0,0419","    7549.3","3","    7549.3","0","    386.7"," ,0","     1361"," ,0","     -4.59","0","      1.60","0","    -10.79","0"
"USC00502607","2009","64.7856","-141.2036","259.1","EAGLE, AK US","","","","","","","","","","","","","","","","","","","","","","","","","        14"," ","         4"," ","","","","","","","","","","","","","","","","","","","","","","","","","","","","","","","","","","","","","","","","","","","",""
"USC00502607","2010","64.7856","-141.2036","259.1","EAGLE, AK US","      5.0","","       5.0","0","        91","0","        51","0","         1","0","      182","","        25","0","       106","0","       247","0","       147","0","        64","0","         0","0","        11"," ","         5"," ","  -50.0","0,0113, ","   457"," ,0,0317,+","   229"," ,0,1119, ","  29.0"," ,0,0807, ","   31.1","0,0805, ","-0.6","0,0826","-2.8","0,0912","-4.4","0,0920","-8.3","0,0924","-10.6","0,0925","-0.6","0,0515","-3.9","0,0511","-4.4","0,0509","-8.9","0,0417","-8.9","0,0417","    7447.0","0","    7447.0","0","    389.1"," ,0","     1663"," ,0","     -2.74","0","      3.68","0","     -9.15","0"
"USC00502607","2011","64.7856","-141.2036","259.1","EAGLE, AK US","     13.7","","      13.7","7","       109","7","        49","7","         0","7","      193","","        25","7","       119","7","       250","7","       152","7","        60","7","         0","7","         8"," ","         2"," ","  -45.0","7,0216,+","   533"," ,7,0223,+","   102"," ,7,1203, ","  14.2"," ,7,0717, ","   30.0","7,0626,+","-1.1","7,0809","-2.8","7,0912","-6.7","7,0929","-6.7","7,0929","-8.9","7,1004","-2.2","7,0517","-2.2","7,0517","-5.0","7,0508","-7.2","7,0422","-11.7","7,0421","    8179.1","1","    8179.1","7","    321.4"," ,7","     1201"," ,7","     -3.82","7","      3.04","7","    -10.68","7"
"USC00502607","2012","64.7856","-141.2036","259.1","EAGLE, AK US","     19.5","","      19.5","7","        97","7","        36","7","         0","7","","","","","       136","7","       247","7","       166","7","        79","7","         2","7","         6"," ","         2"," ","  -50.0","7,0130, ","","","","","  16.8"," ,7,0711, ","   32.8","7,0625, ","0.0","7,0822","-3.3","7,0829","-5.0","7,0911","-8.9","7,1010","-8.9","7,1010","0.0","7,0530","-2.2","7,0518","-7.2","7,0504","-7.2","7,0504","-10.0","7,0503","    8025.3","3","    8025.3","7","    257.8"," ,7","","","     -5.26","7","      1.20","7","    -11.73","7"
"USC00502607","2013","64.7856","-141.2036","259.1","EAGLE, AK US","","","","","","","","","","","","","","","","","","","","","","","","","         5"," ","         2"," ","","","","","","","","","","","","","","","","","","","","","","","","","","","","","","","    8678.1","1","    8678.1","7","","","","","","","","","",""
"USC00502607","2014","64.7856","-141.2036","259.1","EAGLE, AK US","     10.1","","      10.1","7","        89","7","        41","7","         0","7","      201","","        19","7","       109","7","       244","7","       154","7","        48","7","         0","7","         4"," ","         1"," ","  -43.3","7,0113,+","   457"," ,7,0301,+","   102"," ,7,1006, ","  24.9"," ,7,0726, ","   30.0","7,0707, ","-2.8","7,0831","-2.8","7,0831","-6.7","7,0904","-6.7","7,0904","-8.9","7,0925","-0.6","7,0524","-6.1","7,0523","-6.1","7,0523","-6.7","7,0423","-16.7","7,0413","","","","","    319.5"," ,7","     1036"," ,7","     -2.32","7","      3.99","7","     -8.63","7"
"USC00502607","2015","64.7856","-141.2036","259.1","EAGLE, AK US","     17.6","","      17.6","7","       111","7","        58","7","         0","7","      201","","        30","7","        94","7","       245","7","       135","7","        70","7","         1","7","        11"," ","         2"," ","  -48.3","7,0209,+","   559"," ,7,0324,+","   191"," ,7,0114, ","  19.1"," ,7,0930, ","   32.8","7,0524, ","-2.8","7,0829","-2.8","7,0829","-5.0","7,0922","-9.4","7,1002","-9.4","7,1002","0.0","7,0603","-2.8","7,0508","-5.6","7,0507","-7.2","7,0423","-8.9","7,0415","    7292.9","9","    7292.9","7","    407.4"," ,7","     1772"," ,7","     -1.88","7","      4.33","7","     -8.10","7"
"USC00502607","2016","64.7856","-141.2036","259.1","EAGLE, AK US","     20.4","","      20.4","7","       102","7","        50","7","         0","7","      169","","        22","7","        95","7","       240","7","       145","7","        63","7","         1","7","         8"," ","         1"," ","  -42.8","7,1209, ","   483"," ,7,0321,+","   127"," ,7,0417, ","  14.2"," ,7,0808, ","   32.2","7,0716, ","-1.1","7,0831","-2.2","7,0903","-5.0","7,0908","-6.7","7,0928","-11.1","7,1004","-1.1","7,0527","-2.8","7,0505","-4.4","7,0422","-7.8","7,0417","-8.9","7,0416","    6946.5","5","    6946.5","7","    358.7"," ,7","     1116"," ,7","     -1.27","7","      4.96","7","     -7.50","7"
"USC00502607","2017","64.7856","-141.2036","259.1","EAGLE, AK US","","","","","       105","7","        44","7","         0","7","","","        19","7","","","","","","","","","","","         6"," ","         2"," ","","","","","   114"," ,7,0129, ","  21.3"," ,7,0625, ","","","","","","","","","","","","","","","","","","","","","","","    8006.1","1","    8006.1","7","    328.2"," ,7","     1089"," ,7","","","","","",""
"USC00502607","2018","64.7856","-141.2036","259.1","EAGLE, AK US","     10.3","","      10.3","7","","","","","","","","","","","       109","7","       251","7","       144","7","        55","7","         2","7","         4"," ","","","  -41.7","7,0202,+","","","","","","","   33.3","7,0724, ","0.0","7,0811","-3.3","7,0902","-4.4","7,0915","-7.2","7,0929","-11.1","7,1001","0.0","7,0612","-2.2","7,0516","-5.0","7,0503","-7.2","7,0428","-10.0","7,0427","","","","","","","","","     -2.40","7","      3.90","7","     -8.69","7"
"USC00502607","2019","64.7856","-141.2036","259.1","EAGLE, AK US","     30.6","","      30.6","7","        92","7","        48","7","         0","7","      176","","        20","7","        83","7","       243","7","       138","7","        76","7","         1","7","        11"," ","         2"," ","  -44.4","7,0107, ","   457"," ,7,1230,+","   152"," ,7,1116, ","  16.5"," ,7,0726, ","   32.2","7,0630, ","-0.6","7,0819","-2.2","7,0827","-4.4","7,0923","-7.8","7,1008","-10.6","7,1014","-1.7","7,0524","-2.2","7,0513","-5.0","7,0430","-6.7","7,0429","-15.0","7,0415","    7037.6","6","    7037.6","7","    323.5"," ,7","     1334"," ,7","     -1.20","7","      5.00","7","     -7.40","7"
"USC00502607","2020","64.7856","-141.2036","259.1","EAGLE, AK US","","","","","","","","","","","","","","","","","","","","","","","","","         3"," ","         2"," ","","","","","","","","","","","","","","","","","","","","","","","","","","","","","","","    8013.3","3","    8013.3","H","","","","","","","","","",""
