"STATION","DATE","LATITUDE","LONGITUDE","ELEVATION","NAME","CDSD","CDSD_ATTRIBUTES","CLDD","CLDD_ATTRIBUTES","DP01","DP01_ATTRIBUTES","DP10","DP10_ATTRIBUTES","DP1X","DP1X_ATTRIBUTES","DSND","DSND_ATTRIBUTES","DSNW","DSNW_ATTRIBUTES","DT00","DT00_ATTRIBUTES","DT32","DT32_ATTRIBUTES","DX32","DX32_ATTRIBUTES","DX70","DX70_ATTRIBUTES","DX90","DX90_ATTRIBUTES","DYFG","DYFG_ATTRIBUTES","DYTS","DYTS_ATTRIBUTES","EMNT","EMNT_ATTRIBUTES","EMSD","EMSD_ATTRIBUTES","EMSN","EMSN_ATTRIBUTES","EMXP","EMXP_ATTRIBUTES","EMXT","EMXT_ATTRIBUTES","FZF0","FZF0_ATTRIBUTES","FZF1","FZF1_ATTRIBUTES","FZF2","FZF2_ATTRIBUTES","FZF3","FZF3_ATTRIBUTES","FZF4","FZF4_ATTRIBUTES","FZF5","FZF5_ATTRIBUTES","FZF6","FZF6_ATTRIBUTES","FZF7","FZF7_ATTRIBUTES","FZF8","FZF8_ATTRIBUTES","FZF9","FZF9_ATTRIBUTES","HDSD","HDSD_ATTRIBUTES","HTDD","HTDD_ATTRIBUTES","PRCP","PRCP_ATTRIBUTES","SNOW","SNOW_ATTRIBUTES","TAVG","TAVG_ATTRIBUTES","TMAX","TMAX_ATTRIBUTES","TMIN","TMIN_ATTRIBUTES"
"USC00328937","1898","46.9558","-98.0203","368.8","VALLEY CITY 3 NNW, ND US","","","","","","","","","","","","","","","","","","","        91","6","       108","6","        10","6","","","","","","","","","","","","","   33.9","6,0716, ","","","","","","","","","","","","","","","","","","","","","","","","","","","","","","","     10.19","6","",""
"USC00328937","1920","46.9558","-98.0203","368.8","VALLEY CITY 3 NNW, ND US","    214.9","","     214.9","6","        61","6","        33","6","         3","6","","","","","        65","6","       187","6","       109","6","       126","6","        16","6","","","","","  -35.6","6,0123, ","","","","","  57.2"," ,6,0608, ","   36.7","6,0809, ","-1.7","6,0929","-3.3","6,0930","-6.1","6,1027","-11.7","6,1028","-11.7","6,1028","-3.3","6,0501","-3.3","6,0501","-7.8","6,0426","-7.8","6,0426","-10.0","6,0413","","","","","    438.3"," ,6","","","      4.15","6","     10.68","6","     -2.39","6"
"USC00328937","1921","46.9558","-98.0203","368.8","VALLEY CITY 3 NNW, ND US","    228.2","","     228.2","6","        83","6","        54","6","         4","6","","","","","        49","6","       196","6","        86","6","       130","6","        18","6","","","","","  -33.3","6,1224, ","","","","","  38.9"," ,6,0705, ","   35.0","6,0618, ","0.0","6,0925","-4.4","6,1001","-4.4","6,1001","-6.7","6,1102","-16.1","6,1108","-1.7","6,0517","-5.0","6,0515","-5.0","6,0515","-11.7","6,0416","-11.7","6,0416","    4624.3","3","    4624.3","6","    647.0"," ,6","","","      5.17","6","     12.20","6","     -1.86","6"
"USC00328937","1922","46.9558","-98.0203","368.8","VALLEY CITY 3 NNW, ND US","","","","","","","","","","","","","","","","","","","","","","","","","","","","","","","","","","","","","","","","","","","","","","","","","","","","","","","","","","","    5101.2","2","    5101.2"," ","","","","","","","","","",""
"USC00328937","1923","46.9558","-98.0203","368.8","VALLEY CITY 3 NNW, ND US","    260.2","","     260.2","6","","","","","","","","","","","        55","6","       184","6","        88","6","       133","6","         4","6","","","","","  -33.9","6,0203, ","","","","","","","   33.3","6,0719, ","-1.1","6,0912","-3.9","6,0913","-4.4","6,1014","-8.3","6,1020","-10.0","6,1029","-1.1","6,0513","-5.0","6,0512","-5.0","6,0512","-8.9","6,0415","-8.9","6,0415","","","","","","","","","      5.14","6","     11.22","6","     -0.94","6"
"USC00328937","1924","46.9558","-98.0203","368.8","VALLEY CITY 3 NNW, ND US","    108.5","","     108.5","6","","","","","","","","","","","        57","6","       183","6","        81","6","       101","6","         5","6","","","","","  -35.0","6,1227,+","","","","","","","   36.1","6,0828, ","-0.6","6,1007","-2.8","6,1101","-8.3","6,1102","-8.3","6,1102","-8.9","6,1107","0.0","6,0606","-3.9","6,0530","-4.4","6,0525","-7.8","6,0412","-10.0","6,0411","    4924.6","6","    4924.6","6","","","","","      3.78","6","      9.80","6","     -2.24","6"
"USC00328937","1925","46.9558","-98.0203","368.8","VALLEY CITY 3 NNW, ND US","    246.6","","     246.6","6","","","","","","","","","","","        51","6","       192","6","        93","6","       118","6","        24","6","","","","","  -32.8","6,0226, ","","","","","","","   38.9","6,0823, ","-3.3","6,0921","-3.3","6,0921","-5.6","6,1009","-7.2","6,1018","-13.3","6,1027","-1.1","6,0524","-3.9","6,0517","-4.4","6,0516","-14.4","6,0321","-14.4","6,0321","    4917.0","0","    4917.0","6","","","","","      4.88","6","     11.65","6","     -1.89","6"
"USC00328937","1926","46.9558","-98.0203","368.8","VALLEY CITY 3 NNW, ND US","","","","","","","","","","","","","","","","","","","","","","","","","","","","","","","","","","","","","","","","","","","","","","","","","","","","","","","","","","","    4737.4","4","    4737.4","6","","","","","","","","","",""
"USC00328937","1928","46.9558","-98.0203","368.8","VALLEY CITY 3 NNW, ND US","    207.5","","     207.5","6","","","","","","","","","","","        31","6","       200","6","        55","6","       132","6","        10","6","","","","","  -31.7","6,0102, ","","","","","","","   35.6","6,0812, ","-2.8","6,0922","-2.8","6,0922","-5.6","6,0927","-7.8","6,1022","-12.8","6,1029","0.0","6,0603","-3.9","6,0512","-7.2","6,0427","-7.2","6,0427","-13.9","6,0419","","","","","","","","","      6.06","6","     13.25","6","     -1.13","6"
"USC00328937","1929","46.9558","-98.0203","368.8","VALLEY CITY 3 NNW, ND US","    277.3","","     277.3","6","","","","","","","","","","","        66","6","       192","6","        89","6","       121","6","        29","6","         1"," ","","","  -35.6","6,0219, ","","","","","","","   39.4","6,0726, ","0.0","6,0906","-8.9","6,0918","-8.9","6,0918","-8.9","6,0918","-8.9","6,0918","-2.2","6,0520","-2.2","6,0520","-6.7","6,0516","-6.7","6,0516","-8.9","6,0331","    4878.7","7","    4878.7","6","","","","","      4.26","6","     11.57","6","     -3.06","6"
"USC00328937","1930","46.9558","-98.0203","368.8","VALLEY CITY 3 NNW, ND US","    327.3","","     327.3","6","","","","","","","","","","","        37","6","       177","6","        70","6","       128","6","        34","6","","","","","  -33.3","6,0109, ","","","","","","","   38.9","6,0727, ","-0.6","6,0926","-8.9","6,0928","-8.9","6,0928","-8.9","6,0928","-8.9","6,0928","-1.1","6,0530","-2.2","6,0524","-5.0","6,0517","-7.8","6,0421","-8.9","6,0329","    4609.8","8","    4609.8","6","","","","","      6.15","6","     13.05","6","     -0.75","6"
"USC00328937","1931","46.9558","-98.0203","368.8","VALLEY CITY 3 NNW, ND US","    358.0","","     358.0","6","        69","6","        34","6","         3","6","","","","","        15","6","       180","6","        62","6","       138","6","        34","6","","","","","  -27.8","6,0114, ","","","","","  53.8"," ,6,0807, ","   40.6","6,0727,+","0.0","6,0830","-2.2","6,0924","-5.0","6,1011","-7.2","6,1117","-10.0","6,1119","-2.2","6,0520","-2.2","6,0520","-5.0","6,0506","-8.9","6,0427","-8.9","6,0427","    4191.0","0","    4191.0","6","    498.7"," ,6","","","      7.63","6","     14.53","6","      0.73","6"
"USC00328937","1932","46.9558","-98.0203","368.8","VALLEY CITY 3 NNW, ND US","","","","","","","","","","","","","","","        51","6","       187","6","","","","","","","","","","","  -30.6","6,0131, ","","","","","","","","","0.0","6,0920","-2.2","6,0922","-9.4","6,1010","-9.4","6,1010","-9.4","6,1010","-0.6","6,0527","-3.3","6,0501","-5.6","6,0427","-7.2","6,0412","-10.0","6,0403","","","","","","","","","","","","","     -1.75","6"
"USC00328937","1933","46.9558","-98.0203","368.8","VALLEY CITY 3 NNW, ND US","    356.8","","     356.8","6","        71","6","        43","6","         3","6","","","","","        57","6","       197","6","        81","6","       140","6","        39","6","","","","","  -37.2","6,0207, ","","","","","  74.2"," ,6,0629, ","   40.0","6,0619, ","-1.1","6,0924","-2.2","6,0926","-6.7","6,1008","-6.7","6,1008","-8.9","6,1012","-1.7","6,0510","-2.2","6,0502","-6.1","6,0427","-8.3","6,0413","-11.1","6,0411","    4849.7","7","    4849.7","6","    438.8"," ,6","","","      5.30","6","     12.65","6","     -2.06","6"
"USC00328937","1934","46.9558","-98.0203","368.8","VALLEY CITY 3 NNW, ND US","    399.6","","     399.6","6","","","","","","","","","","","        39","6","       187","6","        71","6","       147","6","        45","6","","","","","  -31.7","6,1226, ","","","","","","","   43.3","6,0722, ","-1.7","6,0906","-2.2","6,0915","-6.1","6,0921","-6.7","6,1031","-9.4","6,1101","0.0","6,0525","-2.2","6,0522","-8.9","6,0427","-8.9","6,0427","-8.9","6,0427","    4549.1","1","    4549.1","6","","","","","      6.81","6","     14.52","6","     -0.89","6"
"USC00328937","1935","46.9558","-98.0203","368.8","VALLEY CITY 3 NNW, ND US","    303.6","","     303.6","6","        81","6","        36","6","         4","6","","","","","        49","6","       198","6","        97","6","       118","6","        25","6","","","","","  -35.0","6,0123, ","","","","","  36.1"," ,6,0425, ","   37.8","6,0814, ","-0.6","6,0905","-3.3","6,0926","-7.8","6,0927","-7.8","6,0927","-11.1","6,1004","-1.7","6,0605","-2.8","6,0504","-4.4","6,0430","-8.9","6,0415","-8.9","6,0415","    4869.0","0","    4869.0","6","    446.2"," ,6","","","      4.72","6","     11.62","6","     -2.17","6"
"USC00328937","1936","46.9558","-98.0203","368.8","VALLEY CITY 3 NNW, ND US","    605.6","","     605.6","6","        60","6","        20","6","         2","6","","","","","        73","6","       204","6","        99","6","       145","6","        55","6","","","","","  -40.0","6,0215,+","","","","","  30.7"," ,6,0822, ","   46.7","6,0706, ","-0.6","6,0916","-3.9","6,0929","-7.2","6,1001","-7.2","6,1001","-9.4","6,1021","-1.1","6,0610","-5.0","6,0506","-5.0","6,0506","-7.8","6,0422","-18.9","6,0407","    5607.3","3","    5607.3","6","    205.7"," ,6","","","      4.63","6","     12.13","6","     -2.87","6"
"USC00328937","1937","46.9558","-98.0203","368.8","VALLEY CITY 3 NNW, ND US","    398.0","","     398.0","6","        85","6","        37","6","         6","6","","","","","        69","6","       182","6","       101","6","       131","6","        38","6","","","","","  -35.0","6,0119, ","","","","","  59.4"," ,6,0906, ","   38.9","6,0805,+","-1.1","6,0916","-3.3","6,0926","-5.0","6,1012","-8.3","6,1013","-12.2","6,1014","-0.6","6,0513","-3.9","6,0411","-4.4","6,0408","-12.2","6,0405","-12.2","6,0405","    5144.9","9","    5144.9","6","    530.0"," ,6","","","      4.54","6","     11.21","6","     -2.14","6"
"USC00328937","1938","46.9558","-98.0203","368.8","VALLEY CITY 3 NNW, ND US","    251.9","","     251.9","6","        79","6","        33","6","         2","6","","","","","        49","6","       169","6","        83","6","       137","6","        15","6","","","","","  -32.2","6,1229, ","","","","","  35.3"," ,6,0703, ","   35.0","6,0802, ","0.0","6,0918","-3.9","6,0919","-8.9","6,1023","-8.9","6,1023","-8.9","6,1023","-1.1","6,0512","-2.2","6,0507","-5.0","6,0421","-6.7","6,0420","-8.9","6,0407","    4883.9","9","    4883.9","6","    340.5"," ,6","","","      5.97","6","     12.61","6","     -0.66","6"
"USC00328937","1939","46.9558","-98.0203","368.8","VALLEY CITY 3 NNW, ND US","    355.6","","     355.6","6","","","","","","","","","","","        44","6","       188","6","        79","6","       142","6","        27","6","","","","","  -38.9","6,0215, ","","","","","","","   39.4","6,0530, ","0.0","6,0910","-3.9","6,0925","-5.6","6,0929","-7.2","6,1016","-14.4","6,1028","-3.3","6,0512","-3.3","6,0512","-7.2","6,0421","-7.2","6,0421","-13.9","6,0411","    4771.1","1","    4771.1","6","","","","","      6.03","6","     12.89","6","     -0.83","6"
"USC00328937","1940","46.9558","-98.0203","368.8","VALLEY CITY 3 NNW, ND US","    294.9","","     294.9","6","","","","","","","","","","","        47","6","       177","6","        89","6","       138","6","        12","6","","","","","  -30.0","6,0118, ","","","","","","","   37.2","6,0722, ","-1.7","6,0911","-2.2","6,1017","-4.4","6,1030","-6.7","6,1107","-8.9","6,1110","-1.1","6,0516","-3.3","6,0502","-7.2","6,0412","-7.2","6,0412","-13.3","6,0411","    4689.7","7","    4689.7","6","","","","","      5.70","6","     11.82","6","     -0.43","6"
"USC00328937","1941","46.9558","-98.0203","368.8","VALLEY CITY 3 NNW, ND US","    357.1","","     357.1","6","","","","","","","","","","","        32","6","       171","6","        86","6","       125","6","        21","6","","","","","  -32.8","6,0219, ","","","","","","","   37.2","6,0725, ","0.0","6,0928","-3.3","6,1010","-9.4","6,1027","-9.4","6,1027","-9.4","6,1027","-0.6","6,0523","-2.2","6,0423","-6.7","6,0421","-6.7","6,0421","-12.8","6,0324","    4654.9","9","    4654.9","6","","","","","      6.31","6","     12.20","6","      0.42","6"
"USC00328937","1942","46.9558","-98.0203","368.8","VALLEY CITY 3 NNW, ND US","    184.6","","     184.6","6","        96","6","        50","6","         3","6","","","","","        34","6","       178","6","        69","6","       133","6","         2","6","","","","","  -31.1","6,0106, ","","","",""," 109.2"," ,6,0830, ","   33.9","6,0820, ","-1.7","6,0919","-2.2","6,0924","-6.1","6,0926","-9.4","6,1025","-9.4","6,1025","-0.6","6,0514","-3.3","6,0505","-6.7","6,0411","-6.7","6,0411","-15.0","6,0408","    4358.4","4","    4358.4","6","    607.2"," ,6","","","      5.93","6","     12.31","6","     -0.44","6"
"USC00328937","1943","46.9558","-98.0203","368.8","VALLEY CITY 3 NNW, ND US","    258.8","","     258.8","6","        83","6","        41","6","         1","6","","","","","        54","6","       185","6","        77","6","       121","6","         7","6","","","","","  -33.9","6,0118,+","","","","","  27.7"," ,6,0813, ","   35.0","6,0731, ","-2.2","6,0910","-2.2","6,0910","-4.4","6,1015","-7.2","6,1016","-9.4","6,1113","-0.6","6,0528","-2.2","6,0508","-7.8","6,0419","-7.8","6,0419","-18.3","6,0321","    5096.4","4","    5096.4","6","    402.3"," ,6","","","      5.32","6","     11.94","6","     -1.29","6"
"USC00328937","1944","46.9558","-98.0203","368.8","VALLEY CITY 3 NNW, ND US","    234.3","","     234.3","6","","","","","","","","","","","        28","6","       173","6","        75","6","       127","6","         7","6","","","","","  -30.6","6,0212, ","","","","","","","   34.4","6,0809, ","0.0","6,1008","-2.2","6,1009","-4.4","6,1010","-6.7","6,1019","-15.0","6,1118","-1.1","6,0506","-4.4","6,0505","-4.4","6,0505","-8.3","6,0406","-12.2","6,0402","    4437.7","7","    4437.7","6","","","","","      6.26","6","     12.32","6","      0.19","6"
"USC00328937","1946","46.9558","-98.0203","368.8","VALLEY CITY 3 NNW, ND US","    236.6","","     236.6","6","        99","6","        51","6","         5","6","","","","","        48","6","       167","6","        82","6","       129","6","         8","6","","","","","  -32.8","6,0202, ","","","","","  45.7"," ,6,0403, ","   36.1","6,0802, ","0.0","6,0928","-2.8","6,1007","-4.4","6,1012","-9.4","6,1103","-9.4","6,1103","0.0","6,0602","-2.8","6,0515","-9.4","6,0512","-9.4","6,0512","-9.4","6,0512","    4952.0","0","    4952.0","6","    598.8"," ,6","","","      5.65","6","     12.19","6","     -0.88","6"
"USC00328937","1947","46.9558","-98.0203","368.8","VALLEY CITY 3 NNW, ND US","    328.0","","     328.0","6","        78","6","        46","6","         2","6","","","","","        41","6","       172","6","        92","6","       124","6","        19","6","","","","","  -35.0","6,0103, ","","","","","  36.8"," ,6,0610, ","   39.4","6,0804, ","-6.1","6,0922","-6.1","6,0922","-6.1","6,0922","-6.7","6,1107","-8.9","6,1109","-3.9","6,0530","-3.9","6,0530","-6.7","6,0419","-6.7","6,0419","-8.9","6,0329","    4995.8","8","    4995.8","6","    422.1"," ,6","","","      5.59","6","     11.73","6","     -0.54","6"
"USC00328937","1948","46.9558","-98.0203","368.8","VALLEY CITY 3 NNW, ND US","    326.9","","     326.9","0","        73","0","        48","0","         2","0","","","","","        55","0","       176","0","        95","0","       139","0","        29","0","         2"," ","         8"," ","  -36.1","0,0123, ","","","","","  30.2"," ,0,0721, ","   37.8","0,0706, ","-0.6","0,1001","-2.8","0,1002","-10.6","0,1017","-10.6","0,1017","-10.6","0,1017","-0.6","6,0506","-3.3","6,0413","-6.1","6,0412","-7.8","6,0409","-9.4","6,0408","    5120.8","8","    5120.8","0","    383.5"," ,0","","","      5.36","0","     12.07","0","     -1.36","0"
"USC00328937","1949","46.9558","-98.0203","368.8","VALLEY CITY 3 NNW, ND US","","","","","        72","0","        43","0","         5","0","","","","","        57","0","       174","0","","","","","","","         8"," ","         8"," ","  -31.7","0,0210,+","","","","","  66.8"," ,0,0708, ","","","-1.7","0,0914","-5.6","0,0928","-5.6","0,0928","-7.8","0,1031","-12.8","0,1121","0.0","0,0525","-6.1","0,0424","-6.1","0,0424","-6.7","0,0326","-11.1","0,0319","    4757.2","2","    4757.2","0","    559.3"," ,0","","","","","","","     -1.00","0"
"USC00328937","1950","46.9558","-98.0203","368.8","VALLEY CITY 3 NNW, ND US","    173.1","","     173.1","0","        79","0","        42","0","         3","0","","","        26","0","        74","0","       187","0","       114","0","       126","0","        13","0","         5"," ","         9"," ","  -36.1","0,0130, ","","","   229"," ,0,0124, ","  48.3"," ,0,0625, ","   37.8","0,0606, ","-3.3","0,1003","-3.3","0,1003","-7.2","0,1025","-7.2","0,1025","-9.4","0,1109","0.0","0,0503","-2.2","0,0501","-7.8","0,0428","-7.8","0,0428","-11.1","0,0413","","","","","    485.0"," ,0","     1430"," ,0","      3.01","0","      9.54","0","     -3.51","0"
"USC00328937","1951","46.9558","-98.0203","368.8","VALLEY CITY 3 NNW, ND US","    158.0","","     158.0","0","        83","0","        39","0","         2","0","","","        20","0","        71","0","       188","0","       106","0","       123","0","         9","0","        16"," ","         3"," ","  -37.2","0,0129, ","","","   140"," ,0,1030, ","  46.7"," ,0,0703, ","   35.6","0,0801, ","-4.4","0,0924","-4.4","0,0924","-4.4","0,0924","-6.7","0,1019","-10.6","0,1027","-2.8","0,0511","-2.8","0,0511","-5.6","0,0422","-12.2","0,0324","-12.2","0,0324","    5307.2","2","    5307.2","0","    387.9"," ,0","     1429"," ,0","      3.45","0","      9.61","0","     -2.71","0"
"USC00328937","1952","46.9558","-98.0203","368.8","VALLEY CITY 3 NNW, ND US","    370.6","","     370.6","0","        54","0","        28","0","         2","0","","","        11","0","        40","0","       190","0","        97","0","       137","0","        37","0","         4"," ","         7"," ","  -35.0","0,0129, ","","","   114"," ,0,0121, ","  39.4"," ,0,1118, ","   38.9","0,0814, ","-0.6","0,0919","-3.3","0,1004","-5.6","0,1005","-8.9","0,1007","-8.9","0,1007","-0.6","0,0518","-2.2","0,0511","-4.4","0,0414","-9.4","0,0410","-9.4","0,0410","    5151.4","4","    5151.4","0","    293.3"," ,0","      609"," ,0","      6.25","0","     13.00","0","     -0.50","0"
"USC00328937","1953","46.9558","-98.0203","368.8","VALLEY CITY 3 NNW, ND US","    306.9","","     306.9","0","        76","0","        37","0","         4","0","","","         7","0","        27","0","       178","0","        66","0","       137","0","        15","0","        10"," ","         4"," ","  -30.0","0,1216, ","","","   114"," ,0,0210, ","  74.9"," ,0,0615, ","   36.7","0,0831, ","0.0","0,0921","-2.2","0,0922","-4.4","0,1024","-9.4","0,1104","-9.4","0,1104","0.0","0,0606","-2.2","0,0516","-4.4","0,0513","-9.4","0,0418","-9.4","0,0418","    4632.5","5","    4632.5","0","    529.1"," ,0","      714"," ,0","      6.84","0","     13.23","0","      0.44","0"
"USC00328937","1954","46.9558","-98.0203","368.8","VALLEY CITY 3 NNW, ND US","    262.3","","     262.3","0","        69","0","        37","0","         5","0","","","         8","0","        35","0","       174","0","        63","0","       124","0","        12","0","         4"," ","         2"," ","  -35.0","0,0121, ","","","    76"," ,0,0325,+","  32.0"," ,0,0610, ","   36.7","0,0726, ","-2.8","0,0922","-2.8","0,0922","-6.7","0,1006","-6.7","0,1006","-10.6","0,1101","0.0","0,0519","-2.2","0,0509","-8.9","0,0408","-8.9","0,0408","-8.9","0,0408","    4450.2","2","    4450.2","0","    431.5"," ,0","      463"," ,0","      6.37","0","     12.64","0","      0.10","0"
"USC00328937","1955","46.9558","-98.0203","368.8","VALLEY CITY 3 NNW, ND US","    406.7","","     406.7","0","        76","0","        32","0","         3","0","","","         6","0","        64","0","       174","0","       111","0","       148","0","        25","0","         3"," ","        17"," ","  -33.9","0,0224, ","","","    51"," ,0,0405, ","  33.0"," ,0,0604, ","   38.3","0,0818, ","-2.8","0,0911","-2.8","0,0911","-5.6","0,1017","-6.7","0,1021","-12.2","0,1024","-5.6","0,0508","-5.6","0,0508","-5.6","0,0508","-8.3","0,0328","-19.4","0,0327","    4553.0","0","    4553.0","0","    430.2"," ,0","      626"," ,0","      5.33","0","     12.07","0","     -1.42","0"
"USC00328937","1956","46.9558","-98.0203","368.8","VALLEY CITY 3 NNW, ND US","    243.3","","     243.3","0","        82","0","        42","0","         1","0","","","","","        44","0","       181","0","        81","0","       133","0","         6","0","         3"," ","","","  -30.6","0,0219, ","","","","","  35.6"," ,0,0606, ","   36.1","0,0611, ","-1.7","0,0914","-3.3","0,0929","-6.7","0,1009","-6.7","0,1009","-8.9","0,1115","-3.3","0,0504","-3.3","0,0504","-9.4","0,0429","-9.4","0,0429","-9.4","0,0429","    5368.5","5","    5368.5","0","    441.8"," ,0","","","      5.27","0","     11.77","0","     -1.23","0"
"USC00328937","1957","46.9558","-98.0203","368.8","VALLEY CITY 3 NNW, ND US","    242.8","","     242.8","0","        91","0","        57","0","         7","0","","","","","        41","0","       168","0","        75","0","       124","0","         9","0","","","         1"," ","  -33.3","0,0129, ","","","","","  57.2"," ,0,0717, ","   36.7","0,0711,+","-2.8","0,0923","-2.8","0,0923","-8.3","0,1025","-8.3","0,1025","-8.9","0,1026","0.0","0,0523","-2.2","0,0509","-5.6","0,0414","-7.2","0,0413","-11.1","0,0412","    4431.8","8","    4431.8","0","    704.3"," ,0","","","      5.68","0","     11.88","0","     -0.53","0"
"USC00328937","1958","46.9558","-98.0203","368.8","VALLEY CITY 3 NNW, ND US","    173.8","","     173.8","0","        70","0","        40","0","         2","0","","","         2","0","        43","0","       188","0","        70","0","       130","0","        13","0","","","","","  -31.7","0,0216, ","","","   102"," ,0,1118, ","  35.6"," ,0,0703, ","   38.3","0,0808, ","-1.1","0,0917","-2.8","0,1001","-5.0","0,1011","-7.8","0,1029","-10.6","0,1119","-2.8","0,0506","-2.8","0,0506","-6.7","0,0501","-6.7","0,0501","-9.4","0,0429","    4338.1","1","    4338.1","0","    386.1"," ,0","      191"," ,0","      5.55","0","     12.53","0","     -1.43","0"
"USC00328937","1959","46.9558","-98.0203","368.8","VALLEY CITY 3 NNW, ND US","","","","","        99","0","        45","0","         3","0","       61","","         5","0","","","","","","","","","","","","","","","","","   102"," ,0,1106,+","    89"," ,0,1104, ","  75.7"," ,0,0627, ","","","","","","","","","","","","","","","","","","","","","","","    5040.7","7","    5040.7","0","    458.4"," ,0","      403"," ,0","","","","","",""
"USC00328937","1960","46.9558","-98.0203","368.8","VALLEY CITY 3 NNW, ND US","","","","","        76","0","        40","0","         2","0","","","         8","0","","","","","       102","0","       130","0","        12","0","","","         1"," ","","","","","   229"," ,0,1128, ","  57.2"," ,0,0825, ","   35.6","0,0822, ","","","","","","","","","","","","","","","","","","","","","","","","","    454.9"," ,0","      777"," ,0","","","     11.07","0","",""
"USC00328937","1962","46.9558","-98.0203","368.8","VALLEY CITY 3 NNW, ND US","    218.4","","     218.4","0","       107","0","        48","0","         7","0","      105","","         8","0","        55","0","       181","0","        83","0","       137","0","         9","0","","","","","  -36.1","0,0117, ","   279"," ,0,0306,+","    51"," ,0,1106,+","  50.8"," ,0,0719, ","   35.0","0,0805, ","0.0","0,0919","-3.3","0,0920","-4.4","0,1020","-12.8","0,1025","-12.8","0,1025","-1.1","0,0506","-3.3","0,0428","-6.7","0,0419","-6.7","0,0419","-11.1","0,0415","","","","","    653.0"," ,0","      506"," ,0","      5.01","0","     11.38","0","     -1.36","0"
"USC00328937","1964","46.9558","-98.0203","368.8","VALLEY CITY 3 NNW, ND US","    239.5","","     239.5","0","        78","0","        45","0","         4","0","       86","","        14","0","        63","0","       196","0","        80","0","       126","0","        21","0","","","","","  -35.0","0,1130, ","   229"," ,0,1226,+","   152"," ,0,1127, ","  96.5"," ,0,0821, ","   37.2","0,0521, ","-2.2","0,0813","-2.2","0,0813","-5.0","0,0911","-6.7","0,1006","-11.1","0,1009","-3.3","0,0531","-3.3","0,0531","-5.0","0,0420","-7.2","0,0418","-15.0","0,0408","    4623.2","2","    4623.2","0","    561.2"," ,0","      863"," ,0","      4.83","0","     12.55","0","     -2.88","0"
"USC00328937","1965","46.9558","-98.0203","368.8","VALLEY CITY 3 NNW, ND US","    111.7","","     111.7","0","        92","0","        50","0","         7","0","      100","","        11","0","        66","0","       208","0","        95","0","       110","0","         6","0","","","","","  -40.0","0,0129, ","   279"," ,0,0204,+","   127"," ,0,0406,+","  47.5"," ,0,0627, ","   38.3","0,0813, ","-1.7","0,0828","-2.2","0,0910","-5.0","0,0924","-11.7","0,0926","-11.7","0,0926","-3.3","0,0528","-3.3","0,0528","-5.6","0,0427","-11.1","0,0330","-11.1","0,0330","    5747.4","4","    5747.4","0","    728.4"," ,0","      687"," ,0","      3.07","0","     10.45","0","     -4.30","0"
"USC00328937","1966","46.9558","-98.0203","368.8","VALLEY CITY 3 NNW, ND US","    277.5","","     277.5","0","        78","0","        44","0","         4","0","      100","","        15","0","        65","0","       200","0","        91","0","       122","0","        15","0","","","","","  -36.7","0,0123, ","   356"," ,0,0307,+","   178"," ,0,0303, ","  36.3"," ,0,0303, ","   35.0","0,0630, ","-1.7","0,0915","-2.8","0,0925","-5.0","0,1005","-8.9","0,1016","-8.9","0,1016","-0.6","0,0529","-6.1","0,0509","-6.1","0,0509","-10.0","0,0420","-10.0","0,0420","    5506.8","8","    5506.8","0","    484.3"," ,0","      811"," ,0","      3.89","0","     10.92","0","     -3.14","0"
"USC00328937","1967","46.9558","-98.0203","368.8","VALLEY CITY 3 NNW, ND US","    176.8","","     176.8","0","        67","0","        35","0","         3","0","       96","","        19","0","        59","0","       204","0","        83","0","       127","0","        25","0","","","","","  -37.8","0,1231, ","   203"," ,0,1231,+","   178"," ,0,0406, ","  47.0"," ,0,0918, ","   36.1","0,0828, ","-0.6","0,0831","-2.8","0,0924","-6.7","0,0927","-6.7","0,0927","-10.0","0,1021","0.0","0,0623","-2.2","0,0520","-5.0","0,0512","-7.8","0,0505","-9.4","0,0502","    5327.8","8","    5327.8","0","    412.2"," ,0","     1180"," ,0","      4.11","0","     11.88","0","     -3.66","0"
"USC00328937","1968","46.9558","-98.0203","368.8","VALLEY CITY 3 NNW, ND US","    187.5","","     187.5","0","        94","0","        49","0","         5","0","       98","","        19","0","        55","0","       189","0","        93","0","       117","0","        10","0","","","","","  -38.3","0,0104, ","   381"," ,0,0113,+","    89"," ,0,1116, ","  38.6"," ,0,0511, ","   37.2","0,0603, ","-1.7","0,1003","-7.2","0,1004","-7.2","0,1004","-7.2","0,1004","-10.6","0,1110","-1.7","0,0521","-6.7","0,0505","-6.7","0,0505","-6.7","0,0505","-10.6","0,0405","    5079.7","7","    5079.7","0","    598.3"," ,0","      931"," ,0","      4.81","0","     11.59","0","     -1.97","0"
"USC00328937","1969","46.9558","-98.0203","368.8","VALLEY CITY 3 NNW, ND US","    276.6","","     276.6","0","        87","0","        46","0","         3","0","      125","","        25","0","        59","0","       194","0","       111","0","       114","0","        22","0","","","","","  -31.7","0,0101, ","   864"," ,0,0202,+","   102"," ,0,0105, ","  53.6"," ,0,0625, ","   37.8","0,0811, ","0.0","0,0928","-3.3","0,1008","-4.4","0,1017","-7.2","0,1022","-8.9","0,1027","-1.1","0,0620","-2.2","0,0520","-4.4","0,0428","-7.2","0,0405","-13.9","0,0402","    5482.3","3","    5482.3","0","    490.6"," ,0","     1393"," ,0","      4.08","0","     10.71","0","     -2.55","0"
"USC00328937","1970","46.9558","-98.0203","368.8","VALLEY CITY 3 NNW, ND US","    317.5","","     317.5","0","        79","0","        38","0","         2","0","      119","","        17","0","        74","0","       209","0","       106","0","       127","0","        41","0","","","","","  -36.1","0,0121, ","   254"," ,0,0123,+","   178"," ,0,0419, ","  36.3"," ,0,0615, ","   38.3","0,0725, ","-4.4","0,0913","-4.4","0,0913","-4.4","0,0913","-8.3","0,1011","-15.6","0,1114","-1.1","0,0526","-3.3","0,0505","-4.4","0,0501","-6.7","0,0422","-9.4","0,0404","    5456.8","8","    5456.8","0","    435.2"," ,0","     1120"," ,0","      3.77","0","     11.25","0","     -3.71","0"
"USC00328937","1971","46.9558","-98.0203","368.8","VALLEY CITY 3 NNW, ND US","","","","","","","","","","","","","","","","","","","","","","","","","","","","","","","","","","","","","","","","","","","","","","","","","","","","","","","","","","","    5317.5","5","    5317.5","0","","","","","","","","","",""
"USC00328937","1973","46.9558","-98.0203","368.8","VALLEY CITY 3 NNW, ND US","","","","","","","","","","","       96","","","","","","","","        82","0","       121","0","        14","0","","","","","","","   229"," ,0,1223,+","","","","","   38.9","0,0712, ","","","","","","","","","","","","","","","","","","","","","","","","","","","","","","","     11.38","0","",""
"USC00328937","1974","46.9558","-98.0203","368.8","VALLEY CITY 3 NNW, ND US","","","","","        80","0","        34","0","         1","0","      118","","","","        53","0","       206","0","","","","","","","","","","","  -33.3","0,0108, ","   406"," ,0,0209, ","","","  26.2"," ,0,1101, ","","","-0.6","0,0901","-6.1","0,0922","-6.1","0,0922","-8.3","0,1002","-9.4","0,1115","-0.6","0,0516","-2.2","0,0515","-4.4","0,0423","-7.8","0,0408","-9.4","0,0328","","","","","    368.3"," ,0","","","","","","","     -2.97","0"
"USC00328937","1975","46.9558","-98.0203","368.8","VALLEY CITY 3 NNW, ND US","","","","","        99","0","        47","0","         3","0","      127","","        19","0","","","","","","","","","","","","","","","","","   381"," ,0,0331, ","   127"," ,0,0409,+","  47.0"," ,0,0630, ","","","","","","","","","","","","","","","","","","","","","","","    5452.7","7","    5452.7","0","    537.6"," ,0","     1012"," ,0","","","","","",""
"USC00328937","1976","46.9558","-98.0203","368.8","VALLEY CITY 3 NNW, ND US","    194.2","","     194.2","0","        69","0","        27","0","         1","0","","","        14","0","        60","0","       207","0","        88","0","       125","0","        18","0","","","","","  -32.2","0,1231,+","","","   114"," ,0,0302, ","  68.3"," ,0,0615, ","   37.8","0,0819, ","0.0","0,0921","-4.4","0,0923","-4.4","0,0923","-11.1","0,1006","-11.1","0,1006","0.0","0,0518","-6.7","0,0508","-6.7","0,0508","-6.7","0,0508","-14.4","0,0322","","","","","    301.2"," ,0","      818"," ,0","      3.81","0","     11.57","0","     -3.95","0"
"USC00328937","1977","46.9558","-98.0203","368.8","VALLEY CITY 3 NNW, ND US","    137.4","","     137.4","0","        96","0","        57","0","         6","0","      115","","","","        62","0","       181","0","       100","0","       119","0","         5","0","","","","","  -37.8","0,0116, ","   406"," ,0,1215,+","","","  67.1"," ,0,0705, ","   35.0","0,0719, ","-2.8","0,1002","-2.8","0,1002","-5.6","0,1022","-6.7","0,1110","-9.4","0,1112","0.0","0,0508","-2.8","0,0503","-4.4","0,0408","-9.4","0,0406","-9.4","0,0406","    5336.6","6","    5336.6","0","    688.8"," ,0","","","      4.24","0","     10.56","0","     -2.08","0"
"USC00328937","1978","46.9558","-98.0203","368.8","VALLEY CITY 3 NNW, ND US","","","","","        76","0","        37","0","         5","0","      139","","         9","0","        82","0","       184","0","","","","","","","","","","","  -34.4","0,1231, ","   406"," ,0,0307,+","    97"," ,0,1229, ","  40.9"," ,0,0616, ","","","-0.6","0,0921","-2.2","0,1007","-4.4","0,1016","-7.8","0,1023","-10.6","0,1111","-1.7","0,0426","-2.8","0,0425","-4.4","0,0422","-6.7","0,0421","-15.0","0,0318","    5743.6","6","    5743.6","0","    419.6"," ,0","      541"," ,0","","","","","     -3.27","0"
"USC00328937","1980","46.9558","-98.0203","368.8","VALLEY CITY 3 NNW, ND US","    169.8","","     169.8","0","        73","0","        38","0","         2","0","","","        13","0","        57","0","       195","0","        93","0","       129","0","         9","0","","","","","  -35.6","0,0301, ","","","   114"," ,0,0313,+","  49.3"," ,0,0829, ","   35.6","0,0711,+","0.0","0,0923","-5.6","0,1012","-5.6","0,1012","-8.9","0,1026","-8.9","0,1026","-1.1","0,0516","-2.2","0,0515","-4.4","0,0509","-7.8","0,0414","-10.0","0,0326","    5120.6","6","    5120.6","0","    431.8"," ,0","      705"," ,0","      4.61","0","     11.03","0","     -1.81","0"
"USC00328937","1981","46.9558","-98.0203","368.8","VALLEY CITY 3 NNW, ND US","    144.5","","     144.5","0","        98","0","        52","0","         2","0","       76","","        10","0","        44","0","       181","0","        85","0","       107","0","         6","0","","","","","  -32.2","0,1219,+","   229"," ,0,1231, ","    71"," ,0,1231, ","  37.8"," ,0,0907, ","   35.0","0,0708, ","-1.1","0,0917","-4.4","0,1021","-4.4","0,1021","-9.4","0,1023","-9.4","0,1023","-1.1","0,0514","-2.2","0,0513","-4.4","0,0511","-6.7","0,0510","-8.9","0,0415","    4816.5","5","    4816.5","0","    451.0"," ,0","      548"," ,0","      5.28","0","     11.81","0","     -1.26","0"
"USC00328937","1982","46.9558","-98.0203","368.8","VALLEY CITY 3 NNW, ND US","    138.5","","     138.5","0","        91","0","        43","0","         3","0","","","","","        63","0","       185","0","       106","0","        96","0","        10","0","","","","","  -36.7","0,0131, ","","","","","  33.8"," ,0,1010, ","   38.9","0,0803, ","-2.2","0,0920","-2.2","0,0920","-4.4","0,1020","-9.4","0,1021","-9.4","0,1021","-2.2","0,0508","-2.2","0,0508","-5.0","0,0427","-11.1","0,0407","-11.1","0,0407","    5594.2","2","    5594.2","0","    454.7"," ,0","","","      2.66","0","      8.95","0","     -3.63","0"
"USC00328937","1983","46.9558","-98.0203","368.8","VALLEY CITY 3 NNW, ND US","    291.5","","     291.5","0","        86","0","        32","0","         4","0","","","        12","0","        39","0","       186","0","        89","0","       109","0","        21","0","","","","","  -38.3","0,1220,+","","","   178"," ,0,1213, ","  43.7"," ,0,0622, ","   38.9","0,0903, ","-2.8","0,0922","-2.8","0,0922","-5.6","0,1014","-8.9","0,1110","-8.9","0,1110","-0.6","0,0525","-3.3","0,0517","-4.4","0,0516","-7.8","0,0414","-8.9","0,0329","    4845.8","8","    4845.8","0","    447.2"," ,0","      858"," ,0","      4.70","0","     10.39","0","     -0.99","0"
"USC00328937","1984","46.9558","-98.0203","368.8","VALLEY CITY 3 NNW, ND US","    180.6","","     180.6","0","        88","0","        40","0","         2","0","      111","","        16","0","        53","0","       195","0","        91","0","       107","0","        12","0","","","","","  -32.8","0,0121, ","   305"," ,0,0314,+","   114"," ,0,0217, ","  36.6"," ,0,1019, ","   37.8","0,0814,+","-0.6","0,0911","-6.1","0,0926","-6.1","0,0926","-10.6","0,1028","-10.6","0,1028","0.0","0,0527","-2.2","0,0510","-5.0","0,0418","-6.7","0,0323","-16.1","0,0317","    5294.3","3","    5294.3","0","    389.6"," ,0","      841"," ,0","      4.37","0","     10.64","0","     -1.91","0"
"USC00328937","1985","46.9558","-98.0203","368.8","VALLEY CITY 3 NNW, ND US","     96.3","","      96.3","0","        79","0","        41","0","         1","0","","","        13","0","        70","0","       195","0","        94","0","       102","0","         4","0","","","","","  -36.7","0,0119, ","","","   229"," ,0,1126, ","  25.7"," ,0,0817, ","   36.1","0,0708, ","-1.1","0,0924","-2.2","0,0925","-5.0","0,0928","-6.7","0,1009","-9.4","0,1030","-1.1","0,0506","-3.3","0,0427","-6.7","0,0411","-6.7","0,0411","-10.6","0,0307","    5265.8","8","    5265.8","0","    423.1"," ,0","      929"," ,0","      2.86","0","      9.64","0","     -3.91","0"
"USC00328937","1986","46.9558","-98.0203","368.8","VALLEY CITY 3 NNW, ND US","    142.5","","     142.5","0","        95","0","        60","0","         6","0","","","","","        40","0","       170","0","        88","0","       111","0","         3","0","","","","","  -34.4","0,0107, ","","","","","  37.3"," ,0,0806, ","   33.9","0,0619, ","-1.1","0,1004","-5.6","0,1009","-5.6","0,1009","-11.1","0,1101","-11.1","0,1101","-2.2","0,0503","-2.2","0,0503","-8.3","0,0417","-8.3","0,0417","-8.9","0,0416","    5326.7","7","    5326.7","0","    674.7"," ,0","","","      4.62","0","     10.52","0","     -1.29","0"
"USC00328937","1987","46.9558","-98.0203","368.8","VALLEY CITY 3 NNW, ND US","    226.2","","     226.2","0","        75","0","        39","0","         2","0","","","","","        13","0","       178","0","        67","0","       137","0","        16","0","","","","","  -32.2","0,0123, ","","","","","  59.7"," ,0,0621, ","   37.2","0,0717, ","0.0","0,1002","-4.4","0,1007","-4.4","0,1007","-7.8","0,1010","-8.9","0,1021","-2.2","0,0424","-2.2","0,0424","-5.6","0,0404","-7.8","0,0403","-8.9","0,0402","    4402.3","3","    4402.3","0","    440.1"," ,0","","","      6.76","0","     13.25","0","      0.26","0"
"USC00328937","1988","46.9558","-98.0203","368.8","VALLEY CITY 3 NNW, ND US","    346.2","","     346.2","0","        66","0","        37","0","         3","0","","","         8","0","        57","0","       201","0","        84","0","       139","0","        30","0","","","","","  -37.8","0,0212, ","","","   292"," ,0,1227, ","  41.4"," ,0,0919, ","   40.0","0,0707, ","-1.7","0,1002","-6.1","0,1004","-6.1","0,1004","-7.2","0,1005","-11.1","0,1026","0.0","0,0517","-2.8","0,0514","-5.0","0,0429","-10.0","0,0420","-10.0","0,0420","    4936.4","4","    4936.4","0","    382.5"," ,0","     1017"," ,0","      4.98","0","     12.43","0","     -2.47","0"
"USC00328937","1989","46.9558","-98.0203","368.8","VALLEY CITY 3 NNW, ND US","    274.4","","     274.4","0","        72","0","        34","0","         2","0","","","         9","0","        75","0","       198","0","        95","0","       129","0","        13","0","","","","","  -35.6","0,0111, ","","","   216"," ,0,0107, ","  41.1"," ,0,0819, ","   38.9","0,0706, ","-1.7","0,0910","-4.4","0,0923","-4.4","0,0923","-8.3","0,1003","-8.9","0,1004","-3.3","0,0507","-3.3","0,0507","-6.1","0,0506","-10.6","0,0418","-10.6","0,0418","    5374.5","5","    5374.5","0","    399.3"," ,0","      853"," ,0","      3.80","0","     10.88","0","     -3.27","0"
"USC00328937","1990","46.9558","-98.0203","368.8","VALLEY CITY 3 NNW, ND US","    208.7","","     208.7","0","        73","0","        36","0","         1","0","","","        13","0","        31","0","       202","0","        55","0","       127","0","        10","0","","","","","  -38.3","0,1227,+","","","   152"," ,0,0428, ","  48.3"," ,0,0602, ","   34.4","0,0912,+","-2.8","0,0923","-2.8","0,0923","-4.4","0,1007","-7.8","0,1008","-11.1","0,1104","-1.7","0,0519","-3.3","0,0518","-4.4","0,0510","-10.6","0,0418","-10.6","0,0418","    4965.8","8","    4965.8","0","    435.6"," ,0","      853"," ,0","      5.67","0","     13.00","0","     -1.67","0"
"USC00328937","1991","46.9558","-98.0203","368.8","VALLEY CITY 3 NNW, ND US","    254.1","","     254.1","0","        74","0","        37","0","         7","0","","","        13","0","        50","0","       200","0","        81","0","       137","0","        11","0","","","","","  -32.2","0,0107, ","","","   140"," ,0,0223, ","  34.5"," ,0,0515, ","   35.6","0,0829, ","-0.6","0,0919","-2.8","0,0926","-4.4","0,1015","-7.2","0,1018","-13.9","0,1030","0.0","0,0508","-5.6","0,0421","-5.6","0,0421","-7.2","0,0420","-13.9","0,0330","    4755.2","2","    4755.2","0","    516.6"," ,0","      634"," ,0","      5.36","0","     12.06","0","     -1.33","0"
"USC00328937","1992","46.9558","-98.0203","368.8","VALLEY CITY 3 NNW, ND US","     89.0","","      89.0","0","        69","0","        46","0","         3","0","","","        10","0","        30","0","       198","0","        88","0","       111","0","         6","0","","","","","  -33.3","0,0119, ","","","   102"," ,0,0108, ","  98.6"," ,0,0902, ","   35.0","0,0501, ","-2.2","0,0922","-2.2","0,0922","-4.4","0,0928","-8.9","0,1015","-8.9","0,1015","-0.6","0,0506","-2.2","0,0503","-5.6","0,0426","-10.6","0,0413","-10.6","0,0413","    4904.5","5","    4904.5","0","    562.1"," ,0","      625"," ,0","      4.74","0","     11.03","0","     -1.56","0"
"USC00328937","1993","46.9558","-98.0203","368.8","VALLEY CITY 3 NNW, ND US","     97.0","","      97.0","0","        75","0","        46","0","         5","0","","","        19","0","        54","0","       212","0","       101","0","        97","0","         4","0","","","","","  -36.7","0,1228, ","","","   178"," ,0,1125, "," 138.7"," ,0,0716, ","   33.3","0,0825, ","0.0","0,0915","-2.2","0,0923","-6.7","0,1002","-6.7","0,1002","-8.9","0,1009","0.0","0,0521","-3.3","0,0503","-5.0","0,0502","-8.3","0,0403","-8.9","0,0402","    5541.7","7","    5541.7","0","    669.5"," ,0","     1015"," ,0","      3.09","0","      9.63","0","     -3.45","0"
"USC00328937","1994","46.9558","-98.0203","368.8","VALLEY CITY 3 NNW, ND US","    150.4","","     150.4","0","        79","0","        60","0","         4","0","","","        17","0","        53","0","       187","0","        92","0","       129","0","         3","0","","","","","  -42.2","0,0210, ","","","   152"," ,0,0106, ","  63.8"," ,0,0708, ","   32.2","0,0826,+","-1.1","0,1009","-5.6","0,1025","-5.6","0,1025","-7.2","0,1031","-12.8","0,1119","-0.6","0,0507","-4.4","0,0503","-4.4","0,0503","-6.7","0,0412","-10.6","0,0406","    5579.8","8","    5579.8","0","    604.2"," ,0","     1010"," ,0","      4.13","0","     10.70","0","     -2.43","0"
"USC00328937","1995","46.9558","-98.0203","368.8","VALLEY CITY 3 NNW, ND US","    255.7","","     255.7","0","        78","0","        53","0","         3","0","","","        21","0","        61","0","       192","0","       108","0","       114","0","        14","0","","","","","  -32.2","0,0309,+","","","   127"," ,0,1214, ","  41.4"," ,0,0824, ","   37.8","0,0618, ","-2.8","0,0920","-2.8","0,0920","-5.0","0,0922","-7.2","0,1102","-12.8","0,1103","-0.6","0,0517","-4.4","0,0423","-4.4","0,0423","-6.7","0,0409","-14.4","0,0405","    5080.5","5","    5080.5","0","    491.2"," ,0","     1081"," ,0","      3.98","0","      9.96","0","     -1.99","0"
"USC00328937","1996","46.9558","-98.0203","368.8","VALLEY CITY 3 NNW, ND US","    209.4","","     209.4","0","","","","","","","","","        19","0","        80","0","       200","0","       124","0","       115","0","         6","0","","","","","  -41.1","0,0201, ","","","   229"," ,0,0324, ","","","   35.6","0,0825, ","-0.6","0,0929","-4.4","0,1003","-4.4","0,1003","-6.7","0,1023","-10.6","0,1030","0.0","0,0514","-3.3","0,0511","-5.0","0,0430","-7.2","0,0417","-9.4","0,0406","    5778.7","7","    5778.7","0","","","     1596"," ,0","      2.26","0","      8.59","0","     -4.06","0"
"USC00328937","1997","46.9558","-98.0203","368.8","VALLEY CITY 3 NNW, ND US","    208.0","","     208.0","0","        69","0","        44","0","         4","0","","","        23","0","        54","0","       204","0","       105","0","       131","0","         9","0","","","","","  -38.9","0,0126, ","","","   229"," ,0,0406, ","  77.0"," ,0,0901, ","   34.4","0,0803,+","0.0","0,0920","-2.8","0,1016","-6.1","0,1021","-12.8","0,1026","-12.8","0,1026","-1.1","0,0521","-2.2","0,0515","-8.3","0,0417","-8.3","0,0417","-13.3","0,0412","    5811.9","9","    5811.9","0","    525.4"," ,0","     1455"," ,0","      4.26","0","     10.78","0","     -2.26","0"
"USC00328937","1998","46.9558","-98.0203","368.8","VALLEY CITY 3 NNW, ND US","    243.9","","     243.9","0","        78","0","        51","0","         5","0","","","        18","0","        36","0","       174","0","        81","0","       141","0","        15","0","","","","","  -30.6","0,0114, ","","","   152"," ,0,1119, ","  38.1"," ,0,1017, ","   35.6","0,0911, ","0.0","0,0922","-2.8","0,1001","-4.4","0,1103","-7.8","0,1105","-16.1","0,1112","-1.7","0,0423","-2.2","0,0422","-4.4","0,0416","-6.7","0,0324","-10.6","0,0316","    4615.2","2","    4615.2","0","    604.8"," ,0","     1028"," ,0","      6.29","0","     12.55","0","      0.03","0"
"USC00328937","1999","46.9558","-98.0203","368.8","VALLEY CITY 3 NNW, ND US","    211.6","","     211.6","0","        74","0","        45","0","         4","0","","","        12","0","        32","0","       185","0","        63","0","       114","0","        11","0","","","","","  -32.8","0,0105, ","","","   102"," ,0,0102, ","  40.1"," ,0,0823, ","   37.2","0,0730, ","-1.1","0,0929","-2.2","0,1001","-5.0","0,1002","-7.2","0,1023","-13.9","0,1129","-2.2","0,0425","-2.2","0,0425","-5.6","0,0418","-6.7","0,0405","-8.9","0,0326","    4775.7","7","    4775.7","0","    500.7"," ,0","      639"," ,0","      5.92","0","     12.47","0","     -0.63","0"
"USC00328937","2000","46.9558","-98.0203","368.8","VALLEY CITY 3 NNW, ND US","    216.8","","     216.8","0","        88","0","        56","0","         2","0","","","        18","0","        51","0","       176","0","        98","0","       122","0","         9","0","","","","","  -33.9","0,1213, ","","","   152"," ,0,0411, ","  37.1"," ,0,0817, ","   35.6","0,0812, ","-1.1","0,0924","-3.3","0,1004","-8.3","0,1008","-8.3","0,1008","-17.2","0,1114","-1.7","0,0514","-2.8","0,0422","-5.0","0,0421","-9.4","0,0416","-9.4","0,0416","    4586.1","1","    4586.1","0","    487.1"," ,0","     1070"," ,0","      4.98","0","     11.69","0","     -1.72","0"
"USC00328937","2001","46.9558","-98.0203","368.8","VALLEY CITY 3 NNW, ND US","    301.9","","     301.9","0","        79","0","        55","0","         7","0","","","        12","0","        34","0","       179","0","        93","0","       126","0","        16","0","","","","","  -33.9","0,0102, ","","","    64"," ,0,1127, ","  38.1"," ,0,0809, ","   37.8","0,0806, ","-0.6","0,0924","-4.4","0,1005","-4.4","0,1005","-7.2","0,1026","-8.9","0,1127","-1.7","0,0425","-2.2","0,0424","-8.3","0,0418","-8.3","0,0418","-8.9","0,0417","    5218.1","1","    5218.1","0","    626.5"," ,0","      553"," ,0","      5.68","0","     12.25","0","     -0.89","0"
"USC00328937","2002","46.9558","-98.0203","368.8","VALLEY CITY 3 NNW, ND US","","","","","","","","","","","","","","","","","","","","","","","","","","","","","","","","","","","","","","","","","","","","","","","","","","","","","","","","","","","    4683.4","4","    4683.4","0","","","","","","","","","",""
"USC00328937","2003","46.9558","-98.0203","368.8","VALLEY CITY 3 NNW, ND US","    261.9","","     261.9","0","        71","0","        49","0","         3","0","","","        14","0","        60","0","       191","0","        96","0","       132","0","        17","0","","","","","  -33.9","0,0124, ","","","    89"," ,0,1231, ","  42.4"," ,0,0519, ","   36.7","0,0824,+","-1.1","0,0925","-5.0","0,0930","-5.0","0,0930","-6.7","0,1001","-10.6","0,1101","-1.1","0,0520","-2.2","0,0430","-4.4","0,0412","-7.8","0,0409","-9.4","0,0405","","","","","    480.8"," ,0","      645"," ,0","      4.73","0","     11.78","0","     -2.33","0"
"USC00328937","2004","46.9558","-98.0203","368.8","VALLEY CITY 3 NNW, ND US","    121.6","","     121.6","0","        82","0","        49","0","         6","0","","","","","        48","0","       194","0","        84","0","       105","0","         7","0","","","","","  -36.1","0,0131, ","","","","","  62.7"," ,0,0531, ","   32.8","0,0903, ","-1.1","0,0928","-2.2","0,1002","-6.1","0,1004","-11.1","0,1111","-11.1","0,1111","-3.9","0,0515","-3.9","0,0515","-4.4","0,0514","-7.2","0,0413","-8.9","0,0411","    4973.0","0","    4973.0","0","    581.5"," ,0","","","      4.67","0","     11.23","0","     -1.89","0"
"USC00328937","2005","46.9558","-98.0203","368.8","VALLEY CITY 3 NNW, ND US","    237.0","","     237.0","0","        74","0","        51","0","         3","0","","","        15","0","        45","0","       181","0","        79","0","       133","0","        12","0","","","","","  -34.4","0,0117, ","","","   102"," ,0,0122, ","  46.2"," ,0,0819, ","   35.0","0,0624, ","0.0","0,0929","-2.8","0,1022","-5.6","0,1024","-13.9","0,1116","-13.9","0,1116","-1.1","0,0515","-5.0","0,0505","-5.0","0,0505","-8.3","0,0504","-8.9","0,0503","    4693.0","0","    4693.0","0","    494.6"," ,0","      798"," ,0","      5.64","0","     12.11","0","     -0.83","0"
"USC00328937","2008","46.9558","-98.0203","368.8","VALLEY CITY 3 NNW, ND US","","","","","","","","","","","","","","","","","","","","","","","","","","","","","","","","","","","","","","","","","","","","","","","","","","","","","","","","","","","    5399.8","8","    5399.8","0","","","","","","","","","",""
"USC00328937","2009","46.9558","-98.0203","368.8","VALLEY CITY 3 NNW, ND US","    120.5","","     120.5","0","        86","0","        56","0","         2","0","","","        23","0","        65","0","       186","0","        99","0","       114","0","         4","0","","","","","  -38.9","0,0116,+","","","   152"," ,0,1226, ","  29.5"," ,0,1002, ","   35.6","0,0813, ","0.0","0,0929","-5.6","0,1009","-5.6","0,1009","-9.4","0,1013","-9.4","0,1013","0.0","0,0523","-2.2","0,0510","-6.7","0,0410","-6.7","0,0410","-9.4","0,0408","","","","","    522.0"," ,0","     1459"," ,0","      3.10","0","      9.30","0","     -3.10","0"
"USC00328937","2011","46.9558","-98.0203","368.8","VALLEY CITY 3 NNW, ND US","","","","","","","","","","","","","","","","","","","","","","","","","","","","","","","","","","","","","","","","","","","","","","","","","","","","","","","","","","","    5389.0","0","    5389.0","K","","","","","","","","","",""
