"STATION","DATE","LATITUDE","LONGITUDE","ELEVATION","NAME","CDSD","CDSD_ATTRIBUTES","CLDD","CLDD_ATTRIBUTES","DP01","DP01_ATTRIBUTES","DP10","DP10_ATTRIBUTES","DP1X","DP1X_ATTRIBUTES","DSND","DSND_ATTRIBUTES","DSNW","DSNW_ATTRIBUTES","DT00","DT00_ATTRIBUTES","DT32","DT32_ATTRIBUTES","DX32","DX32_ATTRIBUTES","DX70","DX70_ATTRIBUTES","DX90","DX90_ATTRIBUTES","DYFG","DYFG_ATTRIBUTES","DYTS","DYTS_ATTRIBUTES","EMNT","EMNT_ATTRIBUTES","EMSD","EMSD_ATTRIBUTES","EMSN","EMSN_ATTRIBUTES","EMXP","EMXP_ATTRIBUTES","EMXT","EMXT_ATTRIBUTES","FZF0","FZF0_ATTRIBUTES","FZF1","FZF1_ATTRIBUTES","FZF2","FZF2_ATTRIBUTES","FZF3","FZF3_ATTRIBUTES","FZF4","FZF4_ATTRIBUTES","FZF5","FZF5_ATTRIBUTES","FZF6","FZF6_ATTRIBUTES","FZF7","FZF7_ATTRIBUTES","FZF8","FZF8_ATTRIBUTES","FZF9","FZF9_ATTRIBUTES","HDSD","HDSD_ATTRIBUTES","HTDD","HTDD_ATTRIBUTES","PRCP","PRCP_ATTRIBUTES","SNOW","SNOW_ATTRIBUTES","TAVG","TAVG_ATTRIBUTES","TMAX","TMAX_ATTRIBUTES","TMIN","TMIN_ATTRIBUTES"
"USC00024686","1960","35.55","-109.7","1981.2","KLAGETOH 12 WNW, AZ US","","","","","        42","0","        22","0","         0","0","","","         8","0","","","","","","","","","","","        11"," ","         1"," ","","","","","   254"," ,0,0301, ","  24.9"," ,0,1015, ","","","","","","","","","","","","","","","","","","","","","","","","","","","    186.8"," ,0","      978"," ,0","","","","","",""
"USC00024686","1961","35.55","-109.7","1981.2","KLAGETOH 12 WNW, AZ US","","","","","","","","","","","","","","","","","","","","","","","","","         6"," ","         1"," ","","","","","","","","","","","","","","","","","","","","","","","","","","","","","","","","","","","","","","","","","","","",""
"USC00024686","1962","35.55","-109.7","1981.2","KLAGETOH 12 WNW, AZ US","","","","","","","","","","","","","","","","","","","        17","0","       170","0","        21","0","         1"," ","         1"," ","","","","","","","","","   35.6","0,0815,+","","","","","","","","","","","","","","","","","","","","","","","","","","","","","","","     18.55","0","",""
"USC00024686","1963","35.55","-109.7","1981.2","KLAGETOH 12 WNW, AZ US","","","","","        27","0","        16","0","         0","0","","","         1","0","","","","","","","","","","","","","","","","","","","   127"," ,0,0211, ","  23.4"," ,0,0813, ","","","","","","","","","","","","","","","","","","","","","","","","","","","    172.3"," ,0","      127"," ,0","","","","","",""
"USC00024686","1964","35.55","-109.7","1981.2","KLAGETOH 12 WNW, AZ US","","","","","","","","","","","","","","","","","","","","","","","","","","","         3"," ","","","","","","","","","","","","","","","","","","","","","","","","","","","","","","","","","","","","","","","","","","","",""
"USC00024686","1965","35.55","-109.7","1981.2","KLAGETOH 12 WNW, AZ US","","","","","","","","","","","","","","","","","","","","","","","","","","","         1"," ","","","","","","","","","","","","","","","","","","","","","","","","","","","","","","","","","","","","","","","","","","","",""
"USC00024686","1966","35.55","-109.7","1981.2","KLAGETOH 12 WNW, AZ US","","","","","        29","0","        22","0","         2","0","","","","","         4","0","       124","0","","","","","","","","","","","  -20.0","0,1230, ","","","","","  40.6"," ,0,0914, ","","","-4.4","0,1014","-4.4","0,1014","-4.4","0,1014","-6.7","0,1110","-10.6","0,1210","-1.1","0,0422","-7.8","0,0421","-7.8","0,0421","-7.8","0,0421","-15.6","0,0305","","","","","    229.0"," ,0","","","","","","","      3.97","0"
"USC00024686","1967","35.55","-109.7","1981.2","KLAGETOH 12 WNW, AZ US","","","","","","","","","","","       20","","","","","","","","        17","0","       183","0","        14","0","","","         2"," ","","","   914"," ,0,1217, ","","","","","   40.0","0,0704, ","","","","","","","","","","","","","","","","","","","","","","","","","","","","","","","     19.21","0","",""
"USC00024686","1968","35.55","-109.7","1981.2","KLAGETOH 12 WNW, AZ US","","","","","","","","","","","","","","","","","","","","","","","","","","","         8"," ","","","","","","","","","","","","","","","","","","","","","","","","","","","","","","","","","","","","","","","","","","","",""
"USC00024686","1969","35.55","-109.7","1981.2","KLAGETOH 12 WNW, AZ US","    469.7","","     469.7","0","        66","0","        39","0","         1","0","","","","","         0","0","       133","0","         3","0","       170","0","        27","0","","","         5"," ","  -12.8","0,0130, ","","","","","  37.3"," ,0,1021, ","   35.6","0,0702, ","-4.4","0,1005","-4.4","0,1005","-4.4","0,1005","-9.4","0,1118","-9.4","0,1118","0.0","0,0610","-2.2","0,0427","-7.2","0,0402","-7.2","0,0402","-11.1","0,0315","","","","","    267.9"," ,0","","","     11.67","0","     18.84","0","      4.51","0"
"USC00024686","1970","35.55","-109.7","1981.2","KLAGETOH 12 WNW, AZ US","","","","","","","","","","","","","","","","","","","","","","","","","","","         3"," ","","","","","","","","","","","","","","","","","","","","","","","","","","","","","","","","","","","","","","","","","","","",""
"USC00024686","1971","35.55","-109.7","1981.2","KLAGETOH 12 WNW, AZ US","    448.1","","     448.1","0","","","","","","","","","","","         5","0","       134","0","        17","0","       153","0","        27","0","","","","","  -28.3","0,0107, ","","","","","","","   38.3","0,0713, ","-2.2","0,0919","-2.2","0,0919","-4.4","0,1019","-8.9","0,1030","-8.9","0,1030","0.0","0,0521","-2.8","0,0427","-6.7","0,0425","-6.7","0,0425","-12.2","0,0306","    3008.9","9","    3008.9","0","","","","","     10.84","0","     18.15","0","      3.53","0"
"USC00024686","1972","35.55","-109.7","1981.2","KLAGETOH 12 WNW, AZ US","    376.8","","     376.8","0","","","","","","","","","","","         0","0","       129","0","         7","0","       176","0","        21","0","","","","","  -15.6","0,1231,+","","","","","","","   35.6","0,0730,+","-0.6","0,1026","-4.4","0,1030","-4.4","0,1030","-7.2","0,1031","-11.1","0,1101","-0.6","0,0513","-2.2","0,0427","-10.6","0,0414","-10.6","0,0414","-10.6","0,0414","    2796.5","5","    2796.5","0","","","","","     11.71","0","     18.88","0","      4.53","0"
"USC00024686","1973","35.55","-109.7","1981.2","KLAGETOH 12 WNW, AZ US","    382.7","","     382.7","0","        57","0","        23","0","         1","0","","","","","         0","0","       143","0","         9","0","       168","0","        17","0","","","","","  -13.3","0,1127,+","","","","","  39.4"," ,0,0829, ","   35.6","0,0724, ","-1.1","0,1009","-2.2","0,1011","-8.9","0,1120","-8.9","0,1120","-8.9","0,1120","-1.1","0,0506","-2.8","0,0422","-4.4","0,0421","-8.3","0,0408","-11.1","0,0202","    3370.7","7","    3370.7","0","    215.6"," ,0","","","     10.77","0","     17.61","0","      3.93","0"
"USC00024686","1974","35.55","-109.7","1981.2","KLAGETOH 12 WNW, AZ US","    438.2","","     438.2","0","        42","0","        28","0","         1","0","","","         1","0","         2","0","       135","0","        10","0","       168","0","        27","0","","","","","  -17.8","0,1225,+","","","    76"," ,0,1223, ","  34.3"," ,0,1029, ","   35.0","0,0630,+","-1.7","0,1029","-2.2","0,1104","-4.4","0,1126","-7.8","0,1129","-9.4","0,1209","0.0","0,0521","-2.2","0,0520","-11.1","0,0519","-11.1","0,0519","-11.1","0,0519","    2761.6","6","    2761.6","0","    236.5"," ,0","       76"," ,0","     11.49","0","     18.87","0","      4.10","0"
"USC00024686","1975","35.55","-109.7","1981.2","KLAGETOH 12 WNW, AZ US","    298.0","","     298.0","0","        53","0","        30","0","         0","0","","","","","         1","0","       153","0","        12","0","       158","0","         9","0","","","","","  -17.8","0,0112, ","","","","","  15.2"," ,0,0907,+","   33.9","0,0809, ","-3.3","0,1007","-3.3","0,1007","-6.7","0,1024","-6.7","0,1024","-9.4","0,1120","-0.6","0,0522","-3.3","0,0521","-6.7","0,0506","-6.7","0,0506","-8.9","0,0328","    3240.2","2","    3240.2","0","    219.6"," ,0","","","     10.20","0","     17.40","0","      2.99","0"
"USC00024686","1976","35.55","-109.7","1981.2","KLAGETOH 12 WNW, AZ US","    318.2","","     318.2","0","        41","0","        24","0","         1","0","","","","","         0","0","       143","0","         4","0","       152","0","        14","0","","","         2"," ","  -17.2","0,0102, ","","","","","  25.4"," ,0,0508, ","   33.9","0,0708, ","-2.2","0,1019","-2.2","0,1019","-5.6","0,1027","-10.6","0,1127","-10.6","0,1127","-1.7","0,0427","-9.4","0,0417","-9.4","0,0417","-9.4","0,0417","-9.4","0,0417","    2965.6","6","    2965.6","0","    194.3"," ,0","","","     11.10","0","     18.70","0","      3.49","0"
"USC00024686","1977","35.55","-109.7","1981.2","KLAGETOH 12 WNW, AZ US","","","","","","","","","","","","","         2","0","","","","","","","","","","","","","         1"," ","","","","","   152"," ,0,0224, ","","","","","","","","","","","","","","","","","","","","","","","","","","","","","","","      203"," ,0","","","","","",""
"USC00024686","1978","35.55","-109.7","1981.2","KLAGETOH 12 WNW, AZ US","    489.0","","     489.0","0","        48","0","        36","0","         1","0","","","         9","0","         3","0","       129","0","        11","0","       167","0","        28","0","","","         1"," ","  -21.7","0,1209, ","","","   102"," ,0,0115, ","  27.9"," ,0,1218, ","   34.4","0,0717,+","-1.7","0,1026","-3.3","0,1030","-5.0","0,1116","-6.7","0,1128","-11.1","0,1203","0.0","0,0517","-5.0","0,0506","-5.0","0,0506","-10.0","0,0219","-10.0","0,0219","    2674.4","4","    2674.4","0","    368.3"," ,0","      533"," ,0","     11.58","0","     18.56","0","      4.59","0"
"USC00024686","1979","35.55","-109.7","1981.2","KLAGETOH 12 WNW, AZ US","    431.7","","     431.7","0","        48","0","        25","0","         0","0","","","","","         2","0","       155","0","        20","0","       172","0","        28","0","","","         1"," ","  -22.8","0,0130, ","","","","","  22.1"," ,0,1021, ","   35.0","0,0726,+","0.0","0,1021","-2.8","0,1030","-4.4","0,1031","-6.7","0,1112","-10.0","0,1121","-1.1","0,0610","-2.8","0,0510","-6.7","0,0412","-6.7","0,0412","-8.9","0,0207","    3179.6","6","    3179.6","0","    204.9"," ,0","","","     10.73","0","     17.79","0","      3.68","0"
"USC00024686","1980","35.55","-109.7","1981.2","KLAGETOH 12 WNW, AZ US","","","","","        42","0","        24","0","         2","0","","","","","","","","","","","","","","","","","         1"," ","","","","","","","  29.2"," ,0,0824, ","","","","","","","","","","","","","","","","","","","","","","","","","","","    246.6"," ,0","","","","","","","",""
"USC00024686","1981","35.55","-109.7","1981.2","KLAGETOH 12 WNW, AZ US","    432.6","","     432.6","0","        48","0","        27","0","         2","0","","","","","         0","0","       118","0","         1","0","       173","0","        36","0","","","","","  -12.2","0,1224,+","","","","","  30.0"," ,0,1002, ","   36.1","0,0623, ","-1.1","0,1017","-5.6","0,1031","-5.6","0,1031","-7.2","0,1119","-8.9","0,1126","-1.7","0,0520","-5.0","0,0405","-5.0","0,0405","-11.1","0,0403","-11.1","0,0403","    2609.3","3","    2609.3","0","    244.1"," ,0","","","     12.44","0","     19.81","0","      5.08","0"
"USC00024686","1982","35.55","-109.7","1981.2","KLAGETOH 12 WNW, AZ US","","","","","        57","0","        35","0","         0","0","","","         2","0","","","","","        14","0","       151","0","        11","0","         1"," ","         5"," ","","","","","    76"," ,0,0206,+","  23.9"," ,0,0824, ","   33.9","0,0712, ","","","","","","","","","","","","","","","","","","","","","","","","","    332.1"," ,0","      163"," ,0","","","     17.33","0","",""
"USC00024686","1983","35.55","-109.7","1981.2","KLAGETOH 12 WNW, AZ US","    350.9","","     350.9","0","        43","0","        30","0","         3","0","","","","","         0","0","       147","0","         3","0","       139","0","        10","0","         2"," ","         1"," ","  -15.0","0,0101, ","","","","","  55.9"," ,0,0303,+","   34.4","0,0705, ","-5.0","0,1109","-5.0","0,1109","-5.0","0,1109","-6.7","0,1119","-9.4","0,1123","-5.6","0,0522","-5.6","0,0522","-5.6","0,0522","-6.7","0,0408","-9.4","0,0407","    3164.4","4","    3164.4","0","    348.2"," ,0","","","     10.74","0","     17.92","0","      3.56","0"
"USC00024686","1984","35.55","-109.7","1981.2","KLAGETOH 12 WNW, AZ US","","","","","        48","0","        25","0","         2","0","","","         2","0","","","","","","","","","","","         4"," ","         1"," ","","","","","   152"," ,0,0217, ","  38.1"," ,0,0823, ","","","","","","","","","","","","","","","","","","","","","","","","","","","    260.7"," ,0","      208"," ,0","","","","","",""
"USC00024686","1985","35.55","-109.7","1981.2","KLAGETOH 12 WNW, AZ US","","","","","","","","","","","","","         5","0","","","","","        14","0","       158","0","        40","0","         1"," ","         1"," ","","","","","   127"," ,0,0203, ","","","   36.1","0,0706, ","","","","","","","","","","","","","","","","","","","","","","","","","","","      302"," ,0","","","     18.04","0","",""
"USC00024686","1986","35.55","-109.7","1981.2","KLAGETOH 12 WNW, AZ US","","","","","        46","0","        25","0","         1","0","","","         3","0","","","","","","","","","","","         1"," ","         1"," ","","","","","   109"," ,0,0317, ","  25.4"," ,0,1011, ","","","","","","","","","","","","","","","","","","","","","","","","","","","    260.6"," ,0","      198"," ,0","","","","","",""
"USC00024686","1987","35.55","-109.7","1981.2","KLAGETOH 12 WNW, AZ US","","","","","","","","","","","","","","","","","","","","","","","","","","","         5"," ","","","","","","","","","","","","","","","","","","","","","","","","","","","","","","","","","","","","","","","","","","","",""
"USC00024686","1988","35.55","-109.7","1981.2","KLAGETOH 12 WNW, AZ US","","","","","        26","0","        18","0","         0","0","","","","","","","","","","","","","","","","","","","","","","","","","  22.4"," ,0,0203, ","","","","","","","","","","","","","","","","","","","","","","","","","","","    166.9"," ,0","","","","","","","",""
"USC00024686","1989","35.55","-109.7","1981.2","KLAGETOH 12 WNW, AZ US","    466.5","","     466.5","0","","","","","","","","","","","         3","0","       113","0","         5","0","       190","0","        34","0","","","","","  -23.3","0,0206, ","","","","","","","   36.7","0,0719,+","-0.6","0,1017","-2.2","0,1026","-5.6","0,1029","-7.8","0,1127","-11.1","0,1128","-1.1","0,0427","-2.2","0,0327","-4.4","0,0321","-10.6","0,0305","-10.6","0,0305","","","","","","","","","     12.37","0","     20.24","0","      4.51","0"
"USC00024686","1990","35.55","-109.7","1981.2","KLAGETOH 12 WNW, AZ US","","","","","        26","0","        18","0","         0","0","","","         0","0","","","","","","","","","","","","","","","","","","","     8"," ,0,1215, ","  17.8"," ,0,0703, ","","","","","","","","","","","","","","","","","","","","","","","    2644.1","1","    2644.1","0","    112.5"," ,0","       19"," ,0","","","","","",""
"USC00024686","1991","35.55","-109.7","1981.2","KLAGETOH 12 WNW, AZ US","    359.4","","     359.4","0","","","","","","","        0","","         1","0","         0","0","       139","0","        15","0","       173","0","        14","0","        10"," ","","","  -15.6","0,1202, ","     0"," ,0,1231,+","   102"," ,0,1218, ","","","   35.0","0,0706, ","-1.7","0,1028","-2.2","0,1029","-8.3","0,1031","-8.3","0,1031","-10.0","0,1123","0.0","0,0505","-2.2","0,0430","-4.4","0,0428","-7.2","0,0309","-10.0","0,0131","","","","","    134.9"," ,0","      110"," ,0","     11.23","0","     18.33","0","      4.13","0"
"USC00024686","1992","35.55","-109.7","1981.2","KLAGETOH 12 WNW, AZ US","    291.7","","     291.7","0","","","","","","","","","         1","0","         1","0","       124","0","        31","0","       170","0","         6","0","","","         7"," ","  -18.9","0,1220, ","","","    25"," ,0,1205, ","","","   33.3","0,0707, ","0.0","0,1101","-3.3","0,1103","-6.1","0,1104","-8.9","0,1124","-8.9","0,1124","-1.1","0,0420","-2.2","0,0321","-6.7","0,0220","-6.7","0,0220","-8.9","0,0123","    2721.7","7","    2721.7","0","","","       66"," ,0","     10.75","0","     17.16","0","      4.34","0"
"USC00024686","1993","35.55","-109.7","1981.2","KLAGETOH 12 WNW, AZ US","","","","","","","","","","","","","","","","","","","","","","","","","         3"," ","","","","","","","","","","","","","","","","","","","","","","","","","","","","","","","","","","","","","","","","","","","","","",""
