"STATION","DATE","LATITUDE","LONGITUDE","ELEVATION","NAME","DP01","DP01_ATTRIBUTES","DP10","DP10_ATTRIBUTES","DP1X","DP1X_ATTRIBUTES","DSND","DSND_ATTRIBUTES","DSNW","DSNW_ATTRIBUTES","DYFG","DYFG_ATTRIBUTES","DYTS","DYTS_ATTRIBUTES","EMSD","EMSD_ATTRIBUTES","EMSN","EMSN_ATTRIBUTES","EMXP","EMXP_ATTRIBUTES","PRCP","PRCP_ATTRIBUTES","SNOW","SNOW_ATTRIBUTES"
"USC00214306","1949","48.5011","-92.6444","342.0","KETTLE FALLS, MN US","       111","0","        70","0","         6","0","","","","","","","","","","","","","  30.5"," ,0,0814, ","    792.8"," ,0","",""
"USC00214306","1950","48.5011","-92.6444","342.0","KETTLE FALLS, MN US","","","","","","","","","","","         1"," ","","","","","","","","","","","",""
"USC00214306","1951","48.5011","-92.6444","342.0","KETTLE FALLS, MN US","       120","0","        64","0","         2","0","","","","","","","         8"," ","","","","","  59.4"," ,0,0831, ","    687.5"," ,0","",""
"USC00214306","1952","48.5011","-92.6444","342.0","KETTLE FALLS, MN US","        98","0","        52","0","         5","0","","","","","","","","","","","","","  58.7"," ,0,0703, ","    575.4"," ,0","",""
"USC00214306","1953","48.5011","-92.6444","342.0","KETTLE FALLS, MN US","       122","0","        61","0","         6","0","","","","","","","","","","","","","  54.4"," ,0,0616, ","    734.3"," ,0","",""
"USC00214306","1954","48.5011","-92.6444","342.0","KETTLE FALLS, MN US","       148","0","        67","0","         1","0","","","","","","","","","","","","","  26.4"," ,0,0501, ","    600.7"," ,0","",""
"USC00214306","1955","48.5011","-92.6444","342.0","KETTLE FALLS, MN US","       143","0","        74","0","         3","0","","","","","","","","","","","","","  83.1"," ,0,0918, ","    813.4"," ,0","",""
"USC00214306","1956","48.5011","-92.6444","342.0","KETTLE FALLS, MN US","       116","0","        61","0","         1","0","      152","","        26","0","","","","","   635"," ,0,0128,+","   254"," ,0,0407, ","  26.7"," ,0,0706, ","    581.5"," ,0","     1654"," ,0"
"USC00214306","1957","48.5011","-92.6444","342.0","KETTLE FALLS, MN US","       116","0","        61","0","         7","0","      153","","        20","0","","","","","   711"," ,0,0317,+","   234"," ,0,0315, ","  60.5"," ,0,0919, ","    732.7"," ,0","     1444"," ,0"
"USC00214306","1958","48.5011","-92.6444","342.0","KETTLE FALLS, MN US","       106","0","        52","0","         3","0","      123","","        16","0","","","","","   406"," ,0,0216,+","   152"," ,0,1126, ","  37.6"," ,0,0701, ","    489.1"," ,0","     1033"," ,0"
"USC00214306","1959","48.5011","-92.6444","342.0","KETTLE FALLS, MN US","       133","0","        64","0","         2","0","","","        14","0","","","","","","","    86"," ,0,0129, ","  33.0"," ,0,0721, ","    576.8"," ,0","      820"," ,0"
"USC00214306","1960","48.5011","-92.6444","342.0","KETTLE FALLS, MN US","       101","0","        51","0","         1","0","      145","","        10","0","","","","","   305"," ,0,0307,+","   191"," ,0,1129, ","  39.9"," ,0,0907, ","    497.4"," ,0","      915"," ,0"
"USC00214306","1961","48.5011","-92.6444","342.0","KETTLE FALLS, MN US","       103","0","        57","0","         4","0","      130","","        19","0","","","","","   330"," ,0,0221,+","   140"," ,0,0412, ","  80.0"," ,0,0727, ","    714.5"," ,0","     1192"," ,0"
"USC00214306","1962","48.5011","-92.6444","342.0","KETTLE FALLS, MN US","       122","0","        69","0","         2","0","      138","","        20","0","","","","","   711"," ,0,0216, ","   170"," ,0,0214, ","  38.6"," ,0,0514, ","    741.7"," ,0","     1419"," ,0"
"USC00214306","1963","48.5011","-92.6444","342.0","KETTLE FALLS, MN US","       107","0","        61","0","         6","0","      126","","        18","0","","","","","   406"," ,0,0315,+","    76"," ,0,1209,+","  51.8"," ,0,0728, ","    765.8"," ,0","     1037"," ,0"
"USC00214306","1964","48.5011","-92.6444","342.0","KETTLE FALLS, MN US","       121","0","        71","0","         4","0","      147","","        20","0","","","","","   508"," ,0,0129,+","   109"," ,0,0406, "," 102.9"," ,0,0609, ","    850.3"," ,0","     1513"," ,0"
"USC00214306","1965","48.5011","-92.6444","342.0","KETTLE FALLS, MN US","       121","0","        80","0","         3","0","","","        26","0","","","","","","","   165"," ,0,0407, ","  55.9"," ,0,0806, ","    817.6"," ,0","     1707"," ,0"
"USC00214306","1966","48.5011","-92.6444","342.0","KETTLE FALLS, MN US","        85","0","        57","0","         4","0","","","","","","","","","","","","","  71.1"," ,0,0703, ","    653.1"," ,0","",""
"USC00214306","1967","48.5011","-92.6444","342.0","KETTLE FALLS, MN US","       120","0","        66","0","         2","0","","","","","","","","","","","","","  43.2"," ,0,0722, ","    620.7"," ,0","",""
"USC00214306","1969","48.5011","-92.6444","342.0","KETTLE FALLS, MN US","       111","0","        75","0","         8","0","","","","","","","","","","","","","  65.5"," ,0,0715, ","    874.2"," ,0","",""
"USC00214306","1970","48.5011","-92.6444","342.0","KETTLE FALLS, MN US","       106","0","        72","0","         6","0","","","","","","","","","","","","","  40.6"," ,0,0921, ","    770.7"," ,0","",""
"USC00214306","1971","48.5011","-92.6444","342.0","KETTLE FALLS, MN US","       121","0","        68","0","         7","0","","","","","","","","","","","","","  48.3"," ,0,1027, ","    813.1"," ,0","",""
"USC00214306","1973","48.5011","-92.6444","342.0","KETTLE FALLS, MN US","        86","0","        60","0","         3","0","      118","","        11","0","","","         4"," ","   381"," ,0,0222,+","    51"," ,0,0212, ","  45.7"," ,0,0922, ","    580.5"," ,0","      432"," ,0"
"USC00214306","1974","48.5011","-92.6444","342.0","KETTLE FALLS, MN US","        93","0","        67","0","         3","0","      156","","        29","0","","","         4"," ","   635"," ,0,0402, ","   152"," ,0,1223, ","  47.5"," ,0,0704, ","    709.6"," ,0","     1613"," ,0"
"USC00214306","1975","48.5011","-92.6444","342.0","KETTLE FALLS, MN US","       114","0","        72","0","         5","0","      157","","        24","0","","","         9"," ","   914"," ,0,0126, ","   292"," ,0,0111, ","  33.0"," ,0,0706, ","    728.8"," ,0","     1848"," ,0"
"USC00214306","1976","48.5011","-92.6444","342.0","KETTLE FALLS, MN US","        94","0","        53","0","         4","0","      153","","        19","0","","","        17"," ","   914"," ,0,0313,+","   368"," ,0,0312, ","  43.2"," ,0,0613, ","    541.1"," ,0","     1535"," ,0"
"USC00214306","1977","48.5011","-92.6444","342.0","KETTLE FALLS, MN US","       141","0","        79","0","         6","0","      142","","        21","0","","","         9"," ","   711"," ,0,1121, ","   305"," ,0,1110, ","  71.1"," ,0,0909, ","    945.8"," ,0","     1931"," ,0"
"USC00214306","1978","48.5011","-92.6444","342.0","KETTLE FALLS, MN US","","","","","","","","","","","","","         7"," ","","","","","","","","","",""
"USC00214306","1979","48.5011","-92.6444","342.0","KETTLE FALLS, MN US","","","","","","","","","","","","","         1"," ","","","","","","","","","",""
"USC00214306","1980","48.5011","-92.6444","342.0","KETTLE FALLS, MN US","","","","","","","","","","","","","         1"," ","","","","","","","","","",""
"USC00214306","1981","48.5011","-92.6444","342.0","KETTLE FALLS, MN US","       108","0","        63","0","         3","0","","","        18","0","","","         2"," ","","","    76"," ,0,1231,+","  58.4"," ,0,0720, ","    655.4"," ,0","      927"," ,0"
"USC00214306","1982","48.5011","-92.6444","342.0","KETTLE FALLS, MN US","       123","0","        80","0","         5","0","","","","","         2"," ","        10"," ","","","","","  40.6"," ,0,0610, ","    838.3"," ,0","",""
"USC00214306","1989","48.5011","-92.6444","342.0","KETTLE FALLS, MN US","","","","","","","","","","","","","         1"," ","","","","","","","","","",""
"USC00214306","2000","48.5011","-92.6444","342.0","KETTLE FALLS, MN US","       118","0","        58","0","         2","0","","","","","","","","","","","","","  50.8"," ,0,0806, ","    543.6"," ,0","",""
"USC00214306","2001","48.5011","-92.6444","342.0","KETTLE FALLS, MN US","       114","0","        58","0","         2","0","","","","","","","","","","","","","  96.5"," ,0,0801, ","    674.5"," ,0","",""
"USC00214306","2003","48.5011","-92.6444","342.0","KETTLE FALLS, MN US","       116","0","        63","0","         2","0","","","","","","","","","","","","","  54.6"," ,0,0625, ","    586.2"," ,0","",""
"USC00214306","2007","48.5011","-92.6444","342.0","KETTLE FALLS, MN US","       102","0","        74","0","         4","0","","","","","","","","","","","","","  31.8"," ,0,1019, ","    654.9"," ,0","",""
"USC00214306","2009","48.5011","-92.6444","342.0","KETTLE FALLS, MN US","       116","0","        78","0","         9","0","","","","","","","","","","","","","  38.1"," ,0,1031,+","    791.5"," ,0","",""
"USC00214306","2010","48.5011","-92.6444","342.0","KETTLE FALLS, MN US","        87","0","        72","0","         9","0","","","","","","","","","","","","","  63.5"," ,0,0704, ","    762.2"," ,0","",""
"USC00214306","2014","48.5011","-92.6444","342.0","KETTLE FALLS, MN US","","","","","","","","","","","","","         6"," ","","","","","","","","","",""
