"STATION","DATE","LATITUDE","LONGITUDE","ELEVATION","NAME","CDSD","CDSD_ATTRIBUTES","CLDD","CLDD_ATTRIBUTES","DP01","DP01_ATTRIBUTES","DP10","DP10_ATTRIBUTES","DP1X","DP1X_ATTRIBUTES","DSND","DSND_ATTRIBUTES","DSNW","DSNW_ATTRIBUTES","DT00","DT00_ATTRIBUTES","DT32","DT32_ATTRIBUTES","DX32","DX32_ATTRIBUTES","DX70","DX70_ATTRIBUTES","DX90","DX90_ATTRIBUTES","DYFG","DYFG_ATTRIBUTES","DYTS","DYTS_ATTRIBUTES","EMNT","EMNT_ATTRIBUTES","EMSD","EMSD_ATTRIBUTES","EMSN","EMSN_ATTRIBUTES","EMXP","EMXP_ATTRIBUTES","EMXT","EMXT_ATTRIBUTES","FZF0","FZF0_ATTRIBUTES","FZF1","FZF1_ATTRIBUTES","FZF2","FZF2_ATTRIBUTES","FZF3","FZF3_ATTRIBUTES","FZF4","FZF4_ATTRIBUTES","FZF5","FZF5_ATTRIBUTES","FZF6","FZF6_ATTRIBUTES","FZF7","FZF7_ATTRIBUTES","FZF8","FZF8_ATTRIBUTES","FZF9","FZF9_ATTRIBUTES","HDSD","HDSD_ATTRIBUTES","HTDD","HTDD_ATTRIBUTES","PRCP","PRCP_ATTRIBUTES","SNOW","SNOW_ATTRIBUTES","TAVG","TAVG_ATTRIBUTES","TMAX","TMAX_ATTRIBUTES","TMIN","TMIN_ATTRIBUTES"
"USC00057430","1980","37.1954","-105.4244","2421.0","SAN LUIS 1 S, CO US","","","","","","","","","","","","","","","","","","","","","","","","","","","         2"," ","","","","","","","","","","","","","","","","","","","","","","","","","","","","","","","","","","","","","","","","","","","",""
"USC00057430","1981","37.1954","-105.4244","2421.0","SAN LUIS 1 S, CO US","     13.5","","      13.5","0","        62","0","        37","0","         1","0","","","","","        25","0","       219","0","        12","0","       118","0","         0","0","","","         1"," ","  -31.7","0,1224, ","","","","","  27.9"," ,0,0812, ","   31.7","0,0622, ","0.0","0,0914","-3.3","0,1006","-8.3","0,1017","-8.3","0,1017","-9.4","0,1022","-1.1","0,0616","-2.2","0,0527","-6.1","0,0510","-7.2","0,0408","-14.4","0,0405","    4455.5","5","    4455.5","0","    271.5"," ,0","","","      5.89","0","     15.44","0","     -3.66","0"
"USC00057430","1982","37.1954","-105.4244","2421.0","SAN LUIS 1 S, CO US","      4.2","","       4.2","0","        77","0","        42","0","         0","0","","","","","        28","0","       226","0","        29","0","       105","0","         0","0","         1"," ","","","  -30.6","0,1229,+","","","","","  24.9"," ,0,0828, ","   30.6","0,0722, ","-2.2","0,0929","-2.2","0,0929","-7.2","0,1002","-7.2","0,1002","-8.9","0,1006","-1.7","0,0609","-2.2","0,0518","-5.0","0,0516","-7.2","0,0508","-10.6","0,0425","    4755.9","9","    4755.9","0","    313.2"," ,0","","","      4.69","0","     13.35","0","     -3.98","0"
"USC00057430","1983","37.1954","-105.4244","2421.0","SAN LUIS 1 S, CO US","      2.7","","       2.7","0","        79","0","        38","0","         0","0","       28","","","","        32","0","       225","0","        35","0","       105","0","         0","0","","","","","  -31.1","0,1229, ","   102"," ,0,1119,+","","","  13.5"," ,0,0726, ","   29.4","0,0709,+","-8.3","0,0921","-8.3","0,0921","-8.3","0,0921","-8.3","0,0921","-8.9","0,1016","-3.3","0,0614","-3.3","0,0614","-8.3","0,0518","-8.3","0,0518","-8.9","0,0415","    5031.7","7","    5031.7","0","    260.7"," ,0","","","      4.46","0","     13.35","0","     -4.43","0"
"USC00057430","1984","37.1954","-105.4244","2421.0","SAN LUIS 1 S, CO US","      0.9","","       0.9","0","        77","0","        40","0","         0","0","","","","","        68","0","       212","0","        39","0","       125","0","         0","0","","","","","  -32.8","0,0119, ","","","","","  22.4"," ,0,0731, ","   28.9","0,0722, ","0.0","0,0909","-5.0","0,0930","-5.0","0,0930","-7.2","0,1015","-8.9","0,1018","-1.1","0,0610","-2.8","0,0509","-10.0","0,0508","-10.0","0,0508","-10.0","0,0508","    5190.7","7","    5190.7","0","    321.6"," ,0","","","      3.89","0","     12.97","0","     -5.20","0"
"USC00057430","1985","37.1954","-105.4244","2421.0","SAN LUIS 1 S, CO US","      3.7","","       3.7","0","        75","0","        37","0","         0","0","","","","","        32","0","       213","0","        35","0","       111","0","         0","0","","","         1"," ","  -29.4","0,0202,+","","","","","  20.3"," ,0,0312, ","   30.0","0,0609, ","0.0","0,0813","-3.9","0,0913","-5.0","0,0923","-6.7","0,0926","-10.0","0,1015","0.0","0,0627","-2.2","0,0515","-5.0","0,0514","-11.1","0,0423","-11.1","0,0423","    4611.6","6","    4611.6","0","    336.0"," ,0","","","      4.75","0","     13.82","0","     -4.31","0"
"USC00057430","1986","37.1954","-105.4244","2421.0","SAN LUIS 1 S, CO US","","","","","","","","","","","","","","","","","","","","","","","","","","","","","","","","","","","","","","","","","","","","","","","","","","","","","","","","","","","    4607.3","3","    4607.3","0","","","","","","","","","",""
"USC00057430","1987","37.1954","-105.4244","2421.0","SAN LUIS 1 S, CO US","      1.1","","       1.1","0","        84","0","        31","0","         0","0","","","","","        39","0","       255","0","        37","0","       128","0","         0","0","","","","","  -27.8","0,0121, ","","","","","  10.2"," ,0,0503, ","   29.4","0,0725,+","-1.1","0,0909","-2.2","0,0911","-5.0","0,0928","-7.2","0,1018","-9.4","0,1020","0.0","0,0711","-2.2","0,0601","-5.6","0,0517","-9.4","0,0507","-9.4","0,0507","","","","","    200.7"," ,0","","","      4.42","0","     14.24","0","     -5.39","0"
"USC00057430","1988","37.1954","-105.4244","2421.0","SAN LUIS 1 S, CO US","","","","","","","","","","","","","","","","","","","","","","","","","","","","","","","","","","","","","","","","","","","","","","","","","","","","","","","","","","","    4971.2","2","    4971.2"," ","","","","","","","","","",""
"USC00057430","1989","37.1954","-105.4244","2421.0","SAN LUIS 1 S, CO US","","","","","","","","","","","","","","","","","","","        35","0","       147","0","         7","0","","","","","","","","","","","","","   33.3","0,0705,+","","","","","","","","","","","","","","","","","","","","","","","","","","","","","","","     15.35","0","",""
"USC00057430","1990","37.1954","-105.4244","2421.0","SAN LUIS 1 S, CO US","     31.0","","      31.0","0","","","","","","","","","        23","0","        27","0","       219","0","        39","0","       132","0","         8","0","","","","","  -32.8","0,1224, ","","","   127"," ,0,1221,+","","","   34.4","0,0627, ","0.0","0,1004","-6.7","0,1009","-6.7","0,1009","-6.7","0,1009","-11.1","0,1021","-1.1","0,0620","-3.9","0,0602","-5.6","0,0510","-8.3","0,0317","-9.4","0,0316","    4496.2","2","    4496.2","0","","","     1411"," ,0","      5.53","0","     14.49","0","     -3.43","0"
"USC00057430","1991","37.1954","-105.4244","2421.0","SAN LUIS 1 S, CO US","     17.3","","      17.3","0","","","","","","","","","","","        57","0","       229","0","        66","0","       134","0","         1","0","         5"," ","","","  -27.8","0,0101, ","","","","","","","   32.2","0,0707, ","0.0","0,0913","-2.2","0,0915","-4.4","0,1004","-8.9","0,1028","-8.9","0,1028","0.0","0,0603","-2.8","0,0513","-6.1","0,0507","-7.2","0,0505","-10.6","0,0427","    4774.2","2","    4774.2","0","","","","","      4.38","0","     13.47","0","     -4.72","0"
"USC00057430","1992","37.1954","-105.4244","2421.0","SAN LUIS 1 S, CO US","      4.8","","       4.8","0","","","","","","","","","","","        63","0","       213","0","        79","0","       132","0","         0","0","         3"," ","","","  -29.4","0,0105,+","","","","","","","   30.6","0,0706,+","0.0","0,0922","-3.9","0,0925","-10.0","0,1007","-10.0","0,1007","-10.0","0,1007","-0.6","0,0618","-2.2","0,0511","-4.4","0,0421","-6.7","0,0324","-15.6","0,0320","    5045.4","4","    5045.4","0","","","","","      3.67","0","     12.64","0","     -5.31","0"
"USC00057430","1993","37.1954","-105.4244","2421.0","SAN LUIS 1 S, CO US","","","","","","","","","","","","","","","","","","","","","","","","","         1"," ","","","","","","","","","","","","","","","","","","","","","","","","","","","","","","","","","    4839.2","2","    4839.2","0","","","","","","","","","",""
"USC00057430","1995","37.1954","-105.4244","2421.0","SAN LUIS 1 S, CO US","","","","","","","","","","","","","","","","","","","","","","","","","         1"," ","         1"," ","","","","","","","","","","","","","","","","","","","","","","","","","","","","","","","","","","","","","","","","","","","",""
"USC00057430","1996","37.1954","-105.4244","2421.0","SAN LUIS 1 S, CO US","","","","","        42","0","        24","0","         0","0","       17","","        15","0","","","","","","","","","","","         1"," ","         1"," ","","","   127"," ,0,1027, ","   127"," ,0,1027, ","  17.8"," ,0,0621, ","","","","","","","","","","","","","","","","","","","","","","","","","","","    174.9"," ,0","      620"," ,0","","","","","",""
"USC00057430","1997","37.1954","-105.4244","2421.0","SAN LUIS 1 S, CO US","","","","","","","","","","","       27","","        24","0","","","","","","","","","","","","","","","","","   203"," ,0,1128,+","   203"," ,0,1128,+","","","","","","","","","","","","","","","","","","","","","","","","","","","","","","","     1326"," ,0","","","","","",""
"USC00057430","1998","37.1954","-105.4244","2421.0","SAN LUIS 1 S, CO US","     15.9","","      15.9","0","        42","0","        32","0","         1","0","       23","","        17","0","        16","0","       217","0","        18","0","       141","0","         2","0","","","","","  -20.6","0,0301, ","   127"," ,0,0226, ","   127"," ,0,0226, ","  25.4"," ,0,0726, ","   33.3","0,0630,+","-2.2","0,0927","-2.2","0,0927","-5.6","0,1005","-6.7","0,1006","-10.0","0,1107","-2.8","0,0618","-2.8","0,0618","-4.4","0,0429","-9.4","0,0418","-9.4","0,0418","    4525.0","0","    4525.0","0","    264.3"," ,0","      735"," ,0","      6.24","0","     15.18","0","     -2.71","0"
"USC00057430","1999","37.1954","-105.4244","2421.0","SAN LUIS 1 S, CO US","","","","","        58","0","        39","0","         1","0","        9","","        11","0","","","","","        12","0","       122","0","         1","0","","","","","","","    76"," ,0,0403,+","    76"," ,0,0501,+","  27.7"," ,0,0501, ","   32.2","0,0702, ","","","","","","","","","","","","","","","","","","","","","    4226.2","2","    4226.2","0","    320.8"," ,0","      512"," ,0","","","     15.46","0","",""
"USC00057430","2000","37.1954","-105.4244","2421.0","SAN LUIS 1 S, CO US","","","","","        45","0","        27","0","         1","0","","","         3","0","","","","","","","","","","","         3"," ","         8"," ","","","","","   127"," ,0,0302, ","  27.9"," ,0,0717, ","","","","","","","","","","","","","","","","","","","","","","","","","","","    242.8"," ,0","      327"," ,0","","","","","",""
"USC00057430","2001","37.1954","-105.4244","2421.0","SAN LUIS 1 S, CO US","","","","","","","","","","","","","","","","","","","","","","","","","         3"," ","         1"," ","","","","","","","","","","","","","","","","","","","","","","","","","","","","","","","","","","","","","","","","","","","",""
"USC00057430","2002","37.1954","-105.4244","2421.0","SAN LUIS 1 S, CO US","","","","","        27","0","        20","0","         0","0","","","         0","0","","","","","","","","","","","         3"," ","","","","","","","     0"," ,0,1231,+","  16.8"," ,0,0705, ","","","","","","","","","","","","","","","","","","","","","","","","","","","    182.7"," ,0","        0"," ,0","","","","","",""
"USC00057430","2003","37.1954","-105.4244","2421.0","SAN LUIS 1 S, CO US","","","","","","","","","","","","","","","","","","","","","","","","","         1"," ","         1"," ","","","","","","","","","","","","","","","","","","","","","","","","","","","","","","","","","","","","","","","","","","","",""
"USC00057430","2004","37.1954","-105.4244","2421.0","SAN LUIS 1 S, CO US","     28.4","","      28.4","0","        43","0","        27","0","         0","0","","","","","        22","0","       190","0","        30","0","       142","0","         2","0","         4"," ","","","  -22.8","0,0214,+","","","","","  24.1"," ,0,0430, ","   32.2","0,0715,+","-3.3","0,0923","-3.3","0,0923","-4.4","0,1013","-7.2","0,1030","-12.2","0,1102","-2.8","0,0531","-2.8","0,0531","-6.1","0,0424","-8.3","0,0308","-9.4","0,0307","","","","","    198.1"," ,0","","","      7.10","0","     15.83","0","     -1.63","0"
"USC00057430","2005","37.1954","-105.4244","2421.0","SAN LUIS 1 S, CO US","     59.6","","      59.6","0","        40","0","        22","0","         1","0","","","         7","0","         5","0","       175","0","        16","0","       137","0","         4","0","","","         2"," ","  -21.1","0,1216, ","","","   203"," ,0,0411, ","  27.9"," ,0,0616, ","   32.8","0,0722, ","0.0","0,0914","-2.2","0,1024","-5.0","0,1101","-8.3","0,1115","-10.6","0,1116","-1.1","0,0513","-2.8","0,0512","-4.4","0,0421","-6.7","0,0413","-16.7","0,0317","    3820.1","1","    3820.1","0","    213.0"," ,0","      577"," ,0","      7.86","0","     16.28","0","     -0.55","0"
