"STATION","DATE","LATITUDE","LONGITUDE","ELEVATION","NAME","CDSD","CDSD_ATTRIBUTES","CLDD","CLDD_ATTRIBUTES","DP01","DP01_ATTRIBUTES","DP10","DP10_ATTRIBUTES","DP1X","DP1X_ATTRIBUTES","DSND","DSND_ATTRIBUTES","DSNW","DSNW_ATTRIBUTES","DT00","DT00_ATTRIBUTES","DT32","DT32_ATTRIBUTES","DX32","DX32_ATTRIBUTES","DX70","DX70_ATTRIBUTES","DX90","DX90_ATTRIBUTES","DYFG","DYFG_ATTRIBUTES","DYTS","DYTS_ATTRIBUTES","EMNT","EMNT_ATTRIBUTES","EMSD","EMSD_ATTRIBUTES","EMSN","EMSN_ATTRIBUTES","EMXP","EMXP_ATTRIBUTES","EMXT","EMXT_ATTRIBUTES","FZF0","FZF0_ATTRIBUTES","FZF5","FZF5_ATTRIBUTES","FZF6","FZF6_ATTRIBUTES","HDSD","HDSD_ATTRIBUTES","HTDD","HTDD_ATTRIBUTES","PRCP","PRCP_ATTRIBUTES","SNOW","SNOW_ATTRIBUTES","TAVG","TAVG_ATTRIBUTES","TMAX","TMAX_ATTRIBUTES","TMIN","TMIN_ATTRIBUTES"
"USC00354721","1956","42.9242","-124.4533","27.4","LANGLOIS NUMBER 2, OR US","","","","","","","","","","","","","","","","","","","","","","","","","        11"," ","         2"," ","","","","","","","","","","","","","","","","","","","","","","","","","","","","","",""
"USC00354721","1957","42.9242","-124.4533","27.4","LANGLOIS NUMBER 2, OR US","","","","","","","","","","","        0","","         0","0","","","","","","","","","","","         4"," ","         4"," ","","","     0"," ,0,1231,+","     0"," ,0,1231,+","","","","","","","","","","","","","","","","","        0"," ,0","","","","","",""
"USC00354721","1958","42.9242","-124.4533","27.4","LANGLOIS NUMBER 2, OR US","","","","","       154","0","       106","0","        22","0","        0","","         0","0","","","","","","","","","","","        16"," ","        11"," ","","","     0"," ,0,1231,+","     0"," ,0,1231,+"," 106.4"," ,0,1119, ","","","","","","","","","","","","","   1888.5"," ,0","        0"," ,0","","","","","",""
"USC00354721","1959","42.9242","-124.4533","27.4","LANGLOIS NUMBER 2, OR US","","","","","       135","0","        91","0","        19","0","        0","","         0","0","","","","","","","","","","","         9"," ","         6"," ","","","     0"," ,0,1231,+","     0"," ,0,1231,+"," 123.2"," ,0,0214, ","","","","","","","","","","","","","   1555.8"," ,0","        0"," ,0","","","","","",""
"USC00354721","1960","42.9242","-124.4533","27.4","LANGLOIS NUMBER 2, OR US","","","","","       163","0","       122","0","        23","0","        0","","         0","0","","","","","","","","","","","         4"," ","         7"," ","","","     0"," ,0,1231,+","     0","T,0,0301,+"," 120.1"," ,0,1124, ","","","","","","","","","","","","","   2100.7"," ,0","        0","T,0","","","","","",""
"USC00354721","1961","42.9242","-124.4533","27.4","LANGLOIS NUMBER 2, OR US","","","","","       176","0","       117","0","        33","0","        0","","         0","0","","","","","","","","","","","        53"," ","         2"," ","","","     0"," ,0,1231,+","     0","T,0,0309,+"," 178.8"," ,0,0209, ","","","","","","","","","","","","","   2545.0"," ,0","        0","T,0","","","","","",""
"USC00354721","1962","42.9242","-124.4533","27.4","LANGLOIS NUMBER 2, OR US","","","","","       156","0","       103","0","        21","0","        0","","         1","0","","","","","","","","","","","        27"," ","","","","","     0","T,0,0625, ","    25"," ,0,0119, ","  87.9"," ,0,0326, ","","","","","","","","","","","","","   1828.8"," ,0","       25"," ,0","","","","","",""
"USC00354721","1963","42.9242","-124.4533","27.4","LANGLOIS NUMBER 2, OR US","","","","","       169","0","       115","0","        26","0","        0","","         0","0","","","","","","","","","","","        21"," ","         4"," ","","","     0"," ,0,1231,+","     0","T,0,0420,+","  83.8"," ,0,1022, ","","","","","","","","","","","","","   2084.5"," ,0","        0","T,0","","","","","",""
"USC00354721","1964","42.9242","-124.4533","27.4","LANGLOIS NUMBER 2, OR US","","","","","       181","0","       122","0","        25","0","","","","","","","","","","","","","","","","","         3"," ","","","","","","","  82.0"," ,0,0119, ","","","","","","","","","","","","","   2070.7"," ,0","","","","","","","",""
"USC00354721","1965","42.9242","-124.4533","27.4","LANGLOIS NUMBER 2, OR US","","","","","       137","0","        87","0","        20","0","        0","","         0","0","","","","","","","","","","","","","         6"," ","","","     0","T,0,0928,+","     0","T,0,1224,+"," 100.1"," ,0,1228, ","","","","","","","","","","","","","   1658.2"," ,0","        0","T,0","","","","","",""
"USC00354721","1966","42.9242","-124.4533","27.4","LANGLOIS NUMBER 2, OR US","","","","","       148","0","        99","0","        24","0","        0","","         0","0","","","","","","","","","","","","","         7"," ","","","     0"," ,0,1231,+","     0","T,0,0316,+","  92.2"," ,0,0309, ","","","","","","","","","","","","","   1832.6"," ,0","        0","T,0","","","","","",""
"USC00354721","1967","42.9242","-124.4533","27.4","LANGLOIS NUMBER 2, OR US","","","","","       138","0","       109","0","        22","0","","","","","","","","","","","","","","","","","        12"," ","","","","","","","  60.7"," ,0,1202, ","","","","","","","","","","","","","   1709.7"," ,0","","","","","","","",""
"USC00354721","1968","42.9242","-124.4533","27.4","LANGLOIS NUMBER 2, OR US","","","","","       152","0","       115","0","        29","0","","","","","","","","","","","","","","","","","         6"," ","","","","","",""," 113.5"," ,0,1210, ","","","","","","","","","","","","","   2270.0"," ,0","","","","","","","",""
"USC00354721","1969","42.9242","-124.4533","27.4","LANGLOIS NUMBER 2, OR US","","","","","       145","0","       115","0","        24","0","","","","","","","","","","","","","","","","","        12"," ","","","","","",""," 110.7"," ,0,1221, ","","","","","","","","","","","","","   1986.0"," ,0","","","","","","","",""
"USC00354721","1970","42.9242","-124.4533","27.4","LANGLOIS NUMBER 2, OR US","","","","","       135","0","       106","0","        28","0","        0","","         0","0","","","","","","","","","","","","","         5"," ","","","     0"," ,0,1231,+","     0"," ,0,1231,+","  89.4"," ,0,0123, ","","","","","","","","","","","","","   2052.7"," ,0","        0"," ,0","","","","","",""
"USC00354721","1971","42.9242","-124.4533","27.4","LANGLOIS NUMBER 2, OR US","","","","","       170","0","       121","0","        22","0","        0","","         0","0","","","","","","","","","","","","","         1"," ","","","     0"," ,0,1231,+","    13"," ,0,0112, "," 102.9"," ,0,1223, ","","","","","","","","","","","","","   2271.4"," ,0","       13"," ,0","","","","","",""
"USC00354721","1972","42.9242","-124.4533","27.4","LANGLOIS NUMBER 2, OR US","","","","","       155","0","       114","0","        23","0","","","","","","","","","","","","","","","","","","","","","","","","","  88.4"," ,0,0302, ","","","","","","","","","","","","","   1941.0"," ,0","","","","","","","",""
"USC00354721","1974","42.9242","-124.4533","27.4","LANGLOIS NUMBER 2, OR US","","","","","       132","0","        95","0","        23","0","        0","","         0","0","","","","","","","","","","","","","","","","","     0"," ,0,1231,+","     0"," ,0,1231,+"," 147.3"," ,0,0115, ","","","","","","","","","","","","","   1967.7"," ,0","        0"," ,0","","","","","",""
"USC00354721","1975","42.9242","-124.4533","27.4","LANGLOIS NUMBER 2, OR US","","","","","       150","0","       109","0","        23","0","        0","","         0","0","","","","","","","","","","","","","","","","","     0"," ,0,1231,+","     0"," ,0,1231,+","  74.9"," ,0,0105, ","","","","","","","","","","","","","   2131.0"," ,0","        0"," ,0","","","","","",""
"USC00354721","1976","42.9242","-124.4533","27.4","LANGLOIS NUMBER 2, OR US","","","","","       105","0","        64","0","        12","0","        0","","         0","0","","","","","","","","","","","","","","","","","     0"," ,0,1231,+","     0"," ,0,1231,+","  80.5"," ,0,0108, ","","","","","","","","","","","","","   1184.7"," ,0","        0"," ,0","","","","","",""
"USC00354721","1977","42.9242","-124.4533","27.4","LANGLOIS NUMBER 2, OR US","","","","","","","","","","","        0","","         0","0","","","","","","","","","","","","","","","","","     0"," ,0,1231,+","     0"," ,0,1231,+","","","","","","","","","","","","","","","   1904.5"," ,0","        0"," ,0","","","","","",""
"USC00354721","1978","42.9242","-124.4533","27.4","LANGLOIS NUMBER 2, OR US","","","","","       124","0","        93","0","        20","0","        0","","         0","0","","","","","","","","","","","","","","","","","     0"," ,0,1231,+","     0"," ,0,1231,+","  66.8"," ,0,0105, ","","","","","","","","","","","","","   1815.3"," ,0","        0"," ,0","","","","","",""
"USC00354721","1979","42.9242","-124.4533","27.4","LANGLOIS NUMBER 2, OR US","","","","","","","","","","","        0","","         0","0","","","","","","","","","","","","","","","","","     0"," ,0,1231,+","     0"," ,0,1231,+","","","","","","","","","","","","","","","","","        0"," ,0","","","","","",""
"USC00354721","1980","42.9242","-124.4533","27.4","LANGLOIS NUMBER 2, OR US","","","","","","","","","","","        0","","         0","0","","","","","","","","","","","","","","","","","     0"," ,0,1231,+","     0"," ,0,1231,+","","","","","","","","","","","","","","","","","        0"," ,0","","","","","",""
"USC00354721","1981","42.9242","-124.4533","27.4","LANGLOIS NUMBER 2, OR US","","","","","","","","","","","        0","","         0","0","","","","","","","","","","","","","","","","","     0"," ,0,1231,+","     0"," ,0,1231,+","","","","","","","","","","","","","","","   2085.2"," ,0","        0"," ,0","","","","","",""
"USC00354721","1982","42.9242","-124.4533","27.4","LANGLOIS NUMBER 2, OR US","","","","","","","","","","","","","         0","0","","","","","","","","","","","","","","","","","","","     0"," ,0,1231,+","","","","","","","","","","","","","","","","","        0"," ,0","","","","","",""
"USC00354721","1983","42.9242","-124.4533","27.4","LANGLOIS NUMBER 2, OR US","","","","","","","","","","","        0","","         0","0","","","","","","","","","","","","","","","","","     0"," ,0,1231,+","     0"," ,0,1231,+","","","","","","","","","","","","","","","   2427.2"," ,0","        0"," ,0","","","","","",""
"USC00354721","1984","42.9242","-124.4533","27.4","LANGLOIS NUMBER 2, OR US","","","","","       156","0","       111","0","        18","0","        0","","         0","0","","","","","","","","","","","","","","","","","     0"," ,0,1231,+","     0"," ,0,1231,+","  56.9"," ,0,1111, ","","","","","","","","","","","","","   1728.7"," ,0","        0"," ,0","","","","","",""
"USC00354721","1985","42.9242","-124.4533","27.4","LANGLOIS NUMBER 2, OR US","","","","","       111","0","        73","0","         8","0","","","","","","","","","","","","","","","","","","","","","","","","","  89.7"," ,0,0607, ","","","","","","","","","","","","","   1073.3"," ,0","","","","","","","",""
"USC00354721","1986","42.9242","-124.4533","27.4","LANGLOIS NUMBER 2, OR US","","","","","","","","","","","        0","","         0","0","","","","","","","","","","","","","","","","","     0"," ,0,1231,+","     0"," ,0,1231,+","","","","","","","","","","","","","","","","","        0"," ,0","","","","","",""
"USC00354721","1987","42.9242","-124.4533","27.4","LANGLOIS NUMBER 2, OR US","","","","","       111","0","        82","0","        16","0","","","         0","0","","","","","","","","","","","","","","","","","","","     0"," ,0,1231,+"," 159.0"," ,0,1203, ","","","","","","","","","","","","","   1644.2"," ,0","        0"," ,0","","","","","",""
"USC00354721","1988","42.9242","-124.4533","27.4","LANGLOIS NUMBER 2, OR US","","","","","       143","0","        91","0","        19","0","","","         0","0","","","","","","","","","","","","","","","","","","","     0"," ,0,1231,+","  64.0"," ,0,0114, ","","","","","","","","","","","","","   1556.0"," ,0","        0"," ,0","","","","","",""
"USC00354721","1989","42.9242","-124.4533","27.4","LANGLOIS NUMBER 2, OR US","","","","","       122","0","        87","0","        16","0","","","","","","","","","","","","","","","","","","","","","","","","","  64.5"," ,0,1023, ","","","","","","","","","","","","","   1411.5"," ,0","","","","","","","",""
"USC00354721","1990","42.9242","-124.4533","27.4","LANGLOIS NUMBER 2, OR US","","","","","","","","","","","        0","","         0","0","","","","","","","","","","","","","","","","","     0"," ,0,1231,+","     0","T,0,0217,+","","","","","","","","","","","","","","","   1730.7"," ,0","        0","T,0","","","","","",""
"USC00354721","1991","42.9242","-124.4533","27.4","LANGLOIS NUMBER 2, OR US","","","","","","","","","","","        0","","         0","0","","","","","","","","","","","","","","","","","     0"," ,0,1231,+","     0"," ,0,1231,+","","","","","","","","","","","","","","","","","        0"," ,0","","","","","",""
"USC00354721","1992","42.9242","-124.4533","27.4","LANGLOIS NUMBER 2, OR US","","","","","       124","0","        91","0","        17","0","        0","","         0","0","","","","","","","","","","","","","","","","","     0"," ,0,1231,+","     0"," ,0,1231,+","  87.6"," ,0,0409, ","","","","","","","","","","","","","   1442.5"," ,0","        0"," ,0","","","","","",""
"USC00354721","1993","42.9242","-124.4533","27.4","LANGLOIS NUMBER 2, OR US","","","","","","","","","","","        0","","         0","0","","","","","","","","","","","","","","","","","     0"," ,0,1231,+","     0"," ,0,1231,+","","","","","","","","","","","","","","","","","        0"," ,0","","","","","",""
"USC00354721","1994","42.9242","-124.4533","27.4","LANGLOIS NUMBER 2, OR US","","","","","       142","0","       104","0","        18","0","        0","","         0","0","","","","","","","","","","","","","","","","","     0"," ,0,1231,+","     0"," ,0,1231,+","  62.5"," ,0,0217, ","","","","","","","","","","","","","   1604.5"," ,0","        0"," ,0","","","","","",""
"USC00354721","1995","42.9242","-124.4533","27.4","LANGLOIS NUMBER 2, OR US","","","","","       159","0","       120","0","        34","0","        0","","         0","0","","","","","","","","","","","","","","","","","     0"," ,0,1231,+","     0"," ,0,1231,+"," 119.1"," ,0,0113, ","","","","","","","","","","","","","   2319.1"," ,0","        0"," ,0","","","","","",""
"USC00354721","1996","42.9242","-124.4533","27.4","LANGLOIS NUMBER 2, OR US","","","","","","","","","","","        0","","         0","0","","","","","","","","","","","","","","","","","     0"," ,0,1231,+","     0"," ,0,1231,+","","","","","","","","","","","","","","","   2740.1"," ,0","        0"," ,0","","","","","",""
"USC00354721","1997","42.9242","-124.4533","27.4","LANGLOIS NUMBER 2, OR US","","","","","","","","","","","        0","","         0","0","","","","","","","","","","","","","","","","","     0"," ,0,1231,+","     0"," ,0,1231,+","","","","","","","","","","","","","","","","","        0"," ,0","","","","","",""
"USC00354721","1998","42.9242","-124.4533","27.4","LANGLOIS NUMBER 2, OR US","","","","","","","","","","","","","         0","0","","","","","","","","","","","","","","","","","","","     0"," ,0,1231,+","","","","","","","","","","","","","","","   2677.6"," ,0","        0"," ,0","","","","","",""
"USC00354721","1999","42.9242","-124.4533","27.4","LANGLOIS NUMBER 2, OR US","","","","","       174","0","       108","0","        29","0","","","         0","0","","","","","","","","","","","","","","","","","","","     0"," ,0,1231,+","  83.1"," ,0,0130, ","","","","","","","","","","","","","   2059.3"," ,0","        0"," ,0","","","","","",""
"USC00354721","2001","42.9242","-124.4533","27.4","LANGLOIS NUMBER 2, OR US","","","","","       180","0","       113","0","        17","0","","","         0","0","","","","","","","","","","","","","","","","","","","     0"," ,0,1231,+","  49.3"," ,0,1213, ","","","","","","","","","","","","","   1506.9"," ,0","        0"," ,0","","","","","",""
"USC00354721","2002","42.9242","-124.4533","27.4","LANGLOIS NUMBER 2, OR US","","","","","       147","0","        98","0","        25","0","        0","","         0","0","","","","","","","","","","","","","","","","","     0"," ,0,1231,+","     0"," ,0,1231,+"," 104.6"," ,0,0106, ","","","","","","","","","","","","","   1947.9"," ,0","        0"," ,0","","","","","",""
"USC00354721","2003","42.9242","-124.4533","27.4","LANGLOIS NUMBER 2, OR US","","","","","       157","0","       105","0","        11","0","","","         0","0","","","","","","","","","","","","","","","","","","","     0"," ,0,1231,+"," 117.9"," ,0,1213, ","","","","","","","","","    1924.9","9","    1924.9","0","   1556.2"," ,0","        0"," ,0","","","","","",""
"USC00354721","2005","42.9242","-124.4533","27.4","LANGLOIS NUMBER 2, OR US","","","","","       155","0","       105","0","        16","0","        0","","         0","0","","","","","","","","","","","","","","","","","     0"," ,0,1231,+","     0"," ,0,1231,+","  50.0"," ,0,1230, ","","","","","","","","","","","","","   1595.2"," ,0","        0"," ,0","","","","","",""
"USC00354721","2009","42.9242","-124.4533","27.4","LANGLOIS NUMBER 2, OR US","","","","","","","","","","","","","         0","0","","","","","","","","","","","","","","","","","","","     0"," ,0,1231,+","","","","","","","","","","","","","","","","","        0"," ,0","","","","","",""
"USC00354721","2010","42.9242","-124.4533","27.4","LANGLOIS NUMBER 2, OR US","","","","","","","","","","","","","         0","0","","","","","","","","","","","","","","","","","","","     0"," ,0,1231,+","","","","","","","","","","","","","","","","","        0"," ,0","","","","","",""
"USC00354721","2016","42.9242","-124.4533","27.4","LANGLOIS NUMBER 2, OR US","","","","","","","","","","","","","","","","","","","","","","","","","","","","","","","","","","","","","","","","","","","","","    2096.1","1","    2096.1","7","","","","","","","","","",""
"USC00354721","2018","42.9242","-124.4533","27.4","LANGLOIS NUMBER 2, OR US","      0.5","","       0.5","7","","","","","","","","","","","         0","7","        14","7","         0","7","        53","7","         0","7","","","","","   -2.8","7,0223, ","","","","","","","   28.3","7,1014, ","0.0","7,1203","0.0","7,0403","-2.8","7,0223","","","","","","","","","     11.66","7","     16.41","7","      6.91","7"
