"STATION","DATE","LATITUDE","LONGITUDE","ELEVATION","NAME","CDSD","CDSD_ATTRIBUTES","CLDD","CLDD_ATTRIBUTES","DP01","DP01_ATTRIBUTES","DP10","DP10_ATTRIBUTES","DP1X","DP1X_ATTRIBUTES","DSND","DSND_ATTRIBUTES","DSNW","DSNW_ATTRIBUTES","DT00","DT00_ATTRIBUTES","DT32","DT32_ATTRIBUTES","DX32","DX32_ATTRIBUTES","DX70","DX70_ATTRIBUTES","DX90","DX90_ATTRIBUTES","DYFG","DYFG_ATTRIBUTES","DYTS","DYTS_ATTRIBUTES","EMNT","EMNT_ATTRIBUTES","EMSD","EMSD_ATTRIBUTES","EMSN","EMSN_ATTRIBUTES","EMXP","EMXP_ATTRIBUTES","EMXT","EMXT_ATTRIBUTES","FZF0","FZF0_ATTRIBUTES","FZF1","FZF1_ATTRIBUTES","FZF2","FZF2_ATTRIBUTES","FZF3","FZF3_ATTRIBUTES","FZF4","FZF4_ATTRIBUTES","FZF5","FZF5_ATTRIBUTES","FZF6","FZF6_ATTRIBUTES","FZF7","FZF7_ATTRIBUTES","FZF8","FZF8_ATTRIBUTES","FZF9","FZF9_ATTRIBUTES","HDSD","HDSD_ATTRIBUTES","HTDD","HTDD_ATTRIBUTES","PRCP","PRCP_ATTRIBUTES","SNOW","SNOW_ATTRIBUTES","TAVG","TAVG_ATTRIBUTES","TMAX","TMAX_ATTRIBUTES","TMIN","TMIN_ATTRIBUTES"
"USC00109638","1912","44.2456","-116.9696","646.2","WEISER, ID US","    341.3","","     341.3","6","        86","6","        45","6","         0","6","","","        10","6","         5","6","       148","6","        17","6","       155","6","        50","6","         3"," ","","","  -25.0","6,0108, ","","","   178"," ,6,0107, ","  17.8"," ,6,0107, ","   41.1","6,0717, ","0.0","6,0830","-3.3","6,0925","-5.0","6,1007","-9.4","6,1021","-9.4","6,1021","-1.1","6,0514","-2.2","6,0405","-5.6","6,0304","-7.8","6,0303","-11.7","6,0123","","","","","    358.9"," ,6","      916"," ,6","     10.16","6","     17.98","6","      2.34","6"
"USC00109638","1913","44.2456","-116.9696","646.2","WEISER, ID US","    479.4","","     479.4","6","","","","","","","","","","","         6","6","       160","6","        19","6","       166","6","        69","6","","","","","  -26.1","6,0106, ","","","","","","","   41.1","6,0824, ","-2.2","6,0924","-2.2","6,0924","-4.4","6,0926","-6.7","6,1029","-8.9","6,1204","-1.1","6,0514","-2.2","6,0501","-5.0","6,0423","-8.3","6,0326","-10.6","6,0227","    3488.5","5","    3488.5","6","","","","","     10.35","6","     18.58","6","      2.12","6"
"USC00109638","1914","44.2456","-116.9696","646.2","WEISER, ID US","    482.7","","     482.7","6","        66","6","        31","6","         0","6","","","         3","6","         9","6","       149","6","        25","6","       168","6","        78","6","","","","","  -22.8","6,1217,+","","","    51"," ,6,0120, ","  16.5"," ,6,1002, ","   42.2","6,0731,+","0.0","6,0913","-7.8","6,1108","-7.8","6,1108","-7.8","6,1108","-11.7","6,1115","-5.0","6,0605","-5.0","6,0605","-5.0","6,0605","-7.2","6,0326","-10.6","6,0209","    3010.6","6","    3010.6","6","    218.1"," ,6","      153"," ,6","     10.61","6","     19.48","6","      1.75","6"
"USC00109638","1917","44.2456","-116.9696","646.2","WEISER, ID US","    550.1","","     550.1","6","","","","","","","","","","","         9","6","       147","6","        22","6","       153","6","        84","6","","","","","  -29.4","6,0116, ","","","","","","","   43.9","6,0708, ","-1.7","6,1017","-6.7","6,1018","-6.7","6,1018","-6.7","6,1018","-8.9","6,1030","-1.1","6,0604","-2.8","6,0602","-12.8","6,0331","-12.8","6,0331","-12.8","6,0331","","","","","","","","","     10.38","6","     18.80","6","      1.96","6"
"USC00109638","1918","44.2456","-116.9696","646.2","WEISER, ID US","    541.1","","     541.1","6","        58","6","        26","6","         0","6","","","","","         3","6","       153","6","        14","6","       184","6","        86","6","         1"," ","","","  -18.9","6,1231,+","","","","","  12.2"," ,6,0409, ","   43.3","6,0620,+","0.0","6,1008","-3.9","6,1023","-6.7","6,1108","-6.7","6,1108","-9.4","6,1123","-1.1","6,0603","-3.9","6,0525","-5.0","6,0415","-8.3","6,0405","-8.9","6,0404","    2767.0","0","    2767.0","6","    187.3"," ,6","","","     11.37","6","     20.25","6","      2.49","6"
"USC00109638","1919","44.2456","-116.9696","646.2","WEISER, ID US","    583.9","","     583.9","6","        69","6","        42","6","         0","6","","","","","        15","6","       157","6","        29","6","       175","6","        85","6","","","","","  -32.2","6,1213, ","","","","","  21.3"," ,6,0410, ","   43.9","6,0716,+","0.0","6,0923","-3.3","6,1009","-7.2","6,1010","-7.2","6,1010","-8.9","6,1027","0.0","6,0511","-2.2","6,0501","-4.4","6,0324","-9.4","6,0203","-9.4","6,0203","    2953.3","3","    2953.3","6","    347.1"," ,6","","","     10.46","6","     19.33","6","      1.59","6"
"USC00109638","1920","44.2456","-116.9696","646.2","WEISER, ID US","    468.7","","     468.7","6","        67","6","        39","6","         0","6","","","","","         6","6","       155","6","        17","6","       151","6","        64","6","","","","","  -20.0","6,0108, ","","","","","  17.0"," ,6,1116, ","   43.3","6,0815, ","-1.1","6,1015","-2.2","6,1021","-4.4","6,1031","-7.8","6,1101","-10.0","6,1215","0.0","6,0530","-5.6","6,0423","-5.6","6,0423","-7.2","6,0210","-13.9","6,0122","    3614.3","3","    3614.3","6","    291.1"," ,6","","","     10.50","6","     18.49","6","      2.52","6"
"USC00109638","1921","44.2456","-116.9696","646.2","WEISER, ID US","    533.0","","     533.0","6","        61","6","        36","6","         0","6","","","","","         0","6","       145","6","         8","6","       168","6","        77","6","","","","","  -15.0","6,0207, ","","","","","  23.1"," ,6,0118, ","   42.8","6,0723, ","-1.7","6,0912","-2.8","6,0916","-5.0","6,1103","-6.7","6,1111","-10.6","6,1216","-3.3","6,0430","-3.3","6,0430","-5.0","6,0425","-7.2","6,0222","-10.0","6,0218","    3085.8","8","    3085.8","6","    275.8"," ,6","","","     11.50","6","     19.87","6","      3.13","6"
"USC00109638","1922","44.2456","-116.9696","646.2","WEISER, ID US","    667.7","","     667.7","6","        64","6","        44","6","         0","6","","","","","        14","6","       162","6","        40","6","       170","6","       100","6","         1"," ","","","  -29.4","6,0119, ","","","","","  18.5"," ,6,1206, ","   42.8","6,0713,+","-1.7","6,0928","-2.2","6,1023","-5.6","6,1030","-7.2","6,1104","-9.4","6,1123","-2.2","6,0511","-2.2","6,0511","-4.4","6,0325","-6.7","6,0311","-9.4","6,0306","    3385.9","9","    3385.9","6","    299.5"," ,6","","","     10.34","6","     18.90","6","      1.78","6"
"USC00109638","1923","44.2456","-116.9696","646.2","WEISER, ID US","    568.5","","     568.5","6","","","","","","","","","","","         3","6","       161","6","        14","6","       162","6","        79","6","","","","","  -22.8","6,0201, ","","","","","","","   43.3","6,0812,+","0.0","6,1013","-3.9","6,1026","-4.4","6,1031","-6.7","6,1110","-8.9","6,1204","-0.6","6,0527","-2.2","6,0414","-5.6","6,0327","-7.8","6,0315","-9.4","6,0304","    3195.1","1","    3195.1","6","","","","","     10.97","6","     19.42","6","      2.53","6"
"USC00109638","1924","44.2456","-116.9696","646.2","WEISER, ID US","    615.9","","     615.9","6","        48","6","        27","6","         0","6","","","","","        13","6","       159","6","        28","6","       181","6","        95","6","","","","","  -33.3","6,1225, ","","","","","  13.2"," ,6,1229, ","   46.1","6,0702, ","-2.2","6,0920","-2.2","6,0920","-5.0","6,1113","-6.7","6,1116","-8.9","6,1128","-0.6","6,0507","-2.2","6,0505","-5.0","6,0425","-6.7","6,0423","-12.8","6,0124","    3054.5","5","    3054.5","6","    191.5"," ,6","","","     11.06","6","     20.10","6","      2.02","6"
"USC00109638","1925","44.2456","-116.9696","646.2","WEISER, ID US","    603.3","","     603.3","6","        77","6","        41","6","         0","6","","","","","         3","6","       129","6","        14","6","       178","6","        76","6","         1"," ","","","  -19.4","6,0107, ","","","","","  24.1"," ,6,0129, ","   45.6","6,0717,+","0.0","6,0930","-3.3","6,1018","-6.1","6,1103","-7.2","6,1106","-9.4","6,1107","0.0","6,0508","-2.2","6,0327","-5.6","6,0311","-8.3","6,0126","-12.8","6,0122","    3125.7","7","    3125.7","6","    295.6"," ,6","","","     11.93","6","     20.30","6","      3.56","6"
"USC00109638","1926","44.2456","-116.9696","646.2","WEISER, ID US","","","","","        67","6","        40","6","         0","6","","","","","         3","6","       130","6","","","","","","","","","","","  -20.6","6,1224, ","","","","","  24.4"," ,6,0206, ","","","0.0","6,0918","-4.4","6,0923","-4.4","6,0923","-7.8","6,0925","-8.9","6,0926","-0.6","6,0509","-3.9","6,0402","-5.0","6,0307","-7.2","6,0130","-12.2","6,0127","","","","","    359.1"," ,6","","","","","","","      3.32","6"
"USC00109638","1927","44.2456","-116.9696","646.2","WEISER, ID US","    411.5","","     411.5","6","","","","","","","","","","","         5","6","       120","6","        25","6","       146","6","        54","6","         1"," ","","","  -21.1","6,0122,+","","","","","","","   40.0","6,0723, ","-1.1","6,1001","-3.3","6,1006","-5.6","6,1031","-6.7","6,1101","-11.1","6,1207","-1.1","6,0501","-3.3","6,0421","-6.1","6,0420","-6.7","6,0404","-8.9","6,0126","    3031.5","5","    3031.5","6","","","","","     10.62","6","     18.07","6","      3.17","6"
"USC00109638","1928","44.2456","-116.9696","646.2","WEISER, ID US","","","","","        56","6","        35","6","         0","6","","","","","         4","6","       143","6","        18","6","       170","6","        66","6","","","","","  -20.0","6,1224,+","","","","","  23.4"," ,6,0327, ","   42.2","6,0725, ","0.0","6,0913","-4.4","6,1021","-4.4","6,1021","-6.7","6,1022","-12.8","6,1203","0.0","6,0503","-2.2","6,0421","-4.4","6,0315","-6.7","6,0301","-8.9","6,0215","","","","","    217.3"," ,6","","","     10.92","6","     18.92","6","      2.91","6"
"USC00109638","1929","44.2456","-116.9696","646.2","WEISER, ID US","    483.7","","     483.7","6","        49","6","        33","6","         0","6","","","","","        13","6","       159","6","        36","6","       165","6","        74","6","","","","","  -23.3","6,0209, ","","","","","  18.3"," ,6,1218, ","   41.1","6,0814, ","-0.6","6,0922","-4.4","6,1011","-4.4","6,1011","-6.7","6,1104","-10.0","6,1112","-0.6","6,0506","-2.2","6,0412","-4.4","6,0410","-6.7","6,0331","-12.2","6,0220","    3498.2","2","    3498.2","6","    229.5"," ,6","","","      9.86","6","     18.66","6","      1.07","6"
"USC00109638","1930","44.2456","-116.9696","646.2","WEISER, ID US","    495.5","","     495.5","6","        62","6","        30","6","         1","6","","","","","        14","6","       150","6","        38","6","       168","6","        69","6","","","","","  -32.2","6,0122, ","","","","","  26.2"," ,6,0911, ","   42.2","6,0714, ","0.0","6,1009","-2.2","6,1013","-5.0","6,1015","-6.7","6,1029","-9.4","6,1114","0.0","6,0522","-2.2","6,0401","-5.6","6,0309","-8.3","6,0209","-12.2","6,0130","    3138.8","8","    3138.8","6","    266.3"," ,6","","","     10.39","6","     18.66","6","      2.12","6"
"USC00109638","1931","44.2456","-116.9696","646.2","WEISER, ID US","    571.5","","     571.5","6","","","","","","","","","","","         5","6","       150","6","        20","6","       177","6","        70","6","","","","","  -23.3","6,1215, ","","","","","","","   42.8","6,0720, ","-0.6","6,1002","-2.2","6,1012","-5.0","6,1109","-7.2","6,1112","-12.2","6,1122","-0.6","6,0519","-2.2","6,0419","-7.2","6,0308","-7.2","6,0308","-10.0","6,0207","    3267.0","0","    3267.0","6","","","","","     11.06","6","     19.27","6","      2.85","6"
"USC00109638","1932","44.2456","-116.9696","646.2","WEISER, ID US","","","","","","","","","","","","","","","        15","6","       136","6","","","","","","","","","","","  -22.8","6,0203, ","","","","","","","","","-1.1","6,1019","-2.2","6,1021","-4.4","6,1031","-7.2","6,1115","-16.7","6,1208","-1.1","6,0429","-3.3","6,0406","-6.1","6,0313","-8.3","6,0223","-9.4","6,0222","","","","","","","","","","","","","      2.11","6"
"USC00109638","1933","44.2456","-116.9696","646.2","WEISER, ID US","    482.9","","     482.9","6","","","","","","","","","","","         6","6","       145","6","        24","6","       165","6","        72","6","","","","","  -28.9","6,0209, ","","","","","","","   42.8","6,0814, ","0.0","6,0930","-5.0","6,1021","-5.0","6,1021","-6.7","6,1129","-8.9","6,1201","0.0","6,0510","-2.2","6,0418","-4.4","6,0413","-6.7","6,0309","-13.9","6,0227","    3519.5","5","    3519.5","6","","","","","     10.50","6","     18.53","6","      2.46","6"
"USC00109638","1934","44.2456","-116.9696","646.2","WEISER, ID US","    549.5","","     549.5","6","        62","6","        32","6","         0","6","","","","","         0","6","        99","6","         8","6","       195","6","        72","6","","","","","   -7.2","6,1216,+","","","","","  17.3"," ,6,0626, ","   44.4","6,0728, ","-3.3","6,0926","-3.3","6,0926","-5.0","6,1128","-7.2","6,1202","","","-1.1","6,0404","-4.4","6,0403","-4.4","6,0403","","","","","    2298.1","1","    2298.1","6","    256.8"," ,6","","","     13.26","6","     21.24","6","      5.27","6"
"USC00109638","1935","44.2456","-116.9696","646.2","WEISER, ID US","    540.4","","     540.4","6","        51","6","        24","6","         0","6","","","","","         0","6","       159","6","        27","6","       178","6","        83","6","","","","","  -16.7","6,0120, ","","","","","  14.7"," ,6,0408, ","   43.9","6,0714,+","0.0","6,0929","-2.2","6,1017","-7.2","6,1023","-7.2","6,1023","-10.6","6,1103","0.0","6,0428","-2.2","6,0422","-5.6","6,0401","-8.3","6,0217","-10.0","6,0216","    3027.9","9","    3027.9","6","    187.8"," ,6","","","     10.87","6","     18.96","6","      2.78","6"
"USC00109638","1936","44.2456","-116.9696","646.2","WEISER, ID US","    632.9","","     632.9","6","        63","6","        27","6","         0","6","","","","","         7","6","       161","6","        22","6","       186","6","        86","6","","","","","  -22.8","6,0201, ","","","","","  19.8"," ,6,0109, ","   44.4","6,0723, ","-1.1","6,0915","-2.2","6,1022","-4.4","6,1028","-11.1","6,1102","-11.1","6,1102","-1.1","6,0409","-2.2","6,0406","-4.4","6,0405","-8.3","6,0401","-10.6","6,0225","    3307.4","4","    3307.4","6","    247.5"," ,6","","","     11.15","6","     19.80","6","      2.51","6"
"USC00109638","1937","44.2456","-116.9696","646.2","WEISER, ID US","    524.5","","     524.5","6","        79","6","        41","6","         1","6","","","        14","6","        13","6","       134","6","        30","6","       180","6","        75","6","","","","","  -32.8","6,0121, ","","","   127"," ,6,0214, ","  31.8"," ,6,1119, ","   43.3","6,0704, ","-0.6","6,0925","-2.8","6,1103","-5.0","6,1107","-6.7","6,1204","-8.9","6,1225","-0.6","6,0430","-2.8","6,0424","-4.4","6,0308","-6.7","6,0226","-14.4","6,0220","    3445.4","4","    3445.4","6","    363.0"," ,6","      927"," ,6","     10.86","6","     19.23","6","      2.48","6"
"USC00109638","1938","44.2456","-116.9696","646.2","WEISER, ID US","    472.7","","     472.7","6","        84","6","        44","6","         0","6","","","","","         0","6","       123","6","         0","6","       152","6","        57","6","","","","","  -12.8","6,1122, ","","","","","  21.6"," ,6,0313, ","   39.4","6,0722,+","-1.1","6,1018","-5.6","6,1106","-5.6","6,1106","-7.8","6,1112","-12.8","6,1122","-1.7","6,0506","-4.4","6,0402","-4.4","6,0402","-6.7","6,0217","","","    2764.5","5","    2764.5","6","    315.7"," ,6","","","     11.48","6","     18.42","6","      4.55","6"
"USC00109638","1939","44.2456","-116.9696","646.2","WEISER, ID US","    442.8","","     442.8","6","        63","6","        23","6","         0","6","","","        10","6","         0","6","       133","6","         8","6","       166","6","        53","6","","","","","  -13.3","6,0209, ","","","    79"," ,6,0211, ","  17.0"," ,6,0127, ","   42.8","6,0727, ","-0.6","6,1023","-5.0","6,1026","-5.0","6,1026","-6.7","6,1105","-10.0","6,1225","0.0","6,0414","-2.8","6,0413","-7.8","6,0305","-7.8","6,0305","-9.4","6,0211","    2959.3","3","    2959.3","6","    203.3"," ,6","      573"," ,6","     11.55","6","     19.16","6","      3.94","6"
"USC00109638","1940","44.2456","-116.9696","646.2","WEISER, ID US","","","","","       100","6","        58","6","         0","6","","","","","","","","","","","","","","","","","","","","","","","","","  16.3"," ,6,0217, ","","","","","","","","","","","","","","","","","","","","","","","    2838.9","9","    2838.9"," ","    472.4"," ,6","","","","","","","",""
"USC00109638","1941","44.2456","-116.9696","646.2","WEISER, ID US","","","","","       101","6","        56","6","         0","6","","","         8","6","","","","","         5","6","       159","6","        57","6","","","","","","","","","    66"," ,6,1229,+","  21.6"," ,6,0607, ","   40.0","6,0716, ","","","","","","","","","","","","","","","","","","","","","","","","","    464.6"," ,6","      457"," ,6","","","     18.98","6","",""
"USC00109638","1942","44.2456","-116.9696","646.2","WEISER, ID US","    520.5","","     520.5","6","        90","6","        53","6","         0","6","       59","","        12","6","         5","6","       134","6","        24","6","       170","6","        58","6","","","","","  -20.0","6,0122,+","   356"," ,6,0123, ","   152"," ,6,1126, ","  21.3"," ,6,1129, ","   40.0","6,0817, ","0.0","6,1016","-2.2","6,1025","-5.0","6,1028","-6.7","6,1125","-10.0","6,1203","0.0","6,0511","-2.2","6,0504","-4.4","6,0328","-6.7","6,0326","-10.0","6,0226","    3182.7","7","    3182.7","6","    422.0"," ,6","      987"," ,6","     10.97","6","     18.19","6","      3.75","6"
"USC00109638","1943","44.2456","-116.9696","646.2","WEISER, ID US","    396.4","","     396.4","6","        51","6","        32","6","         1","6","","","         8","6","         2","6","       146","6","         6","6","       176","6","        74","6","","","","","  -20.6","6,0118, ","","","   203"," ,6,0120, ","  26.4"," ,6,0120, ","   40.6","6,0725,+","0.0","6,1012","-2.8","6,1020","-6.1","6,1101","-6.7","6,1106","-10.0","6,1211","-2.2","6,0514","-2.2","6,0514","-5.0","6,0320","-7.2","6,0318","-8.9","6,0306","    2962.7","7","    2962.7","6","    230.6"," ,6","      618"," ,6","     11.21","6","     19.72","6","      2.69","6"
"USC00109638","1944","44.2456","-116.9696","646.2","WEISER, ID US","","","","","        47","6","        31","6","         1","6","","","         8","6","","","","","        18","6","       191","6","        61","6","","","","","","","","","   178"," ,6,1220, ","  39.4"," ,6,1104, ","   39.4","6,0728, ","","","","","","","","","","","","","","","","","","","","","","","","","    268.9"," ,6","      671"," ,6","","","     19.21","6","",""
"USC00109638","1945","44.2456","-116.9696","646.2","WEISER, ID US","    351.5","","     351.5","6","","","","","","","","","         9","6","         1","6","       140","6","        12","6","       155","6","        67","6","","","","","  -18.9","6,1218, ","","","   102"," ,6,1220, ","","","   38.9","6,0727,+","0.0","6,0910","-2.2","6,0929","-4.4","6,1019","-6.7","6,1021","-9.4","6,1122","-3.9","6,0426","-3.9","6,0426","-6.7","6,0404","-6.7","6,0404","-12.2","6,0305","    3067.4","4","    3067.4","6","","","      419"," ,6","     10.57","6","     18.66","6","      2.48","6"
"USC00109638","1946","44.2456","-116.9696","646.2","WEISER, ID US","    372.2","","     372.2","6","        66","6","        38","6","         0","6","","","         4","6","         0","6","       154","6","         4","6","       171","6","        64","6","","","","","  -15.6","6,0130, ","","","   165"," ,6,0122, ","  19.1"," ,6,0122, ","   41.1","6,0721, ","0.0","6,0919","-2.2","6,1008","-4.4","6,1015","-7.8","6,1028","-10.0","6,1217","-1.1","6,0502","-2.8","6,0501","-5.0","6,0324","-6.7","6,0217","-10.0","6,0216","    3173.3","3","    3173.3","6","    260.9"," ,6","      395"," ,6","     10.59","6","     18.98","6","      2.20","6"
"USC00109638","1947","44.2456","-116.9696","646.2","WEISER, ID US","    366.2","","     366.2","6","        53","6","        28","6","         0","6","","","         5","6","         3","6","       139","6","        15","6","       181","6","        70","6","","","","","  -22.2","6,0115, ","","","    76"," ,6,0130, ","  20.8"," ,6,0212, ","   39.4","6,0717, ","0.0","6,0914","-2.2","6,1022","-4.4","6,1025","-8.3","6,1122","-10.0","6,1230","0.0","6,0423","-2.2","6,0407","-6.1","6,0306","-6.7","6,0301","-12.8","6,0131","    3064.9","9","    3064.9","6","    197.5"," ,6","      279"," ,6","     11.03","6","     19.44","6","      2.62","6"
"USC00109638","1948","44.2456","-116.9696","646.2","WEISER, ID US","    341.8","","     341.8","0","        70","0","        38","0","         0","0","","","        12","0","         8","0","       149","0","        17","0","       156","0","        62","0","","","         1"," ","  -25.6","0,1223, ","","","    79"," ,0,1207, ","  21.6"," ,0,0603, ","   37.8","0,0726,+","-3.9","0,1015","-3.9","0,1015","-6.1","0,1016","-6.7","0,1017","-11.1","0,1201","0.0","6,0503","-3.9","6,0425","-4.4","6,0326","-11.7","6,0311","-11.7","6,0311","    3065.6","6","    3065.6","0","    270.4"," ,0","      632"," ,0","      9.84","0","     17.98","0","      1.71","0"
"USC00109638","1949","44.2456","-116.9696","646.2","WEISER, ID US","    484.4","","     484.4","0","        37","0","        20","0","         0","0","","","        10","0","        28","0","       158","0","        38","0","       165","0","        78","0","         8"," ","         7"," ","  -27.8","0,0125,+","","","   254"," ,0,0206, ","  12.7"," ,0,1109, ","   41.1","0,0803, ","-1.1","0,0913","-2.2","0,1008","-5.6","0,1014","-6.7","0,1017","-8.9","0,1212","0.0","0,0505","-2.8","0,0415","-5.6","0,0329","-7.8","0,0328","-8.9","0,0215","    3672.1","1","    3672.1","0","    125.9"," ,0","      637"," ,0","     10.00","0","     18.61","0","      1.38","0"
"USC00109638","1950","44.2456","-116.9696","646.2","WEISER, ID US","    402.3","","     402.3","0","        56","0","        34","0","         0","0","","","        12","0","         7","0","       136","0","        16","0","       158","0","        61","0","","","","","  -27.8","0,0202, ","","","   229"," ,0,0204, ","  15.5"," ,0,0123, ","   38.9","0,0902,+","-0.6","0,0927","-2.8","0,0928","-5.6","0,1001","-7.2","0,1109","-10.0","0,1110","0.0","0,0510","-2.2","0,0507","-5.0","0,0429","-7.8","0,0312","-11.1","0,0212","    3488.5","5","    3488.5","0","    246.2"," ,0","      718"," ,0","     10.51","0","     18.35","0","      2.67","0"
"USC00109638","1951","44.2456","-116.9696","646.2","WEISER, ID US","","","","","        61","0","        41","0","         0","0","","","","","","","","","","","","","","","","","","","","","","","","","  24.9"," ,0,0428, ","","","","","","","","","","","","","","","","","","","","","","","    2979.8","8","    2979.8","0","    339.2"," ,0","","","","","","","",""
"USC00109638","1952","44.2456","-116.9696","646.2","WEISER, ID US","    352.2","","     352.2","0","        56","0","        30","0","         0","0","","","        18","0","         4","0","       154","0","        15","0","       187","0","        69","0","         3"," ","","","  -21.1","0,0118, ","","","   254"," ,0,0109, ","  24.6"," ,0,1114, ","   39.4","0,0710, ","0.0","0,1006","-4.4","0,1015","-4.4","0,1015","-7.8","0,1102","-8.9","0,1103","-1.1","0,0429","-2.2","0,0411","-5.6","0,0408","-6.7","0,0322","-8.9","0,0314","","","","","    265.3"," ,0","     1343"," ,0","     10.15","0","     18.55","0","      1.74","0"
"USC00109638","1953","44.2456","-116.9696","646.2","WEISER, ID US","    337.2","","     337.2","0","        58","0","        38","0","         0","0","        4","","         5","0","         0","0","       138","0","         2","0","       154","0","        63","0","         5"," ","         2"," ","  -12.2","0,1227,+","    76"," ,0,1209, ","    33"," ,0,0102, ","  21.1"," ,0,1219, ","   41.1","0,0712, ","0.0","0,0924","-3.3","0,1003","-5.0","0,1103","-12.2","0,1117","-12.2","0,1117","-0.6","0,0510","-3.9","0,0415","-5.6","0,0408","-6.7","0,0305","-8.9","0,0220","    2919.9","9","    2919.9","0","    294.5"," ,0","      209"," ,0","     11.24","0","     19.48","0","      3.00","0"
"USC00109638","1954","44.2456","-116.9696","646.2","WEISER, ID US","    286.8","","     286.8","0","        37","0","        25","0","         0","0","        2","","         2","0","         0","0","       140","0","         8","0","       154","0","        48","0","         6"," ","         1"," ","  -15.6","0,1227, ","   203"," ,0,1230, ","   152"," ,0,1230, ","  16.0"," ,0,0413, ","   37.8","0,0714,+","-1.1","0,0929","-2.8","0,0930","-5.0","0,1014","-6.7","0,1027","-10.0","0,1130","0.0","0,0528","-4.4","0,0502","-4.4","0,0502","-8.3","0,0331","-8.9","0,0305","    2797.4","4","    2797.4","0","    176.6"," ,0","      203"," ,0","     10.60","0","     18.71","0","      2.48","0"
"USC00109638","1955","44.2456","-116.9696","646.2","WEISER, ID US","    374.9","","     374.9","0","        66","0","        38","0","         0","0","","","","","        11","0","       166","0","        44","0","       152","0","        62","0","","","","","  -20.6","0,0210,+","","","","","  14.0"," ,0,0201, ","   39.4","0,0716,+","-0.6","0,0922","-2.2","0,0930","-4.4","0,1006","-6.7","0,1102","-11.7","0,1113","-5.0","0,0427","-5.0","0,0427","-5.0","0,0427","-7.8","0,0320","-10.6","0,0307","    3691.7","7","    3691.7","0","    281.5"," ,0","","","      8.76","0","     16.51","0","      1.02","0"
"USC00109638","1956","44.2456","-116.9696","646.2","WEISER, ID US","    372.9","","     372.9","0","        51","0","        31","0","         0","0","","","","","         7","0","       154","0","        31","0","       164","0","        52","0","        10"," ","","","  -26.1","0,0201, ","","","","","  20.6"," ,0,0115, ","   39.4","0,0725,+","0.0","0,0922","-2.2","0,1022","-5.0","0,1101","-6.7","0,1115","-8.9","0,1207","0.0","0,0514","-2.2","0,0409","-6.7","0,0406","-6.7","0,0406","-10.0","0,0219","    3369.4","4","    3369.4","0","    308.8"," ,0","","","     10.02","0","     17.63","0","      2.40","0"
"USC00109638","1957","44.2456","-116.9696","646.2","WEISER, ID US","","","","","","","","","","","","","","","","","","","","","","","","","        13"," ","","","","","","","","","","","","","","","","","","","","","","","","","","","","","","","","","    3534.6","6","    3534.6","0","","","","","","","","","",""
"USC00109638","1958","44.2456","-116.9696","646.2","WEISER, ID US","    418.8","","     418.8","0","        65","0","        38","0","         1","0","","","         3","0","         0","0","       132","0","        12","0","       162","0","        62","0","         5"," ","","","  -15.0","0,0108, ","","","    51"," ,0,0124,+","  31.5"," ,0,0512, ","   37.8","0,0815,+","0.0","0,0921","-6.1","0,1021","-6.1","0,1021","-6.7","0,1031","-13.9","0,1117","-0.6","0,0512","-2.2","0,0331","-5.0","0,0328","-7.2","0,0311","-10.0","0,0124","","","","","    318.1"," ,0","      140"," ,0","     10.97","0","     18.42","0","      3.52","0"
"USC00109638","1959","44.2456","-116.9696","646.2","WEISER, ID US","    365.6","","     365.6","0","        43","0","        30","0","         1","0","","","         1","0","         0","0","       148","0","         3","0","       139","0","        46","0","         5"," ","","","  -15.6","0,0104,+","","","    51"," ,0,1122, ","  31.2"," ,0,0914, ","   40.0","0,0722,+","-0.6","0,1001","-2.2","0,1031","-4.4","0,1102","-8.9","0,1105","-8.9","0,1105","0.0","0,0511","-2.2","0,0503","-5.0","0,0410","-8.3","0,0320","-11.7","0,0105","    2953.3","3","    2953.3","0","    278.5"," ,0","       51"," ,0","     10.46","0","     18.27","0","      2.65","0"
"USC00109638","1960","44.2456","-116.9696","646.2","WEISER, ID US","    372.6","","     372.6","0","        65","0","        38","0","         0","0","","","","","         1","0","       143","0","        22","0","       154","0","        49","0","         4"," ","         1"," ","  -20.0","0,0119, ","","","","","  14.0"," ,0,0202, ","   40.6","0,0719,+","-0.6","0,1008","-3.9","0,1013","-5.6","0,1014","-10.6","0,1105","-10.6","0,1105","-2.2","0,0522","-2.2","0,0522","-6.7","0,0416","-6.7","0,0416","-9.4","0,0302","    3336.7","7","    3336.7","0","    262.3"," ,0","","","     10.04","0","     17.65","0","      2.42","0"
"USC00109638","1961","44.2456","-116.9696","646.2","WEISER, ID US","    497.7","","     497.7","0","        58","0","        35","0","         0","0","","","         1","0","         1","0","       150","0","        13","0","       155","0","        67","0","        19"," ","         1"," ","  -21.1","0,1211, ","","","    64"," ,0,0129, ","  21.8"," ,0,0918, ","   40.6","0,0805,+","-1.1","0,0922","-2.2","0,1002","-5.0","0,1031","-7.8","0,1105","-10.0","0,1116","-1.7","0,0505","-5.6","0,0420","-5.6","0,0420","-7.2","0,0130","-11.1","0,0128","    3114.0","0","    3114.0","0","    246.7"," ,0","       64"," ,0","     10.87","0","     18.73","0","      3.01","0"
"USC00109638","1962","44.2456","-116.9696","646.2","WEISER, ID US","    278.5","","     278.5","0","        68","0","        41","0","         0","0","","","         2","0","         4","0","       136","0","        27","0","       160","0","        39","0","        15"," ","         2"," ","  -32.2","0,0123,+","","","    51"," ,0,0207,+","  21.8"," ,0,1010, ","   39.4","0,0724, ","0.0","0,1007","-2.8","0,1106","-5.0","0,1107","-6.7","0,1223","-10.0","0,1225","-0.6","0,0604","-3.9","0,0430","-4.4","0,0329","-6.7","0,0314","-13.9","0,0227","    3404.2","2","    3404.2","0","    302.5"," ,0","      102"," ,0","     10.03","0","     17.47","0","      2.58","0"
"USC00109638","1963","44.2456","-116.9696","646.2","WEISER, ID US","","","","","","","","","","","","","","","","","","","","","","","","","         9"," ","","","","","","","","","","","","","","","","","","","","","","","","","","","","","","","","","    3021.4","4","    3021.4","0","","","","","","","","","",""
"USC00109638","1964","44.2456","-116.9696","646.2","WEISER, ID US","","","","","","","","","","","","","","","","","","","","","","","","","","","         1"," ","","","","","","","","","","","","","","","","","","","","","","","","","","","","","","","","","","","","","","","","","","","",""
"USC00109638","1965","44.2456","-116.9696","646.2","WEISER, ID US","    251.9","","     251.9","0","        69","0","        33","0","         0","0","       39","","","","         1","0","       171","0","        12","0","       166","0","        35","0","","","","","  -17.8","0,0101, ","   203"," ,0,0126, ","","","  16.0"," ,0,0123, ","   37.2","0,0730,+","-1.1","0,0917","-5.0","0,0919","-5.0","0,0919","-6.7","0,1128","-8.9","0,1215","-0.6","0,0518","-4.4","0,0510","-4.4","0,0510","-7.2","0,0329","-10.0","0,0325","    3315.4","4","    3315.4","0","    254.4"," ,0","","","     10.01","0","     18.17","0","      1.85","0"
"USC00109638","1966","44.2456","-116.9696","646.2","WEISER, ID US","    341.2","","     341.2","0","        55","0","        25","0","         0","0","","","","","         0","0","       164","0","         9","0","       174","0","        60","0","","","","","  -14.4","0,1226, ","","","","","  17.3"," ,0,1112, ","   38.9","0,0802, ","-1.1","0,1003","-5.0","0,1009","-5.0","0,1009","-7.2","0,1014","-8.9","0,1211","0.0","0,0604","-2.8","0,0523","-4.4","0,0420","-6.7","0,0324","-10.0","0,0304","    3114.9","9","    3114.9","0","    195.8"," ,0","","","     10.80","0","     19.29","0","      2.31","0"
"USC00109638","1967","44.2456","-116.9696","646.2","WEISER, ID US","    413.5","","     413.5","0","        78","0","        38","0","         0","0","       29","","","","         3","0","       153","0","        10","0","       146","0","        69","0","","","","","  -23.9","0,1221, ","   305"," ,0,1222, ","","","  16.0"," ,0,1218, ","   40.0","0,0712, ","-1.1","0,1006","-2.8","0,1015","-4.4","0,1018","-7.8","0,1104","-8.9","0,1105","-1.7","0,0526","-2.2","0,0511","-4.4","0,0421","-7.2","0,0330","-9.4","0,0102","    3160.0","0","    3160.0","0","    288.0"," ,0","","","     10.42","0","     18.68","0","      2.16","0"
"USC00109638","1969","44.2456","-116.9696","646.2","WEISER, ID US","    325.0","","     325.0","0","        76","0","        38","0","         1","0","","","        10","0","         0","0","       163","0","         6","0","       157","0","        54","0","","","         6"," ","  -14.4","0,0202,+","","","   178"," ,0,1225, ","  25.4"," ,0,0120, ","   38.9","0,0823, ","0.0","0,0915","-3.9","0,1005","-7.2","0,1013","-7.2","0,1013","-9.4","0,1014","-1.1","0,0503","-2.2","0,0502","-6.1","0,0325","-6.7","0,0324","-9.4","0,0219","    3264.3","3","    3264.3","0","    353.1"," ,0","     1044"," ,0","     10.21","0","     18.31","0","      2.11","0"
"USC00109638","1970","44.2456","-116.9696","646.2","WEISER, ID US","    385.3","","     385.3","0","        86","0","        46","0","         0","0","","","        10","0","         0","0","       156","0","        11","0","       140","0","        70","0","","","","","  -16.1","0,1223, ","","","    89"," ,0,0109, ","  19.1"," ,0,0628, ","   39.4","0,0811, ","0.0","0,0912","-3.3","0,0914","-4.4","0,1013","-6.7","0,1015","-8.9","0,1213","0.0","0,0515","-3.9","0,0511","-4.4","0,0421","-6.7","0,0403","-8.9","0,0111","    3204.8","8","    3204.8","0","    414.0"," ,0","      480"," ,0","     10.35","0","     18.21","0","      2.50","0"
"USC00109638","1971","44.2456","-116.9696","646.2","WEISER, ID US","    378.1","","     378.1","0","        78","0","        38","0","         1","0","","","         7","0","         0","0","       166","0","        16","0","       157","0","        53","0","","","         4"," ","  -16.7","0,1219, ","","","   165"," ,0,1209, ","  32.3"," ,0,1126, ","   39.4","0,0810,+","-2.2","0,0918","-2.2","0,0918","-5.6","0,1015","-6.7","0,1018","-11.7","0,1029","0.0","0,0520","-3.3","0,0427","-5.6","0,0404","-8.3","0,0319","-9.4","0,0306","    3367.6","6","    3367.6","0","    297.3"," ,0","      493"," ,0","      9.93","0","     17.98","0","      1.88","0"
"USC00109638","1972","44.2456","-116.9696","646.2","WEISER, ID US","    351.4","","     351.4","0","        62","0","        37","0","         0","0","","","         7","0","        15","0","       149","0","        25","0","       162","0","        55","0","","","         1"," ","  -31.7","0,1210, ","","","   114"," ,0,1217, ","  22.6"," ,0,0608, ","   39.4","0,0807, ","-1.1","0,0920","-2.8","0,0925","-7.8","0,1027","-7.8","0,1027","-15.6","0,1205","-0.6","0,0501","-4.4","0,0430","-4.4","0,0430","-7.2","0,0417","-10.6","0,0212","    3446.4","4","    3446.4","0","    278.3"," ,0","      444"," ,0","      9.82","0","     17.66","0","      1.98","0"
"USC00109638","1974","44.2456","-116.9696","646.2","WEISER, ID US","    310.4","","     310.4","0","        62","0","        26","0","         0","0","","","","","        10","0","       162","0","        17","0","       160","0","        56","0","","","","","  -26.1","0,0109, ","","","","","  20.3"," ,0,1212, ","   38.9","0,0618,+","-0.6","0,0914","-2.2","0,0928","-6.1","0,1006","-7.2","0,1007","-11.7","0,1218","-0.6","0,0521","-2.8","0,0519","-5.0","0,0413","-7.8","0,0321","-14.4","0,0112","    3147.3","3","    3147.3","0","    206.2"," ,0","","","     10.13","0","     18.57","0","      1.69","0"
"USC00109638","1975","44.2456","-116.9696","646.2","WEISER, ID US","    286.1","","     286.1","0","","","","","","","","","","","         5","0","       163","0","        31","0","       141","0","        40","0","","","","","  -24.4","0,0102, ","","","","","","","   38.3","0,0727, ","-1.1","0,1008","-6.7","0,1024","-6.7","0,1024","-6.7","0,1024","-8.9","0,1119","-1.1","0,0526","-2.8","0,0525","-6.1","0,0402","-7.2","0,0328","-11.7","0,0223","    3520.6","6","    3520.6","0","","","","","      9.23","0","     16.50","0","      1.96","0"
"USC00109638","1976","44.2456","-116.9696","646.2","WEISER, ID US","    228.3","","     228.3","0","","","","","","","","","         4","0","         4","0","       168","0","        10","0","       164","0","        33","0","","","","","  -23.3","0,0206, ","","","   152"," ,0,0105, ","","","   38.3","0,0629, ","-0.6","0,1005","-6.1","0,1019","-6.1","0,1019","-6.7","0,1020","-8.9","0,1113","-0.6","0,0626","-2.2","0,0424","-4.4","0,0421","-6.7","0,0329","-8.9","0,0303","    3510.8","8","    3510.8","0","","","      310"," ,0","      9.56","0","     17.79","0","      1.34","0"
"USC00109638","1977","44.2456","-116.9696","646.2","WEISER, ID US","","","","","","","","","","","","","","","","","","","","","","","","","","","","","","","","","","","","","","","","","","","","","","","","","","","","","","","","","","","    3198.1","1","    3198.1","0","","","","","","","","","",""
"USC00109638","1978","44.2456","-116.9696","646.2","WEISER, ID US","","","","","        87","0","        51","0","         1","0","","","","","         3","0","       126","0","","","","","","","","","","","  -23.3","0,1230, ","","","","","  27.9"," ,0,0416, ","","","-0.6","0,0919","-2.8","0,1014","-6.1","0,1022","-6.7","0,1026","-10.0","0,1113","-1.1","0,0423","-2.2","0,0422","-4.4","0,0315","-6.7","0,0104","-9.4","0,0102","","","","","    387.9"," ,0","","","","","","","      2.66","0"
"USC00109638","1982","44.2456","-116.9696","646.2","WEISER, ID US","","","","","","","","","","","","","","","        17","0","       157","0","","","","","","","        14"," ","","","  -26.7","0,0107, ","","","","","","","","","-0.6","0,1002","-6.1","0,1019","-6.1","0,1019","-7.2","0,1020","-9.4","0,1124","0.0","0,0506","-3.3","0,0505","-5.0","0,0421","-9.4","0,0213","-9.4","0,0213","","","","","","","","","","","","","      1.65","0"
"USC00109638","1983","44.2456","-116.9696","646.2","WEISER, ID US","","","","","","","","","","","","","","","         7","0","       142","0","","","","","","","         7"," ","         1"," ","  -23.3","0,1223,+","","","","","","","","","-1.7","0,0920","-2.8","0,0921","-9.4","0,1121","-9.4","0,1121","-9.4","0,1121","-1.1","0,0514","-2.2","0,0424","-4.4","0,0326","-6.7","0,0320","-9.4","0,0114","","","","","","","","","","","","","      2.69","0"
"USC00109638","1984","44.2456","-116.9696","646.2","WEISER, ID US","    274.8","","     274.8","0","","","","","","","","","","","         9","0","       166","0","        42","0","       137","0","        47","0","        15"," ","         1"," ","  -25.0","0,0118, ","","","","","","","   38.9","0,0725, ","0.0","0,0924","-4.4","0,0925","-4.4","0,0925","-6.7","0,1016","-9.4","0,1022","0.0","0,0601","-2.8","0,0430","-4.4","0,0310","-8.3","0,0305","-8.9","0,0228","","","","","","","","","      8.47","0","     16.20","0","      0.74","0"
"USC00109638","1985","44.2456","-116.9696","646.2","WEISER, ID US","","","","","","","","","","","","","","","        45","0","       178","0","","","","","","","","","","","  -31.1","0,0204, ","","","","","","","","","0.0","0,0920","-4.4","0,0929","-4.4","0,0929","-8.9","0,1009","-8.9","0,1009","-0.6","0,0513","-3.3","0,0426","-4.4","0,0420","-8.3","0,0317","-8.9","0,0311","","","","","","","","","","","","","     -1.34","0"
"USC00109638","1986","44.2456","-116.9696","646.2","WEISER, ID US","","","","","","","","","","","","","","","","","","","","","","","","","        19"," ","         1"," ","","","","","","","","","","","","","","","","","","","","","","","","","","","","","","","","","","","","","","","","","","","",""
"USC00109638","1987","44.2456","-116.9696","646.2","WEISER, ID US","","","","","","","","","","","","","","","","","","","","","","","","","         6"," ","         2"," ","","","","","","","","","","","","","","","","","","","","","","","","","","","","","","","","","","","","","","","","","","","",""
"USC00109638","1988","44.2456","-116.9696","646.2","WEISER, ID US","","","","","","","","","","","","","","","","","","","","","","","","","         8"," ","","","","","","","","","","","","","","","","","","","","","","","","","","","","","","","","","","","","","","","","","","","","","",""
"USC00109638","1989","44.2456","-116.9696","646.2","WEISER, ID US","","","","","        59","0","        31","0","         0","0","","","         5","0","        18","0","       170","0","","","","","","","","","","","  -33.9","0,0206, ","","","   178"," ,0,0217, ","  16.5"," ,0,0217, ","","","-0.6","0,0913","-2.8","0,1015","-6.7","0,1016","-6.7","0,1016","-8.9","0,1029","-1.1","0,0525","-2.8","0,0519","-14.4","0,0305","-14.4","0,0305","-14.4","0,0305","","","","","    303.6"," ,0","      395"," ,0","","","","","     -0.48","0"
"USC00109638","1990","44.2456","-116.9696","646.2","WEISER, ID US","","","","","        51","0","        27","0","         0","0","","","         4","0","","","","","","","","","","","","","","","","","","","   102"," ,0,0216, ","  20.8"," ,0,0428, ","","","","","","","","","","","","","","","","","","","","","","","","","","","    213.8"," ,0","      339"," ,0","","","","","",""
"USC00109638","1991","44.2456","-116.9696","646.2","WEISER, ID US","","","","","","","","","","","","","","","","","","","","","","","","","         2"," ","         1"," ","","","","","","","","","","","","","","","","","","","","","","","","","","","","","","","","","","","","","","","","","","","",""
"USC00109638","1992","44.2456","-116.9696","646.2","WEISER, ID US","    373.5","","     373.5","0","        79","0","        33","0","         1","0","","","","","         5","0","       141","0","        18","0","       174","0","        48","0","         4"," ","","","  -22.8","0,1206, ","","","","","  26.4"," ,0,0613, ","   39.4","0,0814, ","-1.1","0,0907","-2.2","0,0914","-5.6","0,1025","-7.2","0,1124","-8.9","0,1125","-1.7","0,0423","-3.3","0,0422","-5.0","0,0407","-6.7","0,0122","","","","","","","    265.3"," ,0","","","     11.12","0","     19.11","0","      3.13","0"
"USC00109638","1993","44.2456","-116.9696","646.2","WEISER, ID US","","","","","","","","","","","","","","","","","","","","","","","","","         1"," ","","","","","","","","","","","","","","","","","","","","","","","","","","","","","","","","","    3404.1","1","    3404.1","0","","","","","","","","","",""
"USC00109638","1996","44.2456","-116.9696","646.2","WEISER, ID US","","","","","       106","0","        50","0","         0","0","","","        11","0","","","","","        17","0","       141","0","        55","0","        20"," ","        11"," ","","","","","   127"," ,0,1205,+","  21.3"," ,0,0916, ","   41.1","0,0727, ","","","","","","","","","","","","","","","","","","","","","","","","","    390.4"," ,0","      809"," ,0","","","     17.77","0","",""
"USC00109638","1997","44.2456","-116.9696","646.2","WEISER, ID US","","","","","        83","0","        32","0","         1","0","        5","","         3","0","","","","","         6","0","       164","0","        56","0","        15"," ","        13"," ","","","   102"," ,0,0128, ","   102"," ,0,0128, ","  29.2"," ,0,0730, ","   38.9","0,0721, ","","","","","","","","","","","","","","","","","","","","","","","","","    295.4"," ,0","      259"," ,0","","","     18.56","0","",""
"USC00109638","1998","44.2456","-116.9696","646.2","WEISER, ID US","    614.2","","     614.2","0","       129","0","        62","0","         1","0","","","        12","0","         0","0","       110","0","        13","0","       147","0","        64","0","        10"," ","        28"," ","  -17.2","0,1223,+","","","   127"," ,0,1225, ","  40.1"," ,0,0522, ","   41.1","0,0805, ","-2.2","0,1017","-2.2","0,1017","-4.4","0,1103","-8.3","0,1207","-11.1","0,1220","0.0","0,0418","-2.2","0,0318","-5.0","0,0307","-7.2","0,0226","-11.1","0,0109","    2732.5","5","    2732.5","0","    498.5"," ,0","      850"," ,0","     11.89","0","     18.44","0","      5.35","0"
"USC00109638","1999","44.2456","-116.9696","646.2","WEISER, ID US","    471.2","","     471.2","0","        92","0","        41","0","         1","0","","","        13","0","         0","0","       138","0","        10","0","       151","0","        51","0","        19"," ","         9"," ","  -10.0","0,0211,+","","","   102"," ,0,1215, ","  30.5"," ,0,0602, ","   41.7","0,0728, ","-0.6","0,1016","-4.4","0,1017","-4.4","0,1017","-7.2","0,1204","-9.4","0,1225","0.0","0,0516","-2.2","0,0510","-4.4","0,0410","-9.4","0,0212","-9.4","0,0212","    3055.5","5","    3055.5","0","    358.8"," ,0","      759"," ,0","     10.96","0","     17.90","0","      4.02","0"
"USC00109638","2000","44.2456","-116.9696","646.2","WEISER, ID US","    548.4","","     548.4","0","       100","0","        43","0","         0","0","","","        11","0","         0","0","       135","0","        17","0","       154","0","        63","0","        20"," ","        12"," ","  -13.9","0,0106, ","","","   114"," ,0,0104, ","  15.7"," ,0,0214, ","   41.1","0,0729, ","-0.6","0,1006","-3.3","0,1103","-5.6","0,1111","-7.2","0,1116","-8.9","0,1123","-0.6","0,0512","-2.8","0,0324","-5.0","0,0219","-8.9","0,0131","-8.9","0,0131","    2939.2","2","    2939.2","0","    312.2"," ,0","      645"," ,0","     11.25","0","     17.98","0","      4.52","0"
"USC00109638","2001","44.2456","-116.9696","646.2","WEISER, ID US","    594.1","","     594.1","0","        93","0","        43","0","         0","0","","","        16","0","         0","0","       141","0","        22","0","       159","0","        63","0","        12"," ","         6"," ","  -12.8","0,0207,+","","","   165"," ,0,1129, ","  19.3"," ,0,1129, ","   41.7","0,0704,+","-1.1","0,1010","-3.9","0,1107","-5.0","0,1108","-7.2","0,1127","-10.0","0,1215","-0.6","0,0416","-2.2","0,0415","-4.4","0,0314","-9.4","0,0215","-9.4","0,0215","    3328.0","0","    3328.0","0","    315.5"," ,0","     1064"," ,0","     11.14","0","     18.06","0","      4.23","0"
"USC00109638","2002","44.2456","-116.9696","646.2","WEISER, ID US","    551.6","","     551.6","0","        72","0","        27","0","         0","0","       48","","         8","0","         0","0","       143","0","        17","0","       150","0","        60","0","         3"," ","         1"," ","  -12.8","0,0205, ","   102"," ,0,1231,+","   127"," ,0,1227, ","  19.6"," ,0,1231, ","   44.4","0,0712, ","0.0","0,1012","-2.8","0,1013","-5.6","0,1030","-11.1","0,1031","-11.1","0,1031","-1.1","0,0508","-2.2","0,0424","-5.0","0,0319","-8.3","0,0318","-8.9","0,0207","    3180.0","0","    3180.0","0","    181.2"," ,0","      466"," ,0","     10.87","0","     18.00","0","      3.75","0"
"USC00109638","2003","44.2456","-116.9696","646.2","WEISER, ID US","    668.0","","     668.0","0","        91","0","        43","0","         0","0","        6","","         4","0","         0","0","       110","0","         3","0","       159","0","        78","0","         1"," ","        12"," ","  -10.0","0,1230,+","    76"," ,0,1231,+","    64"," ,0,1229, ","  11.9"," ,0,0316, ","   44.4","0,0722, ","-2.8","0,1011","-2.8","0,1011","-6.1","0,1031","-9.4","0,1101","-9.4","0,1101","-0.6","0,0419","-2.8","0,0407","-5.6","0,0303","-8.3","0,0226","","","    2846.5","5","    2846.5","0","    280.8"," ,0","      199"," ,0","     12.33","0","     19.48","0","      5.19","0"
"USC00109638","2004","44.2456","-116.9696","646.2","WEISER, ID US","    543.4","","     543.4","0","        93","0","        32","0","         0","0","","","        14","0","         0","0","       118","0","        28","0","       168","0","        57","0","        14"," ","        13"," ","  -16.7","0,0105, ","","","   203"," ,0,0124, ","  20.3"," ,0,0217, ","   40.6","0,0717, ","0.0","0,1019","-2.2","0,1025","-4.4","0,1119","-10.0","0,1120","-10.0","0,1120","-1.1","0,0418","-8.3","0,0305","-8.3","0,0305","-8.3","0,0305","-15.0","0,0211","    2969.3","3","    2969.3","0","    282.0"," ,0","     1147"," ,0","     11.25","0","     18.00","0","      4.50","0"
"USC00109638","2005","44.2456","-116.9696","646.2","WEISER, ID US","    498.6","","     498.6","0","        96","0","        48","0","         0","0","       60","","         9","0","         1","0","       131","0","        31","0","       149","0","        58","0","        37"," ","        19"," ","  -17.8","0,1218, ","   152"," ,0,0108, ","    76"," ,0,0108, ","  18.0"," ,0,1230, ","   40.6","0,0806, ","0.0","0,1030","-2.2","0,1108","-5.6","0,1115","-6.7","0,1127","-10.6","0,1204","0.0","0,0417","-2.2","0,0416","-5.0","0,0301","-7.8","0,0217","-8.9","0,0216","    3070.5","5","    3070.5","0","    377.0"," ,0","      506"," ,0","     10.50","0","     17.53","0","      3.48","0"
"USC00109638","2006","44.2456","-116.9696","646.2","WEISER, ID US","","","","","       101","0","        50","0","         0","0","","","        11","0","         0","0","       124","0","        11","0","       154","0","        65","0","         1"," ","         9"," ","  -15.6","0,0219, ","","","    76"," ,0,0129, ","  20.1"," ,0,0118, ","   43.3","0,0723, ","0.0","0,1021","-2.2","0,1022","-8.9","0,1031","-8.9","0,1031","-8.9","0,1031","-0.6","0,0419","-3.3","0,0322","-4.4","0,0226","-11.1","0,0221","-11.1","0,0221","    3209.0","0","    3209.0"," ","    380.1"," ,0","      459"," ,0","     11.58","0","     18.60","0","      4.56","0"
"USC00109638","2007","44.2456","-116.9696","646.2","WEISER, ID US","    654.3","","     654.3","0","        77","0","        25","0","         0","0","        5","","         2","0","         0","0","       118","0","        13","0","       151","0","        68","0","","","","","  -13.3","0,0117,+","    76"," ,0,1229,+","    64"," ,0,1228, ","  22.6"," ,0,1117, ","   42.8","0,0706, ","-1.1","0,1027","-2.2","0,1031","-5.6","0,1114","-7.2","0,1123","-8.9","0,1227","0.0","0,0504","-2.8","0,0411","-10.6","0,0204","-10.6","0,0204","-10.6","0,0204","","","","","    207.4"," ,0","      114"," ,0","     11.88","0","     19.12","0","      4.64","0"
"USC00109638","2008","44.2456","-116.9696","646.2","WEISER, ID US","    496.9","","     496.9","0","","","","","","","","","        15","0","         2","0","       159","0","        25","0","       145","0","        64","0","","","","","  -18.9","0,0124, ","","","   152"," ,0,1227, ","","","   39.4","0,0629, ","-0.6","0,1009","-2.2","0,1023","-6.7","0,1123","-6.7","0,1123","-11.1","0,1216","-5.6","0,0502","-5.6","0,0502","-5.6","0,0502","-6.7","0,0221","-12.2","0,0203","    3341.3","3","    3341.3","0","","","     1160"," ,0","     10.32","0","     17.64","0","      3.00","0"
"USC00109638","2009","44.2456","-116.9696","646.2","WEISER, ID US","    548.6","","     548.6","0","        76","0","        43","0","         1","0","","","         9","0","         4","0","       160","0","        29","0","       146","0","        64","0","","","","","  -18.3","0,1212,+","","","   152"," ,0,1216,+","  29.2"," ,0,1216, ","   40.0","0,0722, ","-1.1","0,1001","-2.2","0,1011","-4.4","0,1113","-7.8","0,1114","-9.4","0,1203","-0.6","0,0513","-2.8","0,0404","-5.6","0,0314","-7.2","0,0211","-9.4","0,0205","    3200.8","8","    3200.8","0","    313.9"," ,0","      788"," ,0","     10.42","0","     17.33","0","      3.50","0"
