"STATION","DATE","LATITUDE","LONGITUDE","ELEVATION","NAME","DYFG","DYFG_ATTRIBUTES","DYTS","DYTS_ATTRIBUTES"
"USC00040820","2004","37.2321","-118.5994","2581.7","ASPENDELL, CA US","","","        10"," "
"USC00040820","2008","37.2321","-118.5994","2581.7","ASPENDELL, CA US","","","         5"," "
"USC00040820","2009","37.2321","-118.5994","2581.7","ASPENDELL, CA US","         2"," ","         1"," "
