"STATION","DATE","LATITUDE","LONGITUDE","ELEVATION","NAME","CDSD","CDSD_ATTRIBUTES","CLDD","CLDD_ATTRIBUTES","DP01","DP01_ATTRIBUTES","DP10","DP10_ATTRIBUTES","DP1X","DP1X_ATTRIBUTES","DSND","DSND_ATTRIBUTES","DSNW","DSNW_ATTRIBUTES","DT00","DT00_ATTRIBUTES","DT32","DT32_ATTRIBUTES","DX32","DX32_ATTRIBUTES","DX70","DX70_ATTRIBUTES","DX90","DX90_ATTRIBUTES","DYFG","DYFG_ATTRIBUTES","DYTS","DYTS_ATTRIBUTES","EMNT","EMNT_ATTRIBUTES","EMSD","EMSD_ATTRIBUTES","EMSN","EMSN_ATTRIBUTES","EMXP","EMXP_ATTRIBUTES","EMXT","EMXT_ATTRIBUTES","FZF0","FZF0_ATTRIBUTES","FZF1","FZF1_ATTRIBUTES","FZF2","FZF2_ATTRIBUTES","FZF3","FZF3_ATTRIBUTES","FZF4","FZF4_ATTRIBUTES","FZF5","FZF5_ATTRIBUTES","FZF6","FZF6_ATTRIBUTES","FZF7","FZF7_ATTRIBUTES","FZF8","FZF8_ATTRIBUTES","FZF9","FZF9_ATTRIBUTES","HDSD","HDSD_ATTRIBUTES","HTDD","HTDD_ATTRIBUTES","PRCP","PRCP_ATTRIBUTES","SNOW","SNOW_ATTRIBUTES","TAVG","TAVG_ATTRIBUTES","TMAX","TMAX_ATTRIBUTES","TMIN","TMIN_ATTRIBUTES"
"USC00509121","1969","57.78333","-135.23333","6.1","TENAKEE SPRINGS, AK US","","","","","","","","","","","","","","","","","","","","","","","","","         8"," ","         2"," ","","","","","","","","","","","","","","","","","","","","","","","","","","","","","","","","","","","","","","","","","","","",""
"USC00509121","1970","57.78333","-135.23333","6.1","TENAKEE SPRINGS, AK US","      2.0","","       2.0","0","       248","0","       164","0","        10","0","       62","","        22","0","         3","0","       119","0","        35","0","        10","0","         0","0","","","","","  -18.9","0,1204, ","   533"," ,0,1231, ","   229"," ,0,1227, ","  59.2"," ,0,0929, ","   30.0","0,0726, ","-0.6","0,0923","-2.8","0,1117","-4.4","0,1119","-7.8","0,1120","-10.0","0,1125","-0.6","0,0503","-2.2","0,0311","-9.4","0,0118","-9.4","0,0118","-9.4","0,0118","    4337.9","9","    4337.9","0","   1879.7"," ,0","     2391"," ,0","      5.71","0","      8.85","0","      2.57","0"
"USC00509121","1971","57.78333","-135.23333","6.1","TENAKEE SPRINGS, AK US","      6.5","","       6.5","0","       210","0","       137","0","         7","0","      114","","","","         4","0","       148","0","        47","0","        29","0","         0","0","        24"," ","         1"," ","  -20.0","0,0115, ","  2108"," ,0,0202, ","","","  45.0"," ,0,1118, ","   28.3","0,0710,+","0.0","0,1013","-2.2","0,1025","-6.1","0,1026","-6.7","0,1027","-13.3","0,1211","0.0","0,0520","-2.2","0,0419","-4.4","0,0330","-6.7","0,0327","-8.9","0,0305","    4875.1","1","    4875.1","0","   1506.1"," ,0","","","      5.20","0","      8.72","0","      1.68","0"
"USC00509121","1972","57.78333","-135.23333","6.1","TENAKEE SPRINGS, AK US","      1.9","","       1.9","0","       209","0","       149","0","        22","0","      147","","        44","0","         1","0","       167","0","        56","0","        31","0","         0","0","","","         1"," ","  -17.8","0,0112, ","  1473"," ,0,0220, ","   457"," ,0,1215, ","  55.4"," ,0,1005, ","   28.3","0,0706, ","-0.6","0,0923","-2.2","0,0924","-4.4","0,1202","-8.3","0,1203","-11.7","0,1222","-1.1","0,0524","-2.8","0,0416","-4.4","0,0409","-6.7","0,0402","-10.0","0,0309","    4971.3","3","    4971.3","0","   1981.7"," ,0","     5819"," ,0","      4.91","0","      8.51","0","      1.32","0"
"USC00509121","1973","57.78333","-135.23333","6.1","TENAKEE SPRINGS, AK US","      0.0","","       0.0","0","       230","0","       156","0","         9","0","      140","","        37","0","         0","0","       139","0","        46","0","        11","0","         0","0","","","         1"," ","  -13.3","0,0117,+","  1245"," ,0,0121, ","   203"," ,0,0114, ","  58.9"," ,0,0122, ","   23.3","0,0709, ","0.0","0,1017","-3.9","0,1103","-4.4","0,1104","-7.2","0,1106","-12.8","0,1108","0.0","0,0423","-7.2","0,0320","-7.2","0,0320","-7.2","0,0320","-10.6","0,0213","    4572.4","4","    4572.4","0","   1568.3"," ,0","     3284"," ,0","      5.28","0","      8.78","0","      1.77","0"
"USC00509121","1978","57.78333","-135.23333","6.1","TENAKEE SPRINGS, AK US","      0.0","","       0.0","0","       178","0","       134","0","        12","0","","","","","         0","0","       201","0","        22","0","        35","0","         0","0","","","","","  -17.2","0,0107, ","","","","","  72.1"," ,0,1030, ","   27.2","0,0731, ","-0.6","0,1015","-2.8","0,1029","-4.4","0,1111","-8.9","0,1116","-8.9","0,1116","0.0","0,0523","-3.3","0,0506","-4.4","0,0413","-8.3","0,0304","-11.1","0,0303","    4973.8","8","    4973.8","0","   1819.2"," ,0","","","      5.31","0","     10.89","0","     -0.26","0"
"USC00509121","1979","57.78333","-135.23333","6.1","TENAKEE SPRINGS, AK US","      0.9","","       0.9","0","       230","0","       138","0","        10","0","       99","","        15","0","         0","0","       146","0","        41","0","        22","0","         0","0","","","","","  -17.2","0,0114, ","   381"," ,0,1217, ","   142"," ,0,1228, ","  79.2"," ,0,1009, ","   28.3","0,0824, ","0.0","0,1020","-2.2","0,1102","-8.3","0,1211","-8.3","0,1211","-14.4","0,1212","0.0","0,0515","-4.4","0,0412","-4.4","0,0412","-8.3","0,0228","-9.4","0,0226","    4735.5","5","    4735.5","0","   1661.3"," ,0","     1194"," ,0","      5.89","0","     10.12","0","      1.66","0"
"USC00509121","1980","57.78333","-135.23333","6.1","TENAKEE SPRINGS, AK US","","","","","       249","0","       164","0","        11","0","       77","","        19","0","","","","","","","","","","","","","","","","","   991"," ,0,0117,+","   307"," ,0,0115, ","  83.6"," ,0,1016, ","","","","","","","","","","","","","","","","","","","","","","","    4331.5","5","    4331.5","0","   1862.7"," ,0","     1762"," ,0","","","","","",""
