"STATION","DATE","LATITUDE","LONGITUDE","ELEVATION","NAME","CDSD","CDSD_ATTRIBUTES","CLDD","CLDD_ATTRIBUTES","DP01","DP01_ATTRIBUTES","DP10","DP10_ATTRIBUTES","DP1X","DP1X_ATTRIBUTES","DSND","DSND_ATTRIBUTES","DSNW","DSNW_ATTRIBUTES","DT00","DT00_ATTRIBUTES","DT32","DT32_ATTRIBUTES","DX32","DX32_ATTRIBUTES","DX70","DX70_ATTRIBUTES","DX90","DX90_ATTRIBUTES","DYFG","DYFG_ATTRIBUTES","DYTS","DYTS_ATTRIBUTES","EMNT","EMNT_ATTRIBUTES","EMSD","EMSD_ATTRIBUTES","EMSN","EMSN_ATTRIBUTES","EMXP","EMXP_ATTRIBUTES","EMXT","EMXT_ATTRIBUTES","FZF0","FZF0_ATTRIBUTES","FZF1","FZF1_ATTRIBUTES","FZF2","FZF2_ATTRIBUTES","FZF3","FZF3_ATTRIBUTES","FZF4","FZF4_ATTRIBUTES","FZF5","FZF5_ATTRIBUTES","FZF6","FZF6_ATTRIBUTES","FZF7","FZF7_ATTRIBUTES","FZF8","FZF8_ATTRIBUTES","FZF9","FZF9_ATTRIBUTES","HDSD","HDSD_ATTRIBUTES","HTDD","HTDD_ATTRIBUTES","PRCP","PRCP_ATTRIBUTES","SNOW","SNOW_ATTRIBUTES","TAVG","TAVG_ATTRIBUTES","TMAX","TMAX_ATTRIBUTES","TMIN","TMIN_ATTRIBUTES"
"USC00029334","1898","32.2553","-109.8369","1271.0","WILLCOX, AZ US","","","","","","","","","","","","","","","","","","","","","","","","","","","         1"," ","","","","","","","","","","","","","","","","","","","","","","","","","","","","","","","","","","","","","","","","","","","",""
"USC00029334","1900","32.2553","-109.8369","1271.0","WILLCOX, AZ US","","","","","        23","0","        18","0","         1","0","        0","","         0","0","","","","","","","","","","","","","","","","","     0"," ,0,1231,+","     0"," ,0,1231,+","  25.4"," ,0,0921, ","","","","","","","","","","","","","","","","","","","","","","","","","","","    157.7"," ,0","        0"," ,0","","","","","",""
"USC00029334","1901","32.2553","-109.8369","1271.0","WILLCOX, AZ US","","","","","        25","0","        21","0","         2","0","        0","","         2","0","","","","","","","","","","","","","","","","","     0"," ,0,1231,+","    51"," ,0,0208, ","  38.1"," ,0,0808, ","","","","","","","","","","","","","","","","","","","","","","","","","","","    191.0"," ,0","      102"," ,0","","","","","",""
"USC00029334","1902","32.2553","-109.8369","1271.0","WILLCOX, AZ US","","","","","","","","","","","","","","","","","","","","","","","","","","","         1"," ","","","","","","","","","","","","","","","","","","","","","","","","","","","","","","","","","","","","","","","","","","","",""
"USC00029334","1903","32.2553","-109.8369","1271.0","WILLCOX, AZ US","","","","","","","","","","","","","","","","","","","","","","","","","","","         1"," ","","","","","","","","","","","","","","","","","","","","","","","","","","","","","","","","","","","","","","","","","","","",""
"USC00029334","1904","32.2553","-109.8369","1271.0","WILLCOX, AZ US","    707.7","","     707.7","0","        31","0","        27","0","         2","0","        0","","         0","0","         0","0","       136","0","         0","0","       258","0","        96","0","         1"," ","","","  -13.3","0,0129, ","     0","T,0,0206,+","     5"," ,0,0120,+","  41.1"," ,0,0806, ","   40.0","0,0711, ","0.0","0,1019","-2.2","0,1102","-4.4","0,1104","-6.7","0,1105","-8.9","0,1227","0.0","0,0504","-3.3","0,0403","-5.0","0,0324","-6.7","0,0211","-12.2","0,0202","    1909.6","6","    1909.6","0","    243.6"," ,0","       10"," ,0","     14.99","0","     25.48","0","      4.50","0"
"USC00029334","1905","32.2553","-109.8369","1271.0","WILLCOX, AZ US","    803.7","","     803.7","0","        62","0","        54","0","         4","0","        3","","         4","0","         0","0","        78","0","         0","0","       212","0","       107","0","","","         4"," ","   -8.3","0,1231,+","   102"," ,0,1211, ","   102"," ,0,1211,+","  47.2"," ,0,0109, ","   43.3","0,0706, ","-1.1","0,1024","-2.8","0,1129","-4.4","0,1202","-7.2","0,1224","","","0.0","0,0406","-5.0","0,0214","-5.0","0,0214","-7.2","0,0106","","","    1913.7","7","    1913.7","0","    597.7"," ,0","      280"," ,0","     15.43","0","     24.16","0","      6.69","0"
"USC00029334","1906","32.2553","-109.8369","1271.0","WILLCOX, AZ US","    661.2","","     661.2","0","        40","0","        35","0","         3","0","        0","","         2","0","         0","0","        94","0","         0","0","       240","0","        90","0","         4"," ","        11"," ","   -8.9","0,1125,+","     0","T,0,1118, ","   102"," ,0,0101, ","  87.1"," ,0,0801, ","   42.2","0,0623, ","-0.6","0,1015","-6.1","0,1021","-6.1","0,1021","-7.8","0,1022","-8.9","0,1125","-0.6","0,0502","-2.2","0,0320","-5.0","0,0309","-6.7","0,0302","-8.9","0,0103","    1859.1","1","    1859.1","0","    456.2"," ,0","      160"," ,0","     15.22","0","     25.01","0","      5.42","0"
"USC00029334","1907","32.2553","-109.8369","1271.0","WILLCOX, AZ US","","","","","","","","","","","","","","","","","","","","","","","","","         2"," ","         7"," ","","","","","","","","","","","","","","","","","","","","","","","","","","","","","","","    1640.4","4","    1640.4","0","","","","","","","","","",""
"USC00029334","1908","32.2553","-109.8369","1271.0","WILLCOX, AZ US","","","","","","","","","","","","","","","","","","","","","","","","","         2"," ","         6"," ","","","","","","","","","","","","","","","","","","","","","","","","","","","","","","","","","","","","","","","","","","","",""
"USC00029334","1909","32.2553","-109.8369","1271.0","WILLCOX, AZ US","","","","","","","","","","","","","","","","","","","","","","","","","         1"," ","","","","","","","","","","","","","","","","","","","","","","","","","","","","","","","","","","","","","","","","","","","","","",""
"USC00029334","1910","32.2553","-109.8369","1271.0","WILLCOX, AZ US","","","","","","","","","","","","","","","","","","","","","","","","","","","         4"," ","","","","","","","","","","","","","","","","","","","","","","","","","","","","","","","","","","","","","","","","","","","",""
"USC00029334","1911","32.2553","-109.8369","1271.0","WILLCOX, AZ US","","","","","","","","","","","","","","","","","","","","","","","","","","","         3"," ","","","","","","","","","","","","","","","","","","","","","","","","","","","","","","","","","","","","","","","","","","","",""
"USC00029334","1912","32.2553","-109.8369","1271.0","WILLCOX, AZ US","    611.6","","     611.6","0","        31","0","        28","0","         0","0","        1","","         1","0","         0","0","       158","0","         0","0","       249","0","        86","0","         2"," ","         2"," ","  -12.2","0,1226,+","   229"," ,0,0224, ","   229"," ,0,0224, ","  22.9"," ,0,0224, ","   39.4","0,0710,+","0.0","0,1028","-2.2","0,1029","-4.4","0,1121","-6.7","0,1126","-11.1","0,1219","0.0","0,0506","-2.2","0,0422","-6.7","0,0421","-6.7","0,0421","-9.4","0,0227","","","","","    296.9"," ,0","      234"," ,0","     14.02","0","     24.62","0","      3.43","0"
"USC00029334","1913","32.2553","-109.8369","1271.0","WILLCOX, AZ US","    539.5","","     539.5","0","        19","0","        17","0","         2","0","        0","","         1","0","         0","0","       136","0","         1","0","       231","0","       115","0","         1"," ","","","  -16.7","0,0112,+","     0"," ,0,1231,+","    25"," ,0,0228, ","  39.4"," ,0,1117, ","   40.6","0,0705, ","0.0","0,1020","-2.2","0,1026","-4.4","0,1203","-6.7","0,1213","","","-1.1","0,0504","-2.2","0,0413","-4.4","0,0410","-6.7","0,0316","-13.3","0,0113","    2142.9","9","    2142.9","0","    247.8"," ,0","       30"," ,0","     14.02","0","     24.75","0","      3.30","0"
"USC00029334","1914","32.2553","-109.8369","1271.0","WILLCOX, AZ US","    784.0","","     784.0","0","        70","0","        50","0","         1","0","        0","","         1","0","         0","0","        83","0","         0","0","       267","0","        91","0","","","        34"," ","  -12.2","0,0111,+","     0"," ,0,1231,+","    51"," ,0,1212, ","  33.0"," ,0,1003, ","   40.0","0,0627, ","-2.2","0,1127","-2.2","0,1127","-6.1","0,1208","-6.7","0,1214","","","-1.1","0,0502","-2.2","0,0305","-4.4","0,0304","-8.9","0,0209","-8.9","0,0209","    1745.3","3","    1745.3","0","    511.7"," ,0","       54"," ,0","     16.18","0","     25.92","0","      6.44","0"
"USC00029334","1915","32.2553","-109.8369","1271.0","WILLCOX, AZ US","    671.5","","     671.5","0","        45","0","        38","0","         2","0","        1","","         2","0","         0","0","       127","0","         0","0","       275","0","       115","0","","","         3"," ","   -8.3","0,0118, ","    76"," ,0,1215, ","   102"," ,0,0301, ","  31.2"," ,0,1107, ","   39.4","0,0820,+","-2.2","0,1012","-2.2","0,1012","-4.4","0,1114","-7.8","0,1124","","","0.0","0,0504","-2.2","0,0503","-4.4","0,0208","-7.2","0,0120","","","    1700.4","4","    1700.4","0","    342.3"," ,0","      178"," ,0","     15.62","0","     26.63","0","      4.62","0"
"USC00029334","1916","32.2553","-109.8369","1271.0","WILLCOX, AZ US","    723.1","","     723.1","0","        45","0","        35","0","         6","0","","","         5","0","         0","0","       116","0","         0","0","       305","0","       134","0","","","        11"," ","  -11.7","0,1217,+","","","   152"," ,0,1227, ","  45.7"," ,0,0822, ","   40.6","0,0707,+","0.0","0,1028","-5.0","0,1109","-5.0","0,1109","-8.3","0,1116","-8.9","0,1208","-0.6","0,0419","-2.2","0,0325","-4.4","0,0202","-6.7","0,0201","-8.9","0,0112","    1341.6","6","    1341.6","0","    436.0"," ,0","      483"," ,0","     16.23","0","     27.88","0","      4.57","0"
"USC00029334","1917","32.2553","-109.8369","1271.0","WILLCOX, AZ US","    592.4","","     592.4","0","        38","0","        23","0","         2","0","        0","","         0","0","         0","0","       167","0","         0","0","       240","0","        69","0","         2"," ","","","  -11.7","0,1213,+","     0"," ,0,1231,+","     0","T,0,0312, ","  35.1"," ,0,0817, ","   40.0","0,0625, ","-2.2","0,1020","-2.2","0,1020","-4.4","0,1116","-6.7","0,1117","-10.0","0,1128","-0.6","0,0530","-3.3","0,0430","-5.6","0,0406","-6.7","0,0403","-8.9","0,0324","    2090.5","5","    2090.5","0","    226.7"," ,0","        0","T,0","     13.73","0","     23.98","0","      3.48","0"
"USC00029334","1918","32.2553","-109.8369","1271.0","WILLCOX, AZ US","    593.9","","     593.9","0","        55","0","        31","0","         1","0","        0","","         0","0","         0","0","       117","0","         0","0","       225","0","        61","0","         2"," ","         2"," ","  -12.8","0,0107, ","     0"," ,0,1231,+","     0"," ,0,1231,+","  25.4"," ,0,0127, ","   36.7","0,0718,+","-3.3","0,1027","-3.3","0,1027","-6.7","0,1108","-6.7","0,1108","","","-1.1","0,0531","-2.2","0,0422","-4.4","0,0319","-7.8","0,0318","-9.4","0,0123","    2067.8","8","    2067.8","0","    307.1"," ,0","        0"," ,0","     14.06","0","     22.74","0","      5.38","0"
"USC00029334","1919","32.2553","-109.8369","1271.0","WILLCOX, AZ US","    518.8","","     518.8","0","        58","0","        33","0","         1","0","        0","","         0","0","         0","0","       123","0","         0","0","       209","0","        47","0","         2"," ","","","  -11.7","0,0116, ","     0"," ,0,1231,+","     0"," ,0,1231,+","  41.9"," ,0,0907, ","   36.7","0,0625, ","-1.1","0,1008","-3.3","0,1102","-4.4","0,1109","-7.2","0,1110","","","-2.2","0,0428","-2.2","0,0428","-5.6","0,0316","-6.7","0,0309","-8.9","0,0305","    2230.4","4","    2230.4","0","    350.2"," ,0","        0"," ,0","     13.51","0","     22.39","0","      4.63","0"
"USC00029334","1920","32.2553","-109.8369","1271.0","WILLCOX, AZ US","","","","","        59","0","        41","0","         1","0","        0","","         0","0","","","","","","","","","","","","","","","","","     0"," ,0,1231,+","     0"," ,0,1231,+","  33.0"," ,0,0819, ","","","","","","","","","","","","","","","","","","","","","","","    2217.2","2","    2217.2"," ","    364.2"," ,0","        0"," ,0","","","","","",""
"USC00029334","1921","32.2553","-109.8369","1271.0","WILLCOX, AZ US","    562.2","","     562.2","0","        47","0","        36","0","         3","0","        0","","         0","0","         0","0","       127","0","         0","0","       251","0","        65","0","","","","","  -13.3","0,1119, ","     0"," ,0,1231,+","     0","T,0,1130, ","  30.5"," ,0,0724, ","   38.3","0,0701, ","0.0","0,1023","-5.0","0,1025","-5.0","0,1025","-6.7","0,1111","-13.3","0,1119","0.0","0,0510","-6.7","0,0426","-6.7","0,0426","-6.7","0,0426","-8.9","0,0216","","","","","    302.4"," ,0","        0","T,0","     14.69","0","     24.64","0","      4.75","0"
"USC00029334","1923","32.2553","-109.8369","1271.0","WILLCOX, AZ US","","","","","        63","0","        36","0","         1","0","        0","","         0","0","","","","","","","","","","","         1"," ","","","","","     0"," ,0,1231,+","     0","T,0,0311,+","  35.8"," ,0,0722, ","","","","","","","","","","","","","","","","","","","","","","","","","","","    307.7"," ,0","        0","T,0","","","","","",""
"USC00029334","1924","32.2553","-109.8369","1271.0","WILLCOX, AZ US","","","","","","","","","","","","","","","","","","","","","","","","","","","","","","","","","","","","","","","","","","","","","","","","","","","","","","","","","","","    2274.0","0","    2274.0","0","","","","","","","","","",""
"USC00029334","1925","32.2553","-109.8369","1271.0","WILLCOX, AZ US","    641.5","","     641.5","0","        53","0","        25","0","         1","0","        0","","         0","0","         0","0","       126","0","         0","0","       249","0","        66","0","","","","","  -13.9","0,0111, ","     0"," ,0,1231,+","     0"," ,0,1231,+","  28.2"," ,0,0817, ","   38.3","0,0717, ","-0.6","0,1017","-2.2","0,1106","-5.6","0,1107","-7.2","0,1118","-8.9","0,1218","0.0","0,0408","-2.8","0,0406","-5.6","0,0402","-6.7","0,0311","-8.9","0,0120","","","","","    229.2"," ,0","        0"," ,0","     14.77","0","     24.41","0","      5.13","0"
"USC00029334","1928","32.2553","-109.8369","1271.0","WILLCOX, AZ US","","","","","        35","0","        26","0","         2","0","        0","","         2","0","         0","0","       119","0","","","","","","","","","","","  -12.2","0,1221, ","     0"," ,0,1231,+","   127"," ,0,0215, ","  30.5"," ,0,0731, ","","","-1.7","0,1015","-3.9","0,1114","-6.1","0,1117","-6.7","0,1118","-9.4","0,1201","-0.6","0,0426","-3.9","0,0422","-7.2","0,0410","-7.2","0,0410","-11.7","0,0217","    2039.1","1","    2039.1","0","    256.8"," ,0","      152"," ,0","","","","","      4.90","0"
"USC00029334","1929","32.2553","-109.8369","1271.0","WILLCOX, AZ US","    503.3","","     503.3","0","        38","0","        31","0","         2","0","        0","","         1","0","         0","0","       147","0","         0","0","       216","0","        47","0","         3"," ","","","  -12.8","0,0105, ","     0"," ,0,1231,+","    25"," ,0,0124, ","  38.1"," ,0,0924, ","   40.6","0,0904, ","0.0","0,1024","-4.4","0,1027","-4.4","0,1027","-8.3","0,1115","-10.6","0,1123","0.0","0,0529","-2.2","0,0425","-5.6","0,0411","-8.9","0,0315","-8.9","0,0315","","","","","    335.9"," ,0","       25"," ,0","     13.05","0","     22.74","0","      3.37","0"
"USC00029334","1930","32.2553","-109.8369","1271.0","WILLCOX, AZ US","","","","","        44","0","        40","0","         2","0","        0","","         1","0","","","","","","","","","","","         3"," ","","","","","     0"," ,0,1231,+","    25"," ,0,0108, ","  29.2"," ,0,0726, ","","","","","","","","","","","","","","","","","","","","","","","","","","","    367.4"," ,0","       25"," ,0","","","","","",""
"USC00029334","1931","32.2553","-109.8369","1271.0","WILLCOX, AZ US","","","","","        55","0","        48","0","         2","0","        0","","         0","0","","","","","         0","0","       222","0","        46","0","         5"," ","","","","","     0"," ,0,1231,+","     0"," ,0,1231,+","  47.0"," ,0,0809, ","   38.9","0,0722, ","","","","","","","","","","","","","","","","","","","","","","","","","    471.5"," ,0","        0"," ,0","","","     22.48","0","",""
"USC00029334","1932","32.2553","-109.8369","1271.0","WILLCOX, AZ US","    591.7","","     591.7","0","        39","0","        30","0","         1","0","        0","","         1","0","         0","0","       136","0","         0","0","       234","0","        69","0","         1"," ","","","  -14.4","0,0125, ","     0"," ,0,1231,+","    51"," ,0,0215, ","  26.2"," ,0,0726, ","   38.3","0,0628,+","-5.0","0,1019","-5.0","0,1019","-5.0","0,1019","-7.2","0,1115","-8.9","0,1207","0.0","0,0510","-2.8","0,0508","-4.4","0,0428","-7.2","0,0323","-10.6","0,0203","","","","","    311.1"," ,0","       51"," ,0","     13.90","0","     23.77","0","      4.04","0"
"USC00029334","1933","32.2553","-109.8369","1271.0","WILLCOX, AZ US","    700.4","","     700.4","0","        45","0","        30","0","         2","0","        0","","         0","0","         0","0","       154","0","         0","0","       246","0","        91","0","         1"," ","","","  -11.7","0,0209, ","     0"," ,0,1231,+","     0"," ,0,1231,+","  27.9"," ,0,1014, ","   37.8","0,0818,+","-0.6","0,1017","-4.4","0,1104","-4.4","0,1104","-8.3","0,1216","-10.0","0,1217","0.0","0,0518","-2.8","0,0513","-5.0","0,0415","-6.7","0,0406","-10.6","0,0220","    2226.7","7","    2226.7","0","    301.0"," ,0","        0"," ,0","     14.25","0","     24.34","0","      4.16","0"
"USC00029334","1934","32.2553","-109.8369","1271.0","WILLCOX, AZ US","","","","","        44","0","        36","0","         1","0","        0","","         0","0","","","","","         0","0","       249","0","        70","0","","","","","","","     0"," ,0,1231,+","     0"," ,0,1231,+","  40.9"," ,0,0719, ","   40.0","0,0714, ","","","","","","","","","","","","","","","","","","","","","","","","","    354.6"," ,0","        0"," ,0","","","     24.89","0","",""
"USC00029334","1935","32.2553","-109.8369","1271.0","WILLCOX, AZ US","    566.2","","     566.2","0","        45","0","        34","0","         3","0","        0","","         0","0","         0","0","       117","0","         0","0","       228","0","        72","0","         4"," ","","","  -10.6","0,0121, ","     0"," ,0,1231,+","     0"," ,0,1231,+","  29.2"," ,0,1221, ","   37.8","0,0726, ","-1.7","0,1020","-2.2","0,1023","-4.4","0,1031","-7.2","0,1105","","","-1.1","0,0506","-2.2","0,0502","-5.0","0,0410","-6.7","0,0217","-10.6","0,0121","    1954.1","1","    1954.1","0","    337.6"," ,0","        0"," ,0","     14.28","0","     23.58","0","      4.98","0"
"USC00029334","1936","32.2553","-109.8369","1271.0","WILLCOX, AZ US","    712.7","","     712.7","0","        44","0","        34","0","         0","0","        0","","         0","0","         0","0","       106","0","         0","0","       230","0","        88","0","","","","","  -10.0","0,0123,+","     0"," ,0,1231,+","     3"," ,0,0101, ","  24.6"," ,0,0129, ","   38.9","0,0722,+","0.0","0,1026","-2.8","0,1103","-5.0","0,1106","-6.7","0,1206","","","-0.6","0,0508","-2.2","0,0410","-4.4","0,0408","-6.7","0,0402","-10.0","0,0123","    1864.3","3","    1864.3","0","    336.3"," ,0","        3"," ,0","     14.98","0","     24.44","0","      5.52","0"
"USC00029334","1937","32.2553","-109.8369","1271.0","WILLCOX, AZ US","","","","","","","","","","","","","","","","","","","","","","","","","         2"," ","         2"," ","","","","","","","","","","","","","","","","","","","","","","","","","","","","","","","    2115.1","1","    2115.1","0","","","","","","","","","",""
"USC00029334","1938","32.2553","-109.8369","1271.0","WILLCOX, AZ US","","","","","","","","","","","","","","","","","","","","","","","","","         1"," ","","","","","","","","","","","","","","","","","","","","","","","","","","","","","","","","","","","","","","","","","","","","","",""
"USC00029334","1939","32.2553","-109.8369","1271.0","WILLCOX, AZ US","","","","","","","","","","","","","","","","","","","","","","","","","         2"," ","         4"," ","","","","","","","","","","","","","","","","","","","","","","","","","","","","","","","","","","","","","","","","","","","",""
"USC00029334","1940","32.2553","-109.8369","1271.0","WILLCOX, AZ US","","","","","        67","0","        41","0","         4","0","        0","","         0","0","         0","0","        90","0","","","","","","","         5"," ","        26"," ","   -8.9","0,1116,+","     0"," ,0,1231,+","     5"," ,0,0106, ","  62.0"," ,0,0803, ","","","-2.2","0,1029","-2.2","0,1029","-4.4","0,1101","-6.7","0,1111","-8.9","0,1116","0.0","0,0408","-4.4","0,0316","-4.4","0,0316","-6.7","0,0315","-8.9","0,0114","","","","","    473.3"," ,0","        5"," ,0","","","","","      6.74","0"
"USC00029334","1941","32.2553","-109.8369","1271.0","WILLCOX, AZ US","","","","","","","","","","","","","","","","","","","","","","","","","         6"," ","        36"," ","","","","","","","","","","","","","","","","","","","","","","","","","","","","","","","","","","","","","","","","","","","",""
"USC00029334","1942","32.2553","-109.8369","1271.0","WILLCOX, AZ US","","","","","","","","","","","","","","","","","","","","","","","","","         5"," ","        27"," ","","","","","","","","","","","","","","","","","","","","","","","","","","","","","","","","","","","","","","","","","","","",""
"USC00029334","1943","32.2553","-109.8369","1271.0","WILLCOX, AZ US","","","","","        44","0","        27","0","         0","0","        0","","         1","0","","","","","","","","","","","         7"," ","        44"," ","","","     0"," ,0,1231,+","    25"," ,0,1226, ","  19.1"," ,0,0305,+","","","","","","","","","","","","","","","","","","","","","","","","","","","    227.8"," ,0","       25"," ,0","","","","","",""
"USC00029334","1944","32.2553","-109.8369","1271.0","WILLCOX, AZ US","","","","","","","","","","","","","","","","","","","","","","","","","         7"," ","        41"," ","","","","","","","","","","","","","","","","","","","","","","","","","","","","","","","","","","","","","","","","","","","",""
"USC00029334","1945","32.2553","-109.8369","1271.0","WILLCOX, AZ US","","","","","","","","","","","","","","","","","","","","","","","","","         1"," ","        36"," ","","","","","","","","","","","","","","","","","","","","","","","","","","","","","","","","","","","","","","","","","","","",""
"USC00029334","1946","32.2553","-109.8369","1271.0","WILLCOX, AZ US","","","","","        49","0","        28","0","         1","0","        0","","         1","0","","","","","","","","","","","         3"," ","         2"," ","","","     0"," ,0,1231,+","    25"," ,0,0305, ","  42.4"," ,0,0927, ","","","","","","","","","","","","","","","","","","","","","","","","","","","    265.2"," ,0","       25"," ,0","","","","","",""
"USC00029334","1947","32.2553","-109.8369","1271.0","WILLCOX, AZ US","    824.9","","     824.9","0","        39","0","        16","0","         1","0","        3","","         5","0","         0","0","       124","0","         1","0","       238","0","       120","0","","","","","  -12.8","0,1214,+","    76"," ,0,0102, ","    76"," ,0,0102, ","  29.7"," ,0,0814, ","   40.6","0,0713, ","-2.8","0,1023","-2.8","0,1023","-5.6","0,1104","-6.7","0,1105","-9.4","0,1107","-1.1","0,0425","-2.8","0,0406","-5.0","0,0310","-6.7","0,0307","-10.0","0,0131","","","","","    169.3"," ,0","      254"," ,0","     15.34","0","     25.93","0","      4.75","0"
"USC00029334","1948","32.2553","-109.8369","1271.0","WILLCOX, AZ US","","","","","        38","0","        24","0","         3","0","        0","","         0","0","","","","","         0","0","       237","0","       127","0","","","","","","","     0"," ,0,1231,+","    13"," ,0,0211, ","  69.9"," ,0,0803, ","   41.7","0,0715, ","","","","","","","","","","","","","","","","","","","","","","","","","    309.8"," ,0","       13"," ,0","","","     25.77","0","",""
"USC00029334","1949","32.2553","-109.8369","1271.0","WILLCOX, AZ US","    768.5","","     768.5","0","        63","0","        38","0","         3","0","        3","","         5","0","         0","0","       121","0","         2","0","       256","0","       117","0","","","","","  -12.8","0,0104, ","    76"," ,0,0116, ","    64"," ,0,0116, ","  50.8"," ,0,0807, ","   39.4","0,0831,+","-4.4","0,1010","-4.4","0,1010","-4.4","0,1010","-6.7","0,1213","-9.4","0,1221","-0.6","0,0412","-5.6","0,0330","-5.6","0,0330","-8.9","0,0207","-8.9","0,0207","    2003.7","7","    2003.7","0","    378.1"," ,0","      216"," ,0","     15.14","0","     25.23","0","      5.06","0"
"USC00029334","1950","32.2553","-109.8369","1271.0","WILLCOX, AZ US","","","","","        32","0","        21","0","         0","0","        1","","         1","0","","","","","","","","","","","","","         9"," ","","","    25"," ,0,0113, ","    25"," ,0,0325, ","  18.5"," ,0,0730, ","","","","","","","","","","","","","","","","","","","","","","","","","","","    158.9"," ,0","       38"," ,0","","","","","",""
"USC00029334","1951","32.2553","-109.8369","1271.0","WILLCOX, AZ US","    851.0","","     851.0","0","        54","0","        36","0","         1","0","","","         2","0","         0","0","       107","0","         0","0","       240","0","       114","0","         2"," ","         5"," ","  -12.8","0,0304, ","","","   127"," ,0,1207, ","  60.2"," ,0,1030, ","   40.6","0,0706,+","0.0","0,1103","-3.3","0,1119","-6.7","0,1127","-6.7","0,1127","","","0.0","0,0515","-2.8","0,0329","-5.0","0,0320","-8.9","0,0305","-8.9","0,0305","    1725.1","1","    1725.1","0","    345.1"," ,0","      217"," ,0","     15.57","0","     25.59","0","      5.56","0"
"USC00029334","1952","32.2553","-109.8369","1271.0","WILLCOX, AZ US","    891.5","","     891.5","0","        56","0","        38","0","         1","0","        2","","         3","0","         0","0","       114","0","         0","0","       231","0","       130","0","         1"," ","        34"," ","  -10.6","0,0220, ","    51"," ,0,0302, ","    51"," ,0,0302, ","  43.9"," ,0,0602, ","   40.0","0,0718,+","-2.8","0,1105","-2.8","0,1105","-4.4","0,1120","-7.8","0,1126","-9.4","0,1224","0.0","0,0404","-2.8","0,0326","-5.6","0,0324","-6.7","0,0322","-10.6","0,0220","    1838.1","1","    1838.1","0","    331.2"," ,0","      101"," ,0","     15.50","0","     25.55","0","      5.46","0"
"USC00029334","1953","32.2553","-109.8369","1271.0","WILLCOX, AZ US","","","","","        28","0","        18","0","         0","0","        0","","         2","0","","","","","","","","","","","","","         1"," ","","","     0"," ,0,1231,+","    25"," ,0,1205,+","  24.1"," ,0,0706, ","","","","","","","","","","","","","","","","","","","","","","","    1849.4","4","    1849.4","0","    200.9"," ,0","       63"," ,0","","","","","",""
"USC00029334","1954","32.2553","-109.8369","1271.0","WILLCOX, AZ US","","","","","        46","0","        27","0","         2","0","        0","","         0","0","         0","0","       104","0","","","","","","","","","","","  -15.0","0,1230, ","     0"," ,0,1231,+","     0","T,0,0712,+","  57.9"," ,0,0721, ","","","-1.1","0,1026","-3.3","0,1103","-5.0","0,1117","-6.7","0,1207","-8.9","0,1217","0.0","0,0403","-2.2","0,0328","-8.3","0,0313","-8.3","0,0313","-11.7","0,0111","","","","","    294.2"," ,0","        0","T,0","","","","","      5.98","0"
"USC00029334","1955","32.2553","-109.8369","1271.0","WILLCOX, AZ US","    725.4","","     725.4","0","        41","0","        26","0","         2","0","        0","","         0","0","         0","0","       131","0","         0","0","       260","0","        93","0","","","","","  -13.3","0,0220, ","     0"," ,0,1231,+","     0","T,0,1202,+","  37.1"," ,0,0721, ","   41.1","0,0709, ","0.0","0,1028","-7.8","0,1109","-7.8","0,1109","-7.8","0,1109","-8.9","0,1116","0.0","0,0504","-2.8","0,0420","-4.4","0,0413","-8.9","0,0322","-8.9","0,0322","    1944.2","2","    1944.2","0","    254.3"," ,0","        0","T,0","     15.03","0","     25.77","0","      4.30","0"
"USC00029334","1956","32.2553","-109.8369","1271.0","WILLCOX, AZ US","    948.8","","     948.8","0","        38","0","        20","0","         0","0","        0","","         1","0","         0","0","       142","0","         0","0","       243","0","       139","0","","","","","  -13.3","0,1224, ","     0"," ,0,1231,+","    76"," ,0,0209, ","  20.3"," ,0,0729, ","   41.7","0,0708,+","-3.9","0,1025","-3.9","0,1025","-4.4","0,1030","-8.3","0,1102","-8.9","0,1103","-1.1","0,0416","-2.8","0,0406","-6.1","0,0403","-8.9","0,0316","-8.9","0,0316","    1698.2","2","    1698.2","0","    148.1"," ,0","       76"," ,0","     15.47","0","     26.53","0","      4.42","0"
"USC00029334","1957","32.2553","-109.8369","1271.0","WILLCOX, AZ US","    688.0","","     688.0","0","        56","0","        30","0","         0","0","","","         0","0","         0","0","        79","0","         0","0","       229","0","        82","0","         3"," ","         6"," ","  -10.0","0,1123, ","","","    13"," ,0,1122, ","  19.8"," ,0,0731, ","   40.0","0,0705, ","-0.6","0,1106","-3.9","0,1107","-5.0","0,1108","-10.0","0,1123","-10.0","0,1123","-0.6","0,0513","-2.2","0,0423","-5.0","0,0325","-6.7","0,0201","","","    1655.5","5","    1655.5","0","    254.4"," ,0","       13"," ,0","     15.51","0","     24.66","0","      6.37","0"
"USC00029334","1959","32.2553","-109.8369","1271.0","WILLCOX, AZ US","    739.0","","     739.0","0","        51","0","        32","0","         0","0","        0","","         0","0","         0","0","       111","0","         0","0","       250","0","        85","0","","","         1"," ","  -13.3","0,0101, ","     0"," ,0,1231,+","    13"," ,0,1214, ","  23.1"," ,0,0729, ","   38.9","0,0623, ","0.0","0,1004","-3.9","0,1107","-4.4","0,1125","-6.7","0,1128","","","-0.6","0,0506","-3.3","0,0328","-6.7","0,0317","-6.7","0,0317","-10.6","0,0306","","","","","    304.3"," ,0","       13"," ,0","     15.32","0","     25.28","0","      5.37","0"
"USC00029334","1960","32.2553","-109.8369","1271.0","WILLCOX, AZ US","","","","","        48","0","        25","0","         0","0","","","         4","0","","","","","","","","","","","","","         1"," ","","","","","   102"," ,0,0101, ","  22.1"," ,0,1009, ","","","","","","","","","","","","","","","","","","","","","","","    1971.8","8","    1971.8"," ","    205.5"," ,0","      321"," ,0","","","","","",""
"USC00029334","1961","32.2553","-109.8369","1271.0","WILLCOX, AZ US","    676.8","","     676.8","0","        61","0","        33","0","         3","0","        0","","         0","0","         0","0","       130","0","         0","0","       237","0","        99","0","","","","","  -11.7","0,0113, ","     0"," ,0,1231,+","     0","T,0,1121,+","  49.5"," ,0,0730, ","   40.6","0,0623, ","-1.1","0,1010","-2.2","0,1017","-5.6","0,1115","-7.2","0,1118","-8.9","0,1229","-0.6","0,0506","-3.9","0,0428","-5.0","0,0427","-7.2","0,0302","-8.9","0,0225","","","","","    361.0"," ,0","        0","T,0","     14.69","0","     25.07","0","      4.31","0"
"USC00029334","1962","32.2553","-109.8369","1271.0","WILLCOX, AZ US","    626.4","","     626.4","0","        62","0","        23","0","         1","0","        3","","         0","0","         1","0","       129","0","         1","0","       255","0","       111","0","         4"," ","        25"," ","  -18.3","0,0115, ","   127"," ,0,0114, ","     0","T,0,0227, ","  33.3"," ,0,0729, ","   40.6","0,0624, ","0.0","0,1007","-2.2","0,1102","-5.0","0,1106","-6.7","0,1109","","","-0.6","0,0529","-3.3","0,0522","-4.4","0,0401","-6.7","0,0324","-8.9","0,0317","    2053.4","4","    2053.4","0","    242.8"," ,0","      165"," ,0","     14.80","0","     25.52","0","      4.07","0"
"USC00029334","1963","32.2553","-109.8369","1271.0","WILLCOX, AZ US","    690.4","","     690.4","0","        54","0","        29","0","         2","0","        1","","         0","0","         0","0","       130","0","         0","0","       257","0","       100","0","         5"," ","        46"," ","  -12.8","0,0120,+","    25"," ,0,0212, ","    13"," ,0,0212, ","  44.5"," ,0,0810, ","   40.6","0,0724,+","-1.1","0,1103","-2.2","0,1105","-4.4","0,1124","-6.7","0,1207","-9.4","0,1217","-1.1","0,0513","-2.8","0,0429","-4.4","0,0424","-6.7","0,0419","-9.4","0,0305","    1881.5","5","    1881.5","0","    280.3"," ,0","       13"," ,0","     14.91","0","     25.55","0","      4.27","0"
"USC00029334","1964","32.2553","-109.8369","1271.0","WILLCOX, AZ US","    676.3","","     676.3","0","        55","0","        32","0","         1","0","        0","","         2","0","         0","0","       152","0","         0","0","       222","0","        94","0","","","        28"," ","  -15.6","0,0215,+","     0"," ,0,1231,+","    30"," ,0,1116, ","  25.9"," ,0,0914, ","   40.6","0,0704, ","-0.6","0,1022","-2.2","0,1101","-5.6","0,1107","-7.2","0,1113","-8.9","0,1209","-0.6","0,0613","-2.8","0,0509","-5.6","0,0328","-8.9","0,0326","-8.9","0,0326","    2276.1","1","    2276.1","0","    295.1"," ,0","       75"," ,0","     13.79","0","     24.12","0","      3.46","0"
"USC00029334","1965","32.2553","-109.8369","1271.0","WILLCOX, AZ US","    611.8","","     611.8","0","        70","0","        41","0","         4","0","","","","","         0","0","       129","0","         0","0","       243","0","       100","0","","","        41"," ","  -13.3","0,0214, ","","","","","  39.9"," ,0,0729, ","   40.0","0,0704, ","-1.1","0,0921","-3.3","0,1017","-5.0","0,1018","-6.7","0,1112","","","0.0","0,0513","-2.8","0,0510","-4.4","0,0408","-6.7","0,0309","-12.2","0,0304","    2039.8","8","    2039.8","0","    391.9"," ,0","","","     14.62","0","     24.88","0","      4.36","0"
"USC00029334","1966","32.2553","-109.8369","1271.0","WILLCOX, AZ US","    658.2","","     658.2","0","        61","0","        36","0","         4","0","","","         5","0","         0","0","       145","0","         0","0","       260","0","        89","0","","","        40"," ","  -15.0","0,1228, ","","","    51"," ,0,0211, ","  36.3"," ,0,0913, ","   39.4","0,0724,+","-3.3","0,1016","-3.3","0,1016","-4.4","0,1017","-10.0","0,1127","-10.0","0,1127","0.0","0,0512","-2.2","0,0422","-5.6","0,0311","-11.1","0,0304","-11.1","0,0304","    1949.6","6","    1949.6","0","    423.4"," ,0","      177"," ,0","     14.43","0","     24.82","0","      4.04","0"
"USC00029334","1967","32.2553","-109.8369","1271.0","WILLCOX, AZ US","    623.3","","     623.3","0","        67","0","        37","0","         6","0","        6","","         7","0","         0","0","       154","0","         0","0","       266","0","        83","0","","","        18"," ","  -15.0","0,0107, ","   152"," ,0,1215, ","   152"," ,0,1215, ","  51.6"," ,0,0803, ","   40.6","0,0702, ","-2.2","0,1020","-2.2","0,1020","-7.2","0,1031","-7.2","0,1031","-10.6","0,1210","-2.8","0,0514","-2.8","0,0514","-5.6","0,0504","-7.8","0,0502","-10.0","0,0308","    2040.9","9","    2040.9","0","    475.5"," ,0","      495"," ,0","     14.37","0","     25.16","0","      3.57","0"
"USC00029334","1968","32.2553","-109.8369","1271.0","WILLCOX, AZ US","    530.3","","     530.3","0","        54","0","        29","0","         0","0","        2","","         3","0","         1","0","       132","0","         0","0","       242","0","        81","0","","","        23"," ","  -17.8","0,1222, ","    25"," ,0,0108,+","    89"," ,0,0108, ","  23.4"," ,0,0820, ","   41.1","0,0622,+","0.0","0,1005","-2.8","0,1016","-7.8","0,1106","-7.8","0,1106","-10.6","0,1126","0.0","0,0610","-2.8","0,0425","-6.1","0,0423","-6.7","0,0322","-8.9","0,0125","    2006.4","4","    2006.4","0","    269.8"," ,0","      160"," ,0","     14.20","0","     24.82","0","      3.59","0"
"USC00029334","1969","32.2553","-109.8369","1271.0","WILLCOX, AZ US","    753.9","","     753.9","0","        56","0","        30","0","         0","0","        0","","         1","0","         0","0","       142","0","         0","0","       245","0","       121","0","","","         7"," ","  -12.8","0,0131, ","     0"," ,0,1231,+","    64"," ,0,0307, ","  24.6"," ,0,0814, ","   42.2","0,0630, ","-1.1","0,1012","-3.3","0,1013","-5.0","0,1031","-7.2","0,1101","-10.0","0,1123","0.0","0,0507","-3.9","0,0428","-5.0","0,0427","-7.2","0,0326","-9.4","0,0315","    2062.7","7","    2062.7","0","    263.6"," ,0","      116"," ,0","     14.88","0","     25.65","0","      4.10","0"
"USC00029334","1970","32.2553","-109.8369","1271.0","WILLCOX, AZ US","","","","","        49","0","        25","0","         1","0","        0","","         0","0","","","","","","","","","","","","","        31"," ","","","     0"," ,0,1231,+","     0","T,0,0327,+","  40.9"," ,0,0817, ","","","","","","","","","","","","","","","","","","","","","","","    2096.5","5","    2096.5","0","    277.4"," ,0","        0","T,0","","","","","",""
"USC00029334","1971","32.2553","-109.8369","1271.0","WILLCOX, AZ US","","","","","","","","","","","","","","","","","","","","","","","","","","","        31"," ","","","","","","","","","","","","","","","","","","","","","","","","","","","","","","","","","","","","","","","","","","","",""
"USC00029334","1972","32.2553","-109.8369","1271.0","WILLCOX, AZ US","","","","","        56","0","        23","0","         2","0","        0","","         0","0","","","","","","","","","","","","","        57"," ","","","     0"," ,0,1231,+","     0","T,0,1211,+","  60.5"," ,0,0826, ","","","","","","","","","","","","","","","","","","","","","","","","","","","    281.9"," ,0","        0","T,0","","","","","",""
"USC00029334","1973","32.2553","-109.8369","1271.0","WILLCOX, AZ US","    761.0","","     761.0","0","        46","0","        22","0","         0","0","        1","","         3","0","         0","0","       128","0","         0","0","       231","0","       107","0","","","        38"," ","  -11.7","0,1225, ","    25"," ,0,0312, ","    89"," ,0,0120, ","  18.8"," ,0,0828, ","   41.7","0,0702,+","-1.7","0,1011","-2.8","0,1031","-5.6","0,1115","-7.8","0,1121","-10.0","0,1221","-1.1","0,0417","-3.9","0,0409","-4.4","0,0219","-8.3","0,0125","","","","","","","    203.6"," ,0","      196"," ,0","     15.08","0","     25.15","0","      5.00","0"
"USC00029334","1974","32.2553","-109.8369","1271.0","WILLCOX, AZ US","    846.0","","     846.0","0","        52","0","        23","0","         1","0","        1","","         0","0","         0","0","       107","0","         0","0","       243","0","       100","0","","","        54"," ","  -13.3","0,1224, ","    25"," ,0,1225, ","    18"," ,0,1225, ","  27.4"," ,0,0707, ","   41.7","0,0624, ","-0.6","0,1031","-2.2","0,1104","-6.1","0,1126","-7.2","0,1128","-8.9","0,1215","-0.6","0,0414","-2.2","0,0404","-5.6","0,0306","-6.7","0,0227","-9.4","0,0222","    1681.5","5","    1681.5","0","    216.9"," ,0","       31"," ,0","     15.74","0","     25.61","0","      5.86","0"
"USC00029334","1975","32.2553","-109.8369","1271.0","WILLCOX, AZ US","    721.8","","     721.8","0","        38","0","        24","0","         1","0","        3","","         5","0","         0","0","       152","0","         0","0","       245","0","        96","0","","","        33"," ","  -10.0","0,0105, ","    76"," ,0,0326, ","    71"," ,0,0326, ","  40.6"," ,0,0908, ","   38.9","0,0630, ","0.0","0,1014","-2.2","0,1102","-7.2","0,1120","-7.2","0,1120","-8.9","0,1230","-2.2","0,0507","-2.2","0,0507","-4.4","0,0327","-8.3","0,0224","-9.4","0,0223","    2019.9","9","    2019.9","0","    249.5"," ,0","      239"," ,0","     14.88","0","     24.93","0","      4.84","0"
"USC00029334","1976","32.2553","-109.8369","1271.0","WILLCOX, AZ US","    710.9","","     710.9","0","        59","0","        31","0","         0","0","        0","","         3","0","         0","0","       108","0","         0","0","       249","0","        90","0","","","        55"," ","  -11.7","0,0103, ","     0","T,0,1113,+","    51"," ,0,1113,+","  17.0"," ,0,0723, ","   39.4","0,0620, ","0.0","0,1010","-2.8","0,1029","-4.4","0,1128","-8.9","0,1129","-8.9","0,1129","-1.7","0,0418","-2.8","0,0417","-5.0","0,0331","-6.7","0,0113","-9.4","0,0105","    1750.1","1","    1750.1","0","    216.6"," ,0","      135"," ,0","     15.21","0","     24.86","0","      5.56","0"
"USC00029334","1977","32.2553","-109.8369","1271.0","WILLCOX, AZ US","    869.9","","     869.9","0","        61","0","        32","0","         1","0","        0","","         0","0","         0","0","       109","0","         0","0","       270","0","       106","0","","","        62"," ","   -9.4","0,0110, ","     0"," ,0,1231,+","    13"," ,0,0327, ","  27.7"," ,0,0812, ","   38.9","0,0629,+","-2.8","0,1109","-2.8","0,1109","-5.0","0,1124","-6.7","0,1217","","","-1.1","0,0421","-5.0","0,0404","-5.0","0,0404","-6.7","0,0227","-9.4","0,0110","    1881.1","1","    1881.1","0","    360.9"," ,0","       13"," ,0","     16.25","0","     25.99","0","      6.50","0"
"USC00029334","1978","32.2553","-109.8369","1271.0","WILLCOX, AZ US","    821.4","","     821.4","0","        74","0","        45","0","         1","0","        4","","         2","0","         2","0","        75","0","         2","0","       239","0","       108","0","","","        49"," ","  -21.7","0,1208, ","    51"," ,0,1208,+","    71"," ,0,1207, ","  29.7"," ,0,0725, ","   40.6","0,0719, ","-1.1","0,1116","-3.9","0,1117","-5.0","0,1203","-21.7","0,1208","-21.7","0,1208","-1.7","0,0418","-3.3","0,0410","-5.0","0,0220","","","","","    1493.9","9","    1493.9","0","    465.7"," ,0","      104"," ,0","     16.08","0","     25.33","0","      6.83","0"
"USC00029334","1979","32.2553","-109.8369","1271.0","WILLCOX, AZ US","    815.4","","     815.4","0","        60","0","        25","0","         1","0","        0","","         2","0","         0","0","       111","0","         0","0","       241","0","       101","0","","","        40"," ","   -9.4","0,1202,+","     0"," ,0,1231,+","    33"," ,0,0126, ","  30.0"," ,0,0729, ","   41.1","0,0709, ","-4.4","0,1031","-4.4","0,1031","-4.4","0,1031","-6.7","0,1120","-9.4","0,1121","-1.1","0,0510","-2.2","0,0405","-4.4","0,0304","-8.3","0,0130","","","    1754.4","4","    1754.4","0","    251.7"," ,0","       58"," ,0","     15.62","0","     25.40","0","      5.84","0"
"USC00029334","1980","32.2553","-109.8369","1271.0","WILLCOX, AZ US","    879.4","","     879.4","0","        52","0","        20","0","         3","0","        1","","         0","0","         0","0","       103","0","         0","0","       254","0","       102","0","","","        42"," ","   -8.3","0,1127, ","    51"," ,0,0209, ","     0","T,0,0122, ","  92.7"," ,0,0814, ","   41.7","0,0629,+","-1.7","0,1017","-2.8","0,1102","-4.4","0,1119","-8.3","0,1127","","","-0.6","0,0415","-2.8","0,0414","-5.0","0,0212","-7.8","0,0105","","","    1681.8","8","    1681.8","0","    286.3"," ,0","       46"," ,0","     16.22","0","     25.94","0","      6.49","0"
"USC00029334","1981","32.2553","-109.8369","1271.0","WILLCOX, AZ US","    873.4","","     873.4","0","        53","0","        24","0","         1","0","        0","","         0","0","         0","0","        98","0","         0","0","       267","0","       100","0","","","        42"," ","  -10.0","0,1224, ","     0"," ,0,1231,+","     0","T,0,0306, ","  27.2"," ,0,0630, ","   39.4","0,0624,+","-0.6","0,1017","-2.8","0,1103","-4.4","0,1126","-6.7","0,1219","-9.4","0,1223","-1.7","0,0404","-3.3","0,0315","-5.6","0,0223","-7.2","0,0206","-8.9","0,0202","    1548.2","2","    1548.2","0","    210.2"," ,0","        0","T,0","     16.61","0","     26.24","0","      6.98","0"
"USC00029334","1982","32.2553","-109.8369","1271.0","WILLCOX, AZ US","    754.3","","     754.3","0","        65","0","        33","0","         1","0","        1","","         2","0","         0","0","        92","0","         0","0","       247","0","       103","0","         4"," ","        44"," ","   -8.9","0,0202, ","    25"," ,0,1201, ","    38"," ,0,0103, ","  29.7"," ,0,1201, ","   38.3","0,0714, ","-1.7","0,1011","-2.2","0,1028","-4.4","0,1203","-6.7","0,1229","","","-0.6","0,0408","-3.3","0,0324","-7.2","0,0307","-7.2","0,0307","-8.9","0,0202","    1494.3","3","    1494.3","0","    325.4"," ,0","      127"," ,0","     15.73","0","     25.17","0","      6.29","0"
"USC00029334","1983","32.2553","-109.8369","1271.0","WILLCOX, AZ US","    809.2","","     809.2","0","        74","0","        45","0","         5","0","        0","","         0","0","         0","0","        94","0","         0","0","       233","0","       114","0","         8"," ","        67"," ","   -7.8","0,0122,+","     0"," ,0,1231,+","    13"," ,0,0325, ","  53.8"," ,0,1002, ","   39.4","0,0705, ","0.0","0,1116","-2.2","0,1120","-4.4","0,1123","","","","","-1.1","0,0416","-5.0","0,0414","-5.0","0,0414","-7.8","0,0122","","","    1848.8","8","    1848.8","0","    569.2"," ,0","       21"," ,0","     15.77","0","     25.00","0","      6.54","0"
"USC00029334","1984","32.2553","-109.8369","1271.0","WILLCOX, AZ US","    842.5","","     842.5","0","        82","0","        40","0","         2","0","        0","","         2","0","         0","0","       106","0","         0","0","       254","0","       102","0","         6"," ","        64"," ","   -8.9","0,0218, ","     0"," ,0,1231,+","    46"," ,0,1214, ","  29.2"," ,0,0911,+","   38.3","0,0524, ","0.0","0,1102","-2.2","0,1103","-8.3","0,1127","-8.3","0,1127","","","-1.1","0,0430","-2.8","0,0421","-4.4","0,0403","-7.2","0,0307","-8.9","0,0218","    1635.5","5","    1635.5","0","    406.6"," ,0","       94"," ,0","     15.97","0","     25.48","0","      6.45","0"
"USC00029334","1985","32.2553","-109.8369","1271.0","WILLCOX, AZ US","    823.3","","     823.3","0","        64","0","        41","0","         2","0","        1","","         5","0","         0","0","        94","0","         0","0","       254","0","        94","0","         4"," ","        45"," ","  -10.0","0,0202, ","    25"," ,0,0112, ","    89"," ,0,0203, ","  41.9"," ,0,1016, ","   40.6","0,0617,+","-1.1","0,1107","-2.8","0,1114","-5.0","0,1115","-7.8","0,1211","","","0.0","0,0402","-3.9","0,0331","-5.6","0,0330","-6.7","0,0305","-10.0","0,0202","    1651.0","0","    1651.0","0","    436.2"," ,0","      339"," ,0","     15.98","0","     25.42","0","      6.54","0"
"USC00029334","1986","32.2553","-109.8369","1271.0","WILLCOX, AZ US","    796.3","","     796.3","0","        85","0","        40","0","         3","0","        0","","         1","0","         0","0","        89","0","         0","0","       262","0","        89","0","         5"," ","        50"," ","   -7.8","0,1202, ","     0"," ,0,1231,+","    25"," ,0,0207, ","  53.6"," ,0,0715, ","   40.0","0,0731, ","0.0","0,1106","-2.8","0,1108","-5.6","0,1125","-6.7","0,1201","","","0.0","0,0509","-2.2","0,0320","-6.7","0,0211","-6.7","0,0211","","","    1497.6","6","    1497.6","0","    454.1"," ,0","       30"," ,0","     16.24","0","     25.73","0","      6.74","0"
"USC00029334","1987","32.2553","-109.8369","1271.0","WILLCOX, AZ US","    698.6","","     698.6","0","        73","0","        31","0","         1","0","        3","","         4","0","         0","0","       114","0","         0","0","       252","0","        92","0","         4"," ","        38"," ","  -12.8","0,1226, ","    76"," ,0,1225, ","    76"," ,0,1225, ","  26.2"," ,0,0822, ","   38.9","0,0702, ","-0.6","0,1107","-3.3","0,1113","-7.2","0,1116","-7.2","0,1116","-10.0","0,1214","0.0","0,0414","-3.9","0,0331","-5.6","0,0329","-7.2","0,0222","-10.0","0,0119","    1805.0","0","    1805.0","0","    328.7"," ,0","      219"," ,0","     15.42","0","     25.15","0","      5.69","0"
"USC00029334","1988","32.2553","-109.8369","1271.0","WILLCOX, AZ US","    794.2","","     794.2","0","        62","0","        33","0","         2","0","        0","","         1","0","         0","0","       112","0","         0","0","       263","0","        99","0","         4"," ","        34"," ","  -12.8","0,1230, ","     0"," ,0,1231,+","    38"," ,0,0219, ","  33.5"," ,0,0802, ","   39.4","0,0623, ","0.0","0,1113","-6.1","0,1116","-6.1","0,1116","-6.7","0,1120","-9.4","0,1227","0.0","0,0507","-2.2","0,0403","-4.4","0,0401","-7.8","0,0313","-9.4","0,0312","    1694.2","2","    1694.2","0","    336.5"," ,0","       59"," ,0","     15.98","0","     25.96","0","      6.00","0"
"USC00029334","1989","32.2553","-109.8369","1271.0","WILLCOX, AZ US","    909.0","","     909.0","0","        41","0","        17","0","         2","0","        0","","         0","0","         0","0","       101","0","         0","0","       270","0","       146","0","         5"," ","        44"," ","  -11.7","0,1213, ","     0"," ,0,1231,+","     0","T,0,0206, ","  63.5"," ,0,1005, ","   42.2","0,0703,+","-1.1","0,1027","-2.2","0,1029","-6.7","0,1201","-6.7","0,1201","-10.0","0,1212","-1.1","0,0428","-2.2","0,0306","-4.4","0,0222","-7.2","0,0117","-10.0","0,0114","    1458.6","6","    1458.6","0","    240.8"," ,0","        0","T,0","     16.66","0","     27.18","0","      6.15","0"
"USC00029334","1990","32.2553","-109.8369","1271.0","WILLCOX, AZ US","    844.7","","     844.7","0","        75","0","        43","0","         2","0","        3","","         3","0","         0","0","        96","0","         1","0","       257","0","        84","0","         3"," ","        59"," ","  -12.8","0,1223, ","    76"," ,0,1222, ","   114"," ,0,1221, ","  58.9"," ,0,0813, ","   43.3","0,0626, ","-1.1","0,1022","-3.3","0,1104","-6.1","0,1128","-6.7","0,1205","-12.8","0,1223","0.0","0,0330","-3.9","0,0317","-5.0","0,0316","-6.7","0,0222","-9.4","0,0217","    1663.0","0","    1663.0","0","    452.9"," ,0","      283"," ,0","     16.07","0","     25.66","0","      6.48","0"
"USC00029334","1991","32.2553","-109.8369","1271.0","WILLCOX, AZ US","    716.9","","     716.9","0","        71","0","        35","0","         1","0","        0","","         0","0","         0","0","       100","0","         0","0","       244","0","       105","0","         9"," ","        52"," ","   -9.4","0,0130, ","     0"," ,0,1231,+","     8"," ,0,0328, ","  26.2"," ,0,1211, ","   39.4","0,0701,+","-5.0","0,1029","-5.0","0,1029","-5.0","0,1029","-6.7","0,1128","-8.9","0,1202","-2.2","0,0429","-2.2","0,0429","-4.4","0,0413","-7.8","0,0131","-9.4","0,0130","    1722.3","3","    1722.3","0","    331.8"," ,0","        8"," ,0","     15.56","0","     25.29","0","      5.84","0"
"USC00029334","1992","32.2553","-109.8369","1271.0","WILLCOX, AZ US","    757.8","","     757.8","0","        79","0","        47","0","         3","0","        0","","         0","0","         0","0","        78","0","         0","0","       246","0","       105","0","         7"," ","        64"," ","  -11.1","0,1125, ","     0"," ,0,1231,+","     5"," ,0,1213,+","  41.4"," ,0,0824, ","   40.0","0,0705, ","-1.7","0,1102","-2.8","0,1106","-5.6","0,1112","-8.3","0,1124","-11.1","0,1125","-1.1","0,0325","-2.2","0,0228","-5.0","0,0124","","","","","    1660.3","3","    1660.3","0","    498.3"," ,0","       10"," ,0","     15.77","0","     24.95","0","      6.59","0"
"USC00029334","1993","32.2553","-109.8369","1271.0","WILLCOX, AZ US","    833.5","","     833.5","0","        64","0","        40","0","         1","0","        0","","         1","0","         0","0","        81","0","         0","0","       249","0","       108","0","         5"," ","        35"," ","  -10.0","0,1223, ","     0"," ,0,1231,+","    25"," ,0,1115, ","  43.7"," ,0,0108, ","   40.0","0,0628,+","-3.9","0,1031","-3.9","0,1031","-6.1","0,1126","-9.4","0,1127","-9.4","0,1127","-1.7","0,0415","-2.2","0,0328","-4.4","0,0203","","","","","    1580.0","0","    1580.0","0","    371.8"," ,0","       25"," ,0","     16.28","0","     25.91","0","      6.65","0"
"USC00029334","1994","32.2553","-109.8369","1271.0","WILLCOX, AZ US","   1040.7","","    1040.7","0","        61","0","        31","0","         5","0","        0","","         1","0","         0","0","        90","0","         0","0","       258","0","       128","0","         5"," ","        50"," ","  -11.1","0,0108, ","     0","T,0,0128, ","    33"," ,0,0128, ","  37.3"," ,0,1112, ","   43.3","0,0628, ","0.0","0,1017","-4.4","0,1105","-4.4","0,1105","-7.2","0,1120","","","-2.8","0,0428","-2.8","0,0428","-5.0","0,0225","-7.8","0,0224","-9.4","0,0113","    1650.9","9","    1650.9","0","    440.9"," ,0","       33"," ,0","     16.77","0","     26.78","0","      6.75","0"
"USC00029334","1995","32.2553","-109.8369","1271.0","WILLCOX, AZ US","    829.6","","     829.6","0","        58","0","        28","0","         2","0","        1","","         2","0","         0","0","        80","0","         0","0","       280","0","       105","0","         7"," ","        39"," ","   -7.2","0,1219, ","    25"," ,0,0117, ","    76"," ,0,0117, ","  29.5"," ,0,0215, ","   41.7","0,0727, ","-0.6","0,1025","-2.8","0,1119","-4.4","0,1211","-7.2","0,1219","","","-0.6","0,0423","-3.9","0,0420","-5.6","0,0326","","","","","    1568.6","6","    1568.6","0","    343.5"," ,0","      127"," ,0","     16.56","0","     26.77","0","      6.35","0"
"USC00029334","1996","32.2553","-109.8369","1271.0","WILLCOX, AZ US","    963.6","","     963.6","0","        58","0","        26","0","         1","0","        0","","         0","0","         0","0","       105","0","         0","0","       280","0","       132","0","         6"," ","        51"," ","  -11.7","0,1220, ","     0","T,0,0226, ","     0","T,0,1129,+","  26.2"," ,0,0715, ","   40.6","0,0620, ","0.0","0,1022","-4.4","0,1023","-4.4","0,1023","-7.2","0,1201","-9.4","0,1205","-1.1","0,0420","-2.8","0,0330","-6.1","0,0302","-7.2","0,0129","-10.0","0,0125","    1337.9","9","    1337.9","0","    275.5"," ,0","        0","T,0","     17.09","0","     27.41","0","      6.78","0"
"USC00029334","1997","32.2553","-109.8369","1271.0","WILLCOX, AZ US","","","","","","","","","","","","","","","","","","","","","","","","","         1"," ","        48"," ","","","","","","","","","","","","","","","","","","","","","","","","","","","","","","","    1508.7","7","    1508.7","0","","","","","","","","","",""
"USC00029334","1998","32.2553","-109.8369","1271.0","WILLCOX, AZ US","","","","","        71","0","        33","0","         1","0","","","         2","0","         0","0","       110","0","","","","","","","         4"," ","        35"," ","   -7.2","0,1225,+","","","    76"," ,0,0205, ","  26.2"," ,0,0209, ","","","-0.6","0,1103","-3.9","0,1110","-5.6","0,1207","-7.2","0,1212","","","0.0","0,0515","-3.3","0,0417","-5.0","0,0309","-7.2","0,0123","","","","","","","    261.5"," ,0","      137"," ,0","","","","","      6.13","0"
"USC00029334","1999","32.2553","-109.8369","1271.0","WILLCOX, AZ US","","","","","        49","0","        23","0","         3","0","        0","","         0","0","         0","0","        99","0","","","","","","","","","        34"," ","   -9.4","0,1209,+","     0","T,0,0402, ","     0","T,0,0404,+","  55.9"," ,0,0805, ","","","-1.7","0,1031","-7.2","0,1123","-7.2","0,1123","-7.2","0,1123","-9.4","0,1209","0.0","0,0411","-2.2","0,0410","-4.4","0,0310","-7.8","0,0211","-8.9","0,0203","","","","","    356.7"," ,0","        0","T,0","","","","","      6.35","0"
"USC00029334","2000","32.2553","-109.8369","1271.0","WILLCOX, AZ US","","","","","        58","0","        31","0","         4","0","        0","","         1","0","         0","0","       100","0","","","","","","","         2"," ","        43"," ","   -9.4","0,0109,+","     0","T,0,1107,+","    51"," ,0,1107, ","  46.7"," ,0,1011, ","","","-0.6","0,1031","-2.8","0,1109","-5.6","0,1119","-6.7","0,1219","","","-2.2","0,0401","-2.2","0,0401","-4.4","0,0226","-7.2","0,0204","-9.4","0,0109","","","","","    372.8"," ,0","       61"," ,0","","","","","      7.42","0"
"USC00029334","2001","32.2553","-109.8369","1271.0","WILLCOX, AZ US","","","","","        66","0","        37","0","         1","0","        0","","         2","0","         0","0","        86","0","","","","","","","        14"," ","        40"," ","   -8.9","0,1226, ","     0","T,0,1215,+","    33"," ,0,0215, ","  37.8"," ,0,0914, ","","","-1.1","0,1122","-5.6","0,1124","-5.6","0,1124","-6.7","0,1127","-8.9","0,1226","-1.1","0,0413","-2.2","0,0318","-5.0","0,0315","-8.3","0,0209","","","","","","","    354.9"," ,0","       81"," ,0","","","","","      7.45","0"
"USC00029334","2002","32.2553","-109.8369","1271.0","WILLCOX, AZ US","   1006.4","","    1006.4","0","        50","0","        23","0","         2","0","","","         0","0","         0","0","        98","0","         0","0","       262","0","       113","0","","","        20"," ","  -10.0","0,0131, ","","","    13"," ,0,1224, ","  30.5"," ,0,0727, ","   40.0","0,0703,+","-2.8","0,1004","-2.8","0,1004","-5.0","0,1122","-7.2","0,1220","","","-0.6","0,0421","-2.8","0,0320","-4.4","0,0316","-8.3","0,0305","-10.0","0,0131","","","","","    204.5"," ,0","       13"," ,0","     16.77","0","     26.44","0","      7.10","0"
"USC00029334","2003","32.2553","-109.8369","1271.0","WILLCOX, AZ US","","","","","        50","0","        26","0","         0","0","        0","","         0","0","         0","0","        76","0","","","","","","","         3"," ","","","  -12.2","0,1229, ","     0"," ,0,1231,+","     0"," ,0,1231,+","  16.3"," ,0,1113, ","","","-1.1","0,1104","-2.8","0,1105","-4.4","0,1123","-6.7","0,1213","-10.6","0,1228","0.0","0,0416","-2.8","0,0307","-6.7","0,0210","-6.7","0,0210","","","    1441.9","9","    1441.9","0","    176.9"," ,0","        0"," ,0","","","","","      8.14","0"
"USC00029334","2004","32.2553","-109.8369","1271.0","WILLCOX, AZ US","","","","","        75","0","        46","0","         2","0","        0","","         1","0","         0","0","        74","0","","","","","","","         2"," ","","","   -8.9","0,1225, ","     0","T,0,0304,+","    25"," ,0,0204, ","  26.9"," ,0,0817, ","","","-1.1","0,1102","-3.9","0,1103","-5.0","0,1129","-8.3","0,1130","-8.9","0,1225","-1.1","0,0306","-3.3","0,0301","-4.4","0,0215","-6.7","0,0214","","","","","","","    372.1"," ,0","       25"," ,0","","","","","      7.59","0"
"USC00029334","2005","32.2553","-109.8369","1271.0","WILLCOX, AZ US","","","","","","","","","","","","","","","","","","","","","","","","","","","","","","","","","","","","","","","","","","","","","","","","","","","","","","","","","","","","","","","    257.6"," ,0","","","","","","","",""
"USC00029334","2007","32.2553","-109.8369","1271.0","WILLCOX, AZ US","   1101.9","","    1101.9","0","        65","0","        32","0","         2","0","        1","","         1","0","         0","0","        87","0","         0","0","       265","0","       123","0","","","","","  -12.8","0,0115, ","    76"," ,0,0122, ","    76"," ,0,0122, ","  29.7"," ,0,0802, ","   41.1","0,0719,+","-4.4","0,1125","-4.4","0,1125","-4.4","0,1125","-6.7","0,1216","-8.9","0,1223","-0.6","0,0422","-2.2","0,0329","-6.1","0,0303","-6.7","0,0225","-11.7","0,0116","","","","","    360.3"," ,0","       76"," ,0","     16.99","0","     26.52","0","      7.47","0"
"USC00029334","2008","32.2553","-109.8369","1271.0","WILLCOX, AZ US","","","","","","","","","","","","","","","","","","","","","","","","","         1"," ","","","","","","","","","","","","","","","","","","","","","","","","","","","","","","","","","","","","","","","","","","","","","",""
"USC00029334","2009","32.2553","-109.8369","1271.0","WILLCOX, AZ US","","","","","","","","","","","","","","","","","","","","","","","","","","","","","","","","","","","","","","","","","","","","","","","","","","","","","","","","","","","    1427.4","4","    1427.4","0","","","","","","","","","",""
"USC00029334","2010","32.2553","-109.8369","1271.0","WILLCOX, AZ US","   1085.2","","    1085.2","0","        65","0","        38","0","         2","0","        0","","         0","0","         0","0","       108","0","         0","0","       244","0","       117","0","         3"," ","","","   -8.9","0,1130, ","     0","T,0,1231,+","    13"," ,0,0123, ","  29.2"," ,0,0720, ","   41.1","0,0624, ","0.0","0,1106","-5.0","0,1110","-5.0","0,1110","-8.3","0,1126","-8.9","0,1130","-0.6","0,0503","-2.2","0,0501","-5.0","0,0116","","","","","","","","","    348.3"," ,0","       13"," ,0","     16.63","0","     26.13","0","      7.13","0"
"USC00029334","2011","32.2553","-109.8369","1271.0","WILLCOX, AZ US","","","","","","","","","","","","","","","","","","","","","","","","","         1"," ","         3"," ","","","","","","","","","","","","","","","","","","","","","","","","","","","","","","","","","","","","","","","","","","","",""
"USC00029334","2012","32.2553","-109.8369","1271.0","WILLCOX, AZ US","","","","","        49","7","        24","7","         1","7","","","","","         0","7","       115","7","","","","","","","","","","","   -8.9","7,1229, ","","","","","  45.5"," ,7,0716, ","","","0.0","7,1025","-2.2","7,1031","-8.3","7,1211","-8.3","7,1211","-8.9","7,1229","0.0","7,0416","-2.2","7,0415","-6.7","7,0320","-6.7","7,0320","","","    1577.0","0","    1577.0"," ","    272.2"," ,7","","","","","","","      6.82","7"
"USC00029334","2014","32.2553","-109.8369","1271.0","WILLCOX, AZ US","   1000.1","","    1000.1","7","        54","7","        33","7","         3","7","","","","","         0","7","        88","7","         0","7","       283","7","       103","7","         2"," ","","","   -8.9","7,1228, ","","","","","  39.9"," ,7,0820, ","   40.6","7,0703, ","0.0","7,1104","-2.2","7,1105","-5.0","7,1115","-6.7","7,1120","-8.9","7,1228","0.0","7,0318","-2.8","7,0222","-5.0","7,0204","-6.7","7,0107","","","","","","","    355.3"," ,7","","","     17.10","7","     26.89","7","      7.32","7"
"USC00029334","2015","32.2553","-109.8369","1271.0","WILLCOX, AZ US","    937.1","","     937.1","7","        72","7","        34","7","         1","7","","","","","         0","7","        89","7","         0","7","       271","7","       111","7","         1"," ","","","  -10.0","7,1217, ","","","","","  34.8"," ,7,0131, ","   41.1","7,0816,+","0.0","7,1031","-2.2","7,1103","-5.6","7,1124","-7.2","7,1208","-10.0","7,1217","-0.6","7,0510","-2.2","7,0310","-5.0","7,0227","-6.7","7,0106","","","    1445.6","6","    1445.6","7","    305.8"," ,7","","","     16.75","7","     26.47","7","      7.04","7"
"USC00029334","2016","32.2553","-109.8369","1271.0","WILLCOX, AZ US","    889.5","","     889.5","7","        55","7","        32","7","         4","7","","","","","         0","7","        97","7","         0","7","       279","7","       101","7","         4"," ","","","  -10.0","7,0114, ","","","","","  30.5"," ,7,1223, ","   44.4","7,0620, ","0.0","7,1113","-2.2","7,1116","-8.3","7,1130","-8.3","7,1130","-8.9","7,1201","-1.1","7,0403","-2.2","7,0324","-6.1","7,0207","-8.3","7,0204","-9.4","7,0203","    1637.1","1","    1637.1","7","    393.2"," ,7","","","     16.54","7","     26.78","7","      6.29","7"
"USC00029334","2017","32.2553","-109.8369","1271.0","WILLCOX, AZ US","    935.2","","     935.2","7","        41","7","        18","7","         1","7","","","","","         0","7","        82","7","         0","7","       282","7","       131","7","         3"," ","         1"," ","  -10.6","7,0107, ","","","","","  47.8"," ,7,0813, ","   44.4","7,0621,+","-1.1","7,1008","-2.2","7,1120","-5.6","7,1208","-6.7","7,1216","","","-1.1","7,0406","-3.3","7,0310","-5.6","7,0226","-7.2","7,0127","-10.0","7,0108","    1515.7","7","    1515.7","7","    211.1"," ,7","","","     17.12","7","     27.80","7","      6.44","7"
"USC00029334","2018","32.2553","-109.8369","1271.0","WILLCOX, AZ US","   1058.7","","    1058.7","7","        55","7","        32","7","         2","7","","","","","         0","7","        92","7","         0","7","       273","7","       128","7","         3"," ","","","   -8.9","7,0122, ","","","","","  45.0"," ,7,0903, ","   42.8","7,0726, ","0.0","7,1111","-3.3","7,1115","-5.0","7,1116","-6.7","7,1214","","","0.0","7,0328","-2.2","7,0320","-5.0","7,0302","-6.7","7,0127","-8.9","7,0122","    1211.7","7","    1211.7","7","    353.6"," ,7","","","     17.19","7","     26.96","7","      7.43","7"
"USC00029334","2019","32.2553","-109.8369","1271.0","WILLCOX, AZ US","","","","","","","","","","","","","","","","","","","","","","","","","         5"," ","         2"," ","","","","","","","","","","","","","","","","","","","","","","","","","","","","","","","","","","","","","","","","","","","",""
"USC00029334","2020","32.2553","-109.8369","1271.0","WILLCOX, AZ US","","","","","","","","","","","","","","","","","","","","","","","","","         3"," ","         1"," ","","","","","","","","","","","","","","","","","","","","","","","","","","","","","","","    1656.7","7","    1656.7","H","","","","","","","","","",""
