"STATION","DATE","LATITUDE","LONGITUDE","ELEVATION","NAME","DP01","DP01_ATTRIBUTES","DP10","DP10_ATTRIBUTES","DP1X","DP1X_ATTRIBUTES","DSND","DSND_ATTRIBUTES","DSNW","DSNW_ATTRIBUTES","DYFG","DYFG_ATTRIBUTES","DYTS","DYTS_ATTRIBUTES","EMSD","EMSD_ATTRIBUTES","EMSN","EMSN_ATTRIBUTES","EMXP","EMXP_ATTRIBUTES","PRCP","PRCP_ATTRIBUTES","SNOW","SNOW_ATTRIBUTES"
"USC00164590","1941","32.35","-93.15",,"JAMESTOWN NEAR SOIL CONSERVATION SERVICE 16, LA US","","","","","","","","","","","         2"," ","         4"," ","","","","","","","","","",""
"USC00164590","1942","32.35","-93.15",,"JAMESTOWN NEAR SOIL CONSERVATION SERVICE 16, LA US","        71","6","        63","6","        13","6","        0","","         0","6","","","        31"," ","     0"," ,6,1231,+","     0","T,6,0111, ","  78.2"," ,6,0519, ","   1161.2"," ,6","        0","T,6"
"USC00164590","1943","32.35","-93.15",,"JAMESTOWN NEAR SOIL CONSERVATION SERVICE 16, LA US","","","","","","","","","","","         1"," ","        17"," ","","","","","","","","","",""
