"STATION","DATE","LATITUDE","LONGITUDE","ELEVATION","NAME","DP01","DP01_ATTRIBUTES","DP10","DP10_ATTRIBUTES","DP1X","DP1X_ATTRIBUTES","DSND","DSND_ATTRIBUTES","DSNW","DSNW_ATTRIBUTES","DYFG","DYFG_ATTRIBUTES","DYTS","DYTS_ATTRIBUTES","EMSD","EMSD_ATTRIBUTES","EMSN","EMSN_ATTRIBUTES","EMXP","EMXP_ATTRIBUTES","PRCP","PRCP_ATTRIBUTES","SNOW","SNOW_ATTRIBUTES"
"USC00123093","2011","39.489","-86.073","227.1","FRANKLIN 1 W, IN US","","","","","","","","","","","        58"," ","        54"," ","","","","","","","","","",""
"USC00123093","2012","39.489","-86.073","227.1","FRANKLIN 1 W, IN US","       117","7","        65","7","         8","7","","","","","        56"," ","        44"," ","","","","","  66.0"," ,7,0324, ","    901.6"," ,7","",""
"USC00123093","2013","39.489","-86.073","227.1","FRANKLIN 1 W, IN US","","","","","","","","","","","        62"," ","        32"," ","","","","","","","","","",""
"USC00123093","2014","39.489","-86.073","227.1","FRANKLIN 1 W, IN US","","","","","","","","","","","        32"," ","        45"," ","","","","","","","","","",""
"USC00123093","2015","39.489","-86.073","227.1","FRANKLIN 1 W, IN US","       133","7","        88","7","        11","7","       24","","         6","7","        58"," ","        41"," ","   254"," ,7,0302,+","   157"," ,7,0301, ","  56.4"," ,7,0714, ","   1252.9"," ,7","      520"," ,7"
"USC00123093","2016","39.489","-86.073","227.1","FRANKLIN 1 W, IN US","","","","","","","","","","","        70"," ","        44"," ","","","","","","","","","",""
"USC00123093","2017","39.489","-86.073","227.1","FRANKLIN 1 W, IN US","","","","","","","       12","","         4","7","        51"," ","        49"," ","    51"," ,7,1231,+","    41"," ,7,1230, ","","","","","      228"," ,7"
"USC00123093","2018","39.489","-86.073","227.1","FRANKLIN 1 W, IN US","","","","","","","","","","","        70"," ","        27"," ","","","","","","","","","",""
"USC00123093","2019","39.489","-86.073","227.1","FRANKLIN 1 W, IN US","       144","7","        95","7","        12","7","       26","","        11","7","        67"," ","        41"," ","   127"," ,7,1217,+","   112"," ,7,1216,+","  62.7"," ,7,0616, ","   1387.3"," ,7","      768"," ,7"
"USC00123093","2020","39.489","-86.073","227.1","FRANKLIN 1 W, IN US","","","","","","","","","","","        58"," ","        28"," ","","","","","","","","","",""
