"STATION","DATE","LATITUDE","LONGITUDE","ELEVATION","NAME","CDSD","CDSD_ATTRIBUTES","CLDD","CLDD_ATTRIBUTES","DP01","DP01_ATTRIBUTES","DP10","DP10_ATTRIBUTES","DP1X","DP1X_ATTRIBUTES","DSND","DSND_ATTRIBUTES","DSNW","DSNW_ATTRIBUTES","DT00","DT00_ATTRIBUTES","DT32","DT32_ATTRIBUTES","DX32","DX32_ATTRIBUTES","DX70","DX70_ATTRIBUTES","DX90","DX90_ATTRIBUTES","DYFG","DYFG_ATTRIBUTES","DYTS","DYTS_ATTRIBUTES","EMNT","EMNT_ATTRIBUTES","EMSD","EMSD_ATTRIBUTES","EMSN","EMSN_ATTRIBUTES","EMXP","EMXP_ATTRIBUTES","EMXT","EMXT_ATTRIBUTES","FZF0","FZF0_ATTRIBUTES","FZF1","FZF1_ATTRIBUTES","FZF2","FZF2_ATTRIBUTES","FZF3","FZF3_ATTRIBUTES","FZF4","FZF4_ATTRIBUTES","FZF5","FZF5_ATTRIBUTES","FZF6","FZF6_ATTRIBUTES","FZF7","FZF7_ATTRIBUTES","FZF8","FZF8_ATTRIBUTES","FZF9","FZF9_ATTRIBUTES","HDSD","HDSD_ATTRIBUTES","HTDD","HTDD_ATTRIBUTES","PRCP","PRCP_ATTRIBUTES","SNOW","SNOW_ATTRIBUTES","TAVG","TAVG_ATTRIBUTES","TMAX","TMAX_ATTRIBUTES","TMIN","TMIN_ATTRIBUTES"
"USC00028326","1972","33.9733","-109.563","2856.0","SUNRISE MOUNTAIN, AZ US","      0.0","","       0.0","0","        95","0","        55","0","         7","0","      124","","        26","0","        24","0","       250","0","        20","0","        40","0","         0","0","","","","","  -32.2","0,0104, ","   940"," ,0,1212, ","   457"," ,0,1229, ","  81.3"," ,0,1020, ","   25.6","0,0716,+","-0.6","0,0828","-2.8","0,0918","-4.4","0,0920","-7.2","0,0930","-8.9","0,1023","0.0","0,0703","-2.2","0,0628","-5.0","0,0627","-7.2","0,0526","-8.9","0,0524","","","","","    811.0"," ,0","     2675"," ,0","      3.40","0","     12.10","0","     -5.30","0"
"USC00028326","1973","33.9733","-109.563","2856.0","SUNRISE MOUNTAIN, AZ US","      0.0","","       0.0","0","","","","","","","      184","","        65","0","        18","0","       267","0","        45","0","        43","0","         0","0","","","","","  -21.1","0,0123, ","  2159"," ,0,0404,+","   559"," ,0,0314, ","","","   26.1","0,0702,+","0.0","0,0806","-2.2","0,0912","-6.7","0,0926","-6.7","0,0926","-11.1","0,1011","0.0","0,0724","-2.2","0,0723","-4.4","0,0509","-6.7","0,0506","-11.7","0,0502","    5661.1","1","    5661.1","0","","","     9560"," ,0","      3.02","0","     11.27","0","     -5.23","0"
"USC00028326","1974","33.9733","-109.563","2856.0","SUNRISE MOUNTAIN, AZ US","      0.0","","       0.0","0","       121","0","        67","0","         4","0","","","        34","0","        26","0","       238","0","        35","0","        46","0","         0","0","","","         2"," ","  -27.2","0,1224, ","","","   406"," ,0,0106, ","  37.1"," ,0,1029, ","   26.7","0,0701,+","0.0","0,0811","-2.8","0,0917","-4.4","0,0928","-11.7","0,1030","-11.7","0,1030","-6.1","0,0608","-6.1","0,0608","-6.1","0,0608","-11.1","0,0521","-11.1","0,0521","    5081.4","4","    5081.4","0","    779.3"," ,0","     4569"," ,0","      3.90","0","     12.02","0","     -4.22","0"
"USC00028326","1975","33.9733","-109.563","2856.0","SUNRISE MOUNTAIN, AZ US","","","","","","","","","","","","","        58","0","","","","","","","","","","","","","        11"," ","","","","","  1016"," ,0,1130, ","","","","","","","","","","","","","","","","","","","","","","","","","","","","","","","     9488"," ,0","","","","","",""
"USC00028326","1976","33.9733","-109.563","2856.0","SUNRISE MOUNTAIN, AZ US","","","","","","","","","","","","","        33","0","","","","","","","","","","","","","         3"," ","","","","","   483"," ,0,0416, ","","","","","","","","","","","","","","","","","","","","","","","","","","","","","","","     4492"," ,0","","","","","",""
"USC00028326","1979","33.9733","-109.563","2856.0","SUNRISE MOUNTAIN, AZ US","","","","","","","","","","","","","","","","","","","","","","","","","","","        33"," ","","","","","","","","","","","","","","","","","","","","","","","","","","","","","","","","","","","","","","","","","","","",""
"USC00028326","2003","33.9733","-109.563","2856.0","SUNRISE MOUNTAIN, AZ US","","","","","","","","","","","","","        25","0","","","","","","","","","","","","","","","","","","","   660"," ,0,0226, ","","","","","","","","","","","","","","","","","","","","","","","","","","","","","","","     4657"," ,0","","","","","",""
"USC00028326","2005","33.9733","-109.563","2856.0","SUNRISE MOUNTAIN, AZ US","","","","","        62","0","        48","0","        12","0","","","        39","0","","","","","","","","","","","","","","","","","","","   508"," ,0,0104,+"," 106.7"," ,0,0326, ","","","","","","","","","","","","","","","","","","","","","","","","","","","   1001.7"," ,0","     4447"," ,0","","","","","",""
"USC00028326","2006","33.9733","-109.563","2856.0","SUNRISE MOUNTAIN, AZ US","","","","","","","","","","","","","        19","0","","","","","","","","","","","","","","","","","","","   305"," ,0,0322, ","","","","","","","","","","","","","","","","","","","","","","","","","","","","","","","     1650"," ,0","","","","","",""
"USC00028326","2013","33.9733","-109.563","2856.0","SUNRISE MOUNTAIN, AZ US","","","","","","","","","","","","","        28","7","","","","","","","","","","","","","","","","","","","   381"," ,7,0309, ","","","","","","","","","","","","","","","","","","","","","","","","","","","","","","","     4267"," ,7","","","","","",""
"USC00028326","2014","33.9733","-109.563","2856.0","SUNRISE MOUNTAIN, AZ US","      0.0","","       0.0","7","        71","7","        51","7","         6","7","","","        20","7","         4","7","       221","7","        13","7","        68","7","         0","7","","","","","  -20.0","7,1228,+","","","   203"," ,7,0302, ","  50.8"," ,7,0826, ","   26.7","7,0702,+","-3.9","7,0930","-3.9","7,0930","-4.4","7,1004","-7.2","7,1028","-10.0","7,1103","0.0","7,0626","-2.2","7,0608","-5.6","7,0524","-6.7","7,0515","-8.9","7,0513","","","","","    577.8"," ,7","     1573"," ,7","      5.46","7","     13.34","7","     -2.42","7"
"USC00028326","2015","33.9733","-109.563","2856.0","SUNRISE MOUNTAIN, AZ US","      0.0","","       0.0","7","       105","7","        81","7","         6","7","","","        32","7","         5","7","       204","7","        13","7","        45","7","         0","7","         2"," ","","","  -23.3","7,1217,+","","","   381"," ,7,1215, ","  44.5"," ,7,0112, ","   27.2","7,0621, ","-2.2","7,0802","-2.2","7,0802","-4.4","7,1023","-12.2","7,1106","-12.2","7,1106","-2.8","7,0529","-2.8","7,0529","-4.4","7,0523","-7.8","7,0417","-12.2","7,0416","    4542.2","2","    4542.2","7","    960.5"," ,7","     3440"," ,7","      5.55","7","     13.24","7","     -2.15","7"
"USC00028326","2016","33.9733","-109.563","2856.0","SUNRISE MOUNTAIN, AZ US","","","","","        78","7","        61","7","         9","7","","","        21","7","","","","","","","","","","","","","         1"," ","","","","","   457"," ,7,0108, ","  56.1"," ,7,0810, ","","","","","","","","","","","","","","","","","","","","","","","    4532.9","9","    4532.9","7","    818.1"," ,7","     3048"," ,7","","","","","",""
"USC00028326","2018","33.9733","-109.563","2856.0","SUNRISE MOUNTAIN, AZ US","","","","","","","","","","","","","","","","","","","","","","","","","         1"," ","","","","","","","","","","","","","","","","","","","","","","","","","","","","","","","","","","","","","","","","","","","","","",""
"USC00028326","2019","33.9733","-109.563","2856.0","SUNRISE MOUNTAIN, AZ US","      0.0","","       0.0","7","","","","","","","","","","","        18","7","       242","7","        31","7","        65","7","         0","7","         1"," ","","","  -25.0","7,0102, ","","","","","","","   25.0","7,0905,+","-2.2","7,0912","-2.2","7,0912","-5.0","7,0922","-12.2","7,1011","-12.2","7,1011","0.0","7,0710","-3.9","7,0620","-4.4","7,0605","-15.6","7,0415","-15.6","7,0415","    4951.5","5","    4951.5","7","","","","","      4.31","7","     12.19","7","     -3.57","7"
"USC00028326","2020","33.9733","-109.563","2856.0","SUNRISE MOUNTAIN, AZ US","","","","","","","","","","","","","","","","","","","","","","","","","         1"," ","","","","","","","","","","","","","","","","","","","","","","","","","","","","","","","","","","","","","","","","","","","","","",""
