"STATION","DATE","LATITUDE","LONGITUDE","ELEVATION","NAME","DP01","DP01_ATTRIBUTES","DP10","DP10_ATTRIBUTES","DP1X","DP1X_ATTRIBUTES","DSNW","DSNW_ATTRIBUTES","EMSN","EMSN_ATTRIBUTES","EMXP","EMXP_ATTRIBUTES","PRCP","PRCP_ATTRIBUTES","SNOW","SNOW_ATTRIBUTES"
"USC00216929","1993","46.5381","-93.2844","381.0","RICE LAKE NWR, MN US","        80","0","        56","0","         8","0","        15","0","   188"," ,0,1105, ","  51.1"," ,0,0530, ","    740.8"," ,0","     1441"," ,0"
"USC00216929","1994","46.5381","-93.2844","381.0","RICE LAKE NWR, MN US","        77","0","        50","0","         9","0","        14","0","   229"," ,0,0324, ","  40.1"," ,0,1017, ","    646.3"," ,0","     1207"," ,0"
"USC00216929","1996","46.5381","-93.2844","381.0","RICE LAKE NWR, MN US","        79","0","        59","0","         7","0","        16","0","   279"," ,0,0118, ","  83.8"," ,0,0731,+","    928.1"," ,0","     1499"," ,0"
"USC00216929","1998","46.5381","-93.2844","381.0","RICE LAKE NWR, MN US","        65","0","        48","0","         7","0","        10","0","   178"," ,0,0331, ","  54.4"," ,0,1016, ","    713.0"," ,0","      764"," ,0"
"USC00216929","2000","46.5381","-93.2844","381.0","RICE LAKE NWR, MN US","        91","0","        62","0","         6","0","        13","0","   173"," ,0,0315, ","  91.4"," ,0,0814, ","    768.7"," ,0","      889"," ,0"
"USC00216929","2002","46.5381","-93.2844","381.0","RICE LAKE NWR, MN US","        75","0","        56","0","         7","0","","","","","  80.5"," ,0,0708, ","    850.8"," ,0","",""
"USC00216929","2003","46.5381","-93.2844","381.0","RICE LAKE NWR, MN US","","","","","","","        12","0","   203"," ,0,1124, ","","","","","      822"," ,0"
"USC00216929","2004","46.5381","-93.2844","381.0","RICE LAKE NWR, MN US","        85","0","        52","0","         6","0","        13","0","   211"," ,0,0126, ","  66.0"," ,0,0906, ","    672.5"," ,0","      866"," ,0"
"USC00216929","2005","46.5381","-93.2844","381.0","RICE LAKE NWR, MN US","        88","0","        55","0","         9","0","        17","0","   102"," ,0,1230, ","  59.9"," ,0,1005, ","    860.1"," ,0","     1005"," ,0"
