"STATION","DATE","LATITUDE","LONGITUDE","ELEVATION","NAME","DP01","DP01_ATTRIBUTES","DP10","DP10_ATTRIBUTES","DP1X","DP1X_ATTRIBUTES","EMXP","EMXP_ATTRIBUTES","PRCP","PRCP_ATTRIBUTES"
"USC00403285","1954","35.95","-86.81667","228.9","FRANKLIN 3 NE, TN US","       102","0","        73","0","        18","0","  83.6"," ,0,0121, ","   1295.5"," ,0"
"USC00403285","1955","35.95","-86.81667","228.9","FRANKLIN 3 NE, TN US","       111","0","        79","0","        13","0","  79.2"," ,0,0322, ","   1215.7"," ,0"
"USC00403285","1956","35.95","-86.81667","228.9","FRANKLIN 3 NE, TN US","       117","0","        83","0","        11","0","  85.9"," ,0,0218, ","   1227.4"," ,0"
"USC00403285","1957","35.95","-86.81667","228.9","FRANKLIN 3 NE, TN US","       147","0","       105","0","        19","0","  91.7"," ,0,0605, ","   1707.4"," ,0"
"USC00403285","1958","35.95","-86.81667","228.9","FRANKLIN 3 NE, TN US","       118","0","        74","0","         8","0","  56.6"," ,0,0626, ","   1030.1"," ,0"
"USC00403285","1959","35.95","-86.81667","228.9","FRANKLIN 3 NE, TN US","       125","0","        88","0","        13","0","  78.0"," ,0,1009, ","   1256.3"," ,0"
"USC00403285","1961","35.95","-86.81667","228.9","FRANKLIN 3 NE, TN US","       132","0","        88","0","        14","0","  41.1"," ,0,0729, ","   1272.6"," ,0"
