"STATION","DATE","LATITUDE","LONGITUDE","ELEVATION","NAME","CDSD","CDSD_ATTRIBUTES","CLDD","CLDD_ATTRIBUTES","DP01","DP01_ATTRIBUTES","DP10","DP10_ATTRIBUTES","DP1X","DP1X_ATTRIBUTES","DSND","DSND_ATTRIBUTES","DSNW","DSNW_ATTRIBUTES","DT00","DT00_ATTRIBUTES","DT32","DT32_ATTRIBUTES","DX32","DX32_ATTRIBUTES","DX70","DX70_ATTRIBUTES","DX90","DX90_ATTRIBUTES","EMNT","EMNT_ATTRIBUTES","EMSD","EMSD_ATTRIBUTES","EMSN","EMSN_ATTRIBUTES","EMXP","EMXP_ATTRIBUTES","EMXT","EMXT_ATTRIBUTES","FZF0","FZF0_ATTRIBUTES","FZF1","FZF1_ATTRIBUTES","FZF5","FZF5_ATTRIBUTES","FZF6","FZF6_ATTRIBUTES","HDSD","HDSD_ATTRIBUTES","HTDD","HTDD_ATTRIBUTES","PRCP","PRCP_ATTRIBUTES","SNOW","SNOW_ATTRIBUTES","TAVG","TAVG_ATTRIBUTES","TMAX","TMAX_ATTRIBUTES","TMIN","TMIN_ATTRIBUTES"
"USC00041967","1992","37.9833","-122.0692","12.2","CONCORD WASTEWATER PLANT, CA US","    602.8","","     602.8","0","        51","0","        39","0","         3","0","        0","","         0","0","         0","0","         3","0","         0","0","       221","0","        41","0","   -0.6","0,1219,+","     0"," ,0,1231,+","     0"," ,0,1231,+","  40.9"," ,0,0212, ","   37.8","0,0811,+","0.0","0,1218","","","-0.6","0,0113","","","","","","","    417.8"," ,0","        0"," ,0","     17.01","0","     23.22","0","     10.81","0"
"USC00041967","1993","37.9833","-122.0692","12.2","CONCORD WASTEWATER PLANT, CA US","    555.6","","     555.6","0","        65","0","        45","0","         2","0","        0","","         0","0","         0","0","         8","0","         0","0","       203","0","        52","0","   -2.2","0,0104, ","     0"," ,0,1231,+","     0"," ,0,1231,+","  51.8"," ,0,0113, ","   40.6","0,0802,+","0.0","0,1223","","","-1.1","0,0111","-2.2","0,0104","    1181.0","0","    1181.0","0","    461.2"," ,0","        0"," ,0","     16.51","0","     22.81","0","     10.21","0"
"USC00041967","1994","37.9833","-122.0692","12.2","CONCORD WASTEWATER PLANT, CA US","","","","","        58","0","        37","0","         2","0","        0","","         0","0","         0","0","         5","0","","","","","","","   -0.6","0,1210,+","     0"," ,0,1231,+","     0"," ,0,1231,+","  63.0"," ,0,1106, ","","","0.0","0,1119","","","","","","","","","","","    404.4"," ,0","        0"," ,0","","","","","      9.53","0"
"USC00041967","1995","37.9833","-122.0692","12.2","CONCORD WASTEWATER PLANT, CA US","    551.0","","     551.0","0","        73","0","        49","0","         9","0","        0","","         0","0","         0","0","         0","0","         0","0","       207","0","        41","0","    1.7","0,0215, ","     0"," ,0,1231,+","     0"," ,0,1231,+","  71.1"," ,0,0110, ","   40.6","0,0625, ","","","","","","","","","    1239.8","8","    1239.8","0","    676.5"," ,0","        0"," ,0","     17.10","0","     23.08","0","     11.13","0"
"USC00041967","1996","37.9833","-122.0692","12.2","CONCORD WASTEWATER PLANT, CA US","    637.6","","     637.6","0","        69","0","        50","0","         8","0","        0","","         0","0","         0","0","         0","0","         0","0","       212","0","        66","0","    1.1","0,0226, ","     0"," ,0,1231,+","     0"," ,0,1231,+","  38.1"," ,0,0204, ","   38.3","0,0814,+","","","","","","","","","     908.9","9","     908.9","0","    643.5"," ,0","        0"," ,0","     17.34","0","     23.80","0","     10.88","0"
"USC00041967","1997","37.9833","-122.0692","12.2","CONCORD WASTEWATER PLANT, CA US","    665.1","","     665.1","0","        47","0","        28","0","         5","0","        0","","         0","0","         0","0","         7","0","         0","0","       227","0","        40","0","   -1.7","0,1227,+","     0"," ,0,1231,+","     0"," ,0,1231,+","  53.3"," ,0,1126, ","   38.9","0,0805, ","-0.6","0,1212","","","-1.7","0,0114","","","     996.9","9","     996.9","0","    455.6"," ,0","        0"," ,0","     17.27","0","     23.56","0","     10.99","0"
"USC00041967","1998","37.9833","-122.0692","12.2","CONCORD WASTEWATER PLANT, CA US","","","","","","","","","","","","","","","","","","","","","","","","","","","","","","","","","","","","","","","","","","","    1251.6","6","    1251.6"," ","","","","","","","","","",""
"USC00041967","1999","37.9833","-122.0692","12.2","CONCORD WASTEWATER PLANT, CA US","","","","","        52","0","        35","0","         2","0","        0","","         0","0","         0","0","         2","0","","","","","","","    0.0","0,0124,+","     0"," ,0,1231,+","     0"," ,0,1231,+","  31.8"," ,0,0209, ","","","","","","","0.0","0,0124","","","","","","","    338.3"," ,0","        0"," ,0","","","","","      9.64","0"
"USC00041967","2001","37.9833","-122.0692","12.2","CONCORD WASTEWATER PLANT, CA US","","","","","        55","0","        42","0","         4","0","        0","","         0","0","         0","0","         1","0","","","","","","","    0.0","0,0118, ","     0"," ,0,1231,+","     0"," ,0,1231,+","  44.5"," ,0,1202, ","","","","","","","0.0","0,0118","","","","","","","    479.7"," ,0","        0"," ,0","","","","","     10.20","0"
"USC00041967","2002","37.9833","-122.0692","12.2","CONCORD WASTEWATER PLANT, CA US","","","","","        43","0","        37","0","         2","0","        0","","         0","0","         0","0","         5","0","","","","","","","   -1.1","0,0131,+","     0"," ,0,1231,+","     0"," ,0,1231,+","  38.1"," ,0,1108, ","","","","","","","-1.1","0,0131","","","","","","","    354.4"," ,0","        0"," ,0","","","","","      9.62","0"
"USC00041967","2003","37.9833","-122.0692","12.2","CONCORD WASTEWATER PLANT, CA US","    598.9","","     598.9","0","        53","0","        41","0","         2","0","        0","","         0","0","         0","0","         4","0","         0","0","       183","0","        54","0","    0.0","0,1229,+","     0"," ,0,1231,+","     0"," ,0,1231,+","  27.9"," ,0,0413, ","   40.0","0,0627, ","0.0","0,1227","","","0.0","0,0209","","","    1126.3","3","    1126.3","0","    369.4"," ,0","        0"," ,0","     16.71","0","     23.05","0","     10.38","0"
"USC00041967","2004","37.9833","-122.0692","12.2","CONCORD WASTEWATER PLANT, CA US","","","","","        49","0","        28","0","         5","0","        0","","         0","0","         0","0","         5","0","","","","","","","   -0.6","0,1204,+","     0"," ,0,1231,+","     0"," ,0,1231,+","  48.3"," ,0,0101, ","","","-0.6","0,1130","","","-0.6","0,0105","","","    1053.2","2","    1053.2","0","    445.1"," ,0","        0"," ,0","","","","","     10.57","0"
"USC00041967","2005","37.9833","-122.0692","12.2","CONCORD WASTEWATER PLANT, CA US","    461.2","","     461.2","0","        66","0","        52","0","         3","0","        0","","         0","0","         0","0","         0","0","         0","0","       210","0","        41","0","    0.6","0,1204, ","     0"," ,0,1231,+","     0"," ,0,1231,+"," 100.3"," ,0,1231, ","   38.9","0,0724, ","","","","","","","","","","","","","    649.9"," ,0","        0"," ,0","     16.66","0","     22.87","0","     10.44","0"
"USC00041967","2006","37.9833","-122.0692","12.2","CONCORD WASTEWATER PLANT, CA US","","","","","        70","0","        53","0","         3","0","        0","","         0","0","         0","0","         5","0","","","","","","","   -1.7","0,1220,+","     0"," ,0,1231,+","     0"," ,0,1231,+","  27.9"," ,0,0306, ","","","-1.1","0,1218","","","","","","","","","","","    471.8"," ,0","        0"," ,0","","","","","     10.06","0"
"USC00041967","2007","37.9833","-122.0692","12.2","CONCORD WASTEWATER PLANT, CA US","","","","","        40","0","        30","0","         1","0","        0","","         0","0","         0","0","        12","0","","","","","","","   -3.3","0,0115,+","     0"," ,0,1231,+","     0"," ,0,1231,+","  26.7"," ,0,1207, ","","","-0.6","0,1222","","","0.0","0,0124","-2.2","0,0116","","","","","    268.6"," ,0","        0"," ,0","","","","","      9.73","0"
"USC00041967","2008","37.9833","-122.0692","12.2","CONCORD WASTEWATER PLANT, CA US","","","","","        44","0","        31","0","         2","0","        0","","         0","0","         0","0","         1","0","","","","","","","    0.0","0,1220, ","     0"," ,0,1231,+","     0"," ,0,1231,+","  82.3"," ,0,0104, ","","","0.0","0,1220","","","","","","","","","","","    384.9"," ,0","        0"," ,0","","","","","      9.88","0"
"USC00041967","2009","37.9833","-122.0692","12.2","CONCORD WASTEWATER PLANT, CA US","","","","","        52","0","        37","0","         6","0","        0","","         0","0","         0","0","         8","0","","","","","","","   -2.2","0,1210,+","     0"," ,0,1231,+","     0"," ,0,1231,+","  50.8"," ,0,1013, ","","","-1.1","0,1208","-2.2","0,1209","0.0","0,0118","","","","","","","    478.1"," ,0","        0"," ,0","","","","","      9.60","0"
"USC00041967","2010","37.9833","-122.0692","12.2","CONCORD WASTEWATER PLANT, CA US","","","","","        96","0","        56","0","         3","0","        0","","         0","0","         0","0","         4","0","","","","","","","    0.0","0,1231,+","     0"," ,0,1231,+","     0"," ,0,1231,+","  42.7"," ,0,0119, ","","","0.0","0,1125","","","","","","","","","","","    592.9"," ,0","        0"," ,0","","","","","     10.10","0"
"USC00041967","2011","37.9833","-122.0692","12.2","CONCORD WASTEWATER PLANT, CA US","    496.2","","     496.2","K","        64","K","        35","K","         1","K","","","","","         0","K","         8","K","         0","K","       186","K","        45","K","   -2.2","K,1224, ","","","","","  31.8"," ,K,0324, ","   37.8","K,0622,+","0.0","K,1218","-2.2","K,1224","-1.1","K,0226","","","    1299.7","7","    1299.7","K","    392.0"," ,K","","","     15.96","K","     22.34","K","      9.58","K"
"USC00041967","2012","37.9833","-122.0692","12.2","CONCORD WASTEWATER PLANT, CA US","","","","","","","","","","","","","","","","","","","","","","","","","","","","","","","","","","","","","","","","","","","    1205.6","6","    1205.6","K","","","","","","","","","",""
"USC00041967","2013","37.9833","-122.0692","12.2","CONCORD WASTEWATER PLANT, CA US","    578.4","","     578.4","7","        23","7","        13","7","         1","7","","","","","         0","7","        18","7","         0","7","       224","7","        42","7","   -2.2","7,1210,+","","","","","  27.9"," ,7,1120, ","   40.0","7,0702, ","-2.2","7,1205","-2.2","7,1205","0.0","7,0120","-2.2","7,0113","","","","","    128.2"," ,7","","","     16.70","7","     23.52","7","      9.89","7"
"USC00041967","2014","37.9833","-122.0692","12.2","CONCORD WASTEWATER PLANT, CA US","    691.9","","     691.9","7","        50","7","        40","7","         7","7","","","","","         0","7","         1","7","         0","7","       237","7","        55","7","    0.0","7,1231, ","","","","","  47.0"," ,7,1211, ","   37.8","7,0725,+","0.0","7,1231","","","","","","","     953.3","3","     953.3","7","    492.4"," ,7","","","     18.01","7","     24.43","7","     11.59","7"
"USC00041967","2015","37.9833","-122.0692","12.2","CONCORD WASTEWATER PLANT, CA US","    727.6","","     727.6","7","        35","7","        23","7","         2","7","","","","","         0","7","         5","7","         0","7","       236","7","        55","7","   -1.7","7,1227, ","","","","","  27.9"," ,7,0208, ","   40.0","7,0701, ","-0.6","7,1129","","","0.0","7,0103","","","     822.4","4","     822.4","7","    223.3"," ,7","","","     17.68","7","     24.39","7","     10.97","7"
"USC00041967","2016","37.9833","-122.0692","12.2","CONCORD WASTEWATER PLANT, CA US","    603.7","","     603.7","7","        66","7","        46","7","         3","7","","","","","         0","7","         3","7","         0","7","       243","7","        53","7","   -1.1","7,1219, ","","","","","  37.8"," ,7,0306, ","   39.4","7,0727, ","0.0","7,1217","","","","","","","     981.1","1","     981.1","7","    539.6"," ,7","","","     17.38","7","     23.92","7","     10.84","7"
"USC00041967","2017","37.9833","-122.0692","12.2","CONCORD WASTEWATER PLANT, CA US","    717.9","","     717.9","7","        49","7","        44","7","         7","7","","","","","         0","7","         2","7","         0","7","       214","7","        53","7","   -1.1","7,1223, ","","","","","  47.0"," ,7,1116, ","   43.3","7,0902, ","-1.1","7,1223","","","-0.6","7,0106","","","    1061.0","0","    1061.0","7","    613.3"," ,7","","","     17.35","7","     23.93","7","     10.78","7"
"USC00041967","2018","37.9833","-122.0692","12.2","CONCORD WASTEWATER PLANT, CA US","    596.4","","     596.4","7","        39","7","        35","7","         4","7","","","","","         0","7","         1","7","         0","7","       224","7","        57","7","    0.0","7,0220, ","","","","","  36.8"," ,7,0301, ","   37.8","7,0623, ","","","","","0.0","7,0220","","","    1061.3","3","    1061.3","7","    409.6"," ,7","","","     17.19","7","     23.79","7","     10.59","7"
