"STATION","DATE","LATITUDE","LONGITUDE","ELEVATION","NAME","CDSD","CDSD_ATTRIBUTES","CLDD","CLDD_ATTRIBUTES","DP01","DP01_ATTRIBUTES","DP10","DP10_ATTRIBUTES","DP1X","DP1X_ATTRIBUTES","DSND","DSND_ATTRIBUTES","DSNW","DSNW_ATTRIBUTES","DT00","DT00_ATTRIBUTES","DT32","DT32_ATTRIBUTES","DX32","DX32_ATTRIBUTES","DX70","DX70_ATTRIBUTES","DX90","DX90_ATTRIBUTES","DYFG","DYFG_ATTRIBUTES","DYTS","DYTS_ATTRIBUTES","EMNT","EMNT_ATTRIBUTES","EMSD","EMSD_ATTRIBUTES","EMSN","EMSN_ATTRIBUTES","EMXP","EMXP_ATTRIBUTES","EMXT","EMXT_ATTRIBUTES","FZF0","FZF0_ATTRIBUTES","FZF1","FZF1_ATTRIBUTES","FZF2","FZF2_ATTRIBUTES","FZF3","FZF3_ATTRIBUTES","FZF4","FZF4_ATTRIBUTES","FZF5","FZF5_ATTRIBUTES","FZF6","FZF6_ATTRIBUTES","FZF7","FZF7_ATTRIBUTES","FZF8","FZF8_ATTRIBUTES","FZF9","FZF9_ATTRIBUTES","HDSD","HDSD_ATTRIBUTES","HTDD","HTDD_ATTRIBUTES","PRCP","PRCP_ATTRIBUTES","SNOW","SNOW_ATTRIBUTES","TAVG","TAVG_ATTRIBUTES","TMAX","TMAX_ATTRIBUTES","TMIN","TMIN_ATTRIBUTES"
"USC00457223","1925","47.13333","-119.05","438.9","RUFF 3 SW, WA US","    457.5","","     457.5","6","        60","6","        23","6","         1","6","","","","","         3","6","       126","6","         8","6","       164","6","        61","6","","","","","  -20.0","6,0116, ","","","","","  25.7"," ,6,0507, ","   41.7","6,0731,+","0.0","6,1008","-3.3","6,1014","-4.4","6,1031","-10.6","6,1104","-10.6","6,1104","-1.7","6,0426","-2.2","6,0327","-5.6","6,0326","-7.8","6,0129","-17.2","6,0128","","","","","    177.9"," ,6","","","     11.17","6","     18.81","6","      3.53","6"
"USC00457223","1926","47.13333","-119.05","438.9","RUFF 3 SW, WA US","","","","","        59","6","        32","6","         0","6","","","","","","","","","        22","6","       165","6","        57","6","","","","","","","","","","","  18.0"," ,6,0619, ","   43.3","6,0711, ","","","","","","","","","","","","","","","","","","","","","    2922.3","3","    2922.3","6","    224.7"," ,6","","","","","     18.66","6","",""
"USC00457223","1927","47.13333","-119.05","438.9","RUFF 3 SW, WA US","    327.6","","     327.6","6","","","","","","","","","","","         4","6","       143","6","        29","6","       135","6","        46","6","","","","","  -22.8","6,0121, ","","","","","","","   41.7","6,0724,+","-2.2","6,1005","-2.2","6,1005","-9.4","6,1031","-9.4","6,1031","-9.4","6,1031","-1.7","6,0527","-3.3","6,0520","-6.1","6,0430","-10.0","6,0420","-10.0","6,0420","","","","","","","","","      9.60","6","     16.62","6","      2.60","6"
"USC00457223","1929","47.13333","-119.05","438.9","RUFF 3 SW, WA US","    238.5","","     238.5","6","        43","6","        15","6","         0","6","","","","","        18","6","       167","6","        44","6","       140","6","        37","6","","","","","  -30.6","6,0130, ","","","","","  14.7"," ,6,0608, ","   41.7","6,0730, ","-1.7","6,0921","-3.3","6,1010","-6.7","6,1029","-6.7","6,1029","-11.1","6,1031","-2.2","6,0509","-2.2","6,0509","-6.7","6,0417","-6.7","6,0417","-9.4","6,0409","    3738.0","0","    3738.0","6","    109.0"," ,6","","","      8.31","6","     16.47","6","      0.15","6"
"USC00457223","1930","47.13333","-119.05","438.9","RUFF 3 SW, WA US","    245.0","","     245.0","6","        75","6","        30","6","         0","6","","","","","        17","6","       161","6","        39","6","       142","6","        34","6","","","","","  -29.4","6,0118, ","","","","","  10.7"," ,6,0910, ","   40.6","6,0713, ","-1.1","6,0923","-5.6","6,1012","-5.6","6,1012","-7.8","6,1015","-8.9","6,1115","-1.7","6,0525","-6.7","6,0507","-6.7","6,0507","-6.7","6,0507","-9.4","6,0214","    3462.2","2","    3462.2","6","    187.7"," ,6","","","      9.19","6","     16.58","6","      1.81","6"
"USC00457223","1931","47.13333","-119.05","438.9","RUFF 3 SW, WA US","    299.1","","     299.1","6","","","","","","","","","","","         4","6","       144","6","        26","6","       140","6","        50","6","","","","","  -21.1","6,1215, ","","","","","","","   41.1","6,0720, ","0.0","6,0907","-2.8","6,1011","-6.7","6,1021","-6.7","6,1021","-10.6","6,1122","-2.2","6,0508","-2.2","6,0508","-4.4","6,0419","-7.8","6,0104","-8.9","6,0103","    3278.7","7","    3278.7","6","","","","","      9.96","6","     17.08","6","      2.83","6"
"USC00457223","1932","47.13333","-119.05","438.9","RUFF 3 SW, WA US","    204.0","","     204.0","6","        80","6","        29","6","         0","6","","","","","         9","6","       142","6","        34","6","       139","6","        32","6","","","","","  -22.2","6,1211,+","","","","","  17.8"," ,6,1218, ","   38.9","6,0807, ","0.0","6,0830","-2.8","6,1017","-6.7","6,1024","-6.7","6,1024","-8.9","6,1206","-1.7","6,0605","-3.9","6,0525","-5.0","6,0303","-7.8","6,0219","-14.4","6,0218","    3603.2","2","    3603.2","6","    218.3"," ,6","","","      9.26","6","     16.57","6","      1.95","6"
"USC00457223","1933","47.13333","-119.05","438.9","RUFF 3 SW, WA US","","","","","        97","6","        43","6","         0","6","","","","","         7","6","       136","6","","","","","","","","","","","  -28.3","6,0209, ","","","","","  16.3"," ,6,1214, ","","","0.0","6,0924","-5.6","6,0925","-5.6","6,0925","-6.7","6,1129","","","-2.2","6,0610","-2.2","6,0610","-4.4","6,0418","-7.2","6,0410","-12.2","6,0218","","","","","    298.0"," ,6","","","","","","","      2.11","6"
"USC00457223","1934","47.13333","-119.05","438.9","RUFF 3 SW, WA US","","","","","        85","6","        31","6","         0","6","","","","","         0","6","       111","6","","","","","","","","","","","  -11.1","6,1228, ","","","","","  16.8"," ,6,0922, ","","","-0.6","6,0914","-2.2","6,1124","-5.0","6,1128","-8.3","6,1226","-11.1","6,1228","-0.6","6,0531","-2.8","6,0520","-7.2","6,0324","-7.2","6,0324","","","","","","","    229.3"," ,6","","","","","","","      4.18","6"
"USC00457223","1935","47.13333","-119.05","438.9","RUFF 3 SW, WA US","    234.5","","     234.5","6","        72","6","        35","6","         0","6","","","","","         2","6","       171","6","        21","6","       157","6","        40","6","","","","","  -20.0","6,0119, ","","","","","  12.2"," ,6,0615, ","   41.1","6,0714, ","0.0","6,1010","-3.3","6,1015","-6.1","6,1016","-6.7","6,1022","-15.0","6,1030","-1.1","6,0524","-3.3","6,0518","-5.6","6,0511","-7.2","6,0417","-8.9","6,0403","","","","","    174.9"," ,6","","","      9.24","6","     16.69","6","      1.79","6"
"USC00457223","1936","47.13333","-119.05","438.9","RUFF 3 SW, WA US","","","","","        57","6","        24","6","         0","6","","","","","","","","","","","","","","","","","","","","","","","","","  21.6"," ,6,0603, ","","","","","","","","","","","","","","","","","","","","","","","    3548.4","4","    3548.4","6","    235.6"," ,6","","","","","","","",""
"USC00457223","1938","47.13333","-119.05","438.9","RUFF 3 SW, WA US","","","","","","","","","","","","","","","         0","6","       158","6","","","","","","","","","","","  -14.4","6,1222, ","","","","","","","","","-1.1","6,1014","-2.8","6,1015","-4.4","6,1105","-6.7","6,1111","-9.4","6,1122","-0.6","6,0531","-4.4","6,0506","-4.4","6,0506","-6.7","6,0321","","","","","","","","","","","","","","","      3.16","6"
"USC00457223","1941","47.13333","-119.05","438.9","RUFF 3 SW, WA US","    347.6","","     347.6","6","","","","","","","","","","","         0","6","       121","6","        13","6","       132","6","        47","6","","","","","  -12.8","6,1231, ","","","","","","","   43.3","6,0717, ","0.0","6,0915","-2.8","6,0921","-5.6","6,1120","-8.3","6,1122","-12.8","6,1231","-1.1","6,0519","-2.2","6,0323","-5.6","6,0320","-6.7","6,0314","-10.6","6,0110","    2942.3","3","    2942.3","6","","","","","     10.95","6","     17.82","6","      4.07","6"
"USC00457223","1942","47.13333","-119.05","438.9","RUFF 3 SW, WA US","","","","","        63","6","        40","6","         0","6","","","","","","","","","","","","","","","","","","","","","","","","","  23.6"," ,6,0626, ","","","","","","","","","","","","","","","","","","","","","","","","","","","    284.1"," ,6","","","","","","","",""
"USC00457223","1943","47.13333","-119.05","438.9","RUFF 3 SW, WA US","","","","","","","","","","","","","         5","6","","","","","","","","","","","","","","","","","","","    76"," ,6,0127, ","","","","","","","","","","","","","","","","","","","","","","","","","    3266.9","9","    3266.9","6","","","      233"," ,6","","","","","",""
"USC00457223","1949","47.13333","-119.05","438.9","RUFF 3 SW, WA US","    282.4","","     282.4","0","        45","0","        23","0","         0","0","","","         7","0","        18","0","       129","0","        40","0","       148","0","        44","0","         1"," ","","","  -25.6","0,0125, ","","","   127"," ,0,0204, ","   9.7"," ,0,0315, ","   40.6","0,0803,+","-2.2","0,1008","-2.2","0,1008","-6.1","0,1013","-7.8","0,1021","-12.2","0,1211","0.0","0,0630","-3.9","0,0504","-4.4","0,0328","-7.2","0,0326","-11.1","0,0215","","","","","    136.7"," ,0","      404"," ,0","      9.43","0","     17.45","0","      1.42","0"
"USC00457223","1950","47.13333","-119.05","438.9","RUFF 3 SW, WA US","","","","","        93","0","        37","0","         0","0","       63","","         8","0","        22","0","       161","0","","","","","","","        28"," ","","","  -35.0","0,0201, ","   356"," ,0,0120, ","   102"," ,0,0108,+","  13.2"," ,0,0406, ","","","-1.1","0,0927","-3.9","0,1001","-4.4","0,1108","-6.7","0,1110","-8.9","0,1119","-1.1","0,0523","-2.8","0,0430","-6.7","0,0426","-6.7","0,0426","-9.4","0,0311","","","","","    275.5"," ,0","      546"," ,0","","","","","      1.03","0"
"USC00457223","1951","47.13333","-119.05","438.9","RUFF 3 SW, WA US","","","","","","","","","","","","","","","","","","","","","","","","","         6"," ","         3"," ","","","","","","","","","","","","","","","","","","","","","","","","","","","","","","","","","","","","","","","","","","","",""
"USC00457223","1952","47.13333","-119.05","438.9","RUFF 3 SW, WA US","","","","","        60","0","        18","0","         0","0","       49","","","","         2","0","       169","0","        36","0","       168","0","        35","0","        27"," ","         2"," ","  -23.3","0,0101, ","   279"," ,0,0126,+","","","  19.3"," ,0,0629, ","   38.9","0,0710, ","-0.6","0,0914","-3.3","0,1015","-7.8","0,1101","-7.8","0,1101","-12.8","0,1122","-0.6","0,0613","-2.8","0,0505","-6.7","0,0429","-6.7","0,0429","-9.4","0,0221","","","","","    150.5"," ,0","","","      9.40","0","     17.01","0","      1.78","0"
"USC00457223","1953","47.13333","-119.05","438.9","RUFF 3 SW, WA US","    220.1","","     220.1","0","        83","0","        32","0","         0","0","        8","","         1","0","         0","0","       131","0","         4","0","       143","0","        29","0","         7"," ","         3"," ","   -9.4","0,0101, ","   102"," ,0,0103,+","    38"," ,0,0102, ","  14.0"," ,0,0607, ","   40.0","0,0815, ","-1.1","0,1002","-3.3","0,1025","-8.3","0,1102","-8.3","0,1102","","","-1.1","0,0522","-2.8","0,0509","-6.7","0,0415","-6.7","0,0415","-9.4","0,0101","","","","","    222.2"," ,0","       38"," ,0","     10.51","0","     17.98","0","      3.06","0"
"USC00457223","1954","47.13333","-119.05","438.9","RUFF 3 SW, WA US","    145.3","","     145.3","0","        61","0","        22","0","         0","0","       29","","","","         3","0","       146","0","        23","0","       133","0","        19","0","        12"," ","","","  -25.6","0,0120, ","   254"," ,0,0129,+","","","  16.5"," ,0,0317, ","   35.6","0,0801,+","-0.6","0,0929","-2.2","0,1001","-5.6","0,1013","-6.7","0,1128","-11.7","0,1219","0.0","0,0618","-4.4","0,0501","-4.4","0,0501","-7.8","0,0328","-9.4","0,0127","    3210.0","0","    3210.0","0","    180.6"," ,0","","","      9.08","0","     16.03","0","      2.12","0"
"USC00457223","1955","47.13333","-119.05","438.9","RUFF 3 SW, WA US","","","","","        65","0","        29","0","         0","0","       85","","","","","","","","","","","","","","        24"," ","         2"," ","","","   152"," ,0,1220,+","","","  17.0"," ,0,0927, ","","","","","","","","","","","","","","","","","","","","","","","","","","","    195.9"," ,0","","","","","","","",""
"USC00457223","1956","47.13333","-119.05","438.9","RUFF 3 SW, WA US","    326.4","","     326.4","0","        65","0","        29","0","         0","0","","","","","         6","0","       142","0","        41","0","       145","0","        37","0","        30"," ","         1"," ","  -26.1","0,0201, ","","","","","  14.5"," ,0,0703, ","   40.6","0,0814,+","-0.6","0,0922","-2.2","0,1024","-5.6","0,1102","-6.7","0,1114","-10.6","0,1119","-0.6","0,0513","-2.8","0,0408","-6.7","0,0406","-6.7","0,0406","-11.7","0,0219","","","","","    208.1"," ,0","","","      9.41","0","     16.03","0","      2.79","0"
