"STATION","DATE","LATITUDE","LONGITUDE","ELEVATION","NAME","CDSD","CDSD_ATTRIBUTES","CLDD","CLDD_ATTRIBUTES","DP01","DP01_ATTRIBUTES","DP10","DP10_ATTRIBUTES","DP1X","DP1X_ATTRIBUTES","DSND","DSND_ATTRIBUTES","DSNW","DSNW_ATTRIBUTES","DT00","DT00_ATTRIBUTES","DT32","DT32_ATTRIBUTES","DX32","DX32_ATTRIBUTES","DX70","DX70_ATTRIBUTES","DX90","DX90_ATTRIBUTES","DYFG","DYFG_ATTRIBUTES","DYTS","DYTS_ATTRIBUTES","EMNT","EMNT_ATTRIBUTES","EMSD","EMSD_ATTRIBUTES","EMSN","EMSN_ATTRIBUTES","EMXP","EMXP_ATTRIBUTES","EMXT","EMXT_ATTRIBUTES","FZF0","FZF0_ATTRIBUTES","FZF1","FZF1_ATTRIBUTES","FZF2","FZF2_ATTRIBUTES","FZF3","FZF3_ATTRIBUTES","FZF4","FZF4_ATTRIBUTES","FZF5","FZF5_ATTRIBUTES","FZF6","FZF6_ATTRIBUTES","FZF7","FZF7_ATTRIBUTES","FZF8","FZF8_ATTRIBUTES","FZF9","FZF9_ATTRIBUTES","HDSD","HDSD_ATTRIBUTES","HTDD","HTDD_ATTRIBUTES","PRCP","PRCP_ATTRIBUTES","SNOW","SNOW_ATTRIBUTES","TAVG","TAVG_ATTRIBUTES","TMAX","TMAX_ATTRIBUTES","TMIN","TMIN_ATTRIBUTES"
"USC00395456","1896","45.155","-98.5826","395.0","MELLETTE 4 W, SD US","","","","","","","","","","","","","","","","","","","","","","","","","","","         2"," ","","","","","","","","","","","","","","","","","","","","","","","","","","","","","","","","","","","","","","","","","","","",""
"USC00395456","1897","45.155","-98.5826","395.0","MELLETTE 4 W, SD US","    409.5","","     409.5","0","        81","0","        51","0","         6","0","","","        16","0","        74","0","       176","0","        93","0","       153","0","        39","0","","","","","  -33.9","0,0313,+","","","   254"," ,0,0116, ","  52.1"," ,0,0627, ","   38.9","0,0903, ","-2.2","0,0916","-2.2","0,0916","-6.7","0,1008","-6.7","0,1008","-11.1","0,1104","-1.7","0,0606","-2.2","0,0530","-8.9","0,0418","-8.9","0,0418","-8.9","0,0418","    5306.0","0","    5306.0","0","    548.2"," ,0","     1403"," ,0","      5.21","0","     12.45","0","     -2.02","0"
"USC00395456","1898","45.155","-98.5826","395.0","MELLETTE 4 W, SD US","","","","","","","","","","","","","","","","","","","","","","","","","","","","","","","","","","","","","","","","","","","","","","","","","","","","","","","","","","","    4435.1","1","    4435.1","0","","","","","","","","","",""
"USC00395456","1899","45.155","-98.5826","395.0","MELLETTE 4 W, SD US","","","","","","","","","","","","","","","","","","","","","","","","","         7"," ","         3"," ","","","","","","","","","","","","","","","","","","","","","","","","","","","","","","","","","","","","","","","","","","","",""
"USC00395456","1900","45.155","-98.5826","395.0","MELLETTE 4 W, SD US","    434.4","","     434.4","0","        48","0","        36","0","         5","0","       10","","         6","0","        44","0","       173","0","        60","0","       162","0","        37","0","         1"," ","","","  -33.9","0,0214, ","   610"," ,0,0329, ","   508"," ,0,0328, ","  90.7"," ,0,0914, ","   41.1","0,0801, ","0.0","0,0916","-5.0","0,0927","-5.0","0,0927","-10.6","0,1108","-10.6","0,1108","-2.2","0,0503","-2.2","0,0503","-5.0","0,0418","-6.7","0,0404","-16.1","0,0331","","","","","    566.0"," ,0","      787"," ,0","      7.45","0","     15.31","0","     -0.42","0"
"USC00395456","1901","45.155","-98.5826","395.0","MELLETTE 4 W, SD US","","","","","        75","0","        47","0","         3","0","        2","","         6","0","        32","0","       168","0","","","","","","","         3"," ","        10"," ","  -30.6","0,1219, ","    25"," ,0,1205,+","   127"," ,0,0405, ","  38.1"," ,0,0615, ","","","-0.6","0,0917","-3.9","0,0918","-9.4","0,1103","-9.4","0,1103","-9.4","0,1103","-1.1","0,0607","-4.4","0,0512","-4.4","0,0512","-8.3","0,0417","-10.0","0,0322","","","","","    459.0"," ,0","      291"," ,0","","","","","      0.52","0"
"USC00395456","1902","45.155","-98.5826","395.0","MELLETTE 4 W, SD US","    196.5","","     196.5","0","        61","0","        43","0","         2","0","","","        10","0","        35","0","       184","0","        66","0","       136","0","        12","0","         7"," ","        10"," ","  -34.4","0,1226, ","","","    76"," ,0,1220,+","  62.2"," ,0,0819, ","   38.9","0,0729, ","-4.4","0,0912","-4.4","0,0912","-4.4","0,0912","-10.0","0,1028","-10.0","0,1028","-1.1","0,0621","-6.1","0,0423","-6.1","0,0423","-8.9","0,0407","-8.9","0,0407","","","","","    430.7"," ,0","      430"," ,0","      6.35","0","     13.20","0","     -0.51","0"
"USC00395456","1903","45.155","-98.5826","395.0","MELLETTE 4 W, SD US","    209.2","","     209.2","0","        67","0","        52","0","         0","0","","","         9","0","        53","0","       183","0","        88","0","       142","0","        11","0","         7"," ","         2"," ","  -34.4","0,0217,+","","","   102"," ,0,0227, ","  23.1"," ,0,0818, ","   36.1","0,0724, ","-0.6","0,0913","-2.8","0,0916","-4.4","0,1017","-6.7","0,1031","-8.9","0,1105","-1.1","0,0506","-2.2","0,0504","-7.8","0,0430","-7.8","0,0430","-10.0","0,0327","    4756.4","4","    4756.4","0","    482.7"," ,0","      389"," ,0","      5.65","0","     12.88","0","     -1.58","0"
"USC00395456","1904","45.155","-98.5826","395.0","MELLETTE 4 W, SD US","    184.7","","     184.7","0","        48","0","        42","0","         3","0","","","         8","0","        51","0","       178","0","        77","0","       138","0","        14","0","         4"," ","         4"," ","  -37.2","0,0124, ","","","   102"," ,0,0408, ","  57.4"," ,0,0901, ","   37.2","0,0909, ","0.0","0,0920","-2.8","0,0921","-5.6","0,1006","-11.1","0,1108","-11.1","0,1108","0.0","0,0510","-7.8","0,0419","-7.8","0,0419","-7.8","0,0419","-11.1","0,0416","    5021.3","3","    5021.3","0","    436.9"," ,0","      467"," ,0","      5.47","0","     12.85","0","     -1.92","0"
"USC00395456","1906","45.155","-98.5826","395.0","MELLETTE 4 W, SD US","","","","","","","","","","","","","","","","","","","","","","","","","         7"," ","         2"," ","","","","","","","","","","","","","","","","","","","","","","","","","","","","","","","","","","","","","","","","","","","",""
"USC00395456","1907","45.155","-98.5826","395.0","MELLETTE 4 W, SD US","    224.1","","     224.1","0","        69","0","        43","0","         5","0","       78","","        11","0","        46","0","       213","0","        56","0","       122","0","        17","0","         2"," ","        17"," ","  -36.7","0,0205, ","   229"," ,0,0208,+","   165"," ,0,0507, ","  39.6"," ,0,0804, ","   37.2","0,0810, ","0.0","0,0820","-2.2","0,0925","-4.4","0,0928","-7.8","0,0930","-10.6","0,1012","-0.6","0,0605","-2.2","0,0527","-7.8","0,0520","-7.8","0,0520","-10.0","0,0429","    5043.4","4","    5043.4","0","    454.2"," ,0","      607"," ,0","      5.39","0","     13.21","0","     -2.43","0"
"USC00395456","1908","45.155","-98.5826","395.0","MELLETTE 4 W, SD US","    265.8","","     265.8","0","        71","0","        47","0","         8","0","       53","","        10","0","        28","0","       187","0","        56","0","       144","0","        27","0","         3"," ","        14"," ","  -30.0","0,0201,+","   127"," ,0,0308,+","    91"," ,0,0407, ","  86.6"," ,0,0514, ","   37.8","0,0802, ","-1.7","0,0927","-5.6","0,0928","-5.6","0,0928","-10.0","0,1011","-10.0","0,1011","-1.7","0,0522","-2.8","0,0504","-6.7","0,0502","-6.7","0,0502","-12.8","0,0408","    4337.7","7","    4337.7","0","    690.8"," ,0","      612"," ,0","      7.18","0","     14.64","0","     -0.27","0"
"USC00395456","1909","45.155","-98.5826","395.0","MELLETTE 4 W, SD US","","","","","        84","0","        45","0","         5","0","       92","","         8","0","","","","","","","","","","","        19"," ","        24"," ","","","   254"," ,0,1231,+","   114"," ,0,1113, ","  70.6"," ,0,0517, ","","","","","","","","","","","","","","","","","","","","","","","","","","","    614.6"," ,0","      583"," ,0","","","","","",""
"USC00395456","1910","45.155","-98.5826","395.0","MELLETTE 4 W, SD US","    327.6","","     327.6","0","        53","0","        32","0","         1","0","","","         6","0","        35","0","       167","0","        83","0","       153","0","        34","0","         8"," ","        12"," ","  -32.2","0,0223,+","","","    66"," ,0,0104, ","  30.0"," ,0,0812, ","   38.3","0,0716, ","-2.2","0,0909","-2.2","0,0909","-4.4","0,1020","-6.7","0,1021","-10.6","0,1105","-0.6","0,0526","-3.9","0,0512","-5.6","0,0503","-15.6","0,0227","-15.6","0,0227","","","","","    273.8"," ,0","      312"," ,0","      7.18","0","     14.62","0","     -0.27","0"
"USC00395456","1911","45.155","-98.5826","395.0","MELLETTE 4 W, SD US","    345.9","","     345.9","0","        90","0","        45","0","         2","0","","","         7","0","        51","0","       184","0","        73","0","       138","0","        29","0","         7"," ","        18"," ","  -33.3","0,0103, ","","","   135"," ,0,0205, ","  50.8"," ,0,0803, ","   38.9","0,0815,+","0.0","0,0919","-2.8","0,1020","-4.4","0,1023","-7.2","0,1026","-17.2","0,1102","-0.6","0,0512","-3.3","0,0504","-4.4","0,0501","-6.7","0,0408","-13.9","0,0327","    4353.2","2","    4353.2","0","    506.4"," ,0","      679"," ,0","      6.25","0","     13.31","0","     -0.80","0"
"USC00395456","1912","45.155","-98.5826","395.0","MELLETTE 4 W, SD US","    277.9","","     277.9","0","","","","","","","","","","","        45","0","       191","0","        74","0","       131","0","        21","0","         2"," ","        17"," ","  -42.8","0,0112, ","","","","","","","   37.8","0,0629, ","-1.1","0,0925","-5.6","0,0927","-5.6","0,0927","-7.8","0,1019","-11.7","0,1022","-1.1","0,0516","-3.3","0,0422","-5.6","0,0407","-11.1","0,0331","-11.1","0,0331","    5073.5","5","    5073.5","0","","","","","      5.95","0","     13.20","0","     -1.30","0"
"USC00395456","1913","45.155","-98.5826","395.0","MELLETTE 4 W, SD US","    422.3","","     422.3","0","        73","0","        35","0","         3","0","","","         8","0","        45","0","       178","0","        64","0","       140","0","        32","0","         4"," ","        16"," ","  -31.1","0,0302,+","","","    76"," ,0,0407, ","  32.3"," ,0,0718, ","   40.0","0,0905, ","-1.7","0,0921","-4.4","0,0922","-4.4","0,0922","-7.8","0,1018","-8.9","0,1020","-3.3","0,0506","-3.3","0,0506","-4.4","0,0427","-7.8","0,0426","-10.6","0,0328","    4557.5","5","    4557.5","0","    388.4"," ,0","      451"," ,0","      7.14","0","     14.68","0","     -0.41","0"
"USC00395456","1914","45.155","-98.5826","395.0","MELLETTE 4 W, SD US","    330.4","","     330.4","0","        84","0","        50","0","         6","0","","","         5","0","        48","0","       171","0","        67","0","       150","0","        17","0","         3"," ","        18"," ","  -35.6","0,0207, ","","","    30"," ,0,0326, ","  52.6"," ,0,0614, ","   40.0","0,0726, ","-2.2","0,1011","-2.2","0,1011","-5.0","0,1014","-8.9","0,1027","-8.9","0,1027","-0.6","0,0513","-2.8","0,0419","-5.0","0,0412","-10.0","0,0411","-10.0","0,0411","    4321.8","8","    4321.8","0","    594.0"," ,0","      315"," ,0","      6.79","0","     13.79","0","     -0.21","0"
"USC00395456","1915","45.155","-98.5826","395.0","MELLETTE 4 W, SD US","    131.1","","     131.1","0","        94","0","        63","0","         5","0","","","        17","0","        33","0","       165","0","        79","0","       124","0","         0","0","        10"," ","        14"," ","  -36.1","0,0127, ","","","   203"," ,0,0213, ","  30.7"," ,0,0715,+","   30.6","0,0905,+","-1.7","0,0921","-2.8","0,1005","-4.4","0,1008","-6.7","0,1112","-11.1","0,1113","-3.3","0,0518","-3.3","0,0518","-4.4","0,0412","-8.3","0,0401","-11.1","0,0331","    4651.3","3","    4651.3","0","    622.4"," ,0","     1121"," ,0","      6.06","0","     12.46","0","     -0.34","0"
"USC00395456","1916","45.155","-98.5826","395.0","MELLETTE 4 W, SD US","    378.3","","     378.3","0","        81","0","        63","0","         6","0","","","        22","0","        65","0","       192","0","        75","0","       122","0","        29","0","         6"," ","        17"," ","  -40.0","0,0113, ","","","   203"," ,0,1226, ","  46.5"," ,0,0821, ","   38.9","0,0728, ","-3.3","0,0915","-3.3","0,0915","-5.0","0,1017","-10.6","0,1020","-10.6","0,1020","0.0","0,0511","-2.2","0,0503","-6.1","0,0501","-8.3","0,0408","-10.6","0,0406","    4692.6","6","    4692.6","0","    687.6"," ,0","     1751"," ,0","      5.26","0","     12.18","0","     -1.67","0"
"USC00395456","1917","45.155","-98.5826","395.0","MELLETTE 4 W, SD US","    317.2","","     317.2","0","        52","0","        43","0","         3","0","","","        15","0","        67","0","       193","0","        85","0","       126","0","        26","0","        12"," ","        17"," ","  -40.0","0,0202, ","","","   457"," ,0,0316, ","  45.7"," ,0,0316, ","   42.8","0,0728, ","-1.1","0,1005","-11.1","0,1008","-11.1","0,1008","-11.1","0,1008","-11.1","0,1008","0.0","0,0527","-2.2","0,0502","-5.6","0,0415","-8.3","0,0323","-9.4","0,0321","    5168.4","4","    5168.4","0","    486.5"," ,0","     1747"," ,0","      4.82","0","     11.89","0","     -2.25","0"
"USC00395456","1918","45.155","-98.5826","395.0","MELLETTE 4 W, SD US","    306.9","","     306.9","0","        62","0","        56","0","         4","0","       74","","        15","0","        33","0","       174","0","        56","0","       143","0","        16","0","         7"," ","        19"," ","  -35.6","0,0221, ","   279"," ,0,1231,+","   203"," ,0,0309,+","  52.1"," ,0,0719, ","   36.7","0,0731, ","-1.7","0,0916","-3.9","0,0918","-4.4","0,0920","-7.2","0,1108","-9.4","0,1109","-0.6","0,0514","-2.8","0,0430","-7.8","0,0423","-7.8","0,0423","-8.9","0,0408","    4695.2","2","    4695.2","0","    608.6"," ,0","     1156"," ,0","      7.02","0","     14.12","0","     -0.09","0"
"USC00395456","1919","45.155","-98.5826","395.0","MELLETTE 4 W, SD US","    403.6","","     403.6","0","        45","0","        43","0","         7","0","","","        13","0","        46","0","       181","0","        69","0","       132","0","        20","0","         3"," ","         9"," ","  -36.1","0,0103, ","","","   254"," ,0,1108, ","  78.7"," ,0,0703, ","   39.4","0,0726, ","-12.2","0,1010","-12.2","0,1010","-12.2","0,1010","-12.2","0,1010","-12.2","0,1010","-0.6","0,0603","-2.8","0,0425","-6.7","0,0424","-6.7","0,0424","-15.6","0,0310","    4350.1","1","    4350.1","0","    543.9"," ,0","      905"," ,0","      6.22","0","     12.41","0","      0.03","0"
"USC00395456","1920","45.155","-98.5826","395.0","MELLETTE 4 W, SD US","    284.1","","     284.1","0","        61","0","        55","0","         5","0","","","         8","0","        28","0","       170","0","        61","0","       135","0","        14","0","         6"," ","        20"," ","  -32.8","0,0124, ","","","   406"," ,0,0318, ","  40.6"," ,0,0318, ","   37.2","0,0722, ","-5.6","0,0930","-5.6","0,0930","-5.6","0,0930","-11.1","0,1028","-11.1","0,1028","-1.1","0,0430","-3.9","0,0427","-7.8","0,0413","-7.8","0,0413","-9.4","0,0407","    4923.3","3","    4923.3","0","    597.1"," ,0","      952"," ,0","      6.81","0","     13.23","0","      0.40","0"
"USC00395456","1921","45.155","-98.5826","395.0","MELLETTE 4 W, SD US","    474.6","","     474.6","0","        65","0","        56","0","         8","0","","","        14","0","        21","0","       175","0","        46","0","       147","0","        41","0","         2"," ","        19"," ","  -29.4","0,1224, ","","","   102"," ,0,1122, ","  58.4"," ,0,0725, ","   38.9","0,0630, ","-1.1","0,0930","-3.9","0,1011","-4.4","0,1012","-12.2","0,1108","-12.2","0,1108","-2.2","0,0515","-2.2","0,0515","-7.8","0,0417","-7.8","0,0417","-16.7","0,0328","    3825.1","1","    3825.1","0","    706.2"," ,0","      520"," ,0","      8.63","0","     16.06","0","      1.19","0"
"USC00395456","1922","45.155","-98.5826","395.0","MELLETTE 4 W, SD US","","","","","","","","","","","","","","","","","","","","","","","","","         3"," ","         7"," ","","","","","","","","","","","","","","","","","","","","","","","","","","","","","","","    4597.0","0","    4597.0","0","","","","","","","","","",""
"USC00395456","1923","45.155","-98.5826","395.0","MELLETTE 4 W, SD US","    359.5","","     359.5","0","        60","0","        48","0","         2","0","","","        11","0","        30","0","       179","0","        45","0","       137","0","        17","0","         3"," ","        12"," ","  -30.0","0,0203, ","","","   127"," ,0,0407, ","  40.1"," ,0,0529, ","   36.7","0,0719, ","-1.7","0,1005","-5.0","0,1013","-5.0","0,1013","-7.2","0,1021","-13.3","0,1030","-3.3","0,0512","-3.3","0,0512","-5.0","0,0415","-14.4","0,0408","-14.4","0,0408","","","","","    459.7"," ,0","      686"," ,0","      7.57","0","     14.73","0","      0.42","0"
"USC00395456","1924","45.155","-98.5826","395.0","MELLETTE 4 W, SD US","    180.3","","     180.3","0","        75","0","        42","0","         4","0","       35","","        11","0","        46","0","       175","0","        72","0","       134","0","         8","0","         4"," ","         1"," ","  -37.2","0,0105, ","   254"," ,0,0331,+","   127"," ,0,0218, ","  35.6"," ,0,0618, ","   34.4","0,0729, ","0.0","0,0928","-2.2","0,0929","-6.7","0,1102","-6.7","0,1102","-8.9","0,1107","0.0","0,0528","-3.3","0,0525","-4.4","0,0524","-7.2","0,0410","-18.9","0,0401","    4416.4","4","    4416.4","0","    475.4"," ,0","      712"," ,0","      5.71","0","     12.85","0","     -1.43","0"
"USC00395456","1925","45.155","-98.5826","395.0","MELLETTE 4 W, SD US","    377.9","","     377.9","0","        64","0","        42","0","         5","0","","","         6","0","        36","0","       184","0","        68","0","       130","0","        32","0","         6"," ","         7"," ","  -30.0","0,0126, ","","","   127"," ,0,1220, ","  61.5"," ,0,0611, ","   40.6","0,0823, ","0.0","0,0921","-3.9","0,1001","-7.8","0,1009","-7.8","0,1009","-8.9","0,1027","-2.2","0,0518","-2.2","0,0518","-4.4","0,0517","-6.7","0,0322","-8.9","0,0321","    4343.9","9","    4343.9","0","    576.4"," ,0","      471"," ,0","      7.16","0","     14.09","0","      0.23","0"
"USC00395456","1926","45.155","-98.5826","395.0","MELLETTE 4 W, SD US","    373.9","","     373.9","0","        44","0","        30","0","         5","0","","","         9","0","        28","0","       182","0","        54","0","       147","0","        33","0","         3"," ","        13"," ","  -33.3","0,0122, ","","","   102"," ,0,1204,+"," 139.7"," ,0,0902, ","   38.9","0,0825,+","-1.7","0,0924","-8.3","0,0925","-8.3","0,0925","-8.3","0,0925","-8.9","0,1030","0.0","0,0522","-5.0","0,0503","-5.0","0,0503","-7.2","0,0428","-10.0","0,0407","    4284.2","2","    4284.2","0","    503.5"," ,0","      623"," ,0","      7.47","0","     14.69","0","      0.25","0"
"USC00395456","1927","45.155","-98.5826","395.0","MELLETTE 4 W, SD US","    262.0","","     262.0","0","        74","0","        57","0","         1","0","       48","","        12","0","        43","0","       177","0","        75","0","       121","0","        12","0","        11"," ","         9"," ","  -34.4","0,0122, ","   356"," ,0,1231,+","   102"," ,0,1203,+","  44.7"," ,0,0716, ","   37.8","0,0626, ","-1.1","0,0920","-3.3","0,1008","-5.6","0,1031","-10.0","0,1105","-10.0","0,1105","-0.6","0,0519","-6.1","0,0422","-6.1","0,0422","-12.2","0,0421","-12.2","0,0421","    4353.2","2","    4353.2","0","    547.7"," ,0","      710"," ,0","      6.09","0","     12.72","0","     -0.54","0"
"USC00395456","1928","45.155","-98.5826","395.0","MELLETTE 4 W, SD US","    258.5","","     258.5","0","        63","0","        38","0","         2","0","       19","","         2","0","        21","0","       193","0","        38","0","       138","0","        17","0","         6"," ","         1"," ","  -35.0","0,0102, ","   356"," ,0,0105,+","   127"," ,0,0413, ","  30.5"," ,0,1015, ","   39.4","0,0814, ","-2.2","0,0923","-2.2","0,0923","-7.8","0,1029","-7.8","0,1029","-10.0","0,1102","0.0","0,0528","-2.2","0,0512","-5.6","0,0427","-10.0","0,0419","-10.0","0,0419","    4734.0","0","    4734.0","0","    395.4"," ,0","      191"," ,0","      7.47","0","     14.61","0","      0.34","0"
"USC00395456","1929","45.155","-98.5826","395.0","MELLETTE 4 W, SD US","    403.2","","     403.2","0","        69","0","        60","0","         1","0","","","        25","0","        55","0","       175","0","        82","0","       128","0","        35","0","         6"," ","        11"," ","  -38.3","0,0219, ","","","   229"," ,0,0322, ","  43.4"," ,0,0424, ","   39.4","0,0726, ","-5.0","0,0918","-5.0","0,0918","-5.0","0,0918","-9.4","0,1102","-9.4","0,1102","-1.7","0,0520","-3.9","0,0516","-7.8","0,0412","-7.8","0,0412","-9.4","0,0325","    4584.6","6","    4584.6","0","    501.9"," ,0","     2013"," ,0","      5.82","0","     12.62","0","     -0.98","0"
"USC00395456","1930","45.155","-98.5826","395.0","MELLETTE 4 W, SD US","    480.3","","     480.3","0","        61","0","        50","0","         5","0","","","        10","0","        29","0","       178","0","        49","0","       143","0","        36","0","         3"," ","        14"," ","  -35.6","0,0117, ","","","   229"," ,0,0228, ","  48.5"," ,0,0625, ","   41.1","0,0801,+","-3.3","0,0927","-3.3","0,0927","-6.1","0,1017","-10.6","0,1018","-10.6","0,1018","0.0","0,0518","-3.9","0,0517","-5.6","0,0424","-7.8","0,0401","-8.9","0,0328","    4475.1","1","    4475.1","0","    536.6"," ,0","      634"," ,0","      8.03","0","     14.92","0","      1.13","0"
"USC00395456","1931","45.155","-98.5826","395.0","MELLETTE 4 W, SD US","    620.0","","     620.0","0","        46","0","        42","0","         3","0","","","        15","0","        14","0","       172","0","        33","0","       163","0","        55","0","         8"," ","         6"," ","  -26.1","0,0114, ","","","   305"," ,0,1230, ","  35.6"," ,0,0527, ","   44.4","0,0715, ","-1.1","0,1008","-2.2","0,1011","-5.6","0,1105","-6.7","0,1110","-12.2","0,1124","-3.9","0,0522","-3.9","0,0522","-5.6","0,0507","-7.2","0,0506","-8.9","0,0404","    3840.5","5","    3840.5","0","    375.0"," ,0","     1080"," ,0","      9.73","0","     17.23","0","      2.22","0"
"USC00395456","1932","45.155","-98.5826","395.0","MELLETTE 4 W, SD US","    406.3","","     406.3","0","        64","0","        48","0","         4","0","","","        13","0","        50","0","       177","0","        86","0","       147","0","        34","0","         4"," ","        10"," ","  -35.0","0,1212, ","","","   102"," ,0,1030,+","  43.9"," ,0,0811, ","   41.1","0,0719, ","-0.6","0,0920","-3.9","0,1005","-6.1","0,1010","-7.2","0,1025","-12.8","0,1031","0.0","0,0528","-3.3","0,0427","-5.6","0,0412","-8.3","0,0330","-8.9","0,0323","    4240.2","2","    4240.2","0","    489.1"," ,0","      764"," ,0","      6.65","0","     13.61","0","     -0.32","0"
"USC00395456","1933","45.155","-98.5826","395.0","MELLETTE 4 W, SD US","    594.8","","     594.8","0","        61","0","        30","0","         1","0","       66","","        11","0","        32","0","       179","0","        51","0","       154","0","        57","0","         4"," ","","","  -35.0","0,1226,+","   127"," ,0,1220,+","   127"," ,0,0305, ","  39.1"," ,0,0910, ","   41.7","0,0626, ","0.0","0,0926","-5.0","0,1008","-5.0","0,1008","-7.2","0,1012","-11.7","0,1106","-1.1","0,0427","-5.6","0,0426","-5.6","0,0426","-8.9","0,0415","-8.9","0,0415","    4468.9","9","    4468.9","0","    304.5"," ,0","      648"," ,0","      8.11","0","     15.71","0","      0.51","0"
"USC00395456","1934","45.155","-98.5826","395.0","MELLETTE 4 W, SD US","","","","","","","","","","","","","","","","","","","","","","","","","         4"," ","         2"," ","","","","","","","","","","","","","","","","","","","","","","","","","","","","","","","    4027.7","7","    4027.7","0","","","","","","","","","",""
"USC00395456","1935","45.155","-98.5826","395.0","MELLETTE 4 W, SD US","","","","","        70","0","        52","0","         2","0","       60","","        20","0","","","","","        67","0","       124","0","        39","0","         7"," ","         5"," ","","","   356"," ,0,0404, ","   356"," ,0,0404, ","  99.1"," ,0,0616, ","   40.6","0,0815,+","","","","","","","","","","","","","","","","","","","","","","","","","    593.3"," ,0","     1191"," ,0","","","     13.35","0","",""
"USC00395456","1936","45.155","-98.5826","395.0","MELLETTE 4 W, SD US","    744.8","","     744.8","0","        64","0","        36","0","         2","0","","","        25","0","        59","0","       188","0","        88","0","       157","0","        62","0","         6"," ","         3"," ","  -42.2","0,0216, ","","","   254"," ,0,1101, ","  30.2"," ,0,0827, ","   44.4","0,0709, ","0.0","0,0916","-2.8","0,0927","-4.4","0,1001","-6.7","0,1021","-8.9","0,1022","-0.6","0,0513","-2.2","0,0429","-6.7","0,0422","-6.7","0,0422","-9.4","0,0421","    5132.5","5","    5132.5","0","    328.8"," ,0","     1509"," ,0","      5.96","0","     13.27","0","     -1.35","0"
"USC00395456","1937","45.155","-98.5826","395.0","MELLETTE 4 W, SD US","    581.9","","     581.9","0","        73","0","        49","0","         4","0","       88","","        23","0","        65","0","       178","0","        92","0","       144","0","        52","0","         1"," ","         3"," ","  -33.3","0,0122, ","   813"," ,0,0211,+","   254"," ,0,0208, ","  52.3"," ,0,0713, ","   43.3","0,0815,+","0.0","0,0917","-2.2","0,0926","-9.4","0,1013","-9.4","0,1013","-9.4","0,1013","-2.2","0,0512","-2.2","0,0512","-4.4","0,0406","-13.3","0,0405","-13.3","0,0405","    4894.9","9","    4894.9","0","    487.2"," ,0","     1445"," ,0","      6.19","0","     12.98","0","     -0.59","0"
"USC00395456","1938","45.155","-98.5826","395.0","MELLETTE 4 W, SD US","    505.2","","     505.2","0","        77","0","        50","0","         2","0","","","        15","0","        33","0","       168","0","        60","0","       158","0","        43","0","        12"," ","         7"," ","  -33.3","0,0218, ","","","    89"," ,0,0216, ","  36.1"," ,0,0427, ","   42.2","0,0813, ","-1.7","0,0919","-2.2","0,1021","-9.4","0,1023","-9.4","0,1023","-9.4","0,1023","0.0","0,0509","-3.3","0,0421","-5.6","0,0409","-6.7","0,0404","-13.3","0,0309","    4399.4","4","    4399.4","0","    413.8"," ,0","      685"," ,0","      8.05","0","     15.21","0","      0.88","0"
"USC00395456","1939","45.155","-98.5826","395.0","MELLETTE 4 W, SD US","    512.3","","     512.3","0","        60","0","        28","0","         5","0","","","         9","0","        32","0","       188","0","        61","0","       165","0","        53","0","         8"," ","        21"," ","  -36.7","0,0215, ","","","   127"," ,0,0201,+","  56.6"," ,0,0109, ","   38.9","0,0805,+","0.0","0,0925","-7.8","0,0926","-7.8","0,0926","-7.8","0,0926","-8.9","0,0930","-0.6","0,0515","-4.4","0,0421","-4.4","0,0421","-12.8","0,0412","-12.8","0,0412","    4269.7","7","    4269.7","0","    496.7"," ,0","      610"," ,0","      8.04","0","     15.94","0","      0.14","0"
"USC00395456","1940","45.155","-98.5826","395.0","MELLETTE 4 W, SD US","    470.9","","     470.9","0","        73","0","        44","0","         5","0","","","        13","0","        42","0","       180","0","        85","0","       156","0","        48","0","        17"," ","        21"," ","  -32.8","0,0118, ","","","   152"," ,0,0403, ","  36.8"," ,0,0428, ","   44.4","0,0718, ","0.0","0,0910","-3.3","0,0925","-6.7","0,1107","-6.7","0,1107","-9.4","0,1110","-0.6","0,0516","-2.2","0,0501","-8.9","0,0412","-8.9","0,0412","-8.9","0,0412","    4347.2","2","    4347.2","0","    425.7"," ,0","      910"," ,0","      6.95","0","     13.90","0","     -0.01","0"
"USC00395456","1941","45.155","-98.5826","395.0","MELLETTE 4 W, SD US","    491.5","","     491.5","0","        86","0","        52","0","         6","0","       77","","        10","0","        28","0","       171","0","        70","0","       136","0","        40","0","        12"," ","        18"," ","  -30.0","0,0118, ","   127"," ,0,0117,+","    76"," ,0,0306,+","  85.1"," ,0,0606, ","   42.8","0,0723, ","-2.8","0,0928","-2.8","0,0928","-7.8","0,1027","-7.8","0,1027","-8.9","0,1028","-1.7","0,0523","-5.0","0,0421","-5.0","0,0421","-6.7","0,0324","-9.4","0,0318","    4237.5","5","    4237.5","0","    629.8"," ,0","      510"," ,0","      7.84","0","     14.49","0","      1.20","0"
"USC00395456","1942","45.155","-98.5826","395.0","MELLETTE 4 W, SD US","    281.8","","     281.8","0","        80","0","        53","0","         5","0","       58","","         9","0","        30","0","       183","0","        60","0","       147","0","        13","0","        13"," ","        24"," ","  -35.0","0,0107, ","   305"," ,0,0328,+","   203"," ,0,0326, ","  31.5"," ,0,0325, ","   36.1","0,0910, ","-1.7","0,0919","-5.6","0,0924","-5.6","0,0924","-7.2","0,0928","-8.9","0,1024","-0.6","0,0514","-2.2","0,0504","-6.1","0,0411","-6.7","0,0330","-11.1","0,0329","    4037.4","4","    4037.4","0","    555.2"," ,0","      626"," ,0","      6.92","0","     14.03","0","     -0.20","0"
"USC00395456","1943","45.155","-98.5826","395.0","MELLETTE 4 W, SD US","    353.4","","     353.4","0","        65","0","        44","0","         2","0","       83","","        13","0","        49","0","       190","0","        64","0","       144","0","        34","0","         6"," ","        23"," ","  -40.6","0,0119, ","   254"," ,0,0212,+","   229"," ,0,0103, ","  26.7"," ,0,0626, ","   42.2","0,0731, ","-1.7","0,0910","-2.8","0,0920","-4.4","0,1016","-7.2","0,1103","-10.0","0,1108","0.0","0,0517","-6.7","0,0513","-6.7","0,0513","-6.7","0,0513","-15.6","0,0321","    4899.4","4","    4899.4","0","    475.8"," ,0","     1179"," ,0","      6.30","0","     13.96","0","     -1.36","0"
"USC00395456","1944","45.155","-98.5826","395.0","MELLETTE 4 W, SD US","    330.4","","     330.4","0","        80","0","        51","0","         6","0","       71","","        13","0","        25","0","       177","0","        69","0","       145","0","        20","0","        13"," ","        23"," ","  -32.8","0,0212, ","   102"," ,0,0329,+","    64"," ,0,0127, ","  36.8"," ,0,0825, ","   37.8","0,0812,+","-1.1","0,1008","-5.0","0,1010","-5.0","0,1010","-7.2","0,1103","-9.4","0,1104","0.0","0,0508","-2.2","0,0506","-5.0","0,0416","-6.7","0,0405","-12.8","0,0330","    4358.2","2","    4358.2","0","    566.8"," ,0","      551"," ,0","      7.35","0","     14.24","0","      0.46","0"
"USC00395456","1945","45.155","-98.5826","395.0","MELLETTE 4 W, SD US","    316.6","","     316.6","0","        76","0","        55","0","         2","0","       85","","         9","0","        41","0","       191","0","        77","0","       127","0","        23","0","        12"," ","        19"," ","  -31.1","0,1218, ","   152"," ,0,0221,+","    76"," ,0,0215, ","  62.2"," ,0,0531, ","   39.4","0,0905, ","-1.1","0,0924","-2.8","0,0929","-5.6","0,1009","-8.9","0,1022","-8.9","0,1022","0.0","0,0517","-2.8","0,0512","-5.0","0,0510","-8.9","0,0405","-8.9","0,0405","    4284.8","8","    4284.8","0","    494.9"," ,0","      455"," ,0","      6.52","0","     13.54","0","     -0.51","0"
"USC00395456","1946","45.155","-98.5826","395.0","MELLETTE 4 W, SD US","","","","","        70","0","        45","0","         7","0","       74","","         7","0","","","","","","","","","","","        10"," ","        17"," ","","","   254"," ,0,0214,+","   229"," ,0,0206, ","  62.7"," ,0,0614, ","","","","","","","","","","","","","","","","","","","","","","","","","","","    687.7"," ,0","      665"," ,0","","","","","",""
"USC00395456","1947","45.155","-98.5826","395.0","MELLETTE 4 W, SD US","    443.1","","     443.1","0","        73","0","        48","0","         1","0","       76","","        16","0","        34","0","       185","0","        79","0","       143","0","        47","0","        10"," ","        11"," ","  -30.6","0,0201,+","   305"," ,0,1126,+","   127"," ,0,1115, ","  46.2"," ,0,0610, ","   42.8","0,0810,+","-1.7","0,0915","-6.7","0,0922","-6.7","0,0922","-6.7","0,0922","-10.6","0,1109","-3.3","0,0530","-3.3","0,0530","-5.0","0,0529","-8.3","0,0407","-11.1","0,0326","    4536.7","7","    4536.7","0","    426.9"," ,0","      853"," ,0","      6.93","0","     14.03","0","     -0.16","0"
"USC00395456","1948","45.155","-98.5826","395.0","MELLETTE 4 W, SD US","    408.9","","     408.9","0","        69","0","        45","0","         1","0","       79","","         6","0","        57","0","       173","0","        75","0","       149","0","        36","0","         8"," ","        12"," ","  -35.6","0,0123, ","   279"," ,0,0212,+","   254"," ,0,0118, ","  27.7"," ,0,0622, ","   40.6","0,0824,+","-3.3","0,1009","-3.3","0,1009","-10.0","0,1017","-10.0","0,1017","-10.0","0,1017","-1.1","0,0506","-6.7","0,0412","-6.7","0,0412","-6.7","0,0412","-9.4","0,0402","    4728.4","4","    4728.4","0","    397.5"," ,0","      534"," ,0","      6.75","0","     13.94","0","     -0.44","0"
"USC00395456","1949","45.155","-98.5826","395.0","MELLETTE 4 W, SD US","    501.5","","     501.5","0","        67","0","        36","0","         5","0","       66","","         9","0","        49","0","       177","0","        69","0","       157","0","        49","0","         3"," ","        20"," ","  -34.4","0,0121, ","   178"," ,0,0105, ","    89"," ,0,0104, ","  49.0"," ,0,1010, ","   42.2","0,0703, ","-1.7","0,0914","-4.4","0,0928","-4.4","0,0928","-7.8","0,1026","-9.4","0,1031","-1.1","0,0524","-2.8","0,0424","-7.2","0,0418","-7.2","0,0418","-15.0","0,0318","    4513.7","7","    4513.7","0","    465.6"," ,0","      602"," ,0","      7.29","0","     14.86","0","     -0.29","0"
"USC00395456","1950","45.155","-98.5826","395.0","MELLETTE 4 W, SD US","    239.1","","     239.1","0","        69","0","        37","0","         3","0","      117","","        14","0","        57","0","       187","0","        97","0","       136","0","        16","0","         1"," ","        13"," ","  -35.6","0,0126, ","   152"," ,0,0204,+","   127"," ,0,0124, ","  69.9"," ,0,0813, ","   38.9","0,0622, ","0.0","0,0913","-2.2","0,1003","-5.0","0,1004","-8.9","0,1104","-8.9","0,1104","0.0","0,0510","-5.6","0,0430","-5.6","0,0430","-6.7","0,0414","-11.1","0,0413","    4967.7","7","    4967.7","0","    460.4"," ,0","      890"," ,0","      4.78","0","     11.64","0","     -2.08","0"
"USC00395456","1951","45.155","-98.5826","395.0","MELLETTE 4 W, SD US","    223.9","","     223.9","0","        70","0","        39","0","         3","0","","","        13","0","        64","0","       195","0","        79","0","       138","0","        18","0","        13"," ","        31"," ","  -36.1","0,0129, ","","","   203"," ,0,0228, ","  46.0"," ,0,0601, ","   37.8","0,0805,+","-1.7","0,0922","-4.4","0,0924","-4.4","0,0924","-7.8","0,0928","-11.7","0,1101","-0.6","0,0511","-6.1","0,0423","-6.1","0,0423","-7.2","0,0416","-12.8","0,0324","    4868.1","1","    4868.1","0","    473.3"," ,0","     1208"," ,0","      4.97","0","     11.72","0","     -1.79","0"
"USC00395456","1952","45.155","-98.5826","395.0","MELLETTE 4 W, SD US","    499.3","","     499.3","0","        47","0","        33","0","         4","0","      118","","        15","0","        35","0","       189","0","        90","0","       156","0","        51","0","         5"," ","         1"," ","  -31.7","0,0304, ","   686"," ,0,0314,+","   279"," ,0,0219, ","  57.2"," ,0,0628, ","   39.4","0,0814, ","0.0","0,0923","-2.8","0,1002","-6.1","0,1004","-8.9","0,1005","-8.9","0,1005","-1.1","0,0512","-3.3","0,0511","-6.7","0,0410","-6.7","0,0410","-10.0","0,0327","    4968.4","4","    4968.4","0","    415.7"," ,0","     1002"," ,0","      7.05","0","     14.34","0","     -0.24","0"
"USC00395456","1953","45.155","-98.5826","395.0","MELLETTE 4 W, SD US","","","","","        67","0","        46","0","        10","0","       94","","        17","0","","","","","        56","0","       155","0","        26","0","         6"," ","","","","","   229"," ,0,0212,+","   152"," ,0,0210, ","  63.0"," ,0,0620, ","   36.7","0,0831,+","","","","","","","","","","","","","","","","","","","","","    4332.4","4","    4332.4","0","    721.4"," ,0","     1115"," ,0","","","     14.54","0","",""
"USC00395456","1954","45.155","-98.5826","395.0","MELLETTE 4 W, SD US","    371.1","","     371.1","0","        55","0","        41","0","         2","0","       71","","         8","0","        22","0","       180","0","        60","0","       135","0","        28","0","         8"," ","         7"," ","  -34.4","0,0121, ","   127"," ,0,1218,+","   127"," ,0,1130, ","  52.8"," ,0,0607, ","   37.8","0,0726,+","-1.1","0,0922","-2.8","0,1006","-8.9","0,1101","-8.9","0,1101","-8.9","0,1101","-0.6","0,0510","-3.9","0,0509","-4.4","0,0505","-7.2","0,0408","-13.3","0,0403","","","","","    388.3"," ,0","      546"," ,0","      7.78","0","     14.57","0","      0.99","0"
"USC00395456","1955","45.155","-98.5826","395.0","MELLETTE 4 W, SD US","    542.8","","     542.8","0","        62","0","        35","0","         3","0","       79","","        12","0","        51","0","       176","0","       101","0","       160","0","        41","0","         6"," ","         9"," ","  -32.8","0,1219,+","   254"," ,0,0228,+","   178"," ,0,0220, ","  37.3"," ,0,0806, ","   41.1","0,0801, ","-1.7","0,0911","-4.4","0,1014","-4.4","0,1014","-6.7","0,1017","-11.7","0,1024","-1.7","0,0510","-4.4","0,0508","-4.4","0,0508","-7.2","0,0328","-17.8","0,0327","    4220.1","1","    4220.1","0","    384.3"," ,0","      723"," ,0","      6.86","0","     14.16","0","     -0.45","0"
"USC00395456","1956","45.155","-98.5826","395.0","MELLETTE 4 W, SD US","    381.6","","     381.6","0","        75","0","        42","0","         2","0","       96","","        13","0","        40","0","       186","0","        72","0","       160","0","        22","0","         7"," ","","","  -37.8","0,0217, ","   457"," ,0,0228,+","   229"," ,0,0216, ","  43.2"," ,0,0707, ","   40.0","0,0612, ","-0.6","0,0906","-8.3","0,1009","-8.3","0,1009","-8.3","0,1009","-10.0","0,1108","-3.9","0,0504","-3.9","0,0504","-6.7","0,0427","-6.7","0,0427","-9.4","0,0423","    5101.1","1","    5101.1","0","    455.0"," ,0","      747"," ,0","      6.84","0","     14.09","0","     -0.42","0"
"USC00395456","1957","45.155","-98.5826","395.0","MELLETTE 4 W, SD US","    375.5","","     375.5","0","        78","0","        50","0","         5","0","       57","","        10","0","        33","0","       169","0","        49","0","       133","0","        27","0","","","","","  -31.1","0,0129, ","   152"," ,0,0404, ","   152"," ,0,0404, ","  50.0"," ,0,0420, ","   38.3","0,0801, ","0.0","0,0923","-2.2","0,1017","-8.9","0,1025","-8.9","0,1025","-8.9","0,1025","-1.1","0,0509","-5.0","0,0414","-5.0","0,0414","-6.7","0,0413","-10.6","0,0412","    4305.0","0","    4305.0","0","    619.4"," ,0","      639"," ,0","      7.28","0","     13.73","0","      0.83","0"
"USC00395456","1958","45.155","-98.5826","395.0","MELLETTE 4 W, SD US","    361.5","","     361.5","0","        67","0","        37","0","         2","0","       44","","         4","0","        37","0","       175","0","        64","0","       147","0","        36","0","","","","","  -34.4","0,0216, ","   102"," ,0,0302, ","    51"," ,0,0301, ","  32.5"," ,0,0227, ","   40.6","0,0808, ","0.0","0,0925","-3.3","0,1001","-5.6","0,1011","-6.7","0,1026","-10.0","0,1124","-0.6","0,0506","-6.7","0,0429","-6.7","0,0429","-6.7","0,0429","-10.6","0,0306","    4135.3","3","    4135.3","0","    358.5"," ,0","      310"," ,0","      7.39","0","     14.83","0","     -0.05","0"
"USC00395456","1959","45.155","-98.5826","395.0","MELLETTE 4 W, SD US","    575.8","","     575.8","0","        64","0","        36","0","         3","0","       48","","         9","0","        37","0","       186","0","        72","0","       141","0","        64","0","","","","","  -35.0","0,0219, ","   229"," ,0,0222,+","    84"," ,0,0204, ","  35.6"," ,0,0922, ","   42.2","0,0818, ","-2.8","0,0910","-2.8","0,0910","-5.6","0,1017","-8.3","0,1027","-10.0","0,1105","0.0","0,0522","-5.0","0,0515","-5.0","0,0515","-6.7","0,0421","-9.4","0,0413","    4519.0","0","    4519.0","0","    334.6"," ,0","      460"," ,0","      7.29","0","     14.58","0","      0.00","0"
"USC00395456","1960","45.155","-98.5826","395.0","MELLETTE 4 W, SD US","    379.4","","     379.4","0","        65","0","        41","0","         4","0","      124","","        10","0","        53","0","       181","0","        99","0","       146","0","        33","0","","","","","  -34.4","0,0105, ","   356"," ,0,1229,+","   216"," ,0,0401, ","  42.2"," ,0,0825, ","   38.9","0,0721, ","0.0","0,0927","-2.2","0,0930","-11.1","0,1019","-11.1","0,1019","-11.1","0,1019","-2.8","0,0511","-2.8","0,0511","-6.7","0,0430","-6.7","0,0430","-9.4","0,0325","    4874.2","2","    4874.2","0","    470.9"," ,0","     1124"," ,0","      5.96","0","     12.96","0","     -1.05","0"
"USC00395456","1961","45.155","-98.5826","395.0","MELLETTE 4 W, SD US","    405.8","","     405.8","0","        51","0","        34","0","         5","0","       84","","         4","0","        35","0","       187","0","        61","0","       137","0","        43","0","","","","","  -34.4","0,0124, ","   330"," ,0,0104,+","    84"," ,0,0201, ","  60.2"," ,0,1011, ","   37.2","0,0829,+","-0.6","0,0915","-2.8","0,0925","-5.0","0,1019","-6.7","0,1026","-9.4","0,1103","0.0","0,0526","-3.3","0,0509","-5.6","0,0502","-7.2","0,0501","-11.7","0,0412","    4528.7","7","    4528.7","0","    454.5"," ,0","      261"," ,0","      6.75","0","     14.06","0","     -0.56","0"
"USC00395456","1962","45.155","-98.5826","395.0","MELLETTE 4 W, SD US","    234.2","","     234.2","0","        74","0","        50","0","         7","0","       60","","        14","0","        45","0","       180","0","        68","0","       144","0","        12","0","","","","","  -33.3","0,0228, ","   330"," ,0,0316,+","   102"," ,0,0324, ","  49.3"," ,0,0516, ","   36.7","0,0827, ","0.0","0,0905","-2.2","0,0920","-5.0","0,1020","-12.2","0,1025","-12.2","0,1025","-0.6","0,0501","-2.2","0,0419","-9.4","0,0415","-9.4","0,0415","-9.4","0,0415","    4728.8","8","    4728.8","0","    596.0"," ,0","      783"," ,0","      6.58","0","     13.36","0","     -0.22","0"
"USC00395456","1963","45.155","-98.5826","395.0","MELLETTE 4 W, SD US","    385.5","","     385.5","0","        78","0","        52","0","         2","0","       65","","        11","0","        51","0","       170","0","        63","0","       169","0","        25","0","","","","","  -35.6","0,0119,+","   127"," ,0,1222,+","    84"," ,0,1207, ","  92.7"," ,0,0601, ","   37.8","0,0629, ","0.0","0,0929","-2.8","0,1027","-4.4","0,1029","-6.7","0,1102","-9.4","0,1113","-0.6","0,0523","-5.6","0,0522","-5.6","0,0522","-7.2","0,0404","-8.9","0,0321","    4265.9","9","    4265.9","0","    513.8"," ,0","      496"," ,0","      7.58","0","     14.96","0","      0.19","0"
"USC00395456","1964","45.155","-98.5826","395.0","MELLETTE 4 W, SD US","    426.8","","     426.8","0","        70","0","        38","0","         4","0","       58","","        12","0","        38","0","       185","0","        66","0","       153","0","        38","0","","","","","  -32.8","0,0112, ","   152"," ,0,1231,+","   109"," ,0,0108, ","  79.2"," ,0,0503, ","   39.4","0,0716, ","-0.6","0,0911","-2.2","0,0927","-10.0","0,1009","-10.0","0,1009","-10.0","0,1009","0.0","0,0531","-2.2","0,0422","-8.9","0,0408","-8.9","0,0408","-8.9","0,0408","    4146.0","0","    4146.0","0","    447.3"," ,0","      595"," ,0","      7.15","0","     14.91","0","     -0.60","0"
"USC00395456","1965","45.155","-98.5826","395.0","MELLETTE 4 W, SD US","    299.7","","     299.7","0","        83","0","        48","0","         3","0","       65","","        10","0","        47","0","       180","0","        81","0","       132","0","        21","0","","","","","  -34.4","0,0113, ","   508"," ,0,1128,+","   211"," ,0,0328, ","  54.4"," ,0,0523, ","   45.6","0,0813, ","-2.8","0,0924","-2.8","0,0924","-6.1","0,0926","-8.9","0,1104","-8.9","0,1104","-1.7","0,0528","-3.3","0,0428","-10.6","0,0330","-10.6","0,0330","-10.6","0,0330","    5050.0","0","    5050.0","0","    534.7"," ,0","      600"," ,0","      5.99","0","     13.02","0","     -1.04","0"
"USC00395456","1966","45.155","-98.5826","395.0","MELLETTE 4 W, SD US","    355.8","","     355.8","0","        58","0","        28","0","         5","0","","","","","        52","0","       191","0","        76","0","       139","0","        24","0","","","","","  -35.6","0,0129, ","","","","","  77.2"," ,0,0820, ","   44.4","0,0710, ","0.0","0,0914","-4.4","0,1005","-4.4","0,1005","-7.8","0,1101","-12.8","0,1102","-0.6","0,0513","-6.7","0,0509","-6.7","0,0509","-6.7","0,0509","-13.3","0,0430","    4763.1","1","    4763.1","0","    553.2"," ,0","","","      5.68","0","     12.89","0","     -1.53","0"
"USC00395456","1967","45.155","-98.5826","395.0","MELLETTE 4 W, SD US","    230.7","","     230.7","0","        77","0","        40","0","         2","0","","","","","        37","0","       185","0","        61","0","       137","0","        26","0","","","","","  -38.3","0,1231, ","","","","","  57.9"," ,0,0918, ","   38.9","0,0731, ","-3.3","0,0927","-3.3","0,0927","-5.6","0,1010","-10.0","0,1027","-10.0","0,1027","-1.7","0,0520","-2.2","0,0506","-5.0","0,0505","-6.7","0,0410","-9.4","0,0401","    4460.6","6","    4460.6","0","    461.1"," ,0","","","      6.38","0","     13.99","0","     -1.23","0"
"USC00395456","1968","45.155","-98.5826","395.0","MELLETTE 4 W, SD US","","","","","","","","","","","","","","","","","","","","","","","","","","","","","","","","","","","","","","","","","","","","","","","","","","","","","","","","","","","    4499.0","0","    4499.0","0","","","","","","","","","",""
"USC00395456","1970","45.155","-98.5826","395.0","MELLETTE 4 W, SD US","    468.0","","     468.0","0","        68","0","        45","0","         7","0","","","        13","0","        49","0","       184","0","        86","0","       142","0","        44","0","","","","","  -37.2","0,0119, ","","","   254"," ,0,0413, ","  49.3"," ,0,0413, ","   38.3","0,0906,+","-0.6","0,0913","-2.8","0,1003","-5.6","0,1010","-13.3","0,1114","-13.3","0,1114","-0.6","0,0504","-3.9","0,0502","-7.2","0,0404","-7.2","0,0404","-12.2","0,0401","","","","","    579.8"," ,0","     1195"," ,0","      5.91","0","     12.70","0","     -0.88","0"
"USC00395456","1971","45.155","-98.5826","395.0","MELLETTE 4 W, SD US","    361.7","","     361.7","0","        61","0","        39","0","         5","0","","","        11","0","        46","0","       178","0","        91","0","       147","0","        24","0","","","","","  -36.7","0,0208,+","","","   127"," ,0,1127, ","  50.0"," ,0,0904, ","   40.0","0,0823,+","-1.7","0,0916","-2.8","0,1028","-6.7","0,1031","-6.7","0,1031","-11.1","0,1106","0.0","0,0526","-3.3","0,0512","-6.7","0,0414","-6.7","0,0414","-8.9","0,0413","    4799.6","6","    4799.6","0","    534.3"," ,0","      616"," ,0","      6.05","0","     12.97","0","     -0.88","0"
"USC00395456","1975","45.155","-98.5826","395.0","MELLETTE 4 W, SD US","    407.0","","     407.0","0","        88","0","        43","0","         2","0","","","","","        54","0","       177","0","        93","0","       134","0","        39","0","","","","","  -31.7","0,0209, ","","","","","  30.0"," ,0,1024, ","   43.3","0,0729, ","-0.6","0,0924","-3.3","0,1001","-6.1","0,1110","-12.8","0,1113","-12.8","0,1113","0.0","0,0515","-4.4","0,0420","-4.4","0,0420","-18.9","0,0403","-18.9","0,0403","    4754.1","1","    4754.1","0","    464.6"," ,0","","","      6.05","0","     13.04","0","     -0.94","0"
"USC00395456","1976","45.155","-98.5826","395.0","MELLETTE 4 W, SD US","    499.1","","     499.1","0","        53","0","        32","0","         1","0","       63","","         9","0","        47","0","       194","0","        62","0","       151","0","        54","0","","","","","  -33.3","0,0108,+","   203"," ,0,0110, ","   147"," ,0,0102, ","  30.0"," ,0,0623, ","   42.2","0,0726, ","-4.4","0,0923","-4.4","0,0923","-4.4","0,0923","-8.9","0,1007","-8.9","0,1007","0.0","0,0516","-2.2","0,0507","-7.2","0,0506","-7.2","0,0506","-10.0","0,0321","    4360.4","4","    4360.4","0","    280.7"," ,0","      690"," ,0","      6.79","0","     15.06","0","     -1.47","0"
"USC00395456","1977","45.155","-98.5826","395.0","MELLETTE 4 W, SD US","","","","","       108","0","        67","0","         6","0","","","","","","","","","","","","","","","","","","","","","","","","","  46.2"," ,0,0615, ","","","","","","","","","","","","","","","","","","","","","","","","","","","    791.2"," ,0","","","","","","","",""
"USC00395456","1978","45.155","-98.5826","395.0","MELLETTE 4 W, SD US","    327.7","","     327.7","0","        97","0","        43","0","         7","0","      138","","        19","0","        77","0","       193","0","       104","0","       139","0","        29","0","","","         1"," ","  -35.6","0,0110, ","   660"," ,0,0222,+","    89"," ,0,0212, ","  63.5"," ,0,0629, ","   38.9","0,0905, ","-2.8","0,0920","-2.8","0,0920","-5.6","0,1007","-9.4","0,1016","-9.4","0,1016","0.0","0,0502","-3.9","0,0421","-4.4","0,0420","-7.2","0,0413","-17.2","0,0318","    5369.9","9","    5369.9","0","    567.4"," ,0","      802"," ,0","      4.09","0","     11.76","0","     -3.59","0"
"USC00395456","1979","45.155","-98.5826","395.0","MELLETTE 4 W, SD US","","","","","        91","0","        42","0","         4","0","","","","","","","","","","","","","","","","","","","","","","","","","  81.3"," ,0,0828, ","","","","","","","","","","","","","","","","","","","","","","","    5606.5","5","    5606.5"," ","    574.8"," ,0","","","","","","","",""
"USC00395456","1980","45.155","-98.5826","395.0","MELLETTE 4 W, SD US","","","","","        69","0","        36","0","         5","0","","","","","        40","0","       191","0","","","","","","","","","         1"," ","  -28.9","0,0108, ","","","","","  35.1"," ,0,0813, ","","","-0.6","0,0923","-2.2","0,1002","-7.2","0,1011","-7.2","0,1011","-11.7","0,1115","-0.6","0,0514","-5.6","0,0508","-5.6","0,0508","-7.2","0,0327","-8.9","0,0326","","","","","    452.9"," ,0","","","","","","","     -1.05","0"
"USC00395456","1981","45.155","-98.5826","395.0","MELLETTE 4 W, SD US","    301.3","","     301.3","0","        82","0","        37","0","         2","0","       34","","         8","0","        35","0","       194","0","        58","0","       145","0","        27","0","","","         1"," ","  -35.6","0,0211, ","   127"," ,0,1231, ","    51"," ,0,1230,+","  61.2"," ,0,0720, ","   40.0","0,0711, ","0.0","0,0916","-4.4","0,0917","-4.4","0,0917","-6.7","0,1022","-9.4","0,1024","0.0","0,0519","-9.4","0,0510","-9.4","0,0510","-9.4","0,0510","-9.4","0,0510","    4183.6","6","    4183.6","0","    399.2"," ,0","      346"," ,0","      7.30","0","     15.53","0","     -0.93","0"
"USC00395456","1982","45.155","-98.5826","395.0","MELLETTE 4 W, SD US","","","","","","","","","","","","","","","","","","","","","","","","","         2"," ","","","","","","","","","","","","","","","","","","","","","","","","","","","","","","","","","    5032.6","6","    5032.6"," ","","","","","","","","","",""
"USC00395456","1983","45.155","-98.5826","395.0","MELLETTE 4 W, SD US","    463.9","","     463.9","0","        99","0","        54","0","         4","0","","","        11","0","        39","0","       192","0","        79","0","       113","0","        43","0","","","         2"," ","  -38.9","0,1222, ","","","   102"," ,0,0325, ","  77.0"," ,0,0612, ","   40.6","0,0902, ","-3.3","0,0920","-3.3","0,0920","-4.4","0,0922","-7.2","0,1013","-8.9","0,1110","-1.1","0,0524","-2.8","0,0513","-4.4","0,0428","-7.8","0,0414","-11.1","0,0322","","","","","    599.6"," ,0","      603"," ,0","      6.23","0","     12.78","0","     -0.33","0"
"USC00395456","1984","45.155","-98.5826","395.0","MELLETTE 4 W, SD US","    309.5","","     309.5","0","        88","0","        49","0","         4","0","       82","","         5","0","        36","0","       188","0","        62","0","       124","0","        24","0","         3"," ","","","  -33.3","0,0120, ","   229"," ,0,1202,+","   229"," ,0,1201, "," 116.6"," ,0,0820, ","   37.2","0,0828,+","0.0","0,0923","-7.8","0,0925","-7.8","0,0925","-7.8","0,0925","-12.2","0,1027","-1.1","0,0525","-3.3","0,0501","-5.6","0,0430","-14.4","0,0316","-14.4","0,0316","    4814.3","3","    4814.3","0","    706.7"," ,0","      643"," ,0","      6.22","0","     12.98","0","     -0.54","0"
"USC00395456","1985","45.155","-98.5826","395.0","MELLETTE 4 W, SD US","    219.7","","     219.7","0","        82","0","        44","0","         4","0","      109","","        11","0","        63","0","       188","0","        85","0","       125","0","        21","0","","","","","  -32.8","0,0118, ","   508"," ,0,0304,+","   224"," ,0,0302, ","  65.5"," ,0,0827, ","   38.3","0,0712, ","-2.2","0,0923","-2.2","0,0923","-4.4","0,0925","-10.6","0,1030","-10.6","0,1030","-0.6","0,0506","-5.0","0,0426","-5.0","0,0426","-7.2","0,0408","-8.9","0,0407","    4669.7","7","    4669.7","0","    553.8"," ,0","     1101"," ,0","      4.72","0","     12.21","0","     -2.77","0"
"USC00395456","1986","45.155","-98.5826","395.0","MELLETTE 4 W, SD US","    278.3","","     278.3","0","        95","0","        56","0","         6","0","       92","","         9","0","        34","0","       169","0","        68","0","       128","0","        15","0","","","","","  -31.7","0,0107, ","   508"," ,0,0223, ","   330"," ,0,0414, ","  92.2"," ,0,0509, ","   38.3","0,0724, ","-1.7","0,1004","-2.8","0,1010","-4.4","0,1012","-7.2","0,1013","-11.1","0,1101","0.0","0,0502","-2.2","0,0421","-7.8","0,0415","-7.8","0,0415","-11.1","0,0321","    5027.1","1","    5027.1","0","    695.6"," ,0","     1002"," ,0","      6.56","0","     13.13","0","     -0.02","0"
"USC00395456","1987","45.155","-98.5826","395.0","MELLETTE 4 W, SD US","    431.2","","     431.2","0","        77","0","        36","0","         2","0","       19","","         6","0","         9","0","       179","0","        38","0","       153","0","        46","0","         1"," ","","","  -27.2","0,0123, ","   127"," ,0,0324, ","   132"," ,0,0324, ","  27.9"," ,0,0905, ","   41.7","0,0801, ","-0.6","0,1002","-6.7","0,1007","-6.7","0,1007","-6.7","0,1007","-11.7","0,1010","-2.2","0,0422","-2.2","0,0422","-5.6","0,0411","-7.8","0,0402","-10.6","0,0330","    3954.2","2","    3954.2","0","    328.3"," ,0","      522"," ,0","      8.82","0","     16.24","0","      1.40","0"
"USC00395456","1988","45.155","-98.5826","395.0","MELLETTE 4 W, SD US","    558.9","","     558.9","0","        67","0","        40","0","         6","0","       52","","        10","0","        47","0","       190","0","        73","0","       151","0","        47","0","         1"," ","","","  -37.8","0,0211, ","   254"," ,0,1229,+","   119"," ,0,1227, ","  40.6"," ,0,0802, ","   43.3","0,0625, ","-3.9","0,1004","-3.9","0,1004","-4.4","0,1019","-8.3","0,1026","-11.1","0,1117","-0.6","0,0516","-2.2","0,0428","-8.3","0,0420","-8.3","0,0420","-11.7","0,0419","    4492.9","9","    4492.9","0","    459.6"," ,0","      811"," ,0","      6.92","0","     14.77","0","     -0.92","0"
"USC00395456","1989","45.155","-98.5826","395.0","MELLETTE 4 W, SD US","    402.9","","     402.9","0","        90","0","        47","0","         2","0","      107","","        14","0","        52","0","       191","0","        86","0","       137","0","        36","0","         2"," ","","","  -33.9","0,1222,+","   457"," ,0,0305,+","   132"," ,0,0303, ","  86.6"," ,0,0819, ","   40.0","0,0706, ","-0.6","0,0912","-3.3","0,0923","-5.6","0,1003","-8.3","0,1018","-8.9","0,1019","-1.1","0,0507","-3.3","0,0506","-4.4","0,0418","-6.7","0,0410","-10.6","0,0322","    4783.3","3","    4783.3","0","    513.7"," ,0","     1141"," ,0","      5.38","0","     12.30","0","     -1.53","0"
"USC00395456","1990","45.155","-98.5826","395.0","MELLETTE 4 W, SD US","    335.1","","     335.1","0","        85","0","        48","0","         6","0","","","         7","0","        22","0","       194","0","        51","0","       137","0","        21","0","         9"," ","","","  -37.2","0,1231,+","","","   211"," ,0,0216, ","  75.9"," ,0,0628, ","   35.6","0,0906, ","-2.2","0,0923","-2.2","0,0923","-5.6","0,1009","-7.8","0,1018","-11.1","0,1104","-0.6","0,0511","-4.4","0,0510","-4.4","0,0510","-8.9","0,0417","-8.9","0,0417","    4508.6","6","    4508.6","0","    641.3"," ,0","      672"," ,0","      7.21","0","     14.49","0","     -0.06","0"
"USC00395456","1991","45.155","-98.5826","395.0","MELLETTE 4 W, SD US","    419.5","","     419.5","0","        80","0","        47","0","         7","0","","","         8","0","        36","0","       182","0","        67","0","       146","0","        25","0","         2"," ","","","  -29.4","0,0104, ","","","   178"," ,0,0218, ","  92.2"," ,0,0909, ","   40.0","0,0718, ","-3.9","0,0919","-3.9","0,0919","-5.0","0,1006","-10.6","0,1025","-10.6","0,1025","-2.2","0,0507","-2.2","0,0507","-4.4","0,0420","-8.9","0,0330","-8.9","0,0330","    4416.1","1","    4416.1","0","    736.8"," ,0","      764"," ,0","      7.38","0","     13.97","0","      0.79","0"
"USC00395456","1992","45.155","-98.5826","395.0","MELLETTE 4 W, SD US","    144.3","","     144.3","0","        76","0","        40","0","         3","0","","","        14","0","        17","0","       190","0","        66","0","       126","0","         9","0","         2"," ","","","  -27.2","0,1224, ","","","    97"," ,0,0108, ","  92.5"," ,0,0617, ","   36.7","0,0501, ","0.0","0,0922","-6.7","0,0928","-6.7","0,0928","-6.7","0,0928","-8.9","0,1016","-2.2","0,0526","-2.2","0,0526","-5.6","0,0426","-9.4","0,0412","-9.4","0,0412","    4269.3","3","    4269.3","0","    482.7"," ,0","      831"," ,0","      6.65","0","     13.10","0","      0.20","0"
"USC00395456","1993","45.155","-98.5826","395.0","MELLETTE 4 W, SD US","    170.8","","     170.8","0","        98","0","        61","0","         8","0","","","        21","0","        47","0","       185","0","        91","0","       109","0","         5","0","        11"," ","","","  -31.7","0,1228,+","","","   381"," ,0,1125, ","  39.4"," ,0,0829,+","   33.3","0,0826,+","0.0","0,0915","-6.1","0,1009","-6.1","0,1009","-9.4","0,1027","-9.4","0,1027","-1.7","0,0520","-2.2","0,0430","-4.4","0,0421","-14.4","0,0323","-14.4","0,0323","    4978.5","5","    4978.5","0","    738.3"," ,0","     1695"," ,0","      4.62","0","     10.87","0","     -1.62","0"
"USC00395456","1994","45.155","-98.5826","395.0","MELLETTE 4 W, SD US","    270.7","","     270.7","0","        94","0","        45","0","         3","0","","","        21","0","        51","0","       169","0","        85","0","       133","0","         5","0","         6"," ","","","  -42.8","0,0209, ","","","   224"," ,0,0106, ","  52.1"," ,0,0707, ","   33.9","0,0719, ","-1.7","0,1009","-2.2","0,1024","-5.0","0,1025","-7.2","0,1031","-12.2","0,1119","-1.1","0,0501","-2.2","0,0430","-6.1","0,0406","-9.4","0,0405","-9.4","0,0405","    5089.9","9","    5089.9","0","    514.6"," ,0","     1603"," ,0","      5.53","0","     11.97","0","     -0.91","0"
"USC00395456","1995","45.155","-98.5826","395.0","MELLETTE 4 W, SD US","    368.8","","     368.8","0","        97","0","        56","0","         3","0","","","        12","0","        37","0","       177","0","        93","0","       114","0","        16","0","         6"," ","         1"," ","  -32.2","0,0308, ","","","   198"," ,0,0305, ","  53.1"," ,0,0509, ","   36.7","0,0712, ","-2.8","0,0920","-2.8","0,0920","-6.7","0,0922","-6.7","0,0922","-10.0","0,1102","-0.6","0,0427","-2.8","0,0414","-10.0","0,0405","-10.0","0,0405","-10.0","0,0405","    4718.5","5","    4718.5","0","    637.3"," ,0","     1289"," ,0","      5.72","0","     11.50","0","     -0.06","0"
"USC00395456","1996","45.155","-98.5826","395.0","MELLETTE 4 W, SD US","    289.2","","     289.2","0","       100","0","        53","0","         4","0","","","        26","0","        63","0","       195","0","       109","0","       127","0","        15","0","         4"," ","","","  -37.8","0,0203,+","","","   229"," ,0,0227, ","  46.7"," ,0,0920, ","   34.4","0,0906,+","0.0","0,0928","-2.8","0,1003","-6.1","0,1023","-9.4","0,1030","-9.4","0,1030","0.0","0,0513","-2.2","0,0501","-4.4","0,0429","-9.4","0,0405","-9.4","0,0405","    5131.7","7","    5131.7","0","    576.0"," ,0","     2270"," ,0","      4.08","0","     10.43","0","     -2.28","0"
"USC00395456","1997","45.155","-98.5826","395.0","MELLETTE 4 W, SD US","    326.5","","     326.5","0","        96","0","        46","0","         7","0","","","        17","0","        41","0","       181","0","        85","0","       130","0","         9","0","         8"," ","","","  -35.6","0,0117, ","","","   208"," ,0,0104, ","  37.8"," ,0,0830, ","   35.0","0,0824,+","-0.6","0,1013","-2.2","0,1014","-4.4","0,1020","-7.2","0,1021","-11.1","0,1026","-1.1","0,0520","-3.3","0,0515","-4.4","0,0416","-10.6","0,0412","-10.6","0,0412","    5397.7","7","    5397.7","0","    604.0"," ,0","     1566"," ,0","      5.66","0","     11.90","0","     -0.58","0"
"USC00395456","1998","45.155","-98.5826","395.0","MELLETTE 4 W, SD US","    350.8","","     350.8","0","        99","0","        51","0","         8","0","","","        14","0","        27","0","       163","0","        63","0","       139","0","        12","0","         9"," ","         1"," ","  -35.6","0,0113, ","","","   175"," ,0,1110, ","  89.4"," ,0,1017, ","   36.7","0,0911, ","-1.1","0,0922","-3.3","0,1001","-4.4","0,1105","-7.8","0,1111","-11.7","0,1112","0.0","0,0422","-2.8","0,0417","-4.4","0,0404","-6.7","0,0320","-14.4","0,0315","    4288.5","5","    4288.5","0","    799.9"," ,0","      952"," ,0","      7.73","0","     13.82","0","      1.64","0"
"USC00395456","1999","45.155","-98.5826","395.0","MELLETTE 4 W, SD US","    315.8","","     315.8","0","        83","0","        41","0","         5","0","","","         9","0","        20","0","       182","0","        47","0","       126","0","        15","0","         1"," ","","","  -31.7","0,0105,+","","","   191"," ,0,0102, ","  30.0"," ,0,0903, ","   36.1","0,0730, ","0.0","0,0927","-5.6","0,1002","-5.6","0,1002","-7.2","0,1028","-11.1","0,1124","-2.2","0,0423","-2.2","0,0423","-4.4","0,0418","-8.9","0,0325","-8.9","0,0325","    4124.9","9","    4124.9","0","    474.2"," ,0","      730"," ,0","      7.79","0","     14.42","0","      1.16","0"
"USC00395456","2000","45.155","-98.5826","395.0","MELLETTE 4 W, SD US","    321.7","","     321.7","0","       100","0","        58","0","         4","0","","","        16","0","        44","0","       172","0","        84","0","       136","0","        18","0","         3"," ","","","  -32.2","0,1224, ","","","   231"," ,0,1112, ","  48.3"," ,0,0805, ","   38.3","0,0609, ","-5.0","0,0924","-5.0","0,0924","-5.0","0,0924","-10.0","0,1008","-10.0","0,1008","-0.6","0,0514","-2.2","0,0421","-5.0","0,0416","-7.8","0,0408","-10.0","0,0404","    4052.7","7","    4052.7","0","    609.9"," ,0","     1634"," ,0","      6.44","0","     13.49","0","     -0.61","0"
"USC00395456","2001","45.155","-98.5826","395.0","MELLETTE 4 W, SD US","    421.3","","     421.3","0","        80","0","        44","0","         3","0","      128","","        15","0","        43","0","       173","0","        84","0","       139","0","        29","0","         1"," ","","","  -32.2","0,0210, ","   635"," ,0,0225,+","   318"," ,0,0208, ","  37.3"," ,0,0610, ","   36.7","0,0625, ","0.0","0,0924","-3.3","0,1005","-4.4","0,1006","-7.8","0,1026","-8.9","0,1119","-2.2","0,0424","-2.2","0,0424","-5.0","0,0418","-7.2","0,0417","-9.4","0,0328","    5173.3","3","    5173.3","0","    506.6"," ,0","     1668"," ,0","      6.57","0","     13.14","0","      0.00","0"
"USC00395456","2002","45.155","-98.5826","395.0","MELLETTE 4 W, SD US","    483.6","","     483.6","0","        85","0","        41","0","         5","0","","","        11","0","        21","0","       200","0","        63","0","       131","0","        38","0","         1"," ","","","  -23.9","0,0310,+","","","   137"," ,0,1031, ","  42.9"," ,0,0821, ","   41.7","0,0630, ","-1.1","0,0927","-4.4","0,1009","-4.4","0,1009","-7.2","0,1013","-9.4","0,1023","-2.2","0,0524","-2.2","0,0524","-7.2","0,0502","-7.2","0,0502","-11.7","0,0404","    4385.5","5","    4385.5","0","    445.5"," ,0","      855"," ,0","      6.94","0","     13.74","0","      0.15","0"
"USC00395456","2003","45.155","-98.5826","395.0","MELLETTE 4 W, SD US","","","","","","","","","","","","","","","","","","","","","","","","","         8"," ","        12"," ","","","","","","","","","","","","","","","","","","","","","","","","","","","","","","","","","","","","","","","","","","","",""
"USC00395456","2004","45.155","-98.5826","395.0","MELLETTE 4 W, SD US","","","","","        97","0","        47","0","         4","0","","","         8","0","","","","","","","","","","","        15"," ","        12"," ","","","","","   114"," ,0,0129, ","  39.6"," ,0,0706, ","","","","","","","","","","","","","","","","","","","","","","","","","","","    637.5"," ,0","      449"," ,0","","","","","",""
"USC00395456","2005","45.155","-98.5826","395.0","MELLETTE 4 W, SD US","","","","","        82","0","        50","0","         2","0","","","        10","0","","","","","","","","","","","         8"," ","         5"," ","","","","","   114"," ,0,1203, ","  77.2"," ,0,0612, ","","","","","","","","","","","","","","","","","","","","","","","","","","","    561.5"," ,0","      692"," ,0","","","","","",""
"USC00395456","2006","45.155","-98.5826","395.0","MELLETTE 4 W, SD US","    391.1","","     391.1","0","        80","0","        36","0","         2","0","","","         9","0","        10","0","       178","0","        44","0","       139","0","        33","0","         8"," ","         1"," ","  -25.0","0,0218,+","","","   140"," ,0,0311, ","  40.6"," ,0,0524, ","   45.0","0,0716, ","-2.2","0,0920","-2.2","0,0920","-5.6","0,1012","-6.7","0,1014","-9.4","0,1019","-0.6","0,0513","-2.8","0,0427","-6.7","0,0426","-6.7","0,0426","-8.9","0,0324","","","","","    385.1"," ,0","      559"," ,0","      7.88","0","     14.90","0","      0.85","0"
"USC00395456","2007","45.155","-98.5826","395.0","MELLETTE 4 W, SD US","    355.5","","     355.5","0","        85","0","        49","0","         6","0","","","        18","0","        47","0","       175","0","        94","0","       135","0","        20","0","         6"," ","         1"," ","  -33.3","0,0216, ","","","   140"," ,0,1202, "," 171.5"," ,0,0506, ","   40.0","0,0708, ","0.0","0,0915","-3.3","0,1027","-5.6","0,1028","-8.3","0,1106","-8.9","0,1107","-1.1","0,0419","-2.2","0,0415","-5.0","0,0414","-7.8","0,0410","-13.9","0,0409","    4595.4","4","    4595.4","0","    774.8"," ,0","     1000"," ,0","      6.10","0","     12.68","0","     -0.47","0"
"USC00395456","2008","45.155","-98.5826","395.0","MELLETTE 4 W, SD US","    236.7","","     236.7","0","        85","0","        56","0","         7","0","","","        20","0","        54","0","       193","0","        90","0","       129","0","         8","0","         1"," ","","","  -32.2","0,0220, ","","","   152"," ,0,0407, ","  35.6"," ,0,0719,+","   33.9","0,0711, ","-1.7","0,1014","-3.9","0,1016","-5.0","0,1027","-7.2","0,1028","-9.4","0,1109","0.0","0,0521","-2.2","0,0511","-6.7","0,0429","-6.7","0,0429","-12.2","0,0408","    5053.7","7","    5053.7","0","    617.8"," ,0","     1078"," ,0","      4.88","0","     11.75","0","     -2.01","0"
"USC00395456","2009","45.155","-98.5826","395.0","MELLETTE 4 W, SD US","    146.8","","     146.8","0","        90","0","        59","0","         4","0","","","        22","0","        48","0","       178","0","        88","0","       119","0","         4","0","         5"," ","","","  -35.6","0,0116,+","","","   203"," ,0,0331, ","  77.5"," ,0,0714, ","   35.6","0,0520, ","-5.0","0,1009","-5.0","0,1009","-5.0","0,1009","-6.7","0,1010","-10.6","0,1203","0.0","0,0516","-2.8","0,0411","-8.3","0,0408","-8.3","0,0408","-10.0","0,0403","    5085.2","2","    5085.2","0","    658.7"," ,0","     1421"," ,0","      4.93","0","     11.14","0","     -1.28","0"
"USC00395456","2010","45.155","-98.5826","395.0","MELLETTE 4 W, SD US","    346.7","","     346.7","0","        94","0","        62","0","         4","0","","","        18","0","        45","0","       172","0","        97","0","       133","0","        18","0","        10"," ","         2"," ","  -33.9","0,0109,+","","","   127"," ,0,1231,+","  47.8"," ,0,0704, ","   36.1","0,0823, ","-0.6","0,1017","-2.2","0,1018","-5.6","0,1028","-6.7","0,1106","-10.0","0,1120","-0.6","0,0508","-2.8","0,0409","-5.0","0,0326","-6.7","0,0321","-8.9","0,0305","    4783.8","8","    4783.8","0","    699.8"," ,0","      989"," ,0","      6.21","0","     12.11","0","      0.31","0"
"USC00395456","2011","45.155","-98.5826","395.0","MELLETTE 4 W, SD US","    333.7","","     333.7","K","        81","K","        49","K","         1","K","","","","","        54","K","       188","K","        84","K","       119","K","        13","K","        12"," ","","","  -31.7","K,0203, ","","","","","  40.6"," ,K,0621, ","   37.2","K,0802,+","-0.6","K,0915","-2.2","K,1017","-4.4","K,1019","-6.7","K,1021","-9.4","K,1103","-1.1","K,0504","-5.0","K,0417","-5.0","K,0417","-7.2","K,0416","-12.2","K,0325","    5176.7","7","    5176.7","K","    507.8"," ,K","","","      5.39","K","     11.66","K","     -0.87","K"
"USC00395456","2012","45.155","-98.5826","395.0","MELLETTE 4 W, SD US","    385.6","","     385.6","7","        80","7","        46","7","         2","7","","","","","        27","7","       181","7","        59","7","       145","7","        30","7","         6"," ","         2"," ","  -25.6","7,1211,+","","","","","  57.4"," ,7,0718, ","   37.8","7,0703, ","-1.1","7,0918","-4.4","7,0923","-4.4","7,0923","-8.3","7,1007","-9.4","7,1027","-1.1","7,0418","-8.3","7,0412","-8.3","7,0412","-8.3","7,0412","-12.2","7,0305","    4013.8","8","    4013.8","7","    454.1"," ,7","","","      7.75","7","     15.01","7","      0.50","7"
"USC00395456","2013","45.155","-98.5826","395.0","MELLETTE 4 W, SD US","","","","","","","","","","","","","","","","","","","","","","","","","         6"," ","","","","","","","","","","","","","","","","","","","","","","","","","","","","","","","","","    5208.4","4","    5208.4","7","","","","","","","","","",""
"USC00395456","2014","45.155","-98.5826","395.0","MELLETTE 4 W, SD US","    194.2","","     194.2","7","        83","7","        39","7","         2","7","","","","","        60","7","       186","7","        92","7","       122","7","         3","7","         6"," ","","","  -31.7","7,0103, ","","","","","  30.0"," ,7,0619, ","   33.3","7,0721, ","-2.2","7,1004","-2.2","7,1004","-4.4","7,1011","-11.7","7,1031","-11.7","7,1031","-1.1","7,0518","-3.3","7,0517","-9.4","7,0422","-9.4","7,0422","-9.4","7,0422","","","","","    418.5"," ,7","","","      4.69","7","     11.36","7","     -1.98","7"
"USC00395456","2015","45.155","-98.5826","395.0","MELLETTE 4 W, SD US","    320.5","","     320.5","7","        85","7","        39","7","         6","7","","","        12","7","        41","7","       180","7","        64","7","       148","7","        19","7","         4"," ","","","  -28.9","7,0228, ","","","   152"," ,7,1201, ","  57.4"," ,7,0819,+","   36.7","7,0610, ","-2.2","7,1010","-2.2","7,1010","-4.4","7,1016","-7.8","7,1113","-9.4","7,1114","0.0","7,0520","-6.7","7,0423","-6.7","7,0423","-6.7","7,0423","-8.9","7,0404","    4688.5","5","    4688.5","7","    608.2"," ,7","      658"," ,7","      7.10","7","     14.21","7","     -0.02","7"
"USC00395456","2016","45.155","-98.5826","395.0","MELLETTE 4 W, SD US","    341.7","","     341.7","7","        84","7","        50","7","         2","7","","","","","        20","7","       180","7","        59","7","       152","7","        18","7","         4"," ","         1"," ","  -40.6","7,1219, ","","","","","  53.3"," ,7,0811, ","   35.6","7,0704, ","0.0","7,1006","-2.2","7,1007","-4.4","7,1013","-10.6","7,1119","-10.6","7,1119","-1.7","7,0515","-2.2","7,0514","-4.4","7,0414","-7.2","7,0412","-8.9","7,0409","    4098.9","9","    4098.9","7","    523.7"," ,7","","","      7.85","7","     14.61","7","      1.08","7"
"USC00395456","2017","45.155","-98.5826","395.0","MELLETTE 4 W, SD US","","","","","","","","","","","","","","","","","","","","","","","","","         2"," ","","","","","","","","","","","","","","","","","","","","","","","","","","","","","","","","","","","","","","","","","","","","","",""
