"STATION","DATE","LATITUDE","LONGITUDE","ELEVATION","NAME","CDSD","CDSD_ATTRIBUTES","CLDD","CLDD_ATTRIBUTES","DT00","DT00_ATTRIBUTES","DT32","DT32_ATTRIBUTES","DX32","DX32_ATTRIBUTES","DX70","DX70_ATTRIBUTES","DX90","DX90_ATTRIBUTES","EMNT","EMNT_ATTRIBUTES","EMXT","EMXT_ATTRIBUTES","FZF0","FZF0_ATTRIBUTES","FZF1","FZF1_ATTRIBUTES","FZF2","FZF2_ATTRIBUTES","FZF3","FZF3_ATTRIBUTES","FZF4","FZF4_ATTRIBUTES","FZF5","FZF5_ATTRIBUTES","FZF6","FZF6_ATTRIBUTES","FZF7","FZF7_ATTRIBUTES","FZF8","FZF8_ATTRIBUTES","FZF9","FZF9_ATTRIBUTES","HDSD","HDSD_ATTRIBUTES","HTDD","HTDD_ATTRIBUTES","TAVG","TAVG_ATTRIBUTES","TMAX","TMAX_ATTRIBUTES","TMIN","TMIN_ATTRIBUTES"
"USR0000ABIL","2005","61.5183","-149.9078","30.5","BIG LAKE ALASKA, AK US","     22.3","","      22.3","U","        28","U","       185","U","        96","U","        74","U","         0","U","  -28.3","U,0112, ","   31.7","U,0812, ","0.0","U,1008","-2.2","U,1010","-4.4","U,1016","-8.3","U,1026","-8.9","U,1029","-0.6","U,0505","-3.3","U,0419","-5.0","U,0418","-9.4","U,0402","-9.4","U,0402","    5079.4","4","    5079.4","U","      3.98","U","      9.25","U","     -1.29","U"
"USR0000ABIL","2006","61.5183","-149.9078","30.5","BIG LAKE ALASKA, AK US","      3.1","","       3.1","U","        56","U","       202","U","       114","U","        50","U","         0","U","  -34.4","U,0127, ","   29.4","U,0526, ","-1.1","U,0930","-2.2","U,1014","-4.4","U,1024","-7.2","U,1027","-9.4","U,1028","0.0","U,0513","-3.3","U,0501","-4.4","U,0426","-9.4","U,0416","-9.4","U,0416","    5718.8","8","    5718.8","U","      1.90","U","      7.10","U","     -3.31","U"
"USR0000ABIL","2007","61.5183","-149.9078","30.5","BIG LAKE ALASKA, AK US","      9.2","","       9.2","U","        45","U","       194","U","       112","U","        62","U","         1","U","  -35.0","U,0109, ","   32.2","U,0620, ","-2.8","U,1004","-2.8","U,1004","-4.4","U,1008","-6.7","U,1010","-9.4","U,1115","-0.6","U,0519","-2.2","U,0430","-5.0","U,0413","-7.2","U,0403","-10.6","U,0402","    6040.4","4","    6040.4","U","      2.56","U","      7.93","U","     -2.81","U"
"USR0000ABIL","2009","61.5183","-149.9078","30.5","BIG LAKE ALASKA, AK US","","","","","","","","","","","","","","","","","","","","","","","","","","","","","","","","","","","","","","","    6129.2","2","    6129.2","U","","","","","",""
"USR0000ABIL","2011","61.5183","-149.9078","30.5","BIG LAKE ALASKA, AK US","","","","","","","","","","","","","","","","","","","","","","","","","","","","","","","","","","","","","","","    5783.8","8","    5783.8","U","","","","","",""
