"STATION","DATE","LATITUDE","LONGITUDE","ELEVATION","NAME","CDSD","CDSD_ATTRIBUTES","CLDD","CLDD_ATTRIBUTES","DT00","DT00_ATTRIBUTES","DT32","DT32_ATTRIBUTES","DX32","DX32_ATTRIBUTES","DX70","DX70_ATTRIBUTES","DX90","DX90_ATTRIBUTES","EMNT","EMNT_ATTRIBUTES","EMXT","EMXT_ATTRIBUTES","FZF0","FZF0_ATTRIBUTES","FZF1","FZF1_ATTRIBUTES","FZF2","FZF2_ATTRIBUTES","FZF3","FZF3_ATTRIBUTES","FZF4","FZF4_ATTRIBUTES","FZF5","FZF5_ATTRIBUTES","FZF6","FZF6_ATTRIBUTES","FZF7","FZF7_ATTRIBUTES","FZF8","FZF8_ATTRIBUTES","FZF9","FZF9_ATTRIBUTES","HDSD","HDSD_ATTRIBUTES","HTDD","HTDD_ATTRIBUTES","TAVG","TAVG_ATTRIBUTES","TMAX","TMAX_ATTRIBUTES","TMIN","TMIN_ATTRIBUTES"
"USR0000MHOT","1992","47.6156","-114.6694","902.2","HOT SPRINGS MONTANA, MT US","    226.1","","     226.1","U","         1","U","       134","U","        29","U","       125","U","        27","U","  -18.3","U,1228, ","   38.3","U,0814, ","0.0","U,0824","-2.8","U,1007","-4.4","U,1121","-9.4","U,1123","-9.4","U,1123","0.0","U,0516","-2.2","U,0424","-5.6","U,0408","-10.0","U,0206","-10.0","U,0206","    3307.4","4","    3307.4","U","      9.20","U","     15.34","U","      3.05","U"
"USR0000MHOT","1994","47.6156","-114.6694","902.2","HOT SPRINGS MONTANA, MT US","    326.4","","     326.4","U","         3","U","       135","U","        20","U","       130","U","        40","U","  -22.2","U,0208, ","   39.4","U,0721, ","0.0","U,1004","-2.8","U,1029","-5.6","U,1030","-7.2","U,1117","-11.7","U,1118","-2.8","U,0429","-2.8","U,0429","-6.1","U,0325","-6.7","U,0324","-8.9","U,0226","    3645.2","2","    3645.2","U","      9.50","U","     16.02","U","      2.98","U"
"USR0000MHOT","1995","47.6156","-114.6694","902.2","HOT SPRINGS MONTANA, MT US","    142.3","","     142.3","U","         0","U","       138","U","        34","U","       106","U","        14","U","  -16.1","U,1208, ","   34.4","U,0902,+","-2.8","U,0921","-2.8","U,0921","-5.6","U,1030","-7.2","U,1031","-9.4","U,1101","-1.1","U,0501","-2.8","U,0420","-5.0","U,0416","-9.4","U,0306","-9.4","U,0306","    3628.4","4","    3628.4","U","      8.51","U","     14.24","U","      2.79","U"
"USR0000MHOT","1996","47.6156","-114.6694","902.2","HOT SPRINGS MONTANA, MT US","    215.7","","     215.7","U","         9","U","       162","U","        54","U","       113","U","        32","U","  -29.4","U,0201, ","   37.8","U,0811,+","-2.8","U,0923","-2.8","U,0923","-6.1","U,1017","-6.7","U,1021","-9.4","U,1116","-1.1","U,0510","-2.8","U,0505","-8.9","U,0328","-8.9","U,0328","-8.9","U,0328","    4105.6","6","    4105.6","U","      7.16","U","     13.42","U","      0.90","U"
"USR0000MHOT","1997","47.6156","-114.6694","902.2","HOT SPRINGS MONTANA, MT US","    126.2","","     126.2","U","         6","U","       140","U","        46","U","       112","U","         8","U","  -21.7","U,0114, ","   35.6","U,0804,+","-2.2","U,1008","-2.2","U,1008","-4.4","U,1025","-7.8","U,1112","-8.9","U,1114","-1.7","U,0502","-2.2","U,0413","-7.2","U,0412","-7.2","U,0412","-12.8","U,0315","    3947.0","0","    3947.0","U","      8.05","U","     13.74","U","      2.35","U"
"USR0000MHOT","1998","47.6156","-114.6694","902.2","HOT SPRINGS MONTANA, MT US","    351.0","","     351.0","U","         7","U","       137","U","        18","U","       133","U","        43","U","  -24.4","U,1221, ","   38.9","U,0805, ","-1.1","U,1004","-5.0","U,1016","-5.0","U,1016","-6.7","U,1109","-14.4","U,1218","-1.7","U,0516","-2.2","U,0418","-5.0","U,0330","-7.2","U,0308","-9.4","U,0307","    3533.7","7","    3533.7","U","      9.73","U","     16.10","U","      3.36","U"
"USR0000MHOT","1999","47.6156","-114.6694","902.2","HOT SPRINGS MONTANA, MT US","    225.6","","     225.6","U","         0","U","       140","U","        13","U","       113","U","        28","U","  -15.6","U,0126, ","   37.8","U,0727, ","-2.2","U,0927","-2.2","U,0927","-4.4","U,0928","-7.2","U,1204","","","-2.2","U,0511","-2.2","U,0511","-5.0","U,0415","-7.8","U,0402","-8.9","U,0212","    3522.0","0","    3522.0","U","      9.32","U","     15.60","U","      3.05","U"
"USR0000MHOT","2000","47.6156","-114.6694","902.2","HOT SPRINGS MONTANA, MT US","    242.2","","     242.2","U","         1","U","       161","U","        50","U","       115","U","        32","U","  -17.8","U,1221, ","   40.0","U,0730, ","-3.3","U,0922","-3.3","U,0922","-7.2","U,0923","-7.2","U,0923","-10.0","U,1109","0.0","U,0601","-5.0","U,0414","-5.0","U,0414","-13.9","U,0220","-13.9","U,0220","    3511.4","4","    3511.4","U","      8.12","U","     14.47","U","      1.77","U"
"USR0000MHOT","2001","47.6156","-114.6694","902.2","HOT SPRINGS MONTANA, MT US","    285.4","","     285.4","U","         2","U","       152","U","        48","U","       127","U","        37","U","  -19.4","U,0208, ","   40.0","U,0704, ","0.0","U,1004","-4.4","U,1005","-4.4","U,1005","-6.7","U,1128","-8.9","U,1218","-0.6","U,0507","-2.8","U,0422","-6.1","U,0404","-8.9","U,0308","-8.9","U,0308","    4246.0","0","    4246.0","U","      8.54","U","     14.99","U","      2.09","U"
"USR0000MHOT","2002","47.6156","-114.6694","902.2","HOT SPRINGS MONTANA, MT US","    242.6","","     242.6","U","         4","U","       165","U","        35","U","       117","U","        25","U","  -19.4","U,0308, ","   41.1","U,0713,+","0.0","U,0928","-2.2","U,1002","-6.1","U,1012","-6.7","U,1023","-8.9","U,1029","-1.1","U,0510","-5.0","U,0509","-5.0","U,0509","-7.8","U,0403","-8.9","U,0323","    3789.7","7","    3789.7","U","      8.16","U","     14.65","U","      1.66","U"
"USR0000MHOT","2003","47.6156","-114.6694","902.2","HOT SPRINGS MONTANA, MT US","    429.0","","     429.0","U","         3","U","       161","U","        44","U","       143","U","        52","U","  -19.4","U,1107, ","   40.6","U,0719, ","-0.6","U,1010","-2.8","U,1025","-7.8","U,1030","-7.8","U,1030","-12.2","U,1031","-1.1","U,0519","-3.3","U,0517","-5.6","U,0309","-8.3","U,0308","-11.1","U,0226","    3599.2","2","    3599.2","U","      9.43","U","     16.09","U","      2.78","U"
"USR0000MHOT","2004","47.6156","-114.6694","902.2","HOT SPRINGS MONTANA, MT US","    263.5","","     263.5","U","         3","U","       144","U","        24","U","       122","U","        29","U","  -25.0","U,0105, ","   40.0","U,0717, ","0.0","U,1010","-2.2","U,1025","-4.4","U,1028","-6.7","U,1121","-8.9","U,1222","0.0","U,0514","-2.8","U,0429","-7.8","U,0303","-7.8","U,0303","-8.9","U,0213","    3643.0","0","    3643.0","U","      9.18","U","     15.52","U","      2.85","U"
"USR0000MHOT","2005","47.6156","-114.6694","902.2","HOT SPRINGS MONTANA, MT US","","","","","         5","U","       144","U","        34","U","       121","U","        33","U","  -21.7","U,0114,+","   38.3","U,0806,+","0.0","U,0924","-2.2","U,1108","-5.0","U,1109","-7.2","U,1128","-10.0","U,1203","0.0","U,0501","-3.9","U,0429","-5.0","U,0319","-6.7","U,0224","-12.8","U,0222","    3572.5","5","    3572.5","U","      8.51","U","     15.13","U","      1.89","U"
"USR0000MHOT","2006","47.6156","-114.6694","902.2","HOT SPRINGS MONTANA, MT US","    324.4","","     324.4","U","         4","U","       147","U","        25","U","       134","U","        48","U","  -21.7","U,0218,+","   40.6","U,0722, ","0.0","U,1009","-2.8","U,1010","-5.0","U,1029","-11.7","U,1030","-11.7","U,1030","0.0","U,0510","-2.2","U,0509","-4.4","U,0320","-8.9","U,0313","-8.9","U,0313","","","","","      9.38","U","     15.91","U","      2.84","U"
"USR0000MHOT","2007","47.6156","-114.6694","902.2","HOT SPRINGS MONTANA, MT US","    389.4","","     389.4","U","         2","U","       136","U","        31","U","       132","U","        53","U","  -18.9","U,0112, ","   41.1","U,0714, ","-0.6","U,0930","-3.9","U,1026","-5.0","U,1027","-7.8","U,1120","-9.4","U,1121","-1.7","U,0421","-2.2","U,0404","-10.0","U,0302","-10.0","U,0302","-10.0","U,0302","    3567.6","6","    3567.6","U","      9.52","U","     16.01","U","      3.02","U"
"USR0000MHOT","2008","47.6156","-114.6694","902.2","HOT SPRINGS MONTANA, MT US","    223.4","","     223.4","U","        11","U","       168","U","        27","U","       112","U","        25","U","  -23.9","U,1216, ","   41.1","U,0818, ","-1.1","U,1008","-2.8","U,1009","-5.0","U,1022","-7.8","U,1124","-10.0","U,1204","0.0","U,0611","-2.8","U,0426","-6.7","U,0421","-6.7","U,0421","-16.7","U,0126","    3838.6","6","    3838.6","U","      8.11","U","     14.57","U","      1.65","U"
"USR0000MHOT","2009","47.6156","-114.6694","902.2","HOT SPRINGS MONTANA, MT US","    253.4","","     253.4","U","         9","U","       153","U","        43","U","       124","U","        20","U","  -22.2","U,1208, ","   36.7","U,0723, ","-3.3","U,1006","-3.3","U,1006","-8.9","U,1009","-8.9","U,1009","-8.9","U,1009","0.0","U,0521","-2.2","U,0501","-5.0","U,0327","-8.9","U,0314","-8.9","U,0314","    3840.9","9","    3840.9","U","      8.25","U","     14.59","U","      1.91","U"
"USR0000MHOT","2010","47.6156","-114.6694","902.2","HOT SPRINGS MONTANA, MT US","    173.2","","     173.2","U","         3","U","       156","U","        32","U","       100","U","        19","U","  -24.4","U,1124, ","   36.1","U,0826,+","-2.2","U,1012","-2.2","U,1012","-6.1","U,1119","-10.6","U,1120","-10.6","U,1120","-0.6","U,0510","-2.8","U,0507","-5.0","U,0410","-7.8","U,0222","-10.0","U,0111","    3859.1","1","    3859.1","U","      8.17","U","     14.07","U","      2.27","U"
"USR0000MHOT","2011","47.6156","-114.6694","902.2","HOT SPRINGS MONTANA, MT US","    230.0","","     230.0","U","        10","U","       152","U","        33","U","       112","U","        31","U","  -24.4","U,0226, ","   36.1","U,0826, ","-1.7","U,1017","-3.3","U,1025","-5.0","U,1026","-6.7","U,1102","-13.3","U,1116","-0.6","U,0502","-2.8","U,0430","-4.4","U,0420","-13.9","U,0227","-13.9","U,0227","    4086.8","8","    4086.8","U","      8.12","U","     14.22","U","      2.01","U"
"USR0000MHOT","2012","47.6156","-114.6694","902.2","HOT SPRINGS MONTANA, MT US","    278.9","","     278.9","U","         0","U","       152","U","        26","U","       122","U","        33","U","  -12.2","U,0124, ","   37.8","U,0712, ","0.0","U,1003","-4.4","U,1005","-4.4","U,1005","-7.2","U,1110","-11.1","U,1209","-2.2","U,0511","-2.2","U,0511","-4.4","U,0408","-10.0","U,0228","-10.0","U,0228","    3603.3","3","    3603.3","U","      9.34","U","     15.52","U","      3.17","U"
"USR0000MHOT","2013","47.6156","-114.6694","902.2","HOT SPRINGS MONTANA, MT US","    222.9","","     222.9","U","         6","U","       163","U","        27","U","       120","U","        39","U","  -25.6","U,1208, ","   39.4","U,0702, ","0.0","U,0920","-2.8","U,0927","-6.7","U,1004","-6.7","U,1004","-8.9","U,1015","-1.7","U,0502","-2.2","U,0501","-6.7","U,0423","-6.7","U,0423","-8.9","U,0304","    3487.2","2","    3487.2","U","      8.15","U","     15.18","U","      1.12","U"
"USR0000MHOT","2014","47.6156","-114.6694","902.2","HOT SPRINGS MONTANA, MT US","    165.2","","     165.2","U","        12","U","       171","U","        54","U","       124","U","        31","U","  -29.4","U,0207, ","   37.2","U,0729, ","-1.1","U,0911","-5.0","U,0912","-5.0","U,0912","-7.2","U,1003","-8.9","U,1110","0.0","U,0530","-2.2","U,0513","-5.6","U,0429","-6.7","U,0419","-8.9","U,0414","    4122.0","0","    4122.0","U","      7.48","U","     14.56","U","      0.39","U"
"USR0000MHOT","2015","47.6156","-114.6694","902.2","HOT SPRINGS MONTANA, MT US","    211.3","","     211.3","U","         6","U","       172","U","        37","U","       140","U","        35","U","  -20.6","U,1126,+","   40.6","U,0628, ","-0.6","U,0927","-3.9","U,0928","-5.0","U,1023","-7.2","U,1024","-8.9","U,1122","-0.6","U,0518","-2.8","U,0510","-4.4","U,0427","-6.7","U,0413","-10.0","U,0305","    3702.1","1","    3702.1","U","      8.79","U","     16.60","U","      0.99","U"
"USR0000MHOT","2016","47.6156","-114.6694","902.2","HOT SPRINGS MONTANA, MT US","    124.6","","     124.6","U","         4","U","       161","U","        30","U","       127","U","        27","U","  -35.0","U,1217, ","   35.6","U,0817,+","0.0","U,0909","-3.3","U,0913","-5.6","U,1012","-6.7","U,1127","-10.0","U,1205","0.0","U,0615","-3.9","U,0419","-4.4","U,0416","-8.9","U,0319","-8.9","U,0319","    3688.2","2","    3688.2","U","      8.19","U","     15.42","U","      0.95","U"
"USR0000MHOT","2017","47.6156","-114.6694","902.2","HOT SPRINGS MONTANA, MT US","    245.9","","     245.9","U","        19","U","       165","U","        49","U","       123","U","        50","U","  -30.6","U,1224, ","   39.4","U,0708, ","-0.6","U,0916","-2.2","U,1003","-5.0","U,1004","-8.3","U,1030","-15.6","U,1106","-3.3","U,0515","-3.3","U,0515","-6.7","U,0416","-6.7","U,0416","-11.7","U,0228","    4269.4","4","    4269.4","U","      7.33","U","     14.80","U","     -0.14","U"
"USR0000MHOT","2018","47.6156","-114.6694","902.2","HOT SPRINGS MONTANA, MT US","    119.5","","     119.5","U","         9","U","       181","U","        28","U","       124","U","        32","U","  -32.2","U,0220, ","   41.7","U,0810, ","-0.6","U,0913","-2.2","U,0925","-6.1","U,1011","-6.7","U,1018","-8.9","U,1117","-0.6","U,0612","-3.9","U,0424","-6.1","U,0406","-7.2","U,0403","-11.7","U,0307","    3939.7","7","    3939.7","U","      7.59","U","     14.90","U","      0.28","U"
"USR0000MHOT","2019","47.6156","-114.6694","902.2","HOT SPRINGS MONTANA, MT US","    124.0","","     124.0","U","        21","U","       179","U","        49","U","       111","U","        21","U","  -32.2","U,0305,+","   37.2","U,0821,+","-0.6","U,0929","-2.8","U,0930","-4.4","U,1001","-8.9","U,1010","-8.9","U,1010","-0.6","U,0504","-7.2","U,0501","-7.2","U,0501","-7.2","U,0501","-9.4","U,0322","    4402.7","7","    4402.7","U","      6.35","U","     13.61","U","     -0.92","U"
