"STATION","DATE","LATITUDE","LONGITUDE","ELEVATION","NAME","CDSD","CDSD_ATTRIBUTES","CLDD","CLDD_ATTRIBUTES","DT00","DT00_ATTRIBUTES","DT32","DT32_ATTRIBUTES","DX32","DX32_ATTRIBUTES","DX70","DX70_ATTRIBUTES","DX90","DX90_ATTRIBUTES","EMNT","EMNT_ATTRIBUTES","EMXT","EMXT_ATTRIBUTES","FZF0","FZF0_ATTRIBUTES","FZF1","FZF1_ATTRIBUTES","FZF2","FZF2_ATTRIBUTES","FZF3","FZF3_ATTRIBUTES","FZF4","FZF4_ATTRIBUTES","FZF5","FZF5_ATTRIBUTES","FZF6","FZF6_ATTRIBUTES","FZF7","FZF7_ATTRIBUTES","FZF8","FZF8_ATTRIBUTES","FZF9","FZF9_ATTRIBUTES","HDSD","HDSD_ATTRIBUTES","HTDD","HTDD_ATTRIBUTES","TAVG","TAVG_ATTRIBUTES","TMAX","TMAX_ATTRIBUTES","TMIN","TMIN_ATTRIBUTES"
"USR0000MHAR","1989","46.6228","-105.6133","755.9","HARRIS CREEK MONTANA, MT US","    453.0","","     453.0","U","        37","U","       157","U","        70","U","       133","U","        40","U","  -41.1","U,1222, ","   41.7","U,0704, ","-0.6","U,0910","-2.8","U,0911","-7.8","U,1016","-7.8","U,1016","-12.2","U,1115","-1.7","U,0501","-5.0","U,0417","-5.0","U,0417","-11.1","U,0321","-11.1","U,0321","","","","","      7.02","U","     13.08","U","      0.95","U"
"USR0000MHAR","1990","46.6228","-105.6133","755.9","HARRIS CREEK MONTANA, MT US","    485.3","","     485.3","U","        18","U","       157","U","        36","U","       137","U","        42","U","  -36.1","U,1222, ","   40.6","U,0702, ","-1.1","U,1006","-5.6","U,1007","-5.6","U,1007","-8.3","U,1105","-11.7","U,1106","-0.6","U,0510","-2.8","U,0429","-4.4","U,0417","-10.6","U,0411","-10.6","U,0411","    3709.3","3","    3709.3","U","      8.94","U","     15.59","U","      2.29","U"
"USR0000MHAR","1991","46.6228","-105.6133","755.9","HARRIS CREEK MONTANA, MT US","    467.2","","     467.2","U","        18","U","       162","U","        43","U","       134","U","        42","U","  -31.7","U,0104, ","   38.9","U,0717,+","-0.6","U,0917","-2.8","U,0918","-4.4","U,1018","-9.4","U,1027","-9.4","U,1027","-1.7","U,0504","-2.8","U,0414","-8.9","U,0327","-8.9","U,0327","-8.9","U,0327","    3833.1","1","    3833.1","U","      8.58","U","     14.71","U","      2.44","U"
"USR0000MHAR","1992","46.6228","-105.6133","755.9","HARRIS CREEK MONTANA, MT US","    258.2","","     258.2","U","        10","U","       150","U","        32","U","       126","U","        19","U","  -28.3","U,1230, ","   36.7","U,0819,+","-0.6","U,0918","-2.8","U,1014","-7.8","U,1016","-7.8","U,1016","-10.0","U,1125","-2.2","U,0422","-2.2","U,0422","-5.6","U,0412","-7.8","U,0411","-8.9","U,0309","    3450.0","0","    3450.0","U","      8.84","U","     15.47","U","      2.21","U"
"USR0000MHAR","1994","46.6228","-105.6133","755.9","HARRIS CREEK MONTANA, MT US","    393.6","","     393.6","U","        24","U","       166","U","        63","U","       143","U","        33","U","  -30.0","U,0208, ","   37.8","U,0801, ","0.0","U,1022","-3.3","U,1023","-5.0","U,1024","-7.2","U,1103","-12.2","U,1118","-2.8","U,0430","-2.8","U,0430","-5.6","U,0427","-8.3","U,0325","-9.4","U,0324","    4262.4","4","    4262.4","U","      7.85","U","     14.35","U","      1.35","U"
"USR0000MHAR","1995","46.6228","-105.6133","755.9","HARRIS CREEK MONTANA, MT US","    404.7","","     404.7","U","        21","U","       161","U","        62","U","       116","U","        36","U","  -26.7","U,1209, ","   42.2","U,0807, ","-1.7","U,0920","-7.2","U,0921","-7.2","U,0921","-7.2","U,0921","-15.6","U,1101","0.0","U,0514","-2.8","U,0427","-4.4","U,0426","-9.4","U,0411","-9.4","U,0411","    3978.9","9","    3978.9","U","      7.74","U","     14.24","U","      1.25","U"
"USR0000MHAR","1996","46.6228","-105.6133","755.9","HARRIS CREEK MONTANA, MT US","    410.2","","     410.2","U","        51","U","       173","U","        84","U","       127","U","        35","U","  -33.3","U,0130, ","   39.4","U,0704, ","-1.1","U,0927","-2.8","U,1017","-5.6","U,1018","-10.0","U,1029","-10.0","U,1029","-0.6","U,0510","-2.8","U,0509","-5.6","U,0405","-7.2","U,0404","-16.7","U,0330","    4521.4","4","    4521.4","U","      5.72","U","     11.68","U","     -0.25","U"
