"STATION","DATE","LATITUDE","LONGITUDE","ELEVATION","NAME","CDSD","CDSD_ATTRIBUTES","CLDD","CLDD_ATTRIBUTES","DT00","DT00_ATTRIBUTES","DT32","DT32_ATTRIBUTES","DX32","DX32_ATTRIBUTES","DX70","DX70_ATTRIBUTES","DX90","DX90_ATTRIBUTES","EMNT","EMNT_ATTRIBUTES","EMXT","EMXT_ATTRIBUTES","FZF0","FZF0_ATTRIBUTES","FZF1","FZF1_ATTRIBUTES","FZF2","FZF2_ATTRIBUTES","FZF3","FZF3_ATTRIBUTES","FZF4","FZF4_ATTRIBUTES","FZF5","FZF5_ATTRIBUTES","FZF6","FZF6_ATTRIBUTES","FZF7","FZF7_ATTRIBUTES","FZF8","FZF8_ATTRIBUTES","FZF9","FZF9_ATTRIBUTES","HDSD","HDSD_ATTRIBUTES","HTDD","HTDD_ATTRIBUTES","TAVG","TAVG_ATTRIBUTES","TMAX","TMAX_ATTRIBUTES","TMIN","TMIN_ATTRIBUTES"
"USR0000MSTE","2001","46.5131","-114.0911","1025.7","STEVI MONTANA, MT US","    156.6","","     156.6","U","         0","U","       179","U","        31","U","       134","U","        39","U","  -16.1","U,0217,+","   37.8","U,0806, ","-0.6","U,0920","-7.2","U,1005","-7.2","U,1005","-7.2","U,1005","-8.9","U,1128","0.0","U,0605","-2.8","U,0507","-4.4","U,0503","-7.8","U,0405","-11.1","U,0301","","","","","      8.00","U","     15.70","U","      0.30","U"
"USR0000MSTE","2002","46.5131","-114.0911","1025.7","STEVI MONTANA, MT US","","","","","","","","","","","","","","","","","","","","","","","","","","","","","","","","","","","","","","","    3932.5","5","    3932.5","U","","","","","",""
"USR0000MSTE","2003","46.5131","-114.0911","1025.7","STEVI MONTANA, MT US","    281.2","","     281.2","U","         4","U","       181","U","        28","U","       148","U","        52","U","  -23.3","U,0225, ","   41.7","U,0723, ","0.0","U,0914","-3.9","U,0918","-4.4","U,1011","-7.8","U,1025","-12.8","U,1031","-2.2","U,0520","-2.2","U,0520","-4.4","U,0419","-7.2","U,0305","-14.4","U,0227","","","","","      8.75","U","     16.66","U","      0.83","U"
"USR0000MSTE","2005","46.5131","-114.0911","1025.7","STEVI MONTANA, MT US","    142.9","","     142.9","U","        13","U","       175","U","        38","U","       125","U","        38","U","  -24.4","U,1207,+","   38.9","U,0721, ","-1.1","U,0911","-3.3","U,1006","-5.0","U,1108","-8.3","U,1109","-10.0","U,1128","0.0","U,0613","-2.8","U,0502","-7.8","U,0429","-7.8","U,0429","-8.9","U,0228","","","","","      7.45","U","     15.39","U","     -0.49","U"
"USR0000MSTE","2008","46.5131","-114.0911","1025.7","STEVI MONTANA, MT US","    144.5","","     144.5","U","        11","U","       192","U","        25","U","       120","U","        30","U","  -25.6","U,1216, ","   38.3","U,0817, ","0.0","U,0911","-3.3","U,1008","-6.7","U,1009","-6.7","U,1009","-8.9","U,1106","-3.9","U,0513","-3.9","U,0513","-4.4","U,0503","-9.4","U,0421","-9.4","U,0421","    4117.5","5","    4117.5","U","      7.34","U","     15.08","U","     -0.40","U"
"USR0000MSTE","2009","46.5131","-114.0911","1025.7","STEVI MONTANA, MT US","    169.8","","     169.8","U","         7","U","       192","U","        30","U","       130","U","        41","U","  -25.6","U,1208, ","   37.8","U,0718, ","0.0","U,0921","-3.9","U,1005","-6.1","U,1006","-6.7","U,1008","-9.4","U,1010","0.0","U,0522","-3.3","U,0521","-6.7","U,0425","-6.7","U,0425","-9.4","U,0313","    3961.9","9","    3961.9","U","      7.72","U","     15.71","U","     -0.28","U"
"USR0000MSTE","2010","46.5131","-114.0911","1025.7","STEVI MONTANA, MT US","    121.3","","     121.3","U","         5","U","       188","U","        28","U","       127","U","        29","U","  -23.9","U,1231, ","   37.8","U,0826, ","0.0","U,0906","-3.9","U,1012","-5.0","U,1018","-7.2","U,1109","-12.2","U,1120","-2.8","U,0521","-2.8","U,0521","-4.4","U,0510","-7.2","U,0505","-8.9","U,0311","    3987.3","3","    3987.3","U","      7.75","U","     15.69","U","     -0.20","U"
"USR0000MSTE","2011","46.5131","-114.0911","1025.7","STEVI MONTANA, MT US","    144.5","","     144.5","U","         7","U","       176","U","        23","U","       125","U","        44","U","  -22.2","U,0226,+","   38.3","U,0826, ","0.0","U,0921","-3.3","U,1009","-4.4","U,1018","-6.7","U,1026","-8.9","U,1102","0.0","U,0604","-2.2","U,0505","-5.0","U,0502","-6.7","U,0424","-15.0","U,0227","    4156.7","7","    4156.7","U","      7.54","U","     15.51","U","     -0.43","U"
"USR0000MSTE","2012","46.5131","-114.0911","1025.7","STEVI MONTANA, MT US","    197.2","","     197.2","U","         0","U","       183","U","        13","U","       137","U","        42","U","  -15.6","U,0124, ","   38.3","U,0807,+","-2.8","U,0912","-2.8","U,0912","-4.4","U,1004","-8.3","U,1006","-8.9","U,1112","-0.6","U,0607","-2.8","U,0512","-5.0","U,0511","-6.7","U,0407","-10.0","U,0307","    3781.8","8","    3781.8","U","      8.62","U","     16.59","U","      0.66","U"
"USR0000MSTE","2013","46.5131","-114.0911","1025.7","STEVI MONTANA, MT US","","","","","","","","","","","","","","","","","","","","","","","","","","","","","","","","","","","","","","","    3792.9","9","    3792.9","U","","","","","",""
"USR0000MSTE","2015","46.5131","-114.0911","1025.7","STEVI MONTANA, MT US","    201.8","","     201.8","U","         7","U","       172","U","        27","U","       152","U","        34","U","  -21.1","U,1127, ","   41.1","U,0628, ","-2.8","U,0928","-2.8","U,0928","-4.4","U,1023","-9.4","U,1120","-9.4","U,1120","-1.7","U,0510","-2.2","U,0503","-5.6","U,0416","-6.7","U,0407","-8.9","U,0305","    3461.6","6","    3461.6","U","      9.08","U","     17.40","U","      0.76","U"
"USR0000MSTE","2016","46.5131","-114.0911","1025.7","STEVI MONTANA, MT US","    115.7","","     115.7","U","         8","U","       164","U","        32","U","       135","U","        28","U","  -27.2","U,1217, ","   37.2","U,0829, ","-2.2","U,0913","-2.2","U,0913","-6.7","U,1012","-6.7","U,1012","-10.0","U,1206","0.0","U,0512","-3.3","U,0419","-5.6","U,0327","-8.3","U,0319","-11.1","U,0203","    3666.6","6","    3666.6","U","      8.33","U","     16.18","U","      0.48","U"
"USR0000MSTE","2017","46.5131","-114.0911","1025.7","STEVI MONTANA, MT US","    207.4","","     207.4","U","        15","U","       173","U","        39","U","       124","U","        47","U","  -30.0","U,0105, ","   38.9","U,0708, ","0.0","U,0917","-2.2","U,0924","-5.0","U,1004","-6.7","U,1030","-11.1","U,1206","0.0","U,0611","-2.2","U,0503","-5.0","U,0411","-6.7","U,0404","-9.4","U,0215","    4137.0","0","    4137.0","U","      7.50","U","     14.99","U","      0.01","U"
"USR0000MSTE","2020","46.5131","-114.0911","1025.7","STEVI MONTANA, MT US","","","","","","","","","","","","","","","","","","","","","","","","","","","","","","","","","","","","","","","    3950.0","0","    3950.0","U","","","","","",""
