"STATION","DATE","LATITUDE","LONGITUDE","ELEVATION","NAME","CDSD","CDSD_ATTRIBUTES","CLDD","CLDD_ATTRIBUTES","DP01","DP01_ATTRIBUTES","DP10","DP10_ATTRIBUTES","DP1X","DP1X_ATTRIBUTES","DSND","DSND_ATTRIBUTES","DT00","DT00_ATTRIBUTES","DT32","DT32_ATTRIBUTES","DX32","DX32_ATTRIBUTES","DX70","DX70_ATTRIBUTES","DX90","DX90_ATTRIBUTES","EMNT","EMNT_ATTRIBUTES","EMSD","EMSD_ATTRIBUTES","EMXP","EMXP_ATTRIBUTES","EMXT","EMXT_ATTRIBUTES","FZF0","FZF0_ATTRIBUTES","FZF1","FZF1_ATTRIBUTES","FZF2","FZF2_ATTRIBUTES","FZF3","FZF3_ATTRIBUTES","FZF4","FZF4_ATTRIBUTES","FZF5","FZF5_ATTRIBUTES","FZF6","FZF6_ATTRIBUTES","FZF7","FZF7_ATTRIBUTES","FZF8","FZF8_ATTRIBUTES","FZF9","FZF9_ATTRIBUTES","HDSD","HDSD_ATTRIBUTES","HTDD","HTDD_ATTRIBUTES","PRCP","PRCP_ATTRIBUTES","TAVG","TAVG_ATTRIBUTES","TMAX","TMAX_ATTRIBUTES","TMIN","TMIN_ATTRIBUTES"
"USS0016G07S","1981","42.6","-116.56","1746.5","MUD FLAT, ID US","","","","","        91","T","        91","T","         1","T","","","","","","","","","","","","","","","","","  30.5"," ,T,0419, ","","","","","","","","","","","","","","","","","","","","","","","","","","","    516.7"," ,T","","","","","",""
"USS0016G07S","1985","42.6","-116.56","1746.5","MUD FLAT, ID US","","","","","        62","T","        62","T","         0","T","","","","","","","","","","","","","","","","","  22.9"," ,T,1124, ","","","","","","","","","","","","","","","","","","","","","","","","","","","    377.7"," ,T","","","","","",""
"USS0016G07S","1986","42.6","-116.56","1746.5","MUD FLAT, ID US","","","","","        67","T","        67","T","         2","T","","","","","","","         9","T","       110","T","        13","T","","","","","  40.6"," ,T,0217, ","   34.8","T,0702, ","","","","","","","","","","","","","","","","","","","","","","","","","    469.3"," ,T","","","     14.97","T","",""
"USS0016G07S","1987","42.6","-116.56","1746.5","MUD FLAT, ID US","","","","","        69","T","        69","T","         1","T","","","","","","","        41","T","       133","T","        10","T","","","","","  25.4"," ,T,0516, ","   35.2","T,0804, ","","","","","","","","","","","","","","","","","","","","","","","","","    364.4"," ,T","","","     15.12","T","",""
"USS0016G07S","1988","42.6","-116.56","1746.5","MUD FLAT, ID US","","","","","        76","T","        76","T","         1","T","","","","","","","","","","","","","","","","","  38.1"," ,T,0625, ","","","","","","","","","","","","","","","","","","","","","","","","","","","    440.8"," ,T","","","","","",""
"USS0016G07S","1989","42.6","-116.56","1746.5","MUD FLAT, ID US","","","","","        59","T","        59","T","         1","T","","","","","","","","","","","","","","","","","  30.5"," ,T,0917, ","","","","","","","","","","","","","","","","","","","","","","","","","","","    321.6"," ,T","","","","","",""
"USS0016G07S","1990","42.6","-116.56","1746.5","MUD FLAT, ID US","","","","","        83","T","        83","T","         1","T","","","","","","","        55","T","       102","T","        15","T","","","","","  38.1"," ,T,0528, ","   36.7","T,0806, ","","","","","","","","","","","","","","","","","","","","","","","","","    407.3"," ,T","","","     13.58","T","",""
"USS0016G07S","1991","42.6","-116.56","1746.5","MUD FLAT, ID US","","","","","        72","T","        72","T","         1","T","","","","","","","        35","T","       113","T","        13","T","","","","","  27.9"," ,T,0517, ","   34.7","T,0809, ","","","","","","","","","","","","","","","","","","","","","","","","","    379.6"," ,T","","","     13.39","T","",""
"USS0016G07S","1992","42.6","-116.56","1746.5","MUD FLAT, ID US","","","","","        61","T","        61","T","         1","T","","","","","","","        37","T","       129","T","        19","T","","","","","  30.5"," ,T,1208, ","   36.5","T,0801, ","","","","","","","","","","","","","","","","","","","","","","","","","    318.9"," ,T","","","     15.03","T","",""
"USS0016G07S","1993","42.6","-116.56","1746.5","MUD FLAT, ID US","","","","","        73","T","        73","T","         1","T","","","","","","","","","","","","","","","","","  35.6"," ,T,0113, ","","","","","","","","","","","","","","","","","","","","","","","","","","","    394.7"," ,T","","","","","",""
"USS0016G07S","1994","42.6","-116.56","1746.5","MUD FLAT, ID US","    158.1","","     158.1","T","        66","T","        66","T","         0","T","","","        20","T","       209","T","        39","T","       124","T","        26","T","  -23.5","T,1122,+","","","  15.2"," ,T,1203,+","   36.8","T,0728, ","-1.6","T,0905","-4.6","T,1003","-4.6","T,1003","-6.7","T,1028","-9.4","T,1029","-0.6","T,0616","-5.0","T,0608","-5.0","T,0608","-7.8","T,0408","-12.0","T,0323","","","","","    311.1"," ,T","      6.13","T","     14.48","T","     -2.22","T"
"USS0016G07S","1995","42.6","-116.56","1746.5","MUD FLAT, ID US","     52.5","","      52.5","T","        99","T","        99","T","         1","T","","","         5","T","       217","T","        17","T","        98","T","         8","T","  -20.1","T,0215, ","","","  30.5"," ,T,0113, ","   33.7","T,0728, ","-1.9","T,0808","-4.3","T,0930","-6.3","T,1004","-9.3","T,1005","-9.3","T,1005","-1.6","T,0731","-2.3","T,0620","-4.9","T,0513","-10.1","T,0415","-10.1","T,0415","    4701.4","4","    4701.4","T","    524.6"," ,T","      6.20","T","     13.97","T","     -1.57","T"
"USS0016G07S","1996","42.6","-116.56","1746.5","MUD FLAT, ID US","    111.1","","     111.1","T","        93","T","        93","T","         1","T","","","        18","T","       215","T","        37","T","       114","T","        19","T","  -30.3","T,0202,+","","","  27.9"," ,T,1204, ","   35.4","T,0727, ","-2.2","T,0819","-2.2","T,0819","-4.4","T,0906","-10.2","T,1016","-10.2","T,1016","-2.2","T,0619","-2.2","T,0619","-7.6","T,0504","-7.6","T,0504","-10.7","T,0330","    4504.8","8","    4504.8","T","    564.9"," ,T","      6.01","T","     13.81","T","     -1.79","T"
"USS0016G07S","1997","42.6","-116.56","1746.5","MUD FLAT, ID US","     62.6","","      62.6","T","        83","T","        83","T","         3","T","","","        18","T","       206","T","        29","T","       112","T","        10","T","  -22.7","T,0206, ","","","  35.6"," ,T,0101, ","   34.5","T,0803, ","-1.2","T,0921","-3.4","T,0928","-4.7","T,1007","-7.1","T,1008","-11.9","T,1025","-1.0","T,0624","-2.9","T,0519","-7.6","T,0502","-7.6","T,0502","-10.7","T,0412","    4622.4","4","    4622.4","T","    452.7"," ,T","      5.87","T","     13.81","T","     -2.08","T"
"USS0016G07S","1998","42.6","-116.56","1746.5","MUD FLAT, ID US","    157.6","","     157.6","T","       107","T","       107","T","         2","T","","","        12","T","       206","T","        26","T","        95","T","        21","T","  -29.3","T,1221, ","","","  30.5"," ,T,0731, ","   38.6","T,0717, ","-1.1","T,0920","-3.2","T,1003","-4.8","T,1004","-7.9","T,1005","-9.7","T,1017","-1.2","T,0627","-2.6","T,0530","-4.5","T,0518","-6.9","T,0418","-11.7","T,0330","    4595.6","6","    4595.6","T","    562.0"," ,T","      5.83","T","     13.22","T","     -1.56","T"
"USS0016G07S","1999","42.6","-116.56","1746.5","MUD FLAT, ID US","     94.1","","      94.1","T","        66","T","        66","T","         0","T","","","        10","T","       223","T","        21","T","       118","T","        15","T","  -23.0","T,0211, ","","","  12.7"," ,T,0503, ","   36.1","T,0727, ","-3.0","T,0831","-3.0","T,0831","-7.6","T,0927","-7.6","T,0927","-9.5","T,0928","0.0","T,0627","-6.0","T,0516","-6.0","T,0516","-7.8","T,0511","-12.9","T,0410","    4754.1","1","    4754.1","T","    300.9"," ,T","      5.88","T","     14.31","T","     -2.55","T"
"USS0016G07S","2000","42.6","-116.56","1746.5","MUD FLAT, ID US","    142.3","","     142.3","T","        79","T","        79","T","         0","T","","","         7","T","       193","T","        18","T","       115","T","        14","T","  -22.1","T,0128, ","","","  17.8"," ,T,1026, ","   37.2","T,0731, ","-3.5","T,0923","-3.5","T,0923","-5.4","T,0924","-7.0","T,1106","-9.6","T,1107","-0.8","T,0531","-5.6","T,0512","-5.6","T,0512","-10.9","T,0330","-10.9","T,0330","    4222.1","1","    4222.1","T","    428.0"," ,T","      6.92","T","     14.60","T","     -0.77","T"
"USS0016G07S","2001","42.6","-116.56","1746.5","MUD FLAT, ID US","    141.3","","     141.3","T","        76","T","        76","T","         2","T","","","         9","T","       179","T","        28","T","       129","T","        16","T","  -24.2","T,0117, ","","","  35.6"," ,T,1128, ","   35.7","T,0704,+","-3.2","T,1009","-3.2","T,1009","-5.7","T,1010","-8.6","T,1107","-9.5","T,1125","-0.3","T,0613","-2.5","T,0604","-4.6","T,0506","-10.0","T,0414","-10.0","T,0414","    4334.3","3","    4334.3","T","    399.8"," ,T","      7.20","T","     14.98","T","     -0.59","T"
"USS0016G07S","2002","42.6","-116.56","1746.5","MUD FLAT, ID US","    147.0","","     147.0","T","        82","T","        82","T","         1","T","","","         7","T","       190","T","        19","T","       108","T","         8","T","  -25.8","T,0129, ","","","  33.0"," ,T,1230, ","   39.3","T,0712, ","-2.4","T,0930","-2.4","T,0930","-5.3","T,1011","-6.8","T,1012","-13.7","T,1030","0.0","T,0611","-8.4","T,0508","-8.4","T,0508","-8.4","T,0508","-18.4","T,0318","    4267.3","3","    4267.3","T","    348.9"," ,T","      7.10","T","     14.40","T","     -0.21","T"
"USS0016G07S","2003","42.6","-116.56","1746.5","MUD FLAT, ID US","    214.1","","     214.1","T","        98","T","        98","T","         1","T","      134","","         0","T","       168","T","         9","T","       127","T","        20","T","  -17.4","T,1127, ","   635"," ,T,1231,+","  33.0"," ,T,1229, ","   39.1","T,0723, ","-0.3","T,0914","-2.3","T,0918","-5.9","T,1029","-7.7","T,1031","-11.8","T,1101","-3.8","T,0519","-3.8","T,0519","-4.4","T,0419","-12.0","T,0407","-12.0","T,0407","    3875.2","2","    3875.2","T","    422.1"," ,T","      8.38","T","     15.17","T","      1.59","T"
"USS0016G07S","2004","42.6","-116.56","1746.5","MUD FLAT, ID US","    163.5","","     163.5","T","        82","T","        82","T","         2","T","      129","","         6","T","       154","T","        17","T","       113","T","        13","T","  -25.2","T,0105, ","   889"," ,T,0304,+","  45.7"," ,T,1208, ","   33.8","T,0716,+","-2.0","T,0921","-3.0","T,1010","-7.1","T,1018","-7.1","T,1018","-14.1","T,1128","-0.9","T,0524","-2.5","T,0411","-4.4","T,0313","-6.7","T,0311","-11.9","T,0305","    3943.0","0","    3943.0","T","    488.5"," ,T","      7.90","T","     14.77","T","      1.01","T"
"USS0016G07S","2005","42.6","-116.56","1746.5","MUD FLAT, ID US","    183.0","","     183.0","T","        98","T","        98","T","         3","T","      147","","         0","T","       145","T","        10","T","       107","T","        16","T","  -17.6","T,1214, ","   432"," ,T,1230, ","  45.7"," ,T,1230, ","   36.4","T,0715, ","-1.0","T,0911","-2.7","T,1005","-5.0","T,1114","-7.7","T,1115","-11.1","T,1127","-2.0","T,0419","-3.2","T,0414","-12.2","T,0331","-12.2","T,0331","-12.2","T,0331","    3816.7","7","    3816.7","T","    592.6"," ,T","      8.41","T","     15.24","T","      1.58","T"
"USS0016G07S","2006","42.6","-116.56","1746.5","MUD FLAT, ID US","    253.6","","     253.6","T","        93","T","        93","T","         0","T","      158","","         7","T","       165","T","        18","T","       125","T","        24","T","  -20.2","T,1129, ","  1016"," ,T,0314, ","  20.3"," ,T,1213,+","   37.1","T,0722, ","-0.7","T,0916","-2.4","T,1018","-5.4","T,1021","-10.8","T,1030","-10.8","T,1030","-0.5","T,0510","-2.2","T,0502","-7.3","T,0418","-7.3","T,0418","-9.2","T,0321","    3860.3","3","    3860.3","T","    478.0"," ,T","      8.16","T","     15.44","T","      0.89","T"
"USS0016G07S","2007","42.6","-116.56","1746.5","MUD FLAT, ID US","    290.4","","     290.4","T","        73","T","        73","T","         1","T","      114","","         6","T","       147","T","        25","T","       129","T","        37","T","  -25.3","T,0113, ","   762"," ,T,0301, ","  27.9"," ,T,0301, ","   38.9","T,0706, ","-0.8","T,0930","-2.4","T,1018","-6.5","T,1114","-6.8","T,1120","-9.9","T,1121","0.0","T,0514","-3.4","T,0420","-7.1","T,0419","-7.1","T,0419","-9.1","T,0228","    3748.0","0","    3748.0","T","    318.2"," ,T","      8.75","T","     16.07","T","      1.43","T"
"USS0016G07S","2008","42.6","-116.56","1746.5","MUD FLAT, ID US","    195.0","","     195.0","T","        79","T","        79","T","         1","T","      144","","         4","T","       170","T","        23","T","       116","T","        13","T","  -20.0","T,0123, ","  1067"," ,T,0203, ","  30.5"," ,T,0108, ","   35.4","T,0703, ","-0.8","T,0923","-3.8","T,1010","-6.8","T,1011","-6.8","T,1011","-9.8","T,1209","-3.2","T,0513","-3.2","T,0513","-4.9","T,0426","-10.7","T,0421","-10.7","T,0421","    4227.0","0","    4227.0","T","    394.7"," ,T","      7.77","T","     15.05","T","      0.49","T"
"USS0016G07S","2009","42.6","-116.56","1746.5","MUD FLAT, ID US","    133.7","","     133.7","T","        91","T","        91","T","         1","T","      152","","        11","T","       180","T","        18","T","       105","T","        11","T","  -22.3","T,1208, ","   610"," ,T,1231, ","  25.4"," ,T,0806, ","   35.1","T,0718, ","-2.3","T,0930","-2.3","T,0930","-5.7","T,1001","-7.2","T,1006","-9.0","T,1113","-0.2","T,0622","-3.8","T,0513","-5.5","T,0401","-7.3","T,0327","-13.5","T,0313","    3810.9","9","    3810.9","T","    457.8"," ,T","      7.18","T","     14.22","T","      0.15","T"
"USS0016G07S","2010","42.6","-116.56","1746.5","MUD FLAT, ID US","     93.2","","      93.2","T","       102","T","       102","T","         3","T","      159","","         4","T","       181","T","        11","T","        92","T","         6","T","  -23.6","T,1231, ","   864"," ,T,1229,+","  40.6"," ,T,1024, ","   32.7","T,0805,+","-0.9","T,0906","-5.1","T,1026","-5.1","T,1026","-7.4","T,1027","-11.3","T,1120","-0.3","T,0617","-2.2","T,0522","-5.3","T,0507","-10.5","T,0409","-10.5","T,0409","    4477.3","3","    4477.3","T","    587.2"," ,T","      6.69","T","     13.27","T","      0.10","T"
"USS0016G07S","2011","42.6","-116.56","1746.5","MUD FLAT, ID US","     95.5","","      95.5","T","        94","T","        94","T","         0","T","      172","","         8","T","       195","T","        15","T","       102","T","         3","T","  -22.0","T,0202, ","   914"," ,T,0307, ","  15.2"," ,T,0113, ","   34.4","T,0826, ","-0.8","T,1006","-2.8","T,1024","-6.3","T,1025","-9.4","T,1102","-9.4","T,1102","-1.0","T,0529","-2.3","T,0516","-5.1","T,0429","-8.3","T,0408","-10.0","T,0317","    4478.3","3","    4478.3","T","    432.8"," ,T","      6.46","T","     13.31","T","     -0.39","T"
"USS0016G07S","2012","42.6","-116.56","1746.5","MUD FLAT, ID US","    199.9","","     199.9","T","        73","T","        73","T","         1","T","      115","","         1","T","       174","T","        18","T","       129","T","        18","T","  -18.8","T,1231, ","   508"," ,T,0302, ","  43.2"," ,T,0118, ","   36.8","T,0712, ","0.0","T,1003","-2.3","T,1004","-5.1","T,1006","-6.7","T,1026","-9.3","T,1215","-2.6","T,0606","-2.6","T,0606","-4.5","T,0506","-6.9","T,0406","-10.1","T,0308","    3985.8","8","    3985.8","T","    369.2"," ,T","      8.11","T","     15.32","T","      0.89","T"
"USS0016G07S","2013","42.6","-116.56","1746.5","MUD FLAT, ID US","    232.2","","     232.2","T","        55","T","        55","T","         0","T","      114","","        10","T","       178","T","        26","T","       108","T","        13","T","  -26.5","T,1208, ","   406"," ,T,0222, ","  12.7"," ,T,0704,+","   37.0","T,0701, ","-0.5","T,0919","-3.4","T,1005","-8.3","T,1104","-8.3","T,1104","-13.3","T,1105","-0.9","T,0620","-4.3","T,0502","-7.2","T,0501","-7.2","T,0501","-9.4","T,0324","    4069.9","9","    4069.9","T","    245.1"," ,T","      7.33","T","     14.15","T","      0.52","T"
"USS0016G07S","2014","42.6","-116.56","1746.5","MUD FLAT, ID US","    134.2","","     134.2","T","        88","T","        88","T","         1","T","       98","","         4","T","       136","T","        15","T","       107","T","         2","T","  -24.3","T,1231, ","   406"," ,T,0208,+","  30.5"," ,T,1221, ","   33.6","T,0714, ","0.0","T,1021","-2.3","T,1028","-5.2","T,1110","-10.3","T,1111","-10.3","T,1111","-0.8","T,0513","-2.2","T,0508","-4.6","T,0403","-7.0","T,0322","-11.5","T,0206","    3952.8","8","    3952.8","T","    473.1"," ,T","      8.35","T","     14.42","T","      2.29","T"
"USS0016G07S","2015","42.6","-116.56","1746.5","MUD FLAT, ID US","    141.6","","     141.6","T","        86","T","        86","T","         0","T","       87","","         6","T","       143","T","        22","T","       117","T","         8","T","  -21.2","T,1226, ","   508"," ,T,1224, ","  20.3"," ,T,1221,+","   34.1","T,0629, ","-0.5","T,1023","-3.6","T,1103","-4.5","T,1105","-8.0","T,1110","-11.3","T,1126","-0.5","T,0501","-2.3","T,0426","-6.2","T,0403","-8.7","T,0304","-10.8","T,0121","    3516.9","9","    3516.9","T","    432.4"," ,T","      8.71","T","     14.87","T","      2.56","T"
"USS0016G07S","2016","42.6","-116.56","1746.5","MUD FLAT, ID US","    136.9","","     136.9","T","        82","T","        82","T","         0","T","      106","","         7","T","       139","T","        26","T","        99","T","         4","T","  -24.9","T,1218, ","   610"," ,T,0205,+","  15.2"," ,T,0129, ","   32.8","T,0729, ","-0.8","T,1004","-2.7","T,1012","-7.0","T,1117","-7.0","T,1117","-12.6","T,1202","-0.4","T,0523","-2.3","T,0329","-8.0","T,0326","-8.0","T,0326","-10.9","T,0223","    3901.9","9","    3901.9","T","    343.9"," ,T","      7.86","T","     14.12","T","      1.60","T"
"USS0016G07S","2017","42.6","-116.56","1746.5","MUD FLAT, ID US","    220.7","","     220.7","T","        87","T","        87","T","         1","T","      109","","         7","T","       168","T","        33","T","       101","T","         6","T","  -24.3","T,0106,+","   838"," ,T,0120, ","  27.9"," ,T,0612, ","   33.7","T,0708, ","-0.9","T,0916","-2.8","T,0922","-4.5","T,1009","-7.0","T,1014","-11.8","T,1107","-2.0","T,0517","-2.2","T,0514","-5.1","T,0415","-9.7","T,0306","-9.7","T,0306","    4171.2","2","    4171.2","T","    483.4"," ,T","      7.60","T","     13.72","T","      1.49","T"
"USS0016G07S","2018","42.6","-116.56","1746.5","MUD FLAT, ID US","    161.6","","     161.6","T","        89","T","        89","T","         1","T","      114","","         4","T","       161","T","        24","T","       104","T","         7","T","  -20.4","T,0220, ","   330"," ,T,1231,+","  25.4"," ,T,0617, ","   35.3","T,0810, ","-0.1","T,0920","-4.4","T,1014","-4.4","T,1014","-7.7","T,1107","-11.9","T,1108","0.0","T,0503","-3.8","T,0417","-7.0","T,0403","-7.0","T,0403","-12.7","T,0306","    3993.2","2","    3993.2","T","    376.4"," ,T","      7.55","T","     13.81","T","      1.28","T"
"USS0016G07S","2019","42.6","-116.56","1746.5","MUD FLAT, ID US","    121.1","","     121.1","T","        87","T","        87","T","         1","T","      130","","         3","T","       167","T","        29","T","        89","T","         0","T","  -23.0","T,0101, ","   787"," ,T,0220, ","  38.1"," ,T,0213, ","   32.0","T,0805,+","0.0","T,0928","-2.5","T,1004","-6.5","T,1009","-10.3","T,1010","-10.3","T,1010","-0.3","T,0608","-5.8","T,0501","-5.8","T,0501","-10.1","T,0315","-10.1","T,0315","    4279.2","2","    4279.2","T","    509.5"," ,T","      6.86","T","     12.84","T","      0.88","T"
"USS0016G07S","2020","42.6","-116.56","1746.5","MUD FLAT, ID US","","","","","","","","","","","","","","","","","","","","","","","","","","","","","","","","","","","","","","","","","","","","","","","","","","","    4067.5","5","    4067.5","T","","","","","","","",""
