"STATION","DATE","LATITUDE","LONGITUDE","ELEVATION","NAME","CDSD","CDSD_ATTRIBUTES","CLDD","CLDD_ATTRIBUTES","DP01","DP01_ATTRIBUTES","DP10","DP10_ATTRIBUTES","DP1X","DP1X_ATTRIBUTES","DSND","DSND_ATTRIBUTES","DSNW","DSNW_ATTRIBUTES","DT00","DT00_ATTRIBUTES","DT32","DT32_ATTRIBUTES","DX32","DX32_ATTRIBUTES","DX70","DX70_ATTRIBUTES","DX90","DX90_ATTRIBUTES","DYFG","DYFG_ATTRIBUTES","DYTS","DYTS_ATTRIBUTES","EMNT","EMNT_ATTRIBUTES","EMSD","EMSD_ATTRIBUTES","EMSN","EMSN_ATTRIBUTES","EMXP","EMXP_ATTRIBUTES","EMXT","EMXT_ATTRIBUTES","FZF0","FZF0_ATTRIBUTES","FZF1","FZF1_ATTRIBUTES","FZF2","FZF2_ATTRIBUTES","FZF5","FZF5_ATTRIBUTES","FZF6","FZF6_ATTRIBUTES","FZF7","FZF7_ATTRIBUTES","HDSD","HDSD_ATTRIBUTES","HTDD","HTDD_ATTRIBUTES","PRCP","PRCP_ATTRIBUTES","SNOW","SNOW_ATTRIBUTES","TAVG","TAVG_ATTRIBUTES","TMAX","TMAX_ATTRIBUTES","TMIN","TMIN_ATTRIBUTES"
"USW00093215","1959","34.66667","-120.58333","111.9","POINT ARGUELLO AFWB, CA US","","","","","","","","","","","","","","","","","","","","","","","","","       104"," ","         1"," ","","","","","","","","","","","","","","","","","","","","","","","","","","","","","","","","","","","",""
"USW00093215","1960","34.66667","-120.58333","111.9","POINT ARGUELLO AFWB, CA US","      8.9","","       8.9","0","        72","0","        25","0","         6","0","        0","","         0","0","         0","0","         8","0","         0","0","        38","0","         0","0","       211"," ","         1"," ","   -4.4","0,0102, ","     0"," ,0,1231,+","     0"," ,0,1231,+","  38.9"," ,0,1006, ","   31.7","0,1005, ","-0.6","0,1207","","","","","-0.6","0,0106","-4.4","0,0102","-4.4","0,0102","    1839.1","1","    1839.1","0","    373.4"," ,0","        0"," ,0","     12.54","0","     16.96","0","      8.12","0"
"USW00093215","1961","34.66667","-120.58333","111.9","POINT ARGUELLO AFWB, CA US","     25.5","","      25.5","0","        49","0","         9","0","         2","0","        0","","         0","0","         0","0","         2","0","         0","0","        46","0","         2","0","       204"," ","         3"," ","   -1.1","0,0105, ","     0"," ,0,1231,+","     0"," ,0,1231,+","  50.0"," ,0,1201, ","   36.1","0,1014, ","","","","","","","0.0","0,0227","","","","","    2093.9","9","    2093.9","0","    169.1"," ,0","        0"," ,0","     12.89","0","     17.50","0","      8.28","0"
"USW00093215","1962","34.66667","-120.58333","111.9","POINT ARGUELLO AFWB, CA US","      5.2","","       5.2","0","        75","0","        24","0","         4","0","        0","","         0","0","         0","0","        13","0","         0","0","        44","0","         1","0","       233"," ","         1"," ","   -3.3","0,1227, ","     0"," ,0,1231,+","     0","T,0,0122,+","  38.6"," ,0,0209, ","   33.3","0,0828, ","0.0","0,1226","-3.3","0,1227","","","0.0","0,0304","-2.2","0,0228","","","    2199.8","8","    2199.8","0","    341.0"," ,0","        0","T,0","     12.25","0","     16.44","0","      8.07","0"
"USW00093215","1963","34.66667","-120.58333","111.9","POINT ARGUELLO AFWB, CA US","      2.6","","       2.6","0","        74","0","        31","0","         3","0","        0","","         0","0","         0","0","        14","0","         0","0","        72","0","         0","0","       205"," ","         2"," ","   -3.9","0,0114, ","     0"," ,0,1231,+","     0"," ,0,1231,+","  53.3"," ,0,0209, ","   28.3","0,1110, ","-0.6","0,1211","","","","","-2.2","0,0121","-2.2","0,0121","","","    2068.9","9","    2068.9","0","    385.1"," ,0","        0"," ,0","     13.09","0","     18.02","0","      8.16","0"
"USW00093215","1964","34.66667","-120.58333","111.9","POINT ARGUELLO AFWB, CA US","     23.7","","      23.7","0","        76","0","        27","0","         1","0","        0","","         0","0","         0","0","        18","0","         0","0","        40","0","         4","0","       205"," ","","","   -5.6","0,1119, ","     0"," ,0,1231,+","     0"," ,0,1231,+","  36.6"," ,0,1028, ","   36.7","0,1020, ","-1.1","0,1114","-2.2","0,1115","-4.4","0,1116","-0.6","0,0227","","","","","    2131.6","6","    2131.6","0","    293.3"," ,0","        0"," ,0","     12.08","0","     16.86","0","      7.30","0"
"USW00093215","1965","34.66667","-120.58333","111.9","POINT ARGUELLO AFWB, CA US","","","","","","","","","","","","","","","","","","","","","","","","","        27"," ","         2"," ","","","","","","","","","","","","","","","","","","","","","","","","","","","","","","","","","","","",""
