"STATION","DATE","LATITUDE","LONGITUDE","ELEVATION","NAME","AWND","AWND_ATTRIBUTES","CDSD","CDSD_ATTRIBUTES","CLDD","CLDD_ATTRIBUTES","DP01","DP01_ATTRIBUTES","DP10","DP10_ATTRIBUTES","DP1X","DP1X_ATTRIBUTES","DSND","DSND_ATTRIBUTES","DT00","DT00_ATTRIBUTES","DT32","DT32_ATTRIBUTES","DX32","DX32_ATTRIBUTES","DX70","DX70_ATTRIBUTES","DX90","DX90_ATTRIBUTES","DYFG","DYFG_ATTRIBUTES","DYHF","DYHF_ATTRIBUTES","DYTS","DYTS_ATTRIBUTES","EMNT","EMNT_ATTRIBUTES","EMSD","EMSD_ATTRIBUTES","EMXP","EMXP_ATTRIBUTES","EMXT","EMXT_ATTRIBUTES","FZF0","FZF0_ATTRIBUTES","FZF1","FZF1_ATTRIBUTES","FZF2","FZF2_ATTRIBUTES","FZF3","FZF3_ATTRIBUTES","FZF4","FZF4_ATTRIBUTES","FZF5","FZF5_ATTRIBUTES","FZF6","FZF6_ATTRIBUTES","FZF7","FZF7_ATTRIBUTES","FZF8","FZF8_ATTRIBUTES","FZF9","FZF9_ATTRIBUTES","HDSD","HDSD_ATTRIBUTES","HTDD","HTDD_ATTRIBUTES","PRCP","PRCP_ATTRIBUTES","TAVG","TAVG_ATTRIBUTES","TMAX","TMAX_ATTRIBUTES","TMIN","TMIN_ATTRIBUTES","WDF2","WDF2_ATTRIBUTES","WDF5","WDF5_ATTRIBUTES","WSF2","WSF2_ATTRIBUTES","WSF5","WSF5_ATTRIBUTES"
"USW00053921","2000","34.5467","-93.578","214.0","MOUNT IDA, AR US","","","","","","","","","","","","","","","","","","","","","","","","","","","","","","","","","","","","","","","","","","","","","","","","","","","","","","","","","","","    1532.1","1","    1532.1","W","","","","","","","","","","","","","","","",""
"USW00053921","2001","34.5467","-93.578","214.0","MOUNT IDA, AR US","       1.4","W","    994.3","","     994.3","W","       130","W","        73","W","        18","W","","","         0","W","        73","W","         2","W","       230","W","        65","W","        30"," ","        30"," ","","","  -15.0","W,0103, ","","","  92.5"," ,W,1216, ","   37.8","W,0711, ","-0.6","W,1017","-2.2","W,1120","-5.0","W,1121","-7.2","W,1226","","","-0.6","W,0418","-2.2","W,0325","-5.6","W,0218","-6.7","W,0203","-10.6","W,0120","","","","","   1394.3"," ,W","     16.21","W","     22.85","W","      9.56","W","       270","W","       250","W","      13.0","W","      24.1","W"
"USW00053921","2002","34.5467","-93.578","214.0","MOUNT IDA, AR US","       1.4","W","","","","","       140","W","        73","W","        14","W","","","","","","","","","","","","","","","","","","","","","","","  53.6"," ,W,0407, ","","","","","","","","","","","","","","","","","","","","","","","","","","","   1128.8"," ,W","","","","","","","       300","W","       190","W","      11.6","W","      19.2","W"
"USW00053921","2003","34.5467","-93.578","214.0","MOUNT IDA, AR US","","","","","","","","","","","","","","","","","","","","","","","","","","","","","","","","","","","","","","","","","","","","","","","","","","","","","","","","","","","    1963.3","3","    1963.3","W","","","","","","","","","","","","","","","",""
"USW00053921","2005","34.5467","-93.578","214.0","MOUNT IDA, AR US","       1.3","B","   1122.8","","    1122.8","B","        90","B","        47","B","         6","B","","","         0","B","        65","B","         1","B","       224","B","        97","B","","","","","","","  -12.8","B,1209, ","",""," 113.8"," ,B,0924, ","   38.3","B,0723,+","-1.1","B,1025","-2.8","B,1116","-5.0","B,1117","-6.7","B,1130","-9.4","B,1208","0.0","W,0402","-2.2","W,0317","-4.4","W,0210","-8.9","W,0123","-8.9","W,0123","    1575.0","0","    1575.0","B","    799.8"," ,B","     16.74","B","     23.55","B","      9.93","B","       300","B","       340","B","      11.2","B","      17.0","B"
"USW00053921","2006","34.5467","-93.578","214.0","MOUNT IDA, AR US","","","","","","","        95","A","        64","A","        18","A","","","","","","","","","","","","","","","","","","","","","","","  84.8"," ,A,0319, ","","","","","","","","","","","","","","","","","","","","","","","","","","","   1253.7"," ,A","","","","","","","","","","","","","",""
"USW00053921","2007","34.5467","-93.578","214.0","MOUNT IDA, AR US","","","","","","","       101","A","        63","A","        13","A","","","","","","","","","","","","","","","","","","","","","","","  72.9"," ,A,0114, ","","","","","","","","","","","","","","","","","","","","","","","    1729.2","2","    1729.2"," ","   1140.7"," ,A","","","","","","","","","","","","","",""
"USW00053921","2009","34.5467","-93.578","214.0","MOUNT IDA, AR US","","","    853.3","","     853.3","X","       124","X","        83","X","        26","X","","","         0","X","        68","X","         1","X","       201","X","        43","X","        38"," ","         9"," ","","","  -10.0","X,1205, ","","","  98.3"," ,X,0916, ","   37.8","X,0627, ","0.0","A,1018","-3.3","X,1127","-6.7","X,1204","-6.7","X,1204","-10.0","X,1205","-0.6","A,0407","-2.2","A,0303","-6.7","A,0302","-6.7","A,0302","-9.4","A,0204","","","","","   1764.0"," ,X","     15.71","X","     21.72","X","      9.71","X","","","","","","","",""
"USW00053921","2010","34.5467","-93.578","214.0","MOUNT IDA, AR US","       1.1","W","   1196.0","","    1196.0","0","        97","0","        69","0","        10","0","","","         0","0","        92","0","         7","0","       217","0","        93","0","       197"," ","        22"," ","","","  -15.0","0,0110,+","",""," 114.6"," ,0,0611, ","   39.4","0,0815,+","-1.7","0,1105","-4.4","0,1106","-4.4","0,1106","-7.8","0,1207","-9.4","0,1214","0.0","0,0329","-2.2","0,0305","-6.1","0,0304","-7.8","0,0225","-8.9","X,0113","    2042.5","5","    2042.5","0","   1195.3"," ,0","     16.15","0","     22.80","0","      9.49","0","       330","X","","","      10.3","X","",""
"USW00053921","2011","34.5467","-93.578","214.0","MOUNT IDA, AR US","       1.3","W","   1242.1","","    1242.1","X","        94","X","        65","X","        21","X","","","         0","X","        69","X","         8","X","       221","X","        93","X","       160"," ","        31"," ","","","  -15.0","X,0113, ","",""," 139.2"," ,X,1121, ","   44.4","X,0803, ","-0.6","X,1019","-2.8","X,1020","-4.4","X,1207","","","","","-1.7","X,0405","-3.3","X,0311","-4.4","X,0212","-13.3","X,0211","-13.3","X,0211","    1815.2","2","    1815.2","X","   1756.7"," ,X","     16.81","X","     23.49","X","     10.14","X","       110","X","       120","X","      11.2","X","      19.2","X"
"USW00053921","2012","34.5467","-93.578","214.0","MOUNT IDA, AR US","       1.1","X","   1222.4","","    1222.4","X","       102","X","        57","X","        16","X","","","         0","X","        64","X","         1","X","       245","X","        82","X","       183"," ","        24"," ","","","  -11.1","X,1230, ","","","  56.9"," ,X,0818, ","   41.7","X,0720, ","-1.1","X,1027","-2.2","X,1028","-4.4","X,1128","-7.8","X,1211","-8.9","X,1226","-1.1","X,0310","-2.2","X,0304","-9.4","X,0212","-9.4","X,0212","-9.4","X,0212","    1453.8","8","    1453.8","X","   1103.2"," ,X","     17.62","X","     24.48","X","     10.76","X","       290","X","        80","X","      11.2","X","      19.2","X"
"USW00053921","2013","34.5467","-93.578","214.0","MOUNT IDA, AR US","       1.1","W","    980.9","","     980.9","W","       104","W","        77","W","        19","W","","","         0","W","        89","W","         3","W","       204","W","        71","W","       199"," ","         8"," ","","","   -7.7","W,1212,+","","","  96.5"," ,W,0601, ","   37.8","W,0710, ","-0.5","W,1103","-5.5","W,1113","-5.5","W,1113","-7.7","W,1128","","","0.0","W,0425","-5.0","X,0327","-5.0","X,0327","-7.2","X,0107","","","    1883.0","0","    1883.0","W","   1507.6"," ,W","     15.49","W","     21.87","W","      9.11","W","       340","W","       310","W","       9.8","W","      16.1","W"
"USW00053921","2014","34.5467","-93.578","214.0","MOUNT IDA, AR US","       1.2","W","    907.0","","     907.0","W","       101","W","        68","W","        14","W","","","         0","W","        90","W","         4","W","       206","W","        33","W","       187"," ","        17"," ","","","  -14.9","W,0107, ","","","  68.8"," ,W,0512, ","   35.6","W,0825,+","-2.1","W,1101","-3.2","W,1112","-4.9","W,1113","-9.3","W,1118","-9.3","W,1118","-1.0","W,0415","-2.7","W,0326","-7.7","W,0304","-7.7","W,0304","-9.3","W,0303","    2112.4","4","    2112.4","W","   1214.6"," ,W","     15.16","W","     21.24","W","      9.07","W","       330","W","","","      11.6","W","",""
"USW00053921","2015","34.5467","-93.578","214.0","MOUNT IDA, AR US","       1.1","W","   1167.1","","    1167.1","W","       116","W","        89","W","        29","W","","","         0","W","        60","W","         2","W","       228","W","        81","W","       239"," ","        26"," ","         1"," ","  -13.2","W,0108, ","",""," 161.5"," ,W,1227, ","   40.6","W,0809, ","0.0","W,1114","-2.7","W,1121","-4.9","W,1122","","","","","-4.3","W,0307","-4.3","W,0307","-8.2","W,0306","-8.2","W,0306","-9.9","W,0110","    1857.0","0","    1857.0","W","   2031.0"," ,W","     17.02","W","     23.42","W","     10.62","W","       140","W","       220","W","      11.6","W","      19.7","W"
"USW00053921","2016","34.5467","-93.578","214.0","MOUNT IDA, AR US","       1.1","W","   1189.2","","    1189.2","W","       109","W","        76","W","        14","W","","","         0","W","        57","W","         1","W","       242","W","        80","W","       220"," ","        33"," ","         1"," ","  -11.6","W,1219, ","",""," 119.4"," ,W,0429, ","   38.9","W,0722, ","-1.0","W,1113","-3.2","W,1120","-7.7","W,1209","-7.7","W,1209","-11.6","W,1219","-0.5","W,0325","-2.7","W,0321","-4.9","W,0207","-7.1","W,0111","","","    1382.3","3","    1382.3","W","   1361.7"," ,W","     17.59","W","     23.80","W","     11.39","W","       310","W","","","      13.0","W","",""
"USW00053921","2017","34.5467","-93.578","214.0","MOUNT IDA, AR US","       1.1","W","   1076.4","","    1076.4","W","       111","W","        63","W","        11","W","","","         0","W","        54","W","         3","W","       253","W","        59","W","       185"," ","        29"," ","","","  -12.7","W,0107, ","",""," 120.7"," ,W,0429, ","   37.8","W,0723, ","-0.5","W,1027","-4.3","W,1029","-6.6","W,1208","-7.1","W,1231","","","0.0","W,0315","-3.2","W,0226","-4.9","W,0127","-11.0","W,0108","-11.0","W,0108","    1257.1","1","    1257.1","W","   1214.6"," ,W","     17.61","W","     24.01","W","     11.22","W","       320","W","","","       9.8","W","",""
"USW00053921","2018","34.5467","-93.578","214.0","MOUNT IDA, AR US","       1.2","W","   1266.4","","    1266.4","W","       132","W","        83","W","        25","W","","","         0","W","        65","W","         3","W","       208","W","        90","W","       205"," ","        27"," ","         1"," ","  -16.0","W,0117, ","",""," 146.8"," ,W,1031, ","   41.1","W,0720, ","-4.3","W,1110","-4.3","W,1110","-6.0","W,1115","","","","","-2.1","W,0408","-2.7","W,0314","-5.5","W,0208","-12.7","W,0118","-12.7","W,0118","    1679.6","6","    1679.6","W","   1909.6"," ,W","     16.85","W","     22.96","W","     10.74","W","       140","W","","","      11.6","W","",""
"USW00053921","2019","34.5467","-93.578","214.0","MOUNT IDA, AR US","       1.1","W","   1159.1","","    1159.1","W","       110","W","        76","W","        24","W","        0","","         0","W","        70","W","         0","W","       214","W","        72","W","       205"," ","        36"," ","","","   -9.3","W,1113, ","     0"," ,H,1231,+","  90.4"," ,W,0623, ","   37.2","W,0908, ","-0.5","W,1012","-3.8","W,1101","-6.6","W,1112","-9.3","W,1113","-9.3","W,1113","-1.6","W,0402","-2.7","W,0316","-7.7","W,0306","-7.7","W,0306","","","    1766.1","1","    1766.1","W","   1699.7"," ,W","     16.65","W","     22.91","W","     10.40","W","       330","W","","","       9.4","W","",""
"USW00053921","2020","34.5467","-93.578","214.0","MOUNT IDA, AR US","","","","","","","","","","","","","","","","","","","","","","","","","       196"," ","        36"," ","         2"," ","","","","","","","","","","","","","","","","","","","","","","","","","","","","","    1656.7","7","    1656.7","D","","","","","","","","","","","","","","","",""
