"STATION","DATE","LATITUDE","LONGITUDE","ELEVATION","NAME","DYFG","DYFG_ATTRIBUTES","DYTS","DYTS_ATTRIBUTES"
"USW00093103","1945","32.83333","-115.26667","18.0","HOLTVILLE NAAS, CA US","         3"," ","         3"," "
"USW00093103","1946","32.83333","-115.26667","18.0","HOLTVILLE NAAS, CA US","         2"," ","",""
