"STATION","DATE","LATITUDE","LONGITUDE","ELEVATION","NAME","AWND","AWND_ATTRIBUTES","CDSD","CDSD_ATTRIBUTES","CLDD","CLDD_ATTRIBUTES","DP01","DP01_ATTRIBUTES","DP10","DP10_ATTRIBUTES","DP1X","DP1X_ATTRIBUTES","DSND","DSND_ATTRIBUTES","DSNW","DSNW_ATTRIBUTES","DT00","DT00_ATTRIBUTES","DT32","DT32_ATTRIBUTES","DX32","DX32_ATTRIBUTES","DX70","DX70_ATTRIBUTES","DX90","DX90_ATTRIBUTES","DYFG","DYFG_ATTRIBUTES","DYHF","DYHF_ATTRIBUTES","DYTS","DYTS_ATTRIBUTES","EMNT","EMNT_ATTRIBUTES","EMSD","EMSD_ATTRIBUTES","EMSN","EMSN_ATTRIBUTES","EMXP","EMXP_ATTRIBUTES","EMXT","EMXT_ATTRIBUTES","FZF5","FZF5_ATTRIBUTES","FZF6","FZF6_ATTRIBUTES","HDSD","HDSD_ATTRIBUTES","HTDD","HTDD_ATTRIBUTES","PRCP","PRCP_ATTRIBUTES","SNOW","SNOW_ATTRIBUTES","TAVG","TAVG_ATTRIBUTES","TMAX","TMAX_ATTRIBUTES","TMIN","TMIN_ATTRIBUTES","WDF2","WDF2_ATTRIBUTES","WDF5","WDF5_ATTRIBUTES","WSF2","WSF2_ATTRIBUTES","WSF5","WSF5_ATTRIBUTES"
"USW00093138","1999","33.8222","-116.5043","124.7","PALM SPRINGS ASOS, CA US","       3.1","W","   2102.6","","    2102.6","W","        10","W","         4","W","         0","W","","","","","         0","W","         0","W","         0","W","       312","W","       170","W","","","","","","","    3.9","W,0402,+","","","","","  14.7"," ,W,0708, ","   45.0","W,0620, ","","","","","     462.4","4","     462.4","W","     40.2"," ,W","","","     23.28","W","     30.89","W","     15.67","W","       350","W","       350","W","      19.2","W","      23.7","W"
"USW00093138","2000","33.8222","-116.5043","124.7","PALM SPRINGS ASOS, CA US","       3.0","W","   2272.8","","    2272.8","W","        13","W","         8","W","         0","W","","","","","         0","W","         0","W","         0","W","       316","W","       165","W","","","","","","","    3.3","W,0306,+","","","","","   8.1"," ,W,0221, ","   47.2","W,0719, ","","","","","     347.2","2","     347.2","W","     50.1"," ,W","","","     23.56","W","     30.88","W","     16.25","W","       360","W","       360","W","      17.4","W","      22.8","W"
"USW00093138","2001","33.8222","-116.5043","124.7","PALM SPRINGS ASOS, CA US","       2.8","W","   2605.3","","    2605.3","W","        16","W","         9","W","         0","W","","","","","         0","W","         0","W","         0","W","       281","W","       195","W","","","","","","","    2.8","W,1217,+","","","","","  15.0"," ,W,0225, ","   47.8","W,0703, ","","","","","     589.7","7","     589.7","W","     90.3"," ,W","","","     23.74","W","     31.02","W","     16.46","W","       330","W","       330","W","      16.1","W","      20.6","W"
"USW00093138","2002","33.8222","-116.5043","124.7","PALM SPRINGS ASOS, CA US","       3.0","W","   2315.8","","    2315.8","W","        12","W","         2","W","         0","W","","","","","         0","W","         0","W","         0","W","       314","W","       165","W","","","","","","","    1.1","W,0201, ","","","","","   7.6"," ,W,1216, ","   46.7","W,0712, ","","","","","     476.2","2","     476.2","W","     19.5"," ,W","","","     23.52","W","     31.09","W","     15.94","W","        20","W","        20","W","      19.2","W","      21.5","W"
"USW00093138","2003","33.8222","-116.5043","124.7","PALM SPRINGS ASOS, CA US","       3.0","W","   2444.7","","    2444.7","W","        21","W","        12","W","         1","W","","","","","         0","W","         0","W","         0","W","       312","W","       171","W","","","","","","","    1.1","W,1228, ","","","","","  27.4"," ,W,1112, ","   48.3","W,0714, ","","","","","     328.7","7","     328.7","W","    123.1"," ,W","","","     23.88","W","     30.91","W","     16.85","W","       340","W","       320","W","      17.9","W","      21.9","W"
"USW00093138","2004","33.8222","-116.5043","124.7","PALM SPRINGS ASOS, CA US","       2.9","W","   2318.6","","    2318.6","W","        23","W","        10","W","         2","W","","","","","         0","W","         0","W","         0","W","       294","W","       177","W","","","","","","","    2.2","W,1201,+","","","","","  27.7"," ,W,1228, ","   46.7","W,0809, ","","","","","     511.5","5","     511.5","W","    148.0"," ,W","","","     23.31","W","     30.45","W","     16.16","W","       340","W","       330","W","      14.8","W","      19.7","W"
"USW00093138","2005","33.8222","-116.5043","124.7","PALM SPRINGS ASOS, CA US","       2.9","B","   2279.7","","    2279.7","B","        30","B","        16","B","         1","B","","","","","         0","B","         0","B","         0","B","       315","B","       168","B","","","","","","","    2.8","B,1216, ","","","","","  34.0"," ,B,1017, ","   48.9","B,0717,+","","","","","     519.6","6","     519.6","B","    233.8"," ,B","","","     23.43","B","     30.71","B","     16.16","B","       340","B","       330","B","      19.7","B","      24.1","B"
"USW00093138","2006","33.8222","-116.5043","124.7","PALM SPRINGS ASOS, CA US","       3.0","W","   2486.8","","    2486.8","W","        12","W","         4","W","         0","W","","","","","         0","W","         0","W","         0","W","       320","W","       167","W","         4"," ","","","         3"," ","    1.1","W,1220,+","","","","","  16.5"," ,W,0311, ","   49.4","W,0722, ","","","","","     373.4","4","     373.4","W","     45.5"," ,W","","","     23.94","W","     31.43","W","     16.46","W","       340","W","       320","W","      16.5","W","      20.6","W"
"USW00093138","2007","33.8222","-116.5043","124.7","PALM SPRINGS ASOS, CA US","       3.0","W","   2561.0","","    2561.0","W","         8","W","         3","W","         1","W","","","","","         0","W","         1","W","         0","W","       309","W","       185","W","         2"," ","","","","","   -4.3","W,0114, ","","","","","  32.5"," ,W,1130, ","   47.2","W,0829, ","-4.3","W,0114","-4.3","W,0114","     432.2","2","     432.2","W","     60.5"," ,W","","","     23.97","W","     31.34","W","     16.60","W","       330","W","       320","W","      17.4","W","      21.5","W"
"USW00093138","2008","33.8222","-116.5043","124.7","PALM SPRINGS ASOS, CA US","       2.8","W","   2485.2","","    2485.2","W","        16","W","        11","W","         2","W","","","","","         0","W","         0","W","         0","W","       306","W","       170","W","        13"," ","","","         4"," ","    1.1","W,1228, ","","","","","  41.1"," ,W,1217, ","   47.2","W,0621,+","","","","","     531.8","8","     531.8","W","    161.5"," ,W","","","     23.85","W","     31.20","W","     16.51","W","       330","W","       220","W","      18.3","W","      24.6","W"
"USW00093138","2009","33.8222","-116.5043","124.7","PALM SPRINGS ASOS, CA US","       2.7","W","   2406.7","","    2406.7","W","         9","W","         5","W","         1","W","","","","","         0","W","         0","W","         0","W","       318","W","       168","W","         6"," ","","","","","    0.6","W,0105, ","","","","","  28.4"," ,W,1207, ","   47.8","W,0828,+","","","","","     421.2","2","     421.2","W","     61.1"," ,W","","","     23.69","W","     31.34","W","     16.04","W","       330","W","       330","W","      20.6","W","      30.9","W"
"USW00093138","2010","33.8222","-116.5043","124.7","PALM SPRINGS ASOS, CA US","       2.7","W","   2203.3","","    2203.3","W","        23","W","        15","W","         2","W","","","","","         0","W","         0","W","         0","W","       306","W","       157","W","        16"," ","         1"," ","","","    0.6","W,1231, ","","","","","  56.9"," ,W,1222, ","   47.2","W,0903,+","","","","","     455.3","3","     455.3","W","    245.9"," ,W","","","     23.22","W","     30.61","W","     15.83","W","       330","W","       150","W","      19.7","W","      38.5","W"
"USW00093138","2011","33.8222","-116.5043","124.7","PALM SPRINGS ASOS, CA US","       2.7","W","   2274.2","","    2274.2","W","        18","W","         9","W","         0","W","","","","","         0","W","         2","W","         0","W","       301","W","       168","W","         6"," ","","","         2"," ","    0.0","W,0204,+","","","","","  15.7"," ,W,0219, ","   47.2","W,0824, ","0.0","W,0204","","","     499.5","5","     499.5","W","     77.1"," ,W","","","     22.98","W","     30.61","W","     15.34","W","       100","W","       210","W","      18.3","W","      46.5","W"
"USW00093138","2012","33.8222","-116.5043","124.7","PALM SPRINGS ASOS, CA US","       2.6","W","   2593.9","","    2593.9","W","        13","W","         7","W","         0","W","        0","","         0","W","         0","W","         0","W","         0","W","       324","W","       188","W","         5"," ","","","         1"," ","    0.6","W,1220, ","     0"," ,W,1231,+","     0"," ,W,1231,+","  15.2"," ,W,0830, ","   48.3","W,0710, ","","","","","     438.6","6","     438.6","W","     50.9"," ,W","        0"," ,W","     24.40","W","     31.97","W","     16.83","W","       330","W","        10","W","      21.5","W","      29.5","W"
"USW00093138","2013","33.8222","-116.5043","124.7","PALM SPRINGS ASOS, CA US","       2.7","W","   2472.8","","    2472.8","W","        17","W","         5","W","         0","W","        0","","         0","W","         0","W","         1","W","         0","W","       317","W","       182","W","         7"," ","","","         2"," ","    0.0","W,0113, ","     0"," ,W,1231,+","     0"," ,W,1231,+","  21.1"," ,W,0721, ","   50.0","W,0629, ","0.0","W,0113","","","     436.1","1","     436.1","W","     56.9"," ,W","        0"," ,W","     23.89","W","     31.23","W","     16.55","W","       340","W","       310","W","      17.0","W","      20.6","W"
"USW00093138","2014","33.8222","-116.5043","124.7","PALM SPRINGS ASOS, CA US","       2.8","W","   2713.4","","    2713.4","W","        16","W","         7","W","         0","W","        0","","         0","W","         0","W","         0","W","         0","W","       334","W","       189","W","        11"," ","","","","","    1.7","W,1229, ","     0"," ,W,1231,+","     0"," ,W,1231,+","  20.6"," ,W,0803, ","   46.7","W,0724,+","","","","","     250.5","5","     250.5","W","     71.4"," ,W","        0"," ,W","     25.10","W","     32.29","W","     17.91","W","       320","W","       340","W","      19.2","W","      24.6","W"
"USW00093138","2015","33.8222","-116.5043","124.7","PALM SPRINGS ASOS, CA US","       2.9","W","   2686.0","","    2686.0","W","        15","W","         9","W","         0","W","        0","","         0","W","         0","W","         2","W","         0","W","       325","W","       184","W","         8"," ","","","","","    0.0","W,0102,+","     0"," ,W,1231,+","     0"," ,W,1231,+","  13.2"," ,W,0301, ","   47.8","W,0815, ","0.0","W,0102","","","     235.9","9","     235.9","W","     53.0"," ,W","        0"," ,W","     24.78","W","     31.90","W","     17.67","W","       350","W","       340","W","      20.1","W","      24.1","W"
"USW00093138","2016","33.8222","-116.5043","124.7","PALM SPRINGS ASOS, CA US","       2.8","W","   2632.0","","    2632.0","W","        20","W","        12","W","         0","W","        0","","         0","W","         0","W","         0","W","         0","W","       321","W","       188","W","        12"," ","","","","","    1.7","W,0202, ","     0"," ,W,1231,+","     0"," ,W,1231,+","  24.6"," ,W,0105, ","   50.0","W,0620, ","","","","","     422.9","9","     422.9","W","    130.9"," ,W","        0"," ,W","     24.57","W","     31.76","W","     17.37","W","       340","W","       330","W","      19.7","W","      22.8","W"
"USW00093138","2017","33.8222","-116.5043","124.7","PALM SPRINGS ASOS, CA US","       2.8","W","   2858.0","","    2858.0","W","        17","W","        11","W","         3","W","","","","","         0","W","         0","W","         0","W","       324","W","       200","W","        15"," ","","","         9"," ","    2.8","W,0125, ","","","","","  41.7"," ,W,0122, ","   50.0","W,0707,+","","","","","     394.9","9","     394.9","W","    182.3"," ,W","","","     25.34","W","     32.63","W","     18.05","W","       340","W","       250","W","      21.5","W","      29.5","W"
"USW00093138","2018","33.8222","-116.5043","124.7","PALM SPRINGS ASOS, CA US","       2.8","W","   2772.0","","    2772.0","W","        15","W","         6","W","         2","W","","","","","         0","W","         0","W","         0","W","       331","W","       185","W","         6"," ","","","        11"," ","    3.3","W,0220, ","","","","","  35.6"," ,W,0109, ","   49.4","W,0724, ","","","","","     193.5","5","     193.5","W","    109.6"," ,W","","","     25.13","W","     32.45","W","     17.83","W","       350","W","       350","W","      20.1","W","      28.2","W"
"USW00093138","2019","33.8222","-116.5043","124.7","PALM SPRINGS ASOS, CA US","       2.8","W","   2473.8","","    2473.8","W","        28","W","        15","W","         1","W","","","","","         0","W","         0","W","         0","W","       294","W","       174","W","        22"," ","","","         8"," ","    1.7","W,0103, ","","","","","  93.7"," ,W,0214, ","   49.4","W,0805, ","","","","","     447.6","6","     447.6","W","    241.3"," ,W","","","     23.62","W","     30.89","W","     16.35","W","        80","W","        80","W","      17.0","W","      25.0","W"
"USW00093138","2020","33.8222","-116.5043","124.7","PALM SPRINGS ASOS, CA US","","","","","","","","","","","","","","","","","","","","","","","","","","","         7"," ","","","         3"," ","","","","","","","","","","","","","","","     406.3","3","     406.3","D","","","","","","","","","","","","","","","","","",""
