"STATION","DATE","LATITUDE","LONGITUDE","ELEVATION","NAME","AWND","AWND_ATTRIBUTES","CDSD","CDSD_ATTRIBUTES","CLDD","CLDD_ATTRIBUTES","DP01","DP01_ATTRIBUTES","DP10","DP10_ATTRIBUTES","DP1X","DP1X_ATTRIBUTES","DSND","DSND_ATTRIBUTES","DSNW","DSNW_ATTRIBUTES","DT00","DT00_ATTRIBUTES","DT32","DT32_ATTRIBUTES","DX32","DX32_ATTRIBUTES","DX70","DX70_ATTRIBUTES","DX90","DX90_ATTRIBUTES","DYFG","DYFG_ATTRIBUTES","DYHF","DYHF_ATTRIBUTES","DYTS","DYTS_ATTRIBUTES","EMNT","EMNT_ATTRIBUTES","EMSD","EMSD_ATTRIBUTES","EMSN","EMSN_ATTRIBUTES","EMXP","EMXP_ATTRIBUTES","EMXT","EMXT_ATTRIBUTES","FZF0","FZF0_ATTRIBUTES","FZF1","FZF1_ATTRIBUTES","FZF2","FZF2_ATTRIBUTES","FZF3","FZF3_ATTRIBUTES","FZF4","FZF4_ATTRIBUTES","FZF5","FZF5_ATTRIBUTES","FZF6","FZF6_ATTRIBUTES","FZF7","FZF7_ATTRIBUTES","FZF8","FZF8_ATTRIBUTES","FZF9","FZF9_ATTRIBUTES","HDSD","HDSD_ATTRIBUTES","HTDD","HTDD_ATTRIBUTES","PRCP","PRCP_ATTRIBUTES","PSUN","PSUN_ATTRIBUTES","SNOW","SNOW_ATTRIBUTES","TAVG","TAVG_ATTRIBUTES","TMAX","TMAX_ATTRIBUTES","TMIN","TMIN_ATTRIBUTES","TSUN","TSUN_ATTRIBUTES","WDF1","WDF1_ATTRIBUTES","WDF2","WDF2_ATTRIBUTES","WDF5","WDF5_ATTRIBUTES","WSF1","WSF1_ATTRIBUTES","WSF2","WSF2_ATTRIBUTES","WSF5","WSF5_ATTRIBUTES"
"USW00012918","1931","29.63806","-95.28194","13.4","HOUSTON WILLIAM P HOBBY AIRPORT, TX US","","","   1396.9","","    1396.9","Z","","","","","","","","","","","         0","Z","         4","Z","         0","Z","       271","Z","        90","Z","","","","","","","   -2.2","Z,0309, ","","","","","","","   37.2","Z,0806,+","0.0","Z,1204","","","","","","","","","-2.2","Z,0309","-2.2","Z,0309","","","","","","","","","","","","","","","","","     20.09","Z","     25.51","Z","     14.67","Z","","","","","","","","","","","","","",""
"USW00012918","1932","29.63806","-95.28194","13.4","HOUSTON WILLIAM P HOBBY AIRPORT, TX US","","","","","","","","","","","","","","","","","","","","","","","","","","","         4"," ","         2"," ","","","","","","","","","","","","","","","","","","","","","","","","","","","","","","","","","","","","","","","","","","","","","","","","","","","","","","","","","","","","","",""
"USW00012918","1933","29.63806","-95.28194","13.4","HOUSTON WILLIAM P HOBBY AIRPORT, TX US","","","   1684.6","","    1684.6","Z","","","","","","","","","","","         0","Z","         5","Z","         0","Z","       305","Z","        93","Z","","","         9"," ","","","   -9.4","Z,0208, ","","","","","","","   38.3","Z,0622, ","","","","","","","","","","","-0.6","Z,0212","-8.3","Z,0209","-8.3","Z,0209","-8.3","Z,0209","-9.4","Z,0208","     766.9","9","     766.9","Z","","","","","","","     21.62","Z","     27.14","Z","     16.09","Z","","","","","","","","","","","","","",""
"USW00012918","1934","29.63806","-95.28194","13.4","HOUSTON WILLIAM P HOBBY AIRPORT, TX US","","","   1538.5","","    1538.5","Z","","","","","","","","","","","         0","Z","         9","Z","         0","Z","       288","Z","        95","Z","        15"," ","         8"," ","","","   -3.9","Z,0319, ","","","","","","","   38.9","Z,0617, ","0.0","Z,1201","-2.8","Z,1208","","","","","","","-3.9","Z,0319","-3.9","Z,0319","","","","","","","     570.8","8","     570.8","Z","","","","","","","     20.67","Z","     26.64","Z","     14.69","Z","","","","","","","","","","","","","",""
"USW00012918","1935","29.63806","-95.28194","13.4","HOUSTON WILLIAM P HOBBY AIRPORT, TX US","","","   1565.5","","    1565.5","Z","","","","","","","","","","","         0","Z","        10","Z","         0","Z","       290","Z","        67","Z","","","","","","","   -7.8","Z,0122, ","","","","","","","   39.4","Z,0709, ","-1.1","Z,1230","","","","","","","","","-1.7","Z,0228","-2.2","Z,0227","-7.8","Z,0122","-7.8","Z,0122","","","     575.0","0","     575.0","Z","","","","","","","     20.75","Z","     26.10","Z","     15.39","Z","","","","","","","","","","","","","",""
"USW00012918","1936","29.63806","-95.28194","13.4","HOUSTON WILLIAM P HOBBY AIRPORT, TX US","","","   1405.7","","    1405.7","Z","","","","","","","","","","","         0","Z","        18","Z","         1","Z","       274","Z","        79","Z","        67"," ","        54"," ","         8"," ","   -6.1","Z,0218, ","","","","","","","   37.8","Z,0615, ","0.0","Z,1105","","","","","","","","","0.0","Z,0219","-6.1","Z,0218","-6.1","Z,0218","","","","","     871.8","8","     871.8","Z","","","","","","","     19.71","Z","     25.39","Z","     14.03","Z","","","","","","","","","","","","","",""
"USW00012918","1939","29.63806","-95.28194","13.4","HOUSTON WILLIAM P HOBBY AIRPORT, TX US","","","   1536.9","","    1536.9","Z","","","","","","","","","","","         0","Z","         7","Z","         0","Z","       291","Z","        95","Z","","","","","","","   -2.2","Z,1229, ","","","","","","","   40.6","Z,0708, ","-0.6","Z,1227","-2.2","Z,1229","","","","","","","-0.6","Z,0223","","","","","","","","","","","","","","","","","","","     20.57","Z","     26.39","Z","     14.75","Z","","","","","","","","","","","","","",""
"USW00012918","1940","29.63806","-95.28194","13.4","HOUSTON WILLIAM P HOBBY AIRPORT, TX US","","","   1344.4","","    1344.4","Z","        96","Z","        58","Z","         9","Z","","","","","         0","Z","        27","Z","         1","Z","       268","Z","        68","Z","","","","","","","  -15.0","Z,0123, ","","","",""," 115.1"," ,Z,1124, ","   37.2","Z,0803, ","-0.6","Z,1114","-2.2","Z,1115","","","","","","","0.0","Z,0413","-2.8","Z,0210","-7.8","Z,0127","-7.8","Z,0127","-15.0","Z,0123","    1025.2","2","    1025.2","Z","    992.0"," ,Z","","","","","     19.32","Z","     25.05","Z","     13.60","Z","","","","","","","","","","","","","",""
"USW00012918","1941","29.63806","-95.28194","13.4","HOUSTON WILLIAM P HOBBY AIRPORT, TX US","","","   1593.6","","    1593.6","0","       124","0","        90","0","        17","0","","","","","         0","0","         2","0","         0","0","       256","0","        82","0","","","","","         5"," ","   -1.7","0,0209,+","","","",""," 116.8"," ,0,0923, ","   36.7","0,0820, ","","","","","","","","","","","-1.7","Z,0209","","","","","","","","","     755.6","6","     755.6","0","   1719.0"," ,0","","","","","     20.46","0","     25.29","0","     15.63","0","","","","","","","","","","","","","",""
"USW00012918","1942","29.63806","-95.28194","13.4","HOUSTON WILLIAM P HOBBY AIRPORT, TX US","","","","","","","","","","","","","","","","","","","","","","","","","","","","","","","         9"," ","","","","","","","","","","","","","","","","","","","","","","","","","","","","","","","","","","","","","","","","","","","","","","","","","","","","","","","","","","","",""
"USW00012918","1943","29.63806","-95.28194","13.4","HOUSTON WILLIAM P HOBBY AIRPORT, TX US","","","","","","","","","","","","","","","","","","","","","","","","","","","","","","","        12"," ","","","","","","","","","","","","","","","","","","","","","","","","","","","","","","","","","","","","","","","","","","","","","","","","","","","","","","","","","","","",""
"USW00012918","1944","29.63806","-95.28194","13.4","HOUSTON WILLIAM P HOBBY AIRPORT, TX US","","","","","","","","","","","","","","","","","","","","","","","","","","","","","","","        23"," ","","","","","","","","","","","","","","","","","","","","","","","","","","","","","","","","","","","","","","","","","","","","","","","","","","","","","","","","","","","",""
"USW00012918","1945","29.63806","-95.28194","13.4","HOUSTON WILLIAM P HOBBY AIRPORT, TX US","","","","","","","","","","","","","","","","","","","","","","","","","","","","","","","        13"," ","","","","","","","","","","","","","","","","","","","","","","","","","","","","","","","","","","","","","","","","","","","","","","","","","","","","","","","","","","","",""
"USW00012918","1946","29.63806","-95.28194","13.4","HOUSTON WILLIAM P HOBBY AIRPORT, TX US","","","","","","","","","","","","","","","","","","","","","","","","","","","","","","","        23"," ","","","","","","","","","","","","","","","","","","","","","","","","","","","","","","","","","","","","","","","","","","","","","","","","","","","","","","","","","","","",""
"USW00012918","1947","29.63806","-95.28194","13.4","HOUSTON WILLIAM P HOBBY AIRPORT, TX US","","","   1624.1","","    1624.1","0","       104","0","        73","0","        11","0","        0","","         0","0","         0","0","        11","0","         0","0","       269","0","       102","0","        24"," ","","","        42"," ","   -5.0","0,0104, ","     0"," ,0,1231,+","     0","T,0,0105, ","  97.8"," ,0,0520, ","   39.4","0,0809, ","-0.6","0,1225","","","","","","","","","-1.7","0,0302","-3.3","0,0105","-5.0","0,0104","","","","","","","","","   1097.9"," ,0","","","        0","T,0","     20.07","0","     25.56","0","     14.58","0","","","","","","","","","","","","","",""
"USW00012918","1948","29.63806","-95.28194","13.4","HOUSTON WILLIAM P HOBBY AIRPORT, TX US","","","   1681.9","","    1681.9","0","        96","0","        63","0","         9","0","        0","","         0","0","         0","0","        18","0","         2","0","       282","0","       104","0","       189"," ","","","        49"," ","   -5.6","0,0118, ","     0"," ,0,1231,+","     0","T,0,0129, "," 106.4"," ,0,1116, ","   38.3","0,0821,+","-0.6","0,1231","","","","","","","","","-1.7","0,0313","-3.3","0,0312","-5.6","0,0118","","","","","     897.6","6","     897.6","0","   1004.6"," ,0","","","        0","T,0","     20.57","0","     26.30","0","     14.83","0","","","","","","","","","","","","","",""
"USW00012918","1949","29.63806","-95.28194","13.4","HOUSTON WILLIAM P HOBBY AIRPORT, TX US","","","   1685.5","","    1685.5","0","       130","0","        81","0","        21","0","        2","","         1","0","         0","0","         5","0","         1","0","       277","0","        96","0","       184"," ","","","        78"," ","  -12.2","0,0131, ","    76"," ,0,0130, ","    79"," ,0,0130, "," 252.7"," ,0,1007, ","   37.8","0,0707, ","0.0","0,1223","","","","","","","","","-2.8","0,0201","-2.8","0,0201","-12.2","0,0131","-12.2","0,0131","-12.2","0,0131","     707.9","9","     707.9","0","   1808.7"," ,0","","","       79"," ,0","     21.05","0","     26.16","0","     15.95","0","","","","","","","","","","","","","",""
"USW00012918","1950","29.63806","-95.28194","13.4","HOUSTON WILLIAM P HOBBY AIRPORT, TX US","","","   1658.0","","    1658.0","0","        92","0","        48","0","        10","0","        0","","         0","0","         0","0","         5","0","         0","0","       303","0","        81","0","       182"," ","","","        58"," ","   -7.2","0,1207, ","     0"," ,0,1231,+","     0"," ,0,1231,+","  81.8"," ,0,0101, ","   36.1","0,0914,+","-3.3","0,1125","-3.3","0,1125","-6.1","0,1206","-7.2","0,1207","","","0.0","0,0107","","","","","","","","","     512.8","8","     512.8","0","    861.3"," ,0","","","        0"," ,0","     21.24","0","     26.70","0","     15.79","0","","","","","","","","","","","","","",""
"USW00012918","1951","29.63806","-95.28194","13.4","HOUSTON WILLIAM P HOBBY AIRPORT, TX US","","","   1705.5","","    1705.5","0","        93","0","        53","0","         9","0","        0","","         0","0","         0","0","        18","0","         4","0","       299","0","       103","0","       160"," ","","","        51"," ","  -10.0","0,0202, ","     0","T,0,0202,+","     0","T,0,1203,+","  87.6"," ,0,0326, ","   37.8","0,0817,+","-2.2","0,1103","-2.2","0,1103","","","","","","","0.0","0,0313","-2.2","0,0216","-7.2","0,0203","-7.2","0,0203","-10.0","0,0202","     772.8","8","     772.8","0","    846.0"," ,0","","","        0","T,0","     20.83","0","     26.33","0","     15.34","0","","","","","","","","","","","","","",""
"USW00012918","1952","29.63806","-95.28194","13.4","HOUSTON WILLIAM P HOBBY AIRPORT, TX US","","","   1452.4","","    1452.4","0","        87","0","        58","0","        18","0","        0","","         0","0","         0","0","         1","0","         0","0","       283","0","        90","0","       109"," ","","","        47"," ","   -3.9","0,1215, ","     0"," ,0,1231,+","     0"," ,0,1231,+","  98.6"," ,0,0201, ","   36.7","0,0823,+","-3.9","0,1215","-3.9","0,1215","","","","","","","","","","","","","","","","","     622.2","2","     622.2","0","   1109.1"," ,0","","","        0"," ,0","     20.39","0","     25.87","0","     14.91","0","","","","","","","","","","","","","",""
"USW00012918","1953","29.63806","-95.28194","13.4","HOUSTON WILLIAM P HOBBY AIRPORT, TX US","","","   1679.7","","    1679.7","0","        86","0","        50","0","        13","0","        0","","         0","0","         0","0","         7","0","         0","0","       291","0","       105","0","       131"," ","","","        40"," ","   -3.3","0,1224, ","     0"," ,0,1231,+","     0","T,0,1219,+","  85.6"," ,0,0829, ","   37.8","0,0809, ","-0.6","0,1215","-2.8","0,1223","","","","","","","-2.2","0,0118","-2.2","0,0118","","","","","","","     699.2","2","     699.2","0","   1102.5"," ,0","","","        0","T,0","     21.04","0","     26.33","0","     15.74","0","","","","","","","","","","","","","",""
"USW00012918","1954","29.63806","-95.28194","13.4","HOUSTON WILLIAM P HOBBY AIRPORT, TX US","","","   1708.1","","    1708.1","0","        78","0","        44","0","         8","0","        0","","         0","0","         0","0","         7","0","         0","0","       302","0","       106","0","       116"," ","","","        41"," ","   -3.9","0,0122, ","     0"," ,0,1231,+","     0"," ,0,1231,+","  72.4"," ,0,1005, ","   40.0","0,0726, ","0.0","0,1229","","","","","","","","","0.0","0,0208","-3.9","0,0122","","","","","","","     707.2","2","     707.2","0","    730.8"," ,0","","","        0"," ,0","     21.29","0","     26.94","0","     15.64","0","","","","","","","","","","","","","",""
"USW00012918","1955","29.63806","-95.28194","13.4","HOUSTON WILLIAM P HOBBY AIRPORT, TX US","","","   1707.5","","    1707.5","0","       103","0","        58","0","        13","0","        0","","         0","0","         0","0","         9","0","         0","0","       281","0","        82","0","       129"," ","","","        66"," ","   -3.3","0,0211, ","     0"," ,0,1231,+","     0","T,0,0516, ","  66.0"," ,0,0204, ","   36.7","0,0824,+","0.0","0,1129","-2.8","0,1216","","","","","","","-0.6","0,0327","-2.2","0,0212","","","","","","","     699.0","0","     699.0","0","   1063.9"," ,0","","","        0","T,0","     20.97","0","     26.17","0","     15.76","0","","","","","","","","","","","","","",""
"USW00012918","1956","29.63806","-95.28194","13.4","HOUSTON WILLIAM P HOBBY AIRPORT, TX US","","","   1714.0","","    1714.0","0","        89","0","        49","0","         9","0","        0","","         0","0","         0","0","         3","0","         0","0","       294","0","       111","0","       116"," ","","","        52"," ","   -0.6","0,1127, ","     0"," ,0,1231,+","     0"," ,0,1231,+","  42.2"," ,0,0121, ","   38.3","0,0919, ","-0.6","0,1127","","","","","","","","","0.0","0,0308","","","","","","","","","     703.8","8","     703.8","0","    720.6"," ,0","","","        0"," ,0","     21.20","0","     26.85","0","     15.55","0","","","","","","","","","","","","","",""
"USW00012918","1957","29.63806","-95.28194","13.4","HOUSTON WILLIAM P HOBBY AIRPORT, TX US","","","   1629.3","","    1629.3","0","       110","0","        69","0","        13","0","        0","","         0","0","         0","0","         5","0","         0","0","       273","0","        82","0","       137"," ","","","        57"," ","   -5.0","0,1212, ","     0"," ,0,1231,+","     0"," ,0,1231,+"," 137.7"," ,0,1014, ","   37.2","0,0818,+","-3.3","0,1211","-3.3","0,1211","-5.0","0,1212","","","","","-2.2","0,0118","-2.2","0,0118","","","","","","","     565.6","6","     565.6","0","   1552.9"," ,0","","","        0"," ,0","     21.10","0","     25.77","0","     16.44","0","","","","","","","","","","","","","",""
"USW00012918","1958","29.63806","-95.28194","13.4","HOUSTON WILLIAM P HOBBY AIRPORT, TX US","","","   1677.4","","    1677.4","0","       115","0","        69","0","        14","0","        0","","         1","0","         0","0","         9","0","         0","0","       254","0","        95","0","       128"," ","","","        55"," ","   -3.3","0,0213, ","     0","T,0,0212, ","    43"," ,0,0212, ","  67.8"," ,0,0907, ","   37.8","0,0803,+","-0.6","0,1129","","","","","","","","","0.0","0,0216","-3.3","0,0213","","","","","","","     922.8","8","     922.8","0","   1116.8"," ,0","","","       43"," ,0","     20.23","0","     24.96","0","     15.51","0","","","","","","","","","","","","","",""
"USW00012918","1959","29.63806","-95.28194","13.4","HOUSTON WILLIAM P HOBBY AIRPORT, TX US","","","   1578.7","","    1578.7","0","       111","0","        69","0","        22","0","        0","","         0","0","         0","0","        14","0","         0","0","       259","0","        79","0","       158"," ","","","        67"," ","   -5.6","0,0104, ","     0"," ,0,1231,+","     0"," ,0,1231,+"," 101.1"," ,0,0724, ","   35.6","0,0804,+","-1.1","0,1107","-2.2","0,1118","","","","","","","-3.9","0,0122","-3.9","0,0122","-5.6","0,0104","","","","","     853.8","8","     853.8","0","   1733.8"," ,0","","","        0"," ,0","     20.20","0","     24.98","0","     15.43","0","","","","","","","","","","","","","",""
"USW00012918","1960","29.63806","-95.28194","13.4","HOUSTON WILLIAM P HOBBY AIRPORT, TX US","","","   1639.7","","    1639.7","0","       119","0","        68","0","        17","0","        1","","         1","0","         0","0","        12","0","         0","0","       264","0","        91","0","       165"," ","","","        69"," ","   -3.3","0,0225, ","    76"," ,0,0213, ","   112"," ,0,0212, "," 166.9"," ,0,0626, ","   36.7","0,0730,+","-1.1","0,1221","","","","","","","","","-0.6","0,0304","-2.8","0,0226","","","","","","","     992.0","0","     992.0","0","   1364.5"," ,0","","","      112"," ,0","     20.26","0","     25.12","0","     15.39","0","","","","","","","","","","","","","",""
"USW00012918","1961","29.63806","-95.28194","13.4","HOUSTON WILLIAM P HOBBY AIRPORT, TX US","","","   1607.1","","    1607.1","0","       107","0","        67","0","        24","0","        0","","         0","0","         0","0","        12","0","         0","0","       286","0","        91","0","       163"," ","","","        66"," ","   -2.2","0,0129, ","     0"," ,0,1231,+","     0","T,0,1213, "," 143.0"," ,0,0618, ","   35.6","0,0906,+","0.0","0,1213","","","","","","","","","-0.6","0,0208","-2.2","0,0129","","","","","","","     753.7","7","     753.7","0","   1600.1"," ,0","","","        0","T,0","     20.67","0","     25.97","0","     15.36","0","","","","","","","","","","","","","",""
"USW00012918","1962","29.63806","-95.28194","13.4","HOUSTON WILLIAM P HOBBY AIRPORT, TX US","","","   1695.1","","    1695.1","0","        94","0","        55","0","        11","0","        0","","         0","0","         0","0","        10","0","         2","0","       288","0","       109","0","       180"," ","","","        58"," ","   -8.3","0,0112,+","     0"," ,0,1231,+","     0"," ,0,1231,+","  69.9"," ,0,1127, ","   41.1","0,0813, ","-1.7","0,1212","-3.3","0,1213","","","","","","","0.0","0,0301","-3.9","0,0113","-8.3","0,0112","-8.3","0,0112","","","     744.7","7","     744.7","0","    944.0"," ,0","","","        0"," ,0","     20.94","0","     26.59","0","     15.29","0","","","","","","","","","","","","","",""
"USW00012918","1963","29.63806","-95.28194","13.4","HOUSTON WILLIAM P HOBBY AIRPORT, TX US","","","   1856.7","","    1856.7","0","        72","0","        51","0","        12","0","        0","","         0","0","         0","0","        24","0","         1","0","       276","0","       121","0","       157"," ","","","        48"," ","   -8.3","0,0124, ","     0","T,0,0114, ","     0","T,0,0212,+","  68.6"," ,0,0621, ","   37.8","0,0616, ","0.0","0,1203","-2.2","0,1215","-7.2","0,1223","-7.2","0,1223","","","-2.8","0,0214","-2.8","0,0214","-4.4","0,0125","-8.3","0,0124","","","     820.4","4","     820.4","0","    820.4"," ,0","","","        0","T,0","     20.86","0","     26.61","0","     15.12","0","","","","","","","","","","","","","",""
"USW00012918","1964","29.63806","-95.28194","13.4","HOUSTON WILLIAM P HOBBY AIRPORT, TX US","","","   1597.3","","    1597.3","0","       102","0","        60","0","        12","0","        0","","         0","0","         0","0","        14","0","         0","0","       278","0","        90","0","       162"," ","","","        46"," ","   -6.1","0,0114, ","     0"," ,0,1231,+","     0","T,0,0221, ","  82.8"," ,0,1210, ","   38.3","0,0725, ","0.0","0,1206","","","","","","","","","-1.1","0,0223","-2.8","0,0222","-6.1","0,0114","","","","","     957.9","9","     957.9","0","    994.5"," ,0","","","        0","T,0","     20.35","0","     25.62","0","     15.08","0","","","","","","","","","","","","","",""
"USW00012918","1965","29.63806","-95.28194","13.4","HOUSTON WILLIAM P HOBBY AIRPORT, TX US","","","   1821.8","","    1821.8","0","       105","0","        56","0","        11","0","        0","","         0","0","         0","0","         8","0","         0","0","       293","0","       105","0","       148"," ","        47"," ","        50"," ","   -5.0","0,0117, ","     0"," ,0,1231,+","     0","T,0,0224, ","  69.3"," ,0,0522, ","   37.8","0,0728, ","","","","","","","","","","","-1.7","0,0320","-2.2","0,0304","-5.0","0,0117","","","","","     733.0","0","     733.0","0","    965.5"," ,0","      63.1","X","        0","T,0","     21.59","0","     26.94","0","     16.24","0","   168660","X","       170","X","","","","","      19.7","X","","","",""
"USW00012918","1966","29.63806","-95.28194","13.4","HOUSTON WILLIAM P HOBBY AIRPORT, TX US","","","   1602.3","","    1602.3","0","       107","0","        71","0","        17","0","        0","","         0","0","         0","0","        18","0","         0","0","       272","0","        86","0","       170"," ","        43"," ","        59"," ","   -6.7","0,0130, ","     0"," ,0,1231,+","     0"," ,0,1231,+"," 131.6"," ,0,0414, ","   36.1","0,0731,+","-2.8","0,1211","-2.8","0,1211","","","","","","","0.0","0,0205","-6.7","0,0130","-6.7","0,0130","-6.7","0,0130","","","     720.4","4","     720.4","0","   1502.6"," ,0","      57.6","X","        0"," ,0","     20.36","0","     25.46","0","     15.26","0","   154668","X","       160","X","","","","","      17.0","X","","","",""
"USW00012918","1967","29.63806","-95.28194","13.4","HOUSTON WILLIAM P HOBBY AIRPORT, TX US","","","   1710.5","","    1710.5","0","        92","0","        51","0","        15","0","        0","","         0","0","         0","0","         8","0","         0","0","       294","0","        80","0","       156"," ","        42"," ","        38"," ","   -3.3","0,0104, ","     0"," ,0,1231,+","     0","T,0,0109, ","  64.0"," ,0,1209, ","   37.2","0,0626, ","-1.1","0,1223","","","","","","","","","-1.1","0,0223","-2.2","0,0207","","","","","","","     677.1","1","     677.1","0","    926.8"," ,0","      59.5","X","        0","T,0","     21.19","0","     26.78","0","     15.60","0","   161178","X","       290","X","","","","","      15.6","X","","","",""
"USW00012918","1968","29.63806","-95.28194","13.4","HOUSTON WILLIAM P HOBBY AIRPORT, TX US","","","   1631.6","","    1631.6","0","       126","0","        78","0","        19","0","        0","","         1","0","         0","0","        10","0","         0","0","       278","0","        81","0","       154"," ","        30"," ","        68"," ","   -2.2","0,0114, ","     0"," ,0,1231,+","    25"," ,0,0322, "," 161.3"," ,0,0510, ","   35.6","0,0822,+","0.0","0,1112","","","","","","","","","-1.7","0,0301","-2.2","0,0114","","","","","","","     847.3","3","     847.3","0","   1561.3"," ,0","      52.3","X","       25"," ,0","     20.35","0","     25.53","0","     15.17","0","   140880","X","       170","X","","","","","      18.3","X","","","",""
"USW00012918","1969","29.63806","-95.28194","13.4","HOUSTON WILLIAM P HOBBY AIRPORT, TX US","","","   1744.2","","    1744.2","0","        86","0","        60","0","        15","0","        0","","         0","0","         0","0","         8","0","         0","0","       282","0","       116","0","       202"," ","        41"," ","        57"," ","   -2.8","0,0105, ","     0"," ,0,1231,+","     0"," ,0,1231,+","  71.1"," ,0,1205, ","   38.3","0,0811,+","-2.2","0,1115","-2.2","0,1115","","","","","","","0.0","0,0106","-2.8","0,0105","","","","","","","     740.1","1","     740.1","0","   1074.5"," ,0","","","        0"," ,0","     21.11","0","     26.44","0","     15.79","0","","","","","","","","","","","","","",""
"USW00012918","1970","29.63806","-95.28194","13.4","HOUSTON WILLIAM P HOBBY AIRPORT, TX US","","","   1642.8","","    1642.8","0","       100","0","        65","0","        18","0","        0","","         0","0","         0","0","        12","0","         0","0","       282","0","        99","0","       189"," ","        33"," ","        47"," ","   -7.2","0,0107, ","     0"," ,0,1231,+","     0","T,0,0317,+"," 107.2"," ,0,0521, ","   37.2","0,0704, ","-1.1","0,1116","","","","","","","","","-0.6","0,0204","-2.2","0,0203","-7.2","0,0107","-7.2","0,0107","","","     816.9","9","     816.9","0","   1431.2"," ,0","","","        0","T,0","     20.63","0","     25.97","0","     15.30","0","","","","","","","","","","","","","",""
"USW00012918","1971","29.63806","-95.28194","13.4","HOUSTON WILLIAM P HOBBY AIRPORT, TX US","","","   1687.2","","    1687.2","0","        88","0","        55","0","        11","0","        0","","         0","0","         0","0","        10","0","         0","0","       313","0","        90","0","       189"," ","        45"," ","        60"," ","   -3.3","0,0209,+","     0"," ,0,1231,+","     0"," ,0,1231,+","  67.3"," ,0,0910, ","   37.2","0,0720, ","","","","","","","","","","","-2.2","0,0304","-2.2","0,0304","","","","","","","     617.1","1","     617.1","0","    937.8"," ,0","","","        0"," ,0","     21.43","0","     26.81","0","     16.05","0","","","","","","","","","","","","","",""
"USW00012918","1972","29.63806","-95.28194","13.4","HOUSTON WILLIAM P HOBBY AIRPORT, TX US","","","   1773.4","","    1773.4","0","        81","0","        65","0","        20","0","        0","","         0","0","         0","0","        10","0","         0","0","       293","0","       104","0","       191"," ","        31"," ","        62"," ","   -3.9","0,0106,+","     0"," ,0,1231,+","     0"," ,0,1231,+"," 157.5"," ,0,0427, ","   36.1","0,0904, ","0.0","0,1201","-2.2","0,1216","","","","","","","-2.2","0,0204","-2.2","0,0204","","","","","","","     470.3","3","     470.3","0","   1355.8"," ,0","","","        0"," ,0","     21.31","0","     26.54","0","     16.08","0","","","","","","","","","","","","","",""
"USW00012918","1973","29.63806","-95.28194","13.4","HOUSTON WILLIAM P HOBBY AIRPORT, TX US","","","   1676.2","","    1676.2","0","       103","0","        75","0","        25","0","        0","","         0","0","         0","0","        13","0","         0","0","       287","0","        83","0","       200"," ","        26"," ","        64"," ","   -6.1","0,0112, ","     0"," ,0,1231,+","     0","T,0,0217,+"," 179.6"," ,0,0707, ","   36.1","0,0527, ","0.0","0,1219","-5.0","0,1221","-5.0","0,1221","","","","","-0.6","0,0211","-3.3","0,0210","-6.1","0,0112","","","","","     884.6","6","     884.6","0","   2047.5"," ,0","","","        0","T,0","     20.93","0","     26.01","0","     15.84","0","","","","","","","","","","","","","",""
"USW00012918","1974","29.63806","-95.28194","13.4","HOUSTON WILLIAM P HOBBY AIRPORT, TX US","","","   1720.2","","    1720.2","0","        95","0","        75","0","        19","0","        0","","         0","0","         0","0","         6","0","         0","0","       302","0","        93","0","       183"," ","        21"," ","        67"," ","   -0.6","0,1130,+","     0"," ,0,1231,+","     0"," ,0,1231,+","  93.5"," ,0,1031, ","   36.1","0,0728,+","-0.6","0,1130","","","","","","","","","-0.6","0,0225","","","","","","","","","     528.6","6","     528.6","0","   1472.3"," ,0","","","        0"," ,0","     21.41","0","     26.51","0","     16.30","0","","","","","","","","","","","","","",""
"USW00012918","1975","29.63806","-95.28194","13.4","HOUSTON WILLIAM P HOBBY AIRPORT, TX US","","","   1635.8","","    1635.8","0","        89","0","        66","0","        13","0","        0","","         0","0","         0","0","         8","0","         0","0","       287","0","        79","0","       190"," ","        41"," ","        63"," ","   -3.9","0,0113, ","     0"," ,0,1231,+","     0","T,0,0112, "," 123.2"," ,0,0609, ","   36.1","0,0731, ","-1.1","0,1123","","","","","","","","","-2.8","0,0207","-2.8","0,0207","","","","","","","     619.9","9","     619.9","0","   1247.2"," ,0","","","        0","T,0","     20.97","0","     26.25","0","     15.68","0","","","","","","","","","","","","","",""
"USW00012918","1976","29.63806","-95.28194","13.4","HOUSTON WILLIAM P HOBBY AIRPORT, TX US","","","   1399.8","","    1399.8","0","       103","0","        82","0","        26","0","        0","","         0","0","         0","0","        12","0","         0","0","       272","0","        79","0","       185"," ","        26"," ","        54"," ","   -6.1","0,0108, ","     0"," ,0,1231,+","     0","T,0,1128, "," 146.1"," ,0,0615, ","   36.7","0,0807,+","-2.2","0,1128","-2.2","0,1128","","","","","","","-0.6","0,0223","-3.3","0,0109","-6.1","0,0108","","","","","     661.0","0","     661.0","0","   1769.6"," ,0","","","        0","T,0","     19.75","0","     25.06","0","     14.44","0","","","","","","","","","","","","","",""
"USW00012918","1977","29.63806","-95.28194","13.4","HOUSTON WILLIAM P HOBBY AIRPORT, TX US","","","   1730.4","","    1730.4","0","        88","0","        66","0","        14","0","        0","","         0","0","         0","0","        13","0","         0","0","       282","0","       117","0","       184"," ","        32"," ","        57"," ","   -6.7","0,0110, ","     0"," ,0,1231,+","     0","T,0,0201, ","  91.9"," ,0,0420, ","   36.7","0,0802,+","-2.2","0,1221","-2.2","0,1221","","","","","","","-0.6","0,0129","-2.2","0,0120","-4.4","0,0119","-6.7","0,0110","","","    1099.4","4","    1099.4","0","   1061.2"," ,0","","","        0","T,0","     20.77","0","     26.21","0","     15.33","0","","","","","","","","","","","","","",""
"USW00012918","1978","29.63806","-95.28194","13.4","HOUSTON WILLIAM P HOBBY AIRPORT, TX US","","","   1669.7","","    1669.7","0","        89","0","        70","0","        14","0","        0","","         0","0","         0","0","        24","0","         1","0","       265","0","       109","0","       191"," ","        40"," ","        51"," ","   -4.4","0,1210,+","     0","T,0,0120,+","     0","T,0,1208,+","  77.5"," ,0,1126, ","   36.1","0,0718,+","-0.6","0,1208","-2.2","0,1209","-4.4","0,1210","","","","","-0.6","0,0310","-4.4","0,0222","-4.4","0,0222","","","","","    1065.9","9","    1065.9","0","   1130.0"," ,0","","","        0","T,0","     19.86","0","     25.22","0","     14.50","0","","","","","","","","","","","","","",""
"USW00012918","1979","29.63806","-95.28194","13.4","HOUSTON WILLIAM P HOBBY AIRPORT, TX US","","","   1458.1","","    1458.1","0","       101","0","        83","0","        27","0","        0","","         0","0","         0","0","        22","0","         0","0","       268","0","        67","0","       197"," ","        30"," ","        63"," ","   -8.9","0,0102, ","     0"," ,0,1231,+","     0","T,0,1123,+"," 224.3"," ,0,0919, ","   35.0","0,0717, ","0.0","0,1129","","","","","","","","","-0.6","0,0210","-3.3","0,0209","-6.7","0,0114","-6.7","0,0114","-8.9","0,0102","     919.7","7","     919.7","0","   2108.7"," ,0","","","        0","T,0","     19.55","0","     24.76","0","     14.34","0","","","","","","","","","","","","","",""
"USW00012918","1980","29.63806","-95.28194","13.4","HOUSTON WILLIAM P HOBBY AIRPORT, TX US","","","   1706.6","","    1706.6","0","        77","0","        62","0","        13","0","        0","","         0","0","         0","0","        12","0","         0","0","       278","0","       109","0","       181"," ","        37"," ","        41"," ","   -4.4","0,0302, ","     0","T,0,0202, ","     0","T,0,0202, ","  58.4"," ,0,0120, ","   39.4","0,0717, ","0.0","0,1126","-2.2","0,1127","","","","","","","-3.3","0,0303","-3.3","0,0303","-4.4","0,0302","","","","","     815.9","9","     815.9","0","   1008.6"," ,0","","","        0","T,0","     20.70","0","     26.10","0","     15.30","0","","","","","","","","","","","","","",""
"USW00012918","1981","29.63806","-95.28194","13.4","HOUSTON WILLIAM P HOBBY AIRPORT, TX US","","","   1655.6","","    1655.6","0","        86","0","        73","0","        22","0","        0","","         0","0","         0","0","        10","0","         0","0","       286","0","        86","0","       214"," ","        31"," ","        49"," ","   -6.7","0,0211, ","     0"," ,0,1231,+","     0"," ,0,1231,+"," 240.8"," ,0,0503, ","   36.7","0,0724, ","-1.1","0,1218","","","","","","","","","-2.8","0,0212","-2.8","0,0212","-6.7","0,0211","-6.7","0,0211","","","     863.0","0","     863.0","0","   2086.7"," ,0","","","        0"," ,0","     20.79","0","     25.85","0","     15.72","0","","","","","","","","","","","","","",""
"USW00012918","1982","29.63806","-95.28194","13.4","HOUSTON WILLIAM P HOBBY AIRPORT, TX US","","","   1719.5","","    1719.5","0","        81","0","        68","0","        15","0","        0","","         0","0","         0","0","        11","0","         0","0","       280","0","       110","0","       178"," ","        34"," ","        55"," ","   -9.4","0,0111, ","     0"," ,0,1231,+","     0"," ,0,1231,+","  91.4"," ,0,0513, ","   38.3","0,0814, ","-0.6","0,1213","","","","","","","","","-1.1","0,0307","-2.2","0,0206","-7.2","0,0114","-7.2","0,0114","-9.4","0,0111","     739.0","0","     739.0","0","   1179.0"," ,0","","","        0"," ,0","     20.84","0","     25.90","0","     15.78","0","","","","","","","","","","","","","",""
"USW00012918","1983","29.63806","-95.28194","13.4","HOUSTON WILLIAM P HOBBY AIRPORT, TX US","","","   1435.1","","    1435.1","0","        99","0","        71","0","        20","0","        0","","         0","0","         0","0","        13","0","         4","0","       268","0","        67","0","       197"," ","        22"," ","        62"," ","  -10.6","0,1225, ","     0"," ,0,1231,+","     0","T,0,1223, ","  74.2"," ,0,0521, ","   35.6","0,0831,+","-0.6","0,1219","-5.0","0,1222","-5.0","0,1222","-9.4","0,1224","-9.4","0,1224","0.0","0,0123","","","","","","","","","     812.4","4","     812.4","0","   1434.9"," ,0","","","        0","T,0","     19.72","0","     24.58","0","     14.86","0","","","","","","","","","","","","","",""
"USW00012918","1984","29.63806","-95.28194","13.4","HOUSTON WILLIAM P HOBBY AIRPORT, TX US","","","   1651.9","","    1651.9","0","        88","0","        62","0","        18","0","        0","","         0","0","         0","0","         9","0","         0","0","       292","0","        78","0","       164"," ","        26"," ","        50"," ","   -5.0","0,0119, ","     0"," ,0,1231,+","     0"," ,0,1231,+"," 106.2"," ,0,0814, ","   36.1","0,0718,+","-1.1","0,1207","","","","","","","","","-0.6","0,0207","-2.2","0,0121","-5.0","0,0119","","","","","     905.1","1","     905.1","0","   1263.3"," ,0","","","        0"," ,0","     20.99","0","     25.91","0","     16.06","0","","","","","","","","","","","","","",""
"USW00012918","1985","29.63806","-95.28194","13.4","HOUSTON WILLIAM P HOBBY AIRPORT, TX US","","","   1748.9","","    1748.9","0","        97","0","        57","0","        13","0","        0","","         0","0","         0","0","        13","0","         1","0","       278","0","        76","0","       161"," ","        20"," ","        63"," ","   -6.7","0,0121, ","     0","T,0,0112,+","     0","T,0,0203,+"," 108.7"," ,0,1111, ","   36.7","0,0901,+","0.0","0,1213","-2.8","0,1214","","","","","","","0.0","0,0203","-4.4","0,0202","-4.4","0,0202","-6.7","0,0121","","","     691.9","9","     691.9","0","   1207.7"," ,0","","","        0","T,0","     20.92","0","     25.40","0","     16.43","0","","","","","","","","","","","","","",""
"USW00012918","1986","29.63806","-95.28194","13.4","HOUSTON WILLIAM P HOBBY AIRPORT, TX US","","","   1765.6","","    1765.6","0","       114","0","        65","0","        18","0","        0","","         0","0","         0","0","         0","0","         0","0","       287","0","        81","0","       143"," ","        23"," ","        74"," ","    0.6","0,0212, ","     0"," ,0,1231,+","     0"," ,0,1231,+"," 123.4"," ,0,0604, ","   37.2","0,0802,+","","","","","","","","","","","","","","","","","","","","","     552.6","6","     552.6","0","   1367.5"," ,0","","","        0"," ,0","     21.52","0","     25.99","0","     17.06","0","","","","","","","","","","","","","",""
"USW00012918","1987","29.63806","-95.28194","13.4","HOUSTON WILLIAM P HOBBY AIRPORT, TX US","","","   1623.7","","    1623.7","0","        99","0","        61","0","        14","0","        0","","         0","0","         0","0","         4","0","         0","0","       277","0","        91","0","       127"," ","        22"," ","        57"," ","   -1.7","0,0123,+","     0"," ,0,1231,+","     0","T,0,0121, ","  66.8"," ,0,0707, ","   36.7","0,0625, ","","","","","","","","","","","0.0","0,0331","","","","","","","","","     784.4","4","     784.4","0","   1120.8"," ,0","","","        0","T,0","     20.74","0","     25.67","0","     15.81","0","","","","","","","","","","","","","",""
"USW00012918","1988","29.63806","-95.28194","13.4","HOUSTON WILLIAM P HOBBY AIRPORT, TX US","","","   1643.2","","    1643.2","0","        86","0","        44","0","         9","0","        0","","         0","0","         0","0","         9","0","         0","0","       283","0","        82","0","       140"," ","        22"," ","        44"," ","   -3.3","0,0212, ","     0","T,0,0210, ","     0","T,0,0207, ","  47.8"," ,0,0317, ","   37.8","0,0808, ","","","","","","","","","","","-3.3","0,0212","-3.3","0,0212","","","","","","","     802.3","3","     802.3","0","    677.3"," ,0","","","        0","T,0","     20.73","0","     25.71","0","     15.75","0","","","","","","","","","","","","","",""
"USW00012918","1989","29.63806","-95.28194","13.4","HOUSTON WILLIAM P HOBBY AIRPORT, TX US","","","   1665.3","","    1665.3","0","       110","0","        57","0","        14","0","        0","","         0","0","         0","0","        20","0","         5","0","       277","0","        70","0","       166"," ","        22"," ","        50"," ","  -12.8","0,1223, ","     0","T,0,1225,+","     0","T,0,1222,+"," 217.9"," ,0,0801, ","   36.1","0,0902, ","0.0","0,1209","-5.0","0,1213","-5.0","0,1213","-9.4","0,1222","-9.4","0,1222","-1.7","0,0307","-3.3","0,0306","-4.4","0,0204","","","","","     669.5","5","     669.5","0","   1354.8"," ,0","","","        0","T,0","     20.43","0","     24.99","0","     15.87","0","","","","","","","","","","","","","",""
"USW00012918","1990","29.63806","-95.28194","13.4","HOUSTON WILLIAM P HOBBY AIRPORT, TX US","","","","","","","","","","","","","","","","","","","","","","","","","","","       121"," ","        19"," ","        62"," ","","","","","","","","","","","","","","","","","","","","","","","","","","","","","","","","","","","","","","","","","","","","","","","","","","","","","","","","","","","",""
"USW00012918","1991","29.63806","-95.28194","13.4","HOUSTON WILLIAM P HOBBY AIRPORT, TX US","","","   1834.8","","    1834.8","0","       130","0","        79","0","        25","0","        0","","         0","0","         0","0","         0","0","         0","0","       275","0","        95","0","       152"," ","        21"," ","        91"," ","    1.1","0,1124,+","     0"," ,0,1231,+","     0","T,0,0417,+"," 108.2"," ,0,0508, ","   36.1","0,0720, ","","","","","","","","","","","","","","","","","","","","","     671.3","3","     671.3","0","   1863.4"," ,0","","","        0","T,0","     21.55","0","     25.92","0","     17.18","0","","","","","","","","","","","","","",""
"USW00012918","1992","29.63806","-95.28194","13.4","HOUSTON WILLIAM P HOBBY AIRPORT, TX US","","","   1629.0","","    1629.0","0","       127","0","        85","0","        24","0","        0","","         0","0","         0","0","         3","0","         0","0","       278","0","        81","0","       166"," ","        35"," ","        74"," ","   -1.7","0,1127, ","     0"," ,0,1231,+","     0","T,0,0419, ","  78.2"," ,0,1101, ","   36.1","0,0826, ","-1.7","0,1127","","","","","","","","","-1.1","0,0116","","","","","","","","","     585.6","6","     585.6","0","   1638.1"," ,0","","","        0","T,0","     21.14","0","     25.78","0","     16.51","0","","","","","","","","","","","","","",""
"USW00012918","1993","29.63806","-95.28194","13.4","HOUSTON WILLIAM P HOBBY AIRPORT, TX US","","","   1638.9","","    1638.9","0","       109","0","        73","0","        22","0","        0","","         0","0","         0","0","         3","0","         0","0","       267","0","        86","0","       120"," ","        10"," ","        63"," ","   -1.1","0,1127, ","     0"," ,0,1231,+","     0","T,0,0425, "," 178.3"," ,0,1020, ","   36.1","0,0818,+","-1.1","0,1127","","","","","","","","","0.0","0,0314","","","","","","","","","     656.7","7","     656.7","0","   1551.7"," ,0","","","        0","T,0","     20.82","0","     25.44","0","     16.20","0","","","","","","","","","","","","","",""
"USW00012918","1994","29.63806","-95.28194","13.4","HOUSTON WILLIAM P HOBBY AIRPORT, TX US","","","   1684.3","","    1684.3","0","       107","0","        64","0","        15","0","        0","","         0","0","         0","0","         5","0","         0","0","       281","0","        80","0","       151"," ","        14"," ","        69"," ","   -2.8","0,0202, ","     0"," ,0,1231,+","     3"," ,0,0201, "," 199.6"," ,0,1017, ","   36.1","0,0815,+","","","","","","","","","","","0.0","0,0210","-2.8","0,0202","","","","","","","     759.9","9","     759.9","0","   1490.1"," ,0","","","        3"," ,0","     21.21","0","     25.93","0","     16.50","0","","","","","","","","","","","","","",""
"USW00012918","1995","29.63806","-95.28194","13.4","HOUSTON WILLIAM P HOBBY AIRPORT, TX US","","","   1699.2","","    1699.2","0","       106","0","        66","0","        20","0","        0","","         0","0","         0","0","         2","0","         0","0","       286","0","        93","0","       145"," ","        23"," ","        55"," ","   -0.6","0,1210, ","     0"," ,0,1231,+","     0","T,0,0511, "," 106.2"," ,0,1217, ","   37.2","0,0728, ","-0.6","0,1210","","","","","","","","","","","","","","","","","","","     582.1","1","     582.1","0","   1359.3"," ,0","","","        0","T,0","     21.20","0","     26.16","0","     16.25","0","","","","","","","","","","","","","",""
"USW00012918","1996","29.63806","-95.28194","13.4","HOUSTON WILLIAM P HOBBY AIRPORT, TX US","","","   1773.2","","    1773.2","0","        95","0","        54","0","        12","0","        0","","         0","0","         0","0","        16","0","         0","0","       298","0","        89","0","       129"," ","        20"," ","        57"," ","   -5.0","0,0108, ","     0"," ,0,1231,+","     0","T,0,1218,+","  83.8"," ,0,0625, ","   36.1","0,0802,+","-0.6","0,1218","-3.9","0,1219","","","","","","","0.0","0,0310","-4.4","0,0205","-4.4","0,0205","","","","","     772.0","0","     772.0","0","    935.5"," ,0","","","        0","T,0","     21.12","0","     26.27","0","     15.98","0","","","","","","","","","","","","","",""
"USW00012918","1997","29.63806","-95.28194","13.4","HOUSTON WILLIAM P HOBBY AIRPORT, TX US","","","   1637.8","","    1637.8","0","       120","0","        87","0","        23","0","        0","","         0","0","         0","0","         5","0","         0","0","       268","0","        92","0","       168"," ","        18"," ","        66"," ","   -1.1","0,0111, ","     0"," ,0,1231,+","     0","T,0,0427, "," 104.1"," ,0,0127, ","   36.7","0,0821,+","0.0","0,1214","","","","","","","","","-0.6","0,0114","","","","","","","","","     645.6","6","     645.6","0","   1950.9"," ,0","","","        0","T,0","     20.73","0","     25.34","0","     16.11","0","","","","","","","","","","","","","",""
"USW00012918","1998","29.63806","-95.28194","13.4","HOUSTON WILLIAM P HOBBY AIRPORT, TX US","","","   2020.7","","    2020.7","W","       112","W","        58","W","        18","W","","","","","         0","W","         1","W","         0","W","       285","W","       128","W","       104"," ","        14"," ","        37"," ","   -1.7","W,1226, ","","","",""," 149.1"," ,W,0911, ","   38.9","W,0717, ","-1.7","W,1226","","","","","","","","","","","","","","","","","","","     632.9","9","     632.9","W","   1438.4"," ,W","","","","","     22.37","W","     27.25","W","     17.48","W","","","","","","","","","","","","","",""
"USW00012918","1999","29.63806","-95.28194","13.4","HOUSTON WILLIAM P HOBBY AIRPORT, TX US","       3.4","X","   1818.0","","    1818.0","0","        93","0","        52","0","        11","0","","","","","         0","0","         2","0","         0","0","       314","0","        91","0","       120"," ","        21"," ","        49"," ","   -1.7","0,0105, ","","","","","  65.3"," ,0,0512, ","   38.3","0,0820,+","","","","","","","","","","","-1.7","W,0105","","","","","","","","","     468.7","7","     468.7","0","    881.5"," ,0","","","","","     22.00","0","     27.27","0","     16.74","0","","","","","        20","X","       360","X","","","      17.9","X","      65.7","X"
"USW00012918","2000","29.63806","-95.28194","13.4","HOUSTON WILLIAM P HOBBY AIRPORT, TX US","       3.6","X","   1905.0","","    1905.0","0","        99","0","        60","0","        15","0","","","","","         0","0","         3","0","         0","0","       287","0","       102","0","       152"," ","        27"," ","        53"," ","   -1.1","0,1230, ","","","","","  66.8"," ,0,1118, ","   42.2","0,0904, ","0.0","0,1217","","","","","","","","","0.0","0,0105","","","","","","","","","     469.1","1","     469.1","0","   1163.6"," ,0","","","","","     21.72","0","     26.66","0","     16.78","0","","","","","        20","X","       360","X","","","      27.3","X","      65.7","X"
"USW00012918","2001","29.63806","-95.28194","13.4","HOUSTON WILLIAM P HOBBY AIRPORT, TX US","       3.3","X","   1677.3","","    1677.3","0","       115","0","        78","0","        26","0","","","","","         0","0","         5","0","         0","0","       280","0","        87","0","       161"," ","        23"," ","        69"," ","   -1.7","0,0120,+","","","",""," 216.7"," ,0,0605, ","   36.1","0,0722, ","","","","","","","","","","","-0.6","0,0121","","","","","","","","","     881.2","2","     881.2","0","   2075.0"," ,0","","","","","     21.07","0","     25.82","0","     16.32","0","","","","","        10","X","        40","X","","","      16.5","X","      22.8","X"
"USW00012918","2002","29.63806","-95.28194","13.4","HOUSTON WILLIAM P HOBBY AIRPORT, TX US","       3.6","X","   1717.1","","    1717.1","0","       109","0","        68","0","        17","0","","","","","         0","0","         8","0","         0","0","       283","0","        84","0","       137"," ","        18"," ","        60"," ","   -3.9","0,0227, ","","","",""," 140.2"," ,0,0815, ","   36.1","0,0803, ","","","","","","","","","","","0.0","0,0305","-2.8","0,0304","","","","","","","     636.7","7","     636.7","0","   1495.9"," ,0","","","","","     21.05","0","     25.77","0","     16.33","0","","","","","       280","X","       360","X","","","      19.2","X","      65.7","X"
"USW00012918","2003","29.63806","-95.28194","13.4","HOUSTON WILLIAM P HOBBY AIRPORT, TX US","       3.4","X","   1728.7","","    1728.7","0","        97","0","        59","0","        14","0","","","","","         0","0","         4","0","         0","0","       281","0","        84","0","       164"," ","        23"," ","        67"," ","   -2.2","0,0118, ","","","","","  80.3"," ,0,1009, ","   38.9","0,0807, ","","","","","","","","","","","-1.7","0,0124","-2.2","0,0118","","","","","","","     761.8","8","     761.8","0","   1147.5"," ,0","","","","","     21.04","0","     25.95","0","     16.14","0","","","","","       210","X","       360","X","","","      17.0","X","      65.7","X"
"USW00012918","2004","29.63806","-95.28194","13.4","HOUSTON WILLIAM P HOBBY AIRPORT, TX US","       3.4","X","   1805.0","","    1805.0","0","       118","0","        73","0","        17","0","","","","","         0","0","         4","0","         0","0","       289","0","        86","0","       148"," ","        20"," ","        68"," ","   -2.2","0,1226, ","","","","","  85.3"," ,0,1117, ","   36.1","0,0917,+","-1.1","0,1224","-2.2","0,1226","","","","","","","0.0","0,0128","","","","","","","","","     620.0","0","     620.0","0","   1426.5"," ,0","","","","","     21.61","0","     26.18","0","     17.04","0","","","","","       320","X","       290","X","","","      19.2","X","      23.2","X"
"USW00012918","2005","29.63806","-95.28194","13.4","HOUSTON WILLIAM P HOBBY AIRPORT, TX US","       3.3","X","   1889.3","","    1889.3","0","        87","0","        53","0","        12","0","","","","","         0","0","         0","0","         0","0","       293","0","       126","0","       131"," ","        24"," ","        62"," ","    1.1","0,1208,+","","","","","  82.8"," ,0,0717, ","   37.8","0,0921,+","","","","","","","","","","","","","","","","","","","","","     546.8","8","     546.8","0","    907.9"," ,0","","","","","     21.87","0","     26.96","0","     16.78","0","","","","","       340","X","       250","X","","","      19.7","X","      27.3","X"
"USW00012918","2006","29.63806","-95.28194","13.4","HOUSTON WILLIAM P HOBBY AIRPORT, TX US","       3.3","W","   1802.9","","    1802.9","0","        93","0","        59","0","        13","0","","","","","         0","0","         2","0","         0","0","       305","0","        97","0","       181"," ","        32"," ","        67"," ","   -1.1","0,0212, ","","","",""," 236.0"," ,0,0619, ","   37.2","0,0613, ","0.0","0,1205","","","","","","","","","-1.1","0,0212","","","","","","","","","     524.5","5","     524.5","0","   1578.5"," ,0","","","","","     21.88","0","     26.92","0","     16.83","0","","","","","       320","X","       100","X","","","      17.9","X","      24.1","X"
"USW00012918","2007","29.63806","-95.28194","13.4","HOUSTON WILLIAM P HOBBY AIRPORT, TX US","       3.1","W","   1869.8","","    1869.8","0","       132","0","        85","0","        23","0","","","","","         0","0","         1","0","         0","0","       295","0","        91","0","       183"," ","        24"," ","        85"," ","   -1.7","0,0216, ","","","","","  85.3"," ,0,0528, ","   38.9","0,0812, ","","","","","","","","","","","-1.7","0,0216","","","","","","","","","     670.1","1","     670.1","0","   1729.8"," ,0","","","","","     21.65","0","     26.32","0","     16.98","0","","","","","       330","X","       280","X","","","      16.1","X","      20.1","X"
"USW00012918","2008","29.63806","-95.28194","13.4","HOUSTON WILLIAM P HOBBY AIRPORT, TX US","       3.5","W","   1849.4","","    1849.4","0","       101","0","        65","0","        18","0","","","","","         0","0","         2","0","         0","0","       306","0","       105","0","       185"," ","        17"," ","        53"," ","    0.0","0,1210,+","","","",""," 205.2"," ,0,0913, ","   37.8","0,0802, ","0.0","0,1210","","","","","","","","","0.0","0,0103","","","","","","","","","     534.9","9","     534.9","0","   1432.7"," ,0","","","","","     21.81","0","     26.91","0","     16.71","0","","","","","       360","X","       360","X","","","      24.1","X","      41.1","X"
"USW00012918","2009","29.63806","-95.28194","13.4","HOUSTON WILLIAM P HOBBY AIRPORT, TX US","       3.5","W","   1897.9","","    1897.9","0","       106","0","        53","0","        16","0","","","","","         0","0","         3","0","         0","0","       291","0","       109","0","       181"," ","        23"," ","        50"," ","   -2.8","0,1205, ","","","",""," 130.8"," ,0,0418, ","   39.4","0,0705, ","0.0","0,1204","-2.8","0,1205","","","","","","","0.0","0,0129","","","","","","","","","     572.6","6","     572.6","0","   1336.0"," ,0","","","","","     21.73","0","     26.81","0","     16.65","0","","","","","       360","X","       360","X","","","      26.8","X","      32.2","X"
"USW00012918","2010","29.63806","-95.28194","13.4","HOUSTON WILLIAM P HOBBY AIRPORT, TX US","       3.3","W","   1836.7","","    1836.7","0","       105","0","        57","0","        13","0","","","","","         0","0","        10","0","         0","0","       268","0","       104","0","       148"," ","        12"," ","        51"," ","   -6.1","0,0109, ","","","",""," 126.2"," ,0,0702, ","   37.2","0,0816,+","0.0","0,1209","","","","","","","","","0.0","0,0225","-3.3","0,0111","-6.1","0,0109","","","","","     926.4","4","     926.4","0","   1194.6"," ,0","","","","","     20.95","0","     25.82","0","     16.08","0","","","","","       220","X","       230","X","","","      16.5","X","      21.9","X"
"USW00012918","2011","29.63806","-95.28194","13.4","HOUSTON WILLIAM P HOBBY AIRPORT, TX US","       3.7","W","   2152.0","","    2152.0","X","        59","X","        37","X","         5","X","","","","","         0","X","        13","X","         0","X","       295","X","       132","X","        83"," ","        13"," ","        25"," ","   -5.0","X,0202, ","","","",""," 129.8"," ,X,1009, ","   41.1","X,0827, ","0.0","X,1128","","","","","","","","","0.0","X,0212","-2.2","X,0211","-5.0","X,0202","","","","","     640.0","0","     640.0","X","    645.0"," ,X","","","","","     22.43","X","     27.75","X","     17.10","X","","","","","       350","X","       360","X","","","      17.9","X","      21.0","X"
"USW00012918","2012","29.63806","-95.28194","13.4","HOUSTON WILLIAM P HOBBY AIRPORT, TX US","       3.2","X","   1967.7","","    1967.7","X","        95","X","        65","X","        18","X","","","","","         0","X","         1","X","         0","X","       310","X","        91","X","        90"," ","        22"," ","        59"," ","   -0.6","X,0113, ","","","",""," 103.1"," ,X,0109, ","   38.9","X,0626,+","","","","","","","","","","","-0.6","X,0113","","","","","","","","","     474.4","4","     474.4","X","   1317.4"," ,X","","","","","     22.54","X","     27.46","X","     17.61","X","","","","","       240","X","       230","X","","","      19.2","X","      25.0","X"
"USW00012918","2013","29.63806","-95.28194","13.4","HOUSTON WILLIAM P HOBBY AIRPORT, TX US","       3.4","W","   1801.0","","    1801.0","W","        95","W","        58","W","        12","W","","","","","         0","W","         2","W","         0","W","       285","W","       108","W","        85"," ","         9"," ","        17"," ","   -0.6","W,0117, ","","","",""," 153.7"," ,W,0427, ","   40.6","W,0629, ","0.0","W,1216","","","","","","","","","-0.6","X,0117","","","","","","","","","     559.1","1","     559.1","W","   1094.3"," ,W","","","","","     21.29","W","     26.32","W","     16.26","W","","","","","       340","W","       340","W","","","      20.1","W","      23.7","W"
"USW00012918","2014","29.63806","-95.28194","13.4","HOUSTON WILLIAM P HOBBY AIRPORT, TX US","       3.4","W","   1710.8","","    1710.8","W","       118","W","        62","W","        11","W","","","","","         0","W","        10","W","         0","W","       276","W","        90","W","        88"," ","         5"," ","        45"," ","   -3.8","W,0107, ","","","","","  82.3"," ,W,0526, ","   36.7","W,0825,+","","","","","","","","","","","0.0","W,0304","-3.2","W,0130","","","","","","","     877.3","3","     877.3","W","   1045.6"," ,W","","","","","     20.85","W","     25.70","W","     16.00","W","","","","","       240","W","       270","W","","","      17.9","W","      21.0","W"
"USW00012918","2015","29.63806","-95.28194","13.4","HOUSTON WILLIAM P HOBBY AIRPORT, TX US","       3.2","W","   1919.5","","    1919.5","W","       125","W","        79","W","        25","W","","","","","         0","W","         1","W","         0","W","       291","W","       104","W","       150"," ","        19"," ","        80"," ","   -1.0","W,0108, ","","","",""," 134.6"," ,W,1031, ","   40.0","W,0811, ","","","","","","","","","","","-1.0","W,0108","","","","","","","","","     740.1","1","     740.1","W","   1959.3"," ,W","","","","","     21.80","W","     26.50","W","     17.10","W","","","","","        30","W","        30","W","","","      23.7","W","      30.9","W"
"USW00012918","2016","29.63806","-95.28194","13.4","HOUSTON WILLIAM P HOBBY AIRPORT, TX US","       3.2","W","   2061.4","","    2061.4","W","       125","W","        78","W","        14","W","","","","","         0","W","         1","W","         0","W","       312","W","       108","W","       123"," ","        19"," ","        99"," ","    0.0","W,1219, ","","","",""," 131.1"," ,W,0418, ","   37.2","W,0809,+","0.0","W,1219","","","","","","","","","","","","","","","","","","","     453.9","9","     453.9","W","   1443.9"," ,W","","","","","     22.72","W","     27.57","W","     17.87","W","","","","","       250","W","       330","W","","","      16.1","W","      22.8","W"
"USW00012918","2017","29.63806","-95.28194","13.4","HOUSTON WILLIAM P HOBBY AIRPORT, TX US","       3.6","W","   2095.3","","    2095.3","W","       107","W","        68","W","        17","W","","","","","         0","W","         5","W","         0","W","       311","W","       104","W","       127"," ","        19"," ","        82"," ","   -4.9","W,0107, ","","","",""," 306.6"," ,W,0826, ","   38.9","W,0729, ","-0.5","W,1208","","","","","","","","","-3.2","W,0108","-3.2","W,0108","-4.9","W,0107","","","","","     306.2","2","     306.2","W","   2011.4"," ,W","","","","","     22.93","W","     27.79","W","     18.07","W","","","","","        10","W","","","","","      17.0","W","",""
"USW00012918","2018","29.63806","-95.28194","13.4","HOUSTON WILLIAM P HOBBY AIRPORT, TX US","       3.6","W","   1920.0","","    1920.0","W","       114","W","        75","W","        15","W","","","","","         0","W","        10","W","         0","W","       283","W","       117","W","       163"," ","        11"," ","        99"," ","   -7.1","W,0117, ","","","",""," 152.4"," ,W,0704, ","   37.8","W,0822,+","0.0","W,1115","","","","","","","","","-3.8","W,0118","-3.8","W,0118","-7.1","W,0117","-7.1","W,0117","","","     644.1","1","     644.1","W","   1334.0"," ,W","","","","","     21.70","W","     26.43","W","     16.98","W","","","","","       340","W","       320","W","","","      20.6","W","      26.8","W"
"USW00012918","2019","29.63806","-95.28194","13.4","HOUSTON WILLIAM P HOBBY AIRPORT, TX US","       4.0","W","   1995.9","","    1995.9","W","       103","W","        58","W","        16","W","        0","","         0","H","         0","W","         3","W","         0","W","       286","W","       130","W","       147"," ","        22"," ","        78"," ","   -0.5","W,0305, ","     0"," ,H,1231,+","     0"," ,H,1231,+"," 118.6"," ,W,0917, ","   37.8","W,0814,+","0.0","W,1113","","","","","","","","","-0.5","W,0305","","","","","","","","","     655.3","3","     655.3","W","   1400.5"," ,W","","","        0"," ,H","     22.08","W","     26.81","W","     17.35","W","","","","","       320","W","        20","W","","","      17.0","W","      21.0","W"
"USW00012918","2020","29.63806","-95.28194","13.4","HOUSTON WILLIAM P HOBBY AIRPORT, TX US","","","","","","","","","","","","","","","","","","","","","","","","","","","       122"," ","        15"," ","        66"," ","","","","","","","","","","","","","","","","","","","","","","","","","","","","","","","     487.7","7","     487.7","D","","","","","","","","","","","","","","","","","","","","","","","","","",""
