"STATION","DATE","LATITUDE","LONGITUDE","ELEVATION","NAME","CDSD","CDSD_ATTRIBUTES","CLDD","CLDD_ATTRIBUTES","DP01","DP01_ATTRIBUTES","DP10","DP10_ATTRIBUTES","DP1X","DP1X_ATTRIBUTES","DSND","DSND_ATTRIBUTES","DSNW","DSNW_ATTRIBUTES","DT00","DT00_ATTRIBUTES","DT32","DT32_ATTRIBUTES","DX32","DX32_ATTRIBUTES","DX70","DX70_ATTRIBUTES","DX90","DX90_ATTRIBUTES","DYFG","DYFG_ATTRIBUTES","DYTS","DYTS_ATTRIBUTES","EMNT","EMNT_ATTRIBUTES","EMSD","EMSD_ATTRIBUTES","EMSN","EMSN_ATTRIBUTES","EMXP","EMXP_ATTRIBUTES","EMXT","EMXT_ATTRIBUTES","FZF0","FZF0_ATTRIBUTES","FZF1","FZF1_ATTRIBUTES","FZF2","FZF2_ATTRIBUTES","FZF3","FZF3_ATTRIBUTES","FZF4","FZF4_ATTRIBUTES","FZF5","FZF5_ATTRIBUTES","FZF6","FZF6_ATTRIBUTES","FZF7","FZF7_ATTRIBUTES","FZF8","FZF8_ATTRIBUTES","FZF9","FZF9_ATTRIBUTES","HDSD","HDSD_ATTRIBUTES","HTDD","HTDD_ATTRIBUTES","PRCP","PRCP_ATTRIBUTES","SNOW","SNOW_ATTRIBUTES","TAVG","TAVG_ATTRIBUTES","TMAX","TMAX_ATTRIBUTES","TMIN","TMIN_ATTRIBUTES","WDFG","WDFG_ATTRIBUTES","WSFG","WSFG_ATTRIBUTES"
"USW00013829","1949","32.35","-85.0","70.7","FORT BENNING LAWSON FIELD, GA US","   1290.2","","    1290.2","X","       123","X","        84","X","        16","X","        0","","         0","X","         0","X","        24","X","         0","X","       268","X","        75","X","       218"," ","        66"," ","   -3.9","X,1206, ","     0"," ,X,1231,+","     0"," ,X,1231,+"," 121.9"," ,X,0429, ","   36.7","X,0729, ","0.0","X,1107","-3.3","X,1119","","","","","","","-1.7","X,0316","-3.3","X,0101","","","","","","","","","","","   1402.4"," ,X","        0"," ,X","     19.31","X","     25.45","X","     13.15","X","","","",""
"USW00013829","1950","32.35","-85.0","70.7","FORT BENNING LAWSON FIELD, GA US","   1204.7","","    1204.7","X","       103","X","        77","X","        13","X","        0","","         0","X","         0","X","        42","X","         1","X","       263","X","        79","X","       192"," ","        65"," ","  -11.1","X,1125, ","     0"," ,X,1231,+","     0","T,X,1124, ","  57.2"," ,X,0530, ","   40.0","X,0627, ","-1.7","X,1106","-2.2","X,1122","-5.0","X,1124","-11.1","X,1125","-11.1","X,1125","-1.1","X,0407","-2.2","X,0310","","","","","","","     942.3","3","     942.3","X","   1068.8"," ,X","        0","T,X","     18.40","X","     24.80","X","     11.99","X","","","",""
"USW00013829","1951","32.35","-85.0","70.7","FORT BENNING LAWSON FIELD, GA US","   1419.6","","    1419.6","X","        98","X","        69","X","        11","X","        0","","         0","X","         0","X","        44","X","         1","X","       269","X","       113","X","       169"," ","        45"," ","  -10.6","X,0203, ","     0"," ,X,1231,+","     0","T,X,0313,+","  75.9"," ,X,0922, ","   38.9","X,0716, ","-0.6","X,1104","-2.2","X,1109","-7.2","X,1216","-7.2","X,1216","","","-0.6","X,0316","-2.2","X,0212","-6.1","X,0208","-8.3","X,0204","-10.6","X,0203","    1317.6","6","    1317.6","X","   1006.9"," ,X","        0","T,X","     19.04","X","     25.85","X","     12.21","X","","","",""
"USW00013829","1952","32.35","-85.0","70.7","FORT BENNING LAWSON FIELD, GA US","   1336.0","","    1336.0","X","       104","X","        76","X","        15","X","        0","","         0","X","         0","X","        29","X","         0","X","       247","X","        94","X","       169"," ","        64"," ","   -4.4","X,1215,+","     0"," ,X,1231,+","     0","T,X,0425,+","  89.4"," ,X,0323, ","   41.7","X,0725, ","-3.3","X,1030","-3.3","X,1030","-4.4","X,1215","","","","","0.0","X,0219","-2.2","X,0131","-4.4","X,0130","","","","","    1043.3","3","    1043.3","X","   1301.6"," ,X","        0","T,X","     18.88","X","     25.46","X","     12.29","X","","","",""
"USW00013829","1953","32.35","-85.0","70.7","FORT BENNING LAWSON FIELD, GA US","   1343.1","","    1343.1","X","       128","X","        83","X","        19","X","        0","","         0","X","         0","X","        29","X","         0","X","       250","X","        98","X","       181"," ","        62"," ","   -8.3","X,1219, ","     0"," ,X,1231,+","     0","T,X,1214,+"," 140.7"," ,X,0430, ","   38.3","X,0601, ","-1.1","X,1111","-2.8","X,1217","-6.1","X,1218","-8.3","X,1219","","","-3.3","X,0218","-3.3","X,0218","","","","","","","    1194.0","0","    1194.0","X","   1612.7"," ,X","        0","T,X","     18.84","X","     25.32","X","     12.35","X","","","",""
"USW00013829","1954","32.35","-85.0","70.7","FORT BENNING LAWSON FIELD, GA US","   1501.2","","    1501.2","X","        77","X","        49","X","         6","X","        0","","         0","X","         0","X","        42","X","         0","X","       249","X","       119","X","       132"," ","        56"," ","   -4.4","X,1221, ","     0"," ,X,1231,+","     0","T,X,1219, ","  46.2"," ,X,0703, ","   40.6","X,0628, ","-1.7","X,1031","-3.9","X,1103","-4.4","X,1221","","","","","-0.6","X,0317","-2.8","X,0307","","","","","","","    1115.2","2","    1115.2","X","    670.4"," ,X","        0","T,X","     19.13","X","     26.10","X","     12.15","X","        90","X","      33.5","X"
"USW00013829","1955","32.35","-85.0","70.7","FORT BENNING LAWSON FIELD, GA US","   1363.6","","    1363.6","X","        97","X","        61","X","        12","X","        0","","         0","X","         0","X","        46","X","         0","X","       256","X","        93","X","       168"," ","        52"," ","   -6.7","X,1217,+","     0"," ,X,1231,+","     0","T,X,1212,+","  68.1"," ,X,0521, ","   36.7","X,0822,+","-0.6","X,1031","-5.6","X,1129","-5.6","X,1129","-6.7","X,1217","","","-0.6","X,0330","-5.0","X,0327","-5.0","X,0327","-6.7","X,0212","","","    1220.1","1","    1220.1","X","   1063.2"," ,X","        0","T,X","     18.76","X","     25.22","X","     12.30","X","       315","X","      22.1","X"
"USW00013829","1956","32.35","-85.0","70.7","FORT BENNING LAWSON FIELD, GA US","   1236.9","","    1236.9","X","       101","X","        68","X","         9","X","        0","","         0","X","         0","X","        37","X","         0","X","       256","X","        81","X","       160"," ","        48"," ","   -6.1","X,0101, ","     0"," ,X,1231,+","     0"," ,X,1231,+","  82.0"," ,X,1223, ","   37.8","X,0811, ","0.0","X,1110","-4.4","X,1123","-4.4","X,1123","","","","","-1.7","X,0321","-2.2","X,0309","-4.4","X,0115","","","","","    1256.4","4","    1256.4","X","   1074.5"," ,X","        0"," ,X","     18.69","X","     25.07","X","     12.30","X","       315","X","      36.0","X"
"USW00013829","1957","32.35","-85.0","70.7","FORT BENNING LAWSON FIELD, GA US","   1284.7","","    1284.7","X","       106","X","        71","X","        10","X","        0","","         0","X","         0","X","        24","X","         0","X","       246","X","        76","X","       144"," ","        39"," ","   -7.8","X,1213,+","     0"," ,X,1231,+","     0","T,X,1211, ","  78.7"," ,X,0503, ","   37.2","X,0902,+","-0.6","X,1029","-2.8","X,1201","-5.0","X,1211","-7.8","X,1212","","","0.0","X,0310","-7.2","X,0119","-7.2","X,0119","-7.2","X,0119","","","     946.1","1","     946.1","X","    960.1"," ,X","        0","T,X","     19.06","X","     24.71","X","     13.42","X","","","",""
"USW00013829","1958","32.35","-85.0","70.7","FORT BENNING LAWSON FIELD, GA US","   1215.4","","    1215.4","X","       100","X","        69","X","         3","X","        0","","         0","X","         0","X","        48","X","         1","X","       229","X","        61","X","       170"," ","        40"," ","  -11.1","X,0217, ","     0"," ,X,1231,+","     0","T,X,1211,+","  46.5"," ,X,1227, ","   36.1","X,0613, ","-0.6","X,1121","-2.8","X,1211","-4.4","X,1212","","","","","-2.2","X,0222","-2.2","X,0222","-5.6","X,0221","-6.7","X,0220","-10.6","X,0218","    1455.9","9","    1455.9","X","    630.2"," ,X","        0","T,X","     17.49","X","     23.38","X","     11.60","X","       270","X","      21.6","X"
"USW00013829","1959","32.35","-85.0","70.7","FORT BENNING LAWSON FIELD, GA US","   1315.4","","    1315.4","X","       126","X","        80","X","         7","X","        0","","         0","X","         0","X","        36","X","         0","X","       231","X","        79","X","       175"," ","        58"," ","   -7.8","X,0117,+","     0"," ,X,1231,+","     0","T,X,1207, ","  40.6"," ,X,0913, ","   37.8","X,0630, ","-1.1","X,1107","-2.8","X,1129","-5.6","X,1130","","","","","-0.6","X,0308","-2.2","X,0304","-4.4","X,0118","-7.8","X,0117","","","    1267.1","1","    1267.1","X","    923.3"," ,X","        0","T,X","     18.49","X","     24.25","X","     12.73","X","       135","X","      20.0","X"
"USW00013829","1960","32.35","-85.0","70.7","FORT BENNING LAWSON FIELD, GA US","   1269.9","","    1269.9","X","       110","X","        73","X","        12","X","        0","","         0","X","         0","X","        45","X","         0","X","       239","X","        87","X","       175"," ","        61"," ","   -8.9","X,1222, ","     0"," ,X,1231,+","     0"," ,X,1231,+","  64.8"," ,X,0715, ","   36.7","X,0725,+","0.0","X,1108","-4.4","X,1202","-4.4","X,1202","-6.7","X,1214","-8.9","X,1222","-1.1","X,0322","-2.8","X,0308","-5.6","X,0306","-7.2","X,0305","","","    1415.6","6","    1415.6","X","   1163.0"," ,X","        0"," ,X","     17.79","X","     23.88","X","     11.70","X","       248","X","      25.7","X"
"USW00013829","1961","32.35","-85.0","70.7","FORT BENNING LAWSON FIELD, GA US","   1043.6","","    1043.6","X","       101","X","        59","X","        14","X","        0","","         0","X","         0","X","        39","X","         0","X","       262","X","        50","X","       164"," ","        53"," ","   -9.4","X,0122, ","     0"," ,X,1231,+","     0","T,X,0128,+","  67.6"," ,X,1212, ","   35.6","X,0811, ","-0.6","X,1027","-2.8","X,1110","-4.4","X,1130","-8.3","X,1230","","","-2.2","X,0211","-2.2","X,0211","-4.4","X,0131","-9.4","X,0122","-9.4","X,0122","    1304.8","8","    1304.8","X","   1110.7"," ,X","        0","T,X","     17.73","X","     23.92","X","     11.54","X","","","",""
"USW00013829","1962","32.35","-85.0","70.7","FORT BENNING LAWSON FIELD, GA US","   1219.2","","    1219.2","X","       103","X","        67","X","         8","X","        0","","         0","X","         0","X","        38","X","         1","X","       236","X","        70","X","       143"," ","        58"," ","  -13.9","X,1213, ","     0"," ,X,1231,+","     0","T,X,0305,+","  59.2"," ,X,0331, ","   36.1","X,0807, ","-0.6","X,1106","-3.3","X,1206","-4.4","X,1210","-11.1","X,1212","-11.1","X,1212","-1.7","X,0318","-3.3","X,0306","-4.4","X,0207","-9.4","X,0113","-9.4","X,0113","    1288.7","7","    1288.7","X","    916.2"," ,X","        0","T,X","     17.96","X","     24.23","X","     11.69","X","","","",""
"USW00013829","1963","32.35","-85.0","70.7","FORT BENNING LAWSON FIELD, GA US","   1092.6","","    1092.6","X","        87","X","        65","X","        12","X","        0","","         0","X","         0","X","        69","X","         1","X","       249","X","        53","X","       174"," ","        59"," ","  -13.9","X,0124, ","     0"," ,X,1231,+","     0","T,X,1231,+","  70.4"," ,X,0813, ","   37.8","X,0614, ","-0.6","X,1030","-2.2","X,1113","-4.4","X,1115","-8.9","X,1219","-8.9","X,1219","0.0","X,0323","-3.3","X,0228","-5.0","X,0227","-7.2","X,0222","-8.9","X,0125","    1343.3","3","    1343.3","X","   1053.0"," ,X","        0","T,X","     17.40","X","     23.87","X","     10.93","X","","","",""
"USW00013829","1964","32.35","-85.0","70.7","FORT BENNING LAWSON FIELD, GA US","   1072.1","","    1072.1","X","       120","X","        88","X","        15","X","        0","","         0","X","         0","X","        42","X","         0","X","       241","X","        39","X","       185"," ","        49"," ","  -10.6","X,0115, ","     0"," ,X,1231,+","     0","T,X,0222,+"," 112.3"," ,X,1004, ","   36.1","X,0620, ","-1.7","X,1122","-5.0","X,1201","-5.0","X,1201","","","","","-2.2","X,0331","-2.2","X,0331","-5.0","X,0224","-10.6","X,0115","-10.6","X,0115","    1484.8","8","    1484.8","X","   1635.9"," ,X","        0","T,X","     17.53","X","     23.45","X","     11.60","X","       180","X","      31.9","X"
"USW00013829","1965","32.35","-85.0","70.7","FORT BENNING LAWSON FIELD, GA US","   1132.5","","    1132.5","X","       111","X","        69","X","        12","X","        0","","         0","X","         0","X","        49","X","         0","X","       249","X","        48","X","       174"," ","        53"," ","   -7.2","X,0131,+","     0"," ,X,1231,+","     0","T,X,0306,+","  58.7"," ,X,0729, ","   34.4","X,0827,+","0.0","X,1118","-3.3","X,1130","-5.0","X,1208","","","","","-2.8","X,0322","-2.8","X,0322","-5.6","X,0226","-7.2","X,0131","","","    1226.5","5","    1226.5","X","   1023.5"," ,X","        0","T,X","     17.98","X","     24.13","X","     11.83","X","       200","X","      23.6","X"
"USW00013829","1966","32.35","-85.0","70.7","FORT BENNING LAWSON FIELD, GA US","   1063.6","","    1063.6","X","       115","X","        76","X","        17","X","        0","","         0","X","         0","X","        45","X","         1","X","       239","X","        46","X","       164"," ","        52"," ","  -15.6","X,0130, ","     0"," ,X,1231,+","     0","T,X,0129,+"," 106.9"," ,X,0303, ","   36.7","X,0714,+","-1.7","X,1103","-2.2","X,1130","-5.6","X,1225","","","","","0.0","X,0329","-2.2","X,0310","-4.4","X,0207","-7.8","X,0206","-11.7","X,0131","    1375.8","8","    1375.8","X","   1465.8"," ,X","        0","T,X","     17.43","X","     23.30","X","     11.55","X","        70","X","      32.9","X"
"USW00013829","1967","32.35","-85.0","70.7","FORT BENNING LAWSON FIELD, GA US","    853.6","","     853.6","X","       102","X","        79","X","        13","X","        0","","         0","X","         0","X","        43","X","         0","X","       245","X","        17","X","       194"," ","        50"," ","   -7.2","X,0225, ","     0"," ,X,1231,+","     0","T,X,1222,+","  66.5"," ,X,1101, ","   35.0","X,0620, ","-1.1","X,1106","-3.3","X,1107","-4.4","X,1224","","","","","-1.1","X,0319","-6.7","X,0226","-6.7","X,0226","-6.7","X,0226","","","    1118.7","7","    1118.7","X","   1175.8"," ,X","        0","T,X","     17.22","X","     23.59","X","     10.86","X","       360","X","      21.1","X"
"USW00013829","1968","32.35","-85.0","70.7","FORT BENNING LAWSON FIELD, GA US","   1191.4","","    1191.4","X","        97","X","        68","X","        10","X","        0","","         0","X","         0","X","        71","X","         1","X","       242","X","        72","X","       161"," ","        61"," ","   -7.2","X,1215, ","     0"," ,X,1231,+","     0","T,X,0221,+","  63.2"," ,X,0312, ","   38.9","X,0823, ","-0.6","X,1027","-2.8","X,1113","-6.1","X,1209","-7.2","X,1215","","","0.0","X,0325","-2.8","X,0324","-4.4","X,0305","","","","","    1490.9","9","    1490.9","X","    972.1"," ,X","        0","T,X","     17.36","X","     23.86","X","     10.85","X","       315","X","      21.1","X"
"USW00013829","1969","32.35","-85.0","70.7","FORT BENNING LAWSON FIELD, GA US","   1010.6","","    1010.6","X","       105","X","        66","X","        10","X","        0","","         0","X","         0","X","        68","X","         0","X","       236","X","        45","X","       186"," ","        60"," ","  -10.6","X,0106, ","     0"," ,X,1231,+","     0","T,X,0214, ","  62.7"," ,X,0921, ","   36.7","X,0628, ","0.0","X,1105","-2.8","X,1114","-7.8","X,1115","-7.8","X,1115","","","-2.2","X,0327","-2.2","X,0327","-5.0","X,0313","-6.7","X,0113","-10.6","X,0106","    1596.7","7","    1596.7","X","    997.9"," ,X","        0","T,X","     16.79","X","     23.08","X","     10.50","X","       280","X","      24.2","X"
"USW00013829","1970","32.35","-85.0","70.7","FORT BENNING LAWSON FIELD, GA US","   1144.8","","    1144.8","X","       107","X","        76","X","        16","X","        0","","         0","X","         0","X","        53","X","         0","X","       256","X","        61","X","       198"," ","        63"," ","  -12.8","X,0109, ","     0"," ,X,1231,+","     0","T,X,1123,+","  65.5"," ,X,1216, ","   38.3","X,0702, ","-1.1","X,1116","-3.9","X,1117","-7.8","X,1124","-7.8","X,1124","","","0.0","X,0317","-2.2","X,0314","-5.0","X,0205","-10.0","X,0204","-10.0","X,0204","    1337.6","6","    1337.6","X","   1189.7"," ,X","        0","T,X","     17.85","X","     24.28","X","     11.42","X","        50","X","      24.2","X"
"USW00013829","1980","32.35","-85.0","70.7","FORT BENNING LAWSON FIELD, GA US","","","","","       114","S","        78","S","         9","S","","","","","","","","","","","","","","","","","","","","","","","","","  63.0"," ,S,0313, ","","","","","","","","","","","","","","","","","","","","","","","","","","","   1185.3"," ,S","","","","","","","","","","","",""
"USW00013829","1981","32.35","-85.0","70.7","FORT BENNING LAWSON FIELD, GA US","","","","","        98","S","        63","S","        10","S","","","","","","","","","","","","","","","","","","","","","","","",""," 189.0"," ,S,0211, ","","","","","","","","","","","","","","","","","","","","","","","","","","","   1161.6"," ,S","","","","","","","","","","","",""
"USW00013829","1982","32.35","-85.0","70.7","FORT BENNING LAWSON FIELD, GA US","","","","","       130","S","        78","S","        16","S","","","","","","","","","","","","","","","","","","","","","","","","","  69.1"," ,S,0203, ","","","","","","","","","","","","","","","","","","","","","","","","","","","   1326.6"," ,S","","","","","","","","","","","",""
"USW00013829","1983","32.35","-85.0","70.7","FORT BENNING LAWSON FIELD, GA US","","","","","       126","S","        82","S","        18","S","","","","","","","","","","","","","","","","","","","","","","","",""," 101.1"," ,S,0802, ","","","","","","","","","","","","","","","","","","","","","","","","","","","   1424.3"," ,S","","","","","","","","","","","",""
"USW00013829","1984","32.35","-85.0","70.7","FORT BENNING LAWSON FIELD, GA US","","","","","        93","S","        54","S","        10","S","","","","","","","","","","","","","","","","","","","","","","","","","  87.9"," ,S,0723, ","","","","","","","","","","","","","","","","","","","","","","","","","","","    954.9"," ,S","","","","","","","","","","","",""
"USW00013829","1985","32.35","-85.0","70.7","FORT BENNING LAWSON FIELD, GA US","","","","","       101","S","        74","S","        10","S","","","","","","","","","","","","","","","","","","","","","","","","","  65.0"," ,S,0830, ","","","","","","","","","","","","","","","","","","","","","","","","","","","   1008.4"," ,S","","","","","","","","","","","",""
"USW00013829","1986","32.35","-85.0","70.7","FORT BENNING LAWSON FIELD, GA US","","","","","        87","S","        62","S","        10","S","","","","","","","","","","","","","","","","","","","","","","","",""," 111.0"," ,S,0313, ","","","","","","","","","","","","","","","","","","","","","","","","","","","    905.9"," ,S","","","","","","","","","","","",""
"USW00013829","1987","32.35","-85.0","70.7","FORT BENNING LAWSON FIELD, GA US","","","","","        86","S","        56","S","        10","S","","","","","","","","","","","","","","","","","","","","","","","","","  54.1"," ,S,0614, ","","","","","","","","","","","","","","","","","","","","","","","","","","","    914.6"," ,S","","","","","","","","","","","",""
"USW00013829","1988","32.35","-85.0","70.7","FORT BENNING LAWSON FIELD, GA US","","","","","        86","S","        61","S","        14","S","","","","","","","","","","","","","","","","","","","","","","","","","  55.1"," ,S,1105, ","","","","","","","","","","","","","","","","","","","","","","","","","","","    907.4"," ,S","","","","","","","","","","","",""
"USW00013829","1989","32.35","-85.0","70.7","FORT BENNING LAWSON FIELD, GA US","","","","","       121","S","        79","S","        18","S","","","","","","","","","","","","","","","","","","","","","","","","","  95.0"," ,S,1109, ","","","","","","","","","","","","","","","","","","","","","","","","","","","   1407.4"," ,S","","","","","","","","","","","",""
"USW00013829","1990","32.35","-85.0","70.7","FORT BENNING LAWSON FIELD, GA US","","","","","        95","S","        50","S","        11","S","","","","","","","","","","","","","","","","","","","","","","","",""," 216.9"," ,S,0317, ","","","","","","","","","","","","","","","","","","","","","","","","","","","   1017.0"," ,S","","","","","","","","","","","",""
"USW00013829","1992","32.35","-85.0","70.7","FORT BENNING LAWSON FIELD, GA US","","","","","       127","S","        82","S","        14","S","","","","","","","","","","","","","","","","","","","","","","","","","  99.1"," ,S,1126, ","","","","","","","","","","","","","","","","","","","","","","","","","","","   1194.6"," ,S","","","","","","","","","","","",""
