"STATION","DATE","LATITUDE","LONGITUDE","ELEVATION","NAME","AWND","AWND_ATTRIBUTES","CDSD","CDSD_ATTRIBUTES","CLDD","CLDD_ATTRIBUTES","DP01","DP01_ATTRIBUTES","DP10","DP10_ATTRIBUTES","DP1X","DP1X_ATTRIBUTES","DT00","DT00_ATTRIBUTES","DT32","DT32_ATTRIBUTES","DX32","DX32_ATTRIBUTES","DX70","DX70_ATTRIBUTES","DX90","DX90_ATTRIBUTES","DYFG","DYFG_ATTRIBUTES","DYHF","DYHF_ATTRIBUTES","DYTS","DYTS_ATTRIBUTES","EMNT","EMNT_ATTRIBUTES","EMXP","EMXP_ATTRIBUTES","EMXT","EMXT_ATTRIBUTES","FZF0","FZF0_ATTRIBUTES","FZF1","FZF1_ATTRIBUTES","FZF2","FZF2_ATTRIBUTES","FZF3","FZF3_ATTRIBUTES","FZF4","FZF4_ATTRIBUTES","FZF5","FZF5_ATTRIBUTES","FZF6","FZF6_ATTRIBUTES","FZF7","FZF7_ATTRIBUTES","FZF8","FZF8_ATTRIBUTES","FZF9","FZF9_ATTRIBUTES","HDSD","HDSD_ATTRIBUTES","HTDD","HTDD_ATTRIBUTES","PRCP","PRCP_ATTRIBUTES","TAVG","TAVG_ATTRIBUTES","TMAX","TMAX_ATTRIBUTES","TMIN","TMIN_ATTRIBUTES","WDF2","WDF2_ATTRIBUTES","WDF5","WDF5_ATTRIBUTES","WSF2","WSF2_ATTRIBUTES","WSF5","WSF5_ATTRIBUTES"
"USW00003994","1997","38.70417","-93.18333","274.3","SEDALIA MEMORIAL AIRPORT, MO US","","","    633.9","","     633.9","M","","","","","","","         9","M","       105","M","        27","M","       156","M","        21","M","","","","","","","  -22.2","M,0128, ","","","   37.8","M,0727, ","-1.7","M,1027","-3.9","M,1104","-6.1","M,1117","-7.2","M,1205","","","-0.6","M,0417","-2.2","M,0414","-5.0","M,0316","-6.7","M,0315","-11.1","M,0130","","","","","","","     12.05","M","     17.14","M","      6.95","M","","","","","","","",""
"USW00003994","1998","38.70417","-93.18333","274.3","SEDALIA MEMORIAL AIRPORT, MO US","","","    840.2","","     840.2","W","","","","","","","         0","W","        77","W","        23","W","       177","W","        31","W","","","","","","","  -16.7","W,0312, ","","","   36.1","W,0721,+","-2.2","W,1106","-2.2","W,1106","-4.4","W,1211","-13.3","W,1221","-13.3","W,1221","-0.6","M,0324","-2.2","M,0321","-16.7","M,0312","-16.7","M,0312","-16.7","M,0312","    2656.1","1","    2656.1","W","","","     13.85","W","     18.72","W","      8.98","W","","","","","","","",""
"USW00003994","1999","38.70417","-93.18333","274.3","SEDALIA MEMORIAL AIRPORT, MO US","       4.2","W","    740.2","","     740.2","W","        84","W","        49","W","         6","W","         3","W","        84","W","        15","W","       185","W","        44","W","","","","","","","  -20.0","W,0105,+","  59.9"," ,W,0504, ","   38.9","W,0729, ","-0.6","W,1018","-2.2","W,1205","-4.4","W,1206","-10.0","W,1220","-10.0","W,1220","0.0","W,0327","-2.2","W,0326","-4.4","W,0222","-7.8","W,0113","-10.0","W,0111","    2415.3","3","    2415.3","W","    613.8"," ,W","     13.83","W","     19.51","W","      8.14","W","       150","W","       230","W","      19.2","W","      24.1","W"
"USW00003994","2000","38.70417","-93.18333","274.3","SEDALIA MEMORIAL AIRPORT, MO US","       4.1","W","    808.1","","     808.1","W","       123","W","        59","W","        11","W","         2","W","       105","W","        32","W","       185","W","        42","W","","","","","","","  -20.6","W,1222, ","  80.3"," ,W,0620, ","   40.0","W,0902,+","-1.1","W,1007","-2.2","W,1008","-5.6","W,1113","-7.2","W,1117","-11.7","W,1121","-1.7","W,0408","-2.2","W,0328","-5.0","W,0208","-7.2","W,0205","-11.7","W,0202","    2271.6","6","    2271.6","W","    968.6"," ,W","     13.02","W","     18.58","W","      7.45","W","       210","W","       270","W","      18.3","W","      23.7","W"
"USW00003994","2001","38.70417","-93.18333","274.3","SEDALIA MEMORIAL AIRPORT, MO US","       3.9","W","    762.8","","     762.8","W","       120","W","        68","W","        12","W","         1","W","        96","W","        21","W","       184","W","        32","W","","","","","","","  -20.6","W,0102, ","  50.0"," ,W,0606, ","   36.1","W,0822,+","0.0","W,1017","-2.2","W,1027","-6.1","W,1209","-8.3","W,1224","-11.7","W,1225","-0.6","W,0417","-2.2","W,0329","-5.6","W,0327","-7.2","W,0326","-11.1","W,0217","    2981.2","2","    2981.2","W","   1048.5"," ,W","     13.48","W","     18.86","W","      8.10","W","       220","W","       230","W","      20.1","W","      24.6","W"
"USW00003994","2002","38.70417","-93.18333","274.3","SEDALIA MEMORIAL AIRPORT, MO US","       3.8","W","    820.6","","     820.6","W","       105","W","        52","W","         7","W","         0","W","       105","W","        14","W","       166","W","        45","W","","","","","","","  -16.7","W,0304, ","  52.6"," ,W,0130, ","   36.1","W,0803,+","-2.8","W,1101","-2.8","W,1101","-7.2","W,1125","-7.2","W,1125","-8.9","W,1201","-2.8","W,0405","-2.8","W,0405","-11.1","W,0322","-11.1","W,0322","-11.1","W,0322","    2405.0","0","    2405.0","W","    763.2"," ,W","     13.20","W","     18.94","W","      7.47","W","       200","W","       190","W","      20.6","W","      25.0","W"
"USW00003994","2003","38.70417","-93.18333","274.3","SEDALIA MEMORIAL AIRPORT, MO US","       3.8","W","    716.0","","     716.0","W","       114","W","        61","W","         7","W","         3","W","       100","W","        26","W","       181","W","        42","W","","","","","","","  -20.6","W,0123, ","  75.7"," ,W,0831, ","   40.0","W,0821,+","0.0","W,1106","-3.3","W,1107","-6.7","W,1124","-6.7","W,1124","-10.6","W,1211","-0.6","W,0410","-2.2","W,0330","-5.6","W,0311","-9.4","W,0310","-9.4","W,0310","    2851.5","5","    2851.5","W","    905.0"," ,W","     12.85","W","     18.48","W","      7.23","W","       350","W","       350","W","      17.4","W","      21.9","W"
"USW00003994","2004","38.70417","-93.18333","274.3","SEDALIA MEMORIAL AIRPORT, MO US","       4.1","W","    570.8","","     570.8","W","       129","W","        73","W","         4","W","         2","W","        87","W","        22","W","       172","W","         8","W","","","","","","","  -18.9","W,0208, ","  69.1"," ,W,0724, ","   34.4","W,0720,+","0.0","W,1105","-3.9","W,1124","-5.0","W,1125","-9.4","W,1214","-9.4","W,1214","-0.6","W,0413","-5.0","W,0312","-5.0","W,0312","-8.3","W,0215","-11.7","W,0213","    2589.9","9","    2589.9","W","    988.7"," ,W","     12.91","W","     18.01","W","      7.81","W","       270","W","       260","W","      17.4","W","      23.7","W"
"USW00003994","2005","38.70417","-93.18333","274.3","SEDALIA MEMORIAL AIRPORT, MO US","       3.9","B","    925.4","","     925.4","B","       106","B","        55","B","         9","B","         0","B","        84","B","        19","B","       184","B","        52","B","","","","","","","  -17.2","B,1209, ","  49.3"," ,B,0818, ","   39.4","B,0723, ","-0.6","B,1110","-6.1","B,1116","-6.1","B,1116","-8.3","B,1117","-11.7","B,1205","-2.8","W,0320","-2.8","W,0320","-5.6","W,0302","-6.7","W,0301","-11.7","W,0123","    2439.5","5","    2439.5","B","    888.2"," ,B","     13.85","B","     19.36","B","      8.34","B","        30","B","        20","B","      20.1","B","      26.4","B"
"USW00003994","2006","38.70417","-93.18333","274.3","SEDALIA MEMORIAL AIRPORT, MO US","       4.4","W","    906.7","","     906.7","W","        72","W","        42","W","         7","W","         0","W","        83","W","         9","W","       178","W","        56","W","       152"," ","        13"," ","        55"," ","  -15.5","W,0218, ","  50.5"," ,W,1129, ","   40.6","W,0806, ","-1.0","W,1013","-3.2","W,1024","-7.7","W,1130","-7.7","W,1130","-10.5","W,1201","-1.6","W,0326","-2.7","W,0322","-4.9","W,0303","-14.3","W,0219","-14.3","W,0219","    2327.2","2","    2327.2","W","    540.4"," ,W","     14.52","W","     20.30","W","      8.73","W","       200","W","       190","W","      17.9","W","      23.7","W"
"USW00003994","2007","38.70417","-93.18333","274.3","SEDALIA MEMORIAL AIRPORT, MO US","","","    919.3","","     919.3","W","        82","W","        58","W","         7","W","         0","W","       104","W","        28","W","       189","W","        37","W","       175"," ","        12"," ","        48"," ","  -16.0","W,0116, ","  56.6"," ,W,0610, ","   38.3","W,0815,+","0.0","W,1102","-4.9","W,1107","-4.9","W,1107","-7.1","W,1123","-12.1","W,1216","-3.2","W,0409","-3.2","W,0409","-6.6","W,0407","-8.2","W,0304","-14.9","W,0216","    2509.8","8","    2509.8","W","    700.2"," ,W","     13.74","W","     19.04","W","      8.43","W","       240","W","       190","W","      15.7","W","      21.9","W"
"USW00003994","2008","38.70417","-93.18333","274.3","SEDALIA MEMORIAL AIRPORT, MO US","       4.2","W","    627.2","","     627.2","W","       111","W","        63","W","        11","W","         0","W","       110","W","        23","W","       167","W","        15","W","       207"," ","        35"," ","        62"," ","  -17.1","W,0124, ","  56.9"," ,W,0913, ","   35.6","W,0804,+","-0.5","W,1027","-2.7","W,1028","-5.5","W,1118","-9.3","W,1121","-9.3","W,1121","-1.6","W,0414","-4.9","W,0324","-4.9","W,0324","-10.5","W,0308","-10.5","W,0308","    2814.8","8","    2814.8","W","   1007.1"," ,W","     12.12","W","     17.51","W","      6.73","W","        20","W","       210","W","      17.4","W","      39.8","W"
"USW00003994","2009","38.70417","-93.18333","274.3","SEDALIA MEMORIAL AIRPORT, MO US","       4.0","W","    629.4","","     629.4","W","        89","W","        62","W","        10","W","         2","W","        90","W","        23","W","       172","W","        15","W","       183"," ","        22"," ","        60"," ","  -19.3","W,0115, "," 110.5"," ,W,1008, ","   36.7","W,0623, ","0.0","W,1018","-2.7","W,1130","-6.0","W,1203","-7.7","W,1204","-12.1","W,1209","-2.1","W,0407","-5.5","W,0312","-5.5","W,0312","-12.7","W,0302","-12.7","W,0302","    2694.2","2","    2694.2","W","   1110.0"," ,W","     12.84","W","     18.09","W","      7.59","W","       160","W","       270","W","      17.0","W","      21.9","W"
"USW00003994","2010","38.70417","-93.18333","274.3","SEDALIA MEMORIAL AIRPORT, MO US","","","    971.8","","     971.8","W","        92","W","        57","W","         5","W","         3","W","        94","W","        28","W","       191","W","        51","W","       166"," ","        29"," ","        71"," ","  -20.5","W,0105, ","  53.6"," ,W,0910, ","   37.8","W,0820,+","-1.0","W,1029","-3.2","W,1125","-4.9","W,1126","-8.2","W,1206","-12.7","W,1212","-0.5","W,0321","-4.9","W,0304","-4.9","W,0304","-11.0","W,0225","-11.0","W,0225","    2655.9","9","    2655.9","W","    721.3"," ,W","     13.78","W","     19.00","W","      8.55","W","       310","W","       270","W","      17.4","W","      74.7","W"
"USW00003994","2011","38.70417","-93.18333","274.3","SEDALIA MEMORIAL AIRPORT, MO US","       4.1","W","   1005.8","","    1005.8","W","       101","W","        58","W","        10","W","         3","W","        83","W","        25","W","       179","W","        54","W","       161"," ","        20"," ","        61"," ","  -22.7","W,0203, ","  44.2"," ,W,0903, ","   43.3","W,0802, ","0.0","W,1110","-2.7","W,1117","-4.9","W,1130","-8.8","W,1207","","","-1.6","W,0327","-2.7","W,0301","-4.9","W,0222","-9.3","W,0211","-9.3","W,0211","    2639.5","5","    2639.5","W","    775.8"," ,W","     14.11","W","     19.49","W","      8.73","W","        90","W","       210","W","      55.4","W","      81.8","W"
"USW00003994","2012","38.70417","-93.18333","274.3","SEDALIA MEMORIAL AIRPORT, MO US","       4.0","W","   1152.1","","    1152.1","W","        93","W","        52","W","         8","W","         0","W","        71","W","         9","W","       204","W","        80","W","       101"," ","        10"," ","        47"," ","  -11.0","W,0212,+","  75.4"," ,W,1023, ","   41.7","W,0707, ","-1.0","W,1027","-3.2","W,1112","-5.5","W,1124","-8.2","W,1127","","","-3.2","W,0305","-3.2","W,0305","-11.0","W,0212","-11.0","W,0212","-11.0","W,0212","    1897.4","4","    1897.4","W","    763.2"," ,W","     15.97","W","     22.06","W","      9.88","W","       330","W","       160","W","      18.3","W","      22.8","W"
"USW00003994","2013","38.70417","-93.18333","274.3","SEDALIA MEMORIAL AIRPORT, MO US","       4.0","W","    806.7","","     806.7","W","        98","W","        63","W","        12","W","         0","W","       113","W","        28","W","       170","W","        38","W","       149"," ","        14"," ","        49"," ","  -15.5","W,1224, ","  69.1"," ,W,0531, ","   36.7","W,0831,+","-0.5","W,1023","-6.6","W,1112","-6.6","W,1112","-9.3","W,1123","-9.3","W,1123","0.0","W,0420","-3.8","W,0327","-5.5","W,0326","-8.8","W,0303","-9.3","W,0224","    2664.2","2","    2664.2","W","   1033.9"," ,W","     12.72","W","     18.18","W","      7.27","W","       330","W","       310","W","      19.2","W","      26.4","W"
"USW00003994","2014","38.70417","-93.18333","274.3","SEDALIA MEMORIAL AIRPORT, MO US","       4.3","W","    754.0","","     754.0","W","       101","W","        50","W","        11","W","         7","W","       107","W","        33","W","       181","W","        32","W","       155"," ","        14"," ","        54"," ","  -23.2","W,0106, ","  64.5"," ,W,0403, ","   36.1","W,0824, ","-1.0","W,1031","-3.2","W,1101","-4.9","W,1112","-8.2","W,1113","-9.3","W,1117","-1.0","W,0415","-6.0","W,0326","-6.0","W,0326","-8.8","W,0317","-10.5","W,0304","    2966.3","3","    2966.3","W","    898.2"," ,W","     12.42","W","     17.98","W","      6.86","W","       240","W","       250","W","      19.2","W","      27.3","W"
"USW00003994","2015","38.70417","-93.18333","274.3","SEDALIA MEMORIAL AIRPORT, MO US","       4.0","W","    844.2","","     844.2","W","       119","W","        75","W","        11","W","         0","W","        74","W","        21","W","       194","W","        41","W","       156"," ","        16"," ","        27"," ","  -16.6","W,0108,+"," 108.0"," ,W,0701, ","   36.1","W,0906, ","0.0","W,1109","-3.8","W,1121","","","","","","","-0.5","W,0404","-6.6","W,0306","-6.6","W,0306","-10.5","W,0305","-10.5","W,0305","    2604.2","2","    2604.2","W","   1111.3"," ,W","     14.19","W","     19.68","W","      8.69","W","       230","W","       230","W","      17.9","W","      24.1","W"
"USW00003994","2016","38.70417","-93.18333","274.3","SEDALIA MEMORIAL AIRPORT, MO US","       4.0","W","    961.0","","     961.0","W","        88","W","        48","W","         9","W","         2","W","        81","W","        15","W","       203","W","        54","W","       118"," ","        13"," ","        61"," ","  -19.9","W,1219,+","  76.2"," ,W,0626, ","   37.2","W,0615, ","-1.6","W,1119","-3.8","W,1120","-6.0","W,1207","-8.2","W,1208","-10.5","W,1209","-0.5","W,0412","-6.6","W,0302","-6.6","W,0302","-9.3","W,0213","-9.3","W,0213","    2067.9","9","    2067.9","W","    812.4"," ,W","     14.96","W","     20.57","W","      9.36","W","       360","W","       330","W","      17.9","W","      23.3","W"
"USW00003994","2017","38.70417","-93.18333","274.3","SEDALIA MEMORIAL AIRPORT, MO US","       4.2","W","    809.0","","     809.0","W","        88","W","        58","W","         9","W","         1","W","        79","W","        17","W","       200","W","        36","W","       128"," ","        19"," ","        49"," ","  -18.2","W,1231, ","  77.0"," ,W,0429, ","   36.7","W,0722,+","-3.2","W,1028","-3.2","W,1028","-6.6","W,1122","-7.7","W,1207","-13.2","W,1226","-8.2","W,0315","-8.2","W,0315","-8.2","W,0315","-8.2","W,0315","-13.2","W,0108","    2027.8","8","    2027.8","W","    902.5"," ,W","     14.76","W","     20.49","W","      9.02","W","       290","W","       290","W","      20.1","W","      25.5","W"
"USW00003994","2018","38.70417","-93.18333","274.3","SEDALIA MEMORIAL AIRPORT, MO US","       4.0","W","   1029.2","","    1029.2","W","       108","W","        64","W","         9","W","         4","W","       111","W","        26","W","       175","W","        59","W","       140"," ","        12"," ","        45"," ","  -22.1","W,0101, ","  62.7"," ,W,0626, ","   37.2","W,0712, ","0.0","W,1015","-2.7","W,1021","-7.7","W,1109","-7.7","W,1109","-10.5","W,1110","-1.0","W,0416","-5.5","W,0407","-5.5","W,0407","-10.5","W,0212","-10.5","W,0212","    2589.6","6","    2589.6","W","    863.6"," ,W","     13.25","W","     18.71","W","      7.80","W","       100","W","       110","W","      17.0","W","      24.6","W"
"USW00003994","2019","38.70417","-93.18333","274.3","SEDALIA MEMORIAL AIRPORT, MO US","       4.1","W","    619.5","","     619.5","W","       126","W","        72","W","        14","W","         2","W","       102","W","        31","W","       159","W","        12","W","       159"," ","        22"," ","        60"," ","  -20.5","W,0130, ","  67.6"," ,W,0928, ","   33.3","W,0820,+","0.0","W,1011","-3.2","W,1031","-7.1","W,1108","-7.1","W,1108","-10.5","W,1111","0.0","W,0412","-2.7","W,0316","-12.7","W,0306","-12.7","W,0306","-12.7","W,0306","    2990.0","0","    2990.0","W","   1172.5"," ,W","     12.22","W","     17.32","W","      7.13","W","        30","W","       260","W","      17.9","W","      29.5","W"
"USW00003994","2020","38.70417","-93.18333","274.3","SEDALIA MEMORIAL AIRPORT, MO US","","","","","","","","","","","","","","","","","","","","","","","       138"," ","        16"," ","        49"," ","","","","","","","","","","","","","","","","","","","","","","","","","","","    2536.6","6","    2536.6","D","","","","","","","","","","","","","","","",""
