"STATION","DATE","LATITUDE","LONGITUDE","ELEVATION","NAME","AWND","AWND_ATTRIBUTES","CDSD","CDSD_ATTRIBUTES","CLDD","CLDD_ATTRIBUTES","DP01","DP01_ATTRIBUTES","DP10","DP10_ATTRIBUTES","DP1X","DP1X_ATTRIBUTES","DSND","DSND_ATTRIBUTES","DSNW","DSNW_ATTRIBUTES","DT00","DT00_ATTRIBUTES","DT32","DT32_ATTRIBUTES","DX32","DX32_ATTRIBUTES","DX70","DX70_ATTRIBUTES","DX90","DX90_ATTRIBUTES","DYFG","DYFG_ATTRIBUTES","DYHF","DYHF_ATTRIBUTES","DYTS","DYTS_ATTRIBUTES","EMNT","EMNT_ATTRIBUTES","EMSD","EMSD_ATTRIBUTES","EMSN","EMSN_ATTRIBUTES","EMXP","EMXP_ATTRIBUTES","EMXT","EMXT_ATTRIBUTES","FZF0","FZF0_ATTRIBUTES","FZF1","FZF1_ATTRIBUTES","FZF2","FZF2_ATTRIBUTES","FZF3","FZF3_ATTRIBUTES","FZF4","FZF4_ATTRIBUTES","FZF5","FZF5_ATTRIBUTES","FZF6","FZF6_ATTRIBUTES","FZF7","FZF7_ATTRIBUTES","FZF8","FZF8_ATTRIBUTES","FZF9","FZF9_ATTRIBUTES","HDSD","HDSD_ATTRIBUTES","HTDD","HTDD_ATTRIBUTES","PRCP","PRCP_ATTRIBUTES","PSUN","PSUN_ATTRIBUTES","SNOW","SNOW_ATTRIBUTES","TAVG","TAVG_ATTRIBUTES","TMAX","TMAX_ATTRIBUTES","TMIN","TMIN_ATTRIBUTES","TSUN","TSUN_ATTRIBUTES","WDF2","WDF2_ATTRIBUTES","WDF5","WDF5_ATTRIBUTES","WDFG","WDFG_ATTRIBUTES","WDFM","WDFM_ATTRIBUTES","WSF2","WSF2_ATTRIBUTES","WSF5","WSF5_ATTRIBUTES","WSFG","WSFG_ATTRIBUTES","WSFM","WSFM_ATTRIBUTES"
"USW00013739","1948","39.87327","-75.22678","3.0","PHILADELPHIA INTERNATIONAL AIRPORT, PA US","","","    576.6","","     576.6","0","       145","0","        92","0","        13","0","       36","","         7","X","         0","0","        93","0","        25","0","       154","0","        20","0","       195"," ","","","        28"," ","  -16.1","0,0131, ","   229"," ,X,0206, ","   188"," ,X,1219, ","  58.4"," ,0,1230, ","   37.8","0,0826, ","-0.6","0,1019","-3.3","0,1211","-6.7","0,1220","-6.7","0,1220","-10.6","0,1225","0.0","X,0410","-3.3","X,0329","-4.4","X,0314","-6.7","X,0313","-10.6","X,0306","","","","","   1246.8"," ,0","","","      810"," ,X","     12.26","0","     17.36","0","      7.15","0","","","","","","","","","","","","","","","","","",""
"USW00013739","1949","39.87327","-75.22678","3.0","PHILADELPHIA INTERNATIONAL AIRPORT, PA US","","","    738.3","","     738.3","0","       126","0","        87","0","         7","0","        8","","         3","0","         0","0","        80","0","         2","0","       168","0","        33","0","       169"," ","","","        23"," ","  -10.0","0,0212, ","   102"," ,0,0210, ","    99"," ,0,0210, ","  38.1"," ,0,0804, ","   37.2","0,0705, ","-1.1","0,1106","-2.8","0,1122","-5.0","0,1126","-7.2","0,1216","","","-1.1","0,0321","-7.8","0,0320","-7.8","0,0320","-7.8","0,0320","-10.0","0,0212","    2359.9","9","    2359.9","0","   1029.2"," ,0","","","      297"," ,0","     13.89","0","     19.04","0","      8.74","0","","","","","","","","","","","","","","","","","",""
"USW00013739","1950","39.87327","-75.22678","3.0","PHILADELPHIA INTERNATIONAL AIRPORT, PA US","","","    509.3","","     509.3","0","       142","0","        76","0","         9","0","        0","","         1","0","         0","0","       100","0","        12","0","       153","0","        14","0","       178"," ","","","        26"," ","  -12.8","0,1228, ","     0","T,0,1228,+","    41"," ,0,1128, ","  87.9"," ,0,1125, ","   33.9","0,0731,+","0.0","0,1112","-2.8","0,1125","-6.1","0,1126","-7.2","0,1220","-9.4","0,1226","0.0","0,0415","-4.4","0,0414","-4.4","0,0414","-6.7","0,0319","-10.0","0,0304","    2556.7","7","    2556.7","0","   1029.1"," ,0","","","      103"," ,0","     12.36","0","     17.27","0","      7.45","0","","","","","","","","","","","","","","","","","",""
"USW00013739","1951","39.87327","-75.22678","3.0","PHILADELPHIA INTERNATIONAL AIRPORT, PA US","","","    624.7","","     624.7","0","       110","0","        72","0","        10","0","        8","","         2","0","         0","0","        84","0","        12","0","       159","0","        20","0","       173"," ","","","        25"," ","  -13.3","0,1217, ","   127"," ,0,1214, ","   135"," ,0,1214, ","  45.0"," ,0,0523, ","   35.0","0,0727, ","-2.2","0,1103","-2.2","0,1103","-5.6","0,1121","-7.2","0,1128","-11.1","0,1216","-2.8","0,0327","-2.8","0,0327","-4.4","0,0216","-8.3","0,0211","-11.1","0,0209","    2580.4","4","    2580.4","0","   1061.1"," ,0","","","      212"," ,0","     13.02","0","     18.18","0","      7.85","0","","","","","","","","","","","","","","","","","",""
"USW00013739","1952","39.87327","-75.22678","3.0","PHILADELPHIA INTERNATIONAL AIRPORT, PA US","","","    697.7","","     697.7","0","       117","0","        74","0","        13","0","        8","","         4","0","         0","0","        77","0","         4","0","       156","0","        36","0","       149"," ","","","        24"," ","  -12.2","0,0130, ","   152"," ,0,0301, ","   152"," ,0,0301, ","  58.4"," ,0,1121, ","   37.8","0,0626, ","-2.2","0,1021","-2.2","0,1021","-4.4","0,1129","-10.0","0,1228","-10.0","0,1228","-1.7","0,0318","-2.8","0,0316","-5.6","0,0302","-7.8","0,0214","-12.2","0,0130","    2515.3","3","    2515.3","0","   1165.4"," ,0","","","      333"," ,0","     13.30","0","     18.25","0","      8.35","0","","","","","","","","","","","","","","","","","",""
"USW00013739","1953","39.87327","-75.22678","3.0","PHILADELPHIA INTERNATIONAL AIRPORT, PA US","","","    697.9","","     697.9","0","       120","0","        87","0","        13","0","        9","","         7","0","         0","0","        70","0","         6","0","       167","0","        38","0","       164"," ","","","        34"," ","  -10.0","0,1218, ","   203"," ,0,1107, ","   180"," ,0,0308, ","  51.8"," ,0,0723, ","   38.3","0,0831, ","-1.7","0,1106","-2.8","0,1129","-7.8","0,1217","-7.8","0,1217","-10.0","0,1218","-5.0","0,0311","-5.0","0,0311","-5.0","0,0311","-8.3","0,0309","","","    2443.7","7","    2443.7","0","   1223.3"," ,0","","","      583"," ,0","     13.78","0","     19.02","0","      8.55","0","","","","","","","","","","","","","","","","","",""
"USW00013739","1954","39.87327","-75.22678","3.0","PHILADELPHIA INTERNATIONAL AIRPORT, PA US","","","    678.2","","     678.2","0","       112","0","        67","0","         9","0","       10","","         3","0","         0","0","        82","0","        15","0","       165","0","        28","0","       127"," ","","","        23"," ","  -15.0","0,0118,+","   229"," ,0,0111, ","   188"," ,0,0111, ","  42.4"," ,0,0616, ","   38.9","0,0731, ","-1.1","0,1108","-2.8","0,1111","-4.4","0,1203","-6.7","0,1206","-9.4","0,1221","-3.3","0,0404","-3.3","0,0404","-5.0","0,0306","-11.7","0,0213","-11.7","0,0213","    2451.6","6","    2451.6","0","    865.4"," ,0","","","      351"," ,0","     13.17","0","     18.34","0","      8.01","0","","","","","","","","","","","","","","","","","",""
"USW00013739","1955","39.87327","-75.22678","3.0","PHILADELPHIA INTERNATIONAL AIRPORT, PA US","","","    736.4","","     736.4","0","       108","0","        57","0","         8","0","       10","","         5","0","         0","0","        92","0","        16","0","       177","0","        33","0","       134"," ","","","        26"," ","  -15.0","0,0203, ","    76"," ,0,0212,+","    91"," ,0,0202, ","  83.6"," ,0,0812, ","   37.8","0,0806,+","-1.1","0,1109","-7.2","0,1128","-7.2","0,1128","-7.2","0,1128","-9.4","0,1129","-2.8","0,0329","-2.8","0,0329","-4.4","0,0327","-6.7","0,0308","-9.4","0,0213","    2537.4","4","    2537.4","0","    839.6"," ,0","","","      410"," ,0","     13.02","0","     17.99","0","      8.04","0","","","","","","","","","","","","","","","","","",""
"USW00013739","1956","39.87327","-75.22678","3.0","PHILADELPHIA INTERNATIONAL AIRPORT, PA US","","","    532.5","","     532.5","0","       134","0","        93","0","        10","0","       13","","         6","0","         0","0","        81","0","         8","0","       144","0","        15","0","       159"," ","","","        34"," ","   -8.3","0,0222,+","   178"," ,0,0320,+","   137"," ,0,0318, ","  50.8"," ,0,0506, ","   35.0","0,0615,+","-1.1","0,1110","-2.8","0,1111","-5.6","0,1123","-6.7","0,1124","","","0.0","0,0421","-6.1","0,0325","-6.1","0,0325","-6.7","0,0224","","","    2903.4","4","    2903.4","0","   1168.9"," ,0","","","      489"," ,0","     12.31","0","     17.05","0","      7.56","0","","","","","","","","","","","","","","","","","",""
"USW00013739","1957","39.87327","-75.22678","3.0","PHILADELPHIA INTERNATIONAL AIRPORT, PA US","","","    683.4","","     683.4","0","       116","0","        66","0","         6","0","       13","","         5","0","         0","0","        83","0","        12","0","       156","0","        31","0","       150"," ","","","        20"," ","  -15.0","0,0118,+","   178"," ,0,1205, ","   140"," ,0,1204, ","  45.2"," ,0,0825, ","   38.3","0,0721, ","0.0","0,1028","-3.3","0,1111","-5.6","0,1206","-6.7","0,1211","-10.0","0,1212","-0.6","0,0415","-2.2","0,0311","-5.0","0,0304","-6.7","0,0212","-10.6","0,0120","    2621.1","1","    2621.1","0","    818.7"," ,0","","","      396"," ,0","     12.85","0","     17.91","0","      7.80","0","","","","","","","","","","","","","","","","","",""
"USW00013739","1958","39.87327","-75.22678","3.0","PHILADELPHIA INTERNATIONAL AIRPORT, PA US","","","    501.7","","     501.7","0","       117","0","        83","0","        13","0","       23","","         7","0","         0","0","        93","0","        31","0","       153","0","        11","0","       158"," ","","","        28"," ","  -15.0","0,0217, ","   305"," ,0,0216, ","   244"," ,0,0320, ","  51.8"," ,0,0611, ","   33.9","0,0731, ","-0.6","0,1108","-3.3","0,1123","-7.8","0,1130","-7.8","0,1130","-8.9","0,1210","-1.7","0,0409","-2.2","0,0309","-5.0","0,0223","-10.6","0,0219","-10.6","0,0219","    2814.5","5","    2814.5","0","   1216.9"," ,0","","","      872"," ,0","     11.46","0","     16.16","0","      6.76","0","","","","","","","","","","","","","","","","","",""
"USW00013739","1959","39.87327","-75.22678","3.0","PHILADELPHIA INTERNATIONAL AIRPORT, PA US","","","    776.9","","     776.9","0","       118","0","        69","0","         7","0","       10","","         5","0","         0","0","        98","0","        13","0","       169","0","        29","0","       173"," ","","","        23"," ","  -12.8","0,0220,+","    51"," ,0,1222,+","    71"," ,0,1207, ","  75.2"," ,0,0602, ","   36.1","0,0630,+","-0.6","0,1029","-3.3","0,1117","-6.1","0,1118","-7.8","0,1222","-10.6","0,1223","-5.0","0,0329","-5.0","0,0329","-5.0","0,0329","-8.9","0,0221","-8.9","0,0221","    2840.5","5","    2840.5","0","    974.9"," ,0","","","      266"," ,0","     13.07","0","     18.13","0","      8.00","0","","","","","","","","","","","","","","","","","",""
"USW00013739","1960","39.87327","-75.22678","3.0","PHILADELPHIA INTERNATIONAL AIRPORT, PA US","","","    485.5","","     485.5","0","       115","0","        73","0","         7","0","       27","","         8","0","         0","0","       125","0","        20","0","       169","0","         7","0","       152"," ","","","        27"," ","  -13.9","0,1215, ","   305"," ,0,1212, ","   277"," ,0,1212, "," 116.8"," ,0,0912, ","   33.3","0,0425, ","0.0","0,1021","-3.9","0,1108","-5.6","0,1202","-10.0","0,1209","-10.0","0,1209","-1.7","0,0411","-4.4","0,0327","-4.4","0,0327","-7.2","0,0313","-11.1","0,0311","    2757.4","4","    2757.4","0","   1046.1"," ,0","","","      853"," ,0","     11.55","0","     16.88","0","      6.23","0","","","","","","","","","","","","","","","","","",""
"USW00013739","1961","39.87327","-75.22678","3.0","PHILADELPHIA INTERNATIONAL AIRPORT, PA US","","","    571.2","","     571.2","0","       119","0","        82","0","         9","0","       36","","        11","0","         2","0","       103","0","        26","0","       156","0","        12","0","       147"," ","","","        28"," ","  -20.0","0,0202,+","   305"," ,0,0120, ","   188"," ,0,0119, ","  47.8"," ,0,0413, ","   33.9","0,0722, ","-0.6","0,1005","-2.2","0,1109","-5.0","0,1110","-7.8","0,1209","-10.6","0,1216","0.0","0,0404","-5.6","0,0318","-5.6","0,0318","-11.1","0,0207","-11.1","0,0207","    3099.5","5","    3099.5","0","   1043.6"," ,0","","","     1018"," ,0","     11.51","0","     16.62","0","      6.41","0","","","","","","","","","","","","","","","","","",""
"USW00013739","1962","39.87327","-75.22678","3.0","PHILADELPHIA INTERNATIONAL AIRPORT, PA US","","","    469.1","","     469.1","0","       112","0","        67","0","        15","0","       18","","         8","0","         0","0","       116","0","        26","0","       152","0","        10","0","       137"," ","","","        23"," ","  -16.1","0,1231,+","   102"," ,0,0307,+","   173"," ,0,0306, ","  66.3"," ,0,0624, ","   35.6","0,0519, ","-3.9","0,1025","-3.9","0,1025","-6.7","0,1107","-6.7","0,1107","-9.4","0,1212","-2.8","0,0417","-2.8","0,0417","-6.7","0,0305","-6.7","0,0305","-12.2","0,0304","    2983.7","7","    2983.7","0","   1082.9"," ,0","","","      771"," ,0","     11.15","0","     16.40","0","      5.90","0","","","","","","","","","","","","","","","","","",""
"USW00013739","1963","39.87327","-75.22678","3.0","PHILADELPHIA INTERNATIONAL AIRPORT, PA US","","","    451.0","","     451.0","0","       102","0","        65","0","         9","0","       19","","         6","0","         2","0","       109","0","        30","0","       159","0","        19","0","       145"," ","","","        27"," ","  -20.6","0,0129, ","   127"," ,0,1225,+","   132"," ,0,1223, ","  61.5"," ,0,0903, ","   36.1","0,0701,+","0.0","0,1104","-3.3","0,1125","-5.6","0,1201","-7.8","0,1214","-9.4","0,1215","0.0","0,0416","-2.2","0,0406","-4.4","0,0309","-13.9","0,0227","-13.9","0,0227","    3140.1","1","    3140.1","0","    888.1"," ,0","","","      484"," ,0","     11.05","0","     16.79","0","      5.30","0","","","","","","","","","","","","","","","","","",""
"USW00013739","1964","39.87327","-75.22678","3.0","PHILADELPHIA INTERNATIONAL AIRPORT, PA US","","","    570.2","","     570.2","0","       106","0","        56","0","         8","0","       18","","        10","0","         0","0","       105","0","        11","0","       160","0","        28","0","       151"," ","","","        15"," ","  -16.7","0,0115, ","   178"," ,0,0115,+","   180"," ,0,0113, ","  57.9"," ,0,0708, ","   37.8","0,0630, ","0.0","0,1008","-2.2","0,1011","-8.3","0,1122","-8.3","0,1122","-9.4","0,1219","-1.1","0,0405","-3.9","0,0402","-5.6","0,0331","-6.7","0,0228","-10.6","0,0223","    2898.0","0","    2898.0","0","    760.4"," ,0","","","      699"," ,0","     12.25","0","     17.85","0","      6.65","0","","","","","","","","","","","","","","","","","",""
"USW00013739","1965","39.87327","-75.22678","3.0","PHILADELPHIA INTERNATIONAL AIRPORT, PA US","","","    548.1","","     548.1","0","       106","0","        62","0","         7","0","       18","","         6","0","         0","0","       112","0","        19","0","       151","0","        14","0","       149"," ","        14"," ","        22"," ","  -15.0","0,0117, ","   152"," ,0,0111, ","   168"," ,0,0110, ","  51.3"," ,0,0809, ","   34.4","0,0623, ","0.0","0,1006","-2.2","0,1106","-5.0","0,1120","-8.3","0,1207","","","-3.3","0,0405","-3.3","0,0405","-5.0","0,0322","-11.1","0,0321","-11.1","0,0321","    2923.1","1","    2923.1","0","    745.7"," ,0","      56.4","X","      600"," ,0","     11.66","0","     16.78","0","      6.53","0","   152298","X","","","","","","","       225","X","","","","","","","      18.3","X"
"USW00013739","1966","39.87327","-75.22678","3.0","PHILADELPHIA INTERNATIONAL AIRPORT, PA US","","","    593.4","","     593.4","0","       108","0","        67","0","         8","0","       29","","        10","0","         0","0","       104","0","        25","0","       145","0","        33","0","       162"," ","        17"," ","        18"," ","  -15.6","0,0206,+","   305"," ,0,1225, ","   315"," ,0,1224, "," 119.1"," ,0,0914, ","   40.0","0,0703, ","0.0","0,1028","-3.3","0,1031","-4.4","0,1123","-9.4","0,1203","-9.4","0,1203","-2.2","0,0511","-2.2","0,0511","-5.0","0,0329","-6.7","0,0328","-8.9","0,0221","    3005.5","5","    3005.5","0","   1017.0"," ,0","      58.0","X","     1175"," ,0","     11.64","0","     17.04","0","      6.24","0","   156906","X","","","","","","","       270","X","","","","","","","      17.0","X"
"USW00013739","1967","39.87327","-75.22678","3.0","PHILADELPHIA INTERNATIONAL AIRPORT, PA US","","","    578.0","","     578.0","0","       116","0","        74","0","        15","0","       17","","         9","0","         0","0","        99","0","        14","0","       144","0","        12","0","       180"," ","        27"," ","        31"," ","  -15.6","0,0213,+","   279"," ,0,0210, ","   249"," ,0,0207, ","  62.7"," ,0,0622, ","   33.9","0,0724,+","-1.7","0,1105","-2.2","0,1106","-4.4","0,1115","-8.3","0,1202","","","-1.7","0,0412","-4.4","0,0320","-4.4","0,0320","-11.7","0,0319","-11.7","0,0319","    2966.4","4","    2966.4","0","   1138.7"," ,0","      54.4","X","      919"," ,0","     11.85","0","     16.91","0","      6.78","0","   146868","X","","","","","","","       315","X","","","","","","","      17.9","X"
"USW00013739","1968","39.87327","-75.22678","3.0","PHILADELPHIA INTERNATIONAL AIRPORT, PA US","","","    635.4","","     635.4","0","       103","0","        55","0","        12","0","       16","","         4","0","         0","0","        97","0","        22","0","       160","0","        27","0","       132"," ","        20"," ","        24"," ","  -14.4","0,0221,+","   102"," ,0,0101, ","    66"," ,0,1215, ","  77.5"," ,0,0612, ","   36.1","0,0825, ","-0.6","0,1030","-2.2","0,1031","-5.0","0,1207","-8.9","0,1209","-8.9","0,1209","-1.1","0,0325","-2.8","0,0315","-6.1","0,0314","-6.7","0,0304","-8.9","0,0303","    2826.2","2","    2826.2","0","    900.8"," ,0","      57.0","X","      229"," ,0","     12.27","0","     17.51","0","      7.03","0","   155346","X","","","","","","","       270","X","","","","","","","      20.1","X"
"USW00013739","1969","39.87327","-75.22678","3.0","PHILADELPHIA INTERNATIONAL AIRPORT, PA US","","","    613.2","","     613.2","0","       108","0","        66","0","        11","0","       17","","         9","0","         0","0","       114","0","        18","0","       165","0","         9","0","       144"," ","        16"," ","        22"," ","  -11.7","0,0101, ","   152"," ,0,0303, ","   104"," ,0,1225, ","  85.6"," ,0,0903, ","   34.4","0,0628, ","-0.6","0,1023","-3.9","0,1024","-5.6","0,1121","-6.7","0,1223","","","-4.4","0,0401","-4.4","0,0401","-4.4","0,0401","-7.2","0,0312","-9.4","0,0215","    2803.0","0","    2803.0","0","   1102.2"," ,0","      55.4","X","      710"," ,0","     12.08","0","     16.84","0","      7.33","0","   149106","X","","","","","","","       315","X","","","","","","","      25.5","X"
"USW00013739","1970","39.87327","-75.22678","3.0","PHILADELPHIA INTERNATIONAL AIRPORT, PA US","","","    727.2","","     727.2","0","       103","0","        68","0","        11","0","       17","","         6","0","         0","0","       100","0","        23","0","       160","0","        21","0","       177"," ","        17"," ","        33"," ","  -17.2","0,0109, ","   127"," ,0,0110,+","    64"," ,0,0106, ","  68.8"," ,0,1022, ","   35.0","0,0924,+","0.0","0,1116","-5.6","0,1123","-5.6","0,1123","-7.2","0,1124","","","0.0","0,0412","-3.9","0,0330","-4.4","0,0317","-12.2","0,0226","-12.2","0,0226","    3032.9","9","    3032.9","0","    994.3"," ,0","      56.0","X","      350"," ,0","     12.47","0","     17.13","0","      7.81","0","   151290","X","","","","","","","       270","X","","","","","","","      19.2","X"
"USW00013739","1971","39.87327","-75.22678","3.0","PHILADELPHIA INTERNATIONAL AIRPORT, PA US","","","    704.9","","     704.9","0","       106","0","        66","0","        14","0","        6","","         6","0","         0","0","        80","0","        18","0","       162","0","        20","0","       161"," ","        22"," ","        25"," ","  -14.4","0,0202, ","    76"," ,0,0103,+","   135"," ,0,0101, "," 121.2"," ,0,0827, ","   35.6","0,0708, ","0.0","0,1107","-3.9","0,1109","-5.6","0,1202","-6.7","0,1203","","","0.0","0,0401","-3.3","0,0325","-4.4","0,0217","-6.7","0,0211","-10.0","0,0210","    2727.0","0","    2727.0","0","   1214.2"," ,0","      55.3","X","      440"," ,0","     13.08","0","     17.61","0","      8.56","0","   151104","X","","","","","","","       270","X","","","","","","","      19.2","X"
"USW00013739","1972","39.87327","-75.22678","3.0","PHILADELPHIA INTERNATIONAL AIRPORT, PA US","","","    583.4","","     583.4","0","       138","0","        72","0","        15","0","       12","","         5","0","         0","0","        89","0","        12","0","       152","0","        18","0","       169"," ","         8"," ","        25"," ","  -14.4","0,0116, ","   102"," ,0,0220, ","    89"," ,0,0219, ","  78.0"," ,0,1108, ","   35.6","0,0826, ","-1.7","0,1020","-3.9","0,1116","-4.4","0,1123","-6.7","0,1217","","","-2.8","0,0409","-2.8","0,0409","-6.7","0,0311","-6.7","0,0311","-10.6","0,0223","    2563.2","2","    2563.2","0","   1261.5"," ,0","      49.9","X","      309"," ,0","     12.24","0","     16.86","0","      7.62","0","   136356","X","","","","","","","       360","X","","","","","","","      19.2","X"
"USW00013739","1973","39.87327","-75.22678","3.0","PHILADELPHIA INTERNATIONAL AIRPORT, PA US","","","    763.6","","     763.6","0","       122","0","        78","0","        11","0","        4","","         1","0","         0","0","        76","0","        14","0","       162","0","        28","0","       166"," ","        14"," ","        25"," ","  -13.3","0,0217, ","    76"," ,0,1218,+","    89"," ,0,1216, "," 117.3"," ,0,0629, ","   37.2","0,0828, ","0.0","0,1107","-2.8","0,1110","-5.6","0,1111","-8.3","0,1217","","","-1.7","0,0413","-2.8","0,0301","-5.6","0,0228","-7.2","0,0219","-12.2","0,0218","    2645.5","5","    2645.5","0","   1170.4"," ,0","      53.1","X","      117"," ,0","     13.53","0","     18.40","0","      8.65","0","   142902","X","","","","","","","       225","X","","","","","","","      21.0","X"
"USW00013739","1974","39.87327","-75.22678","3.0","PHILADELPHIA INTERNATIONAL AIRPORT, PA US","","","    632.0","","     632.0","0","       116","0","        78","0","         8","0","        9","","         3","0","         0","0","        92","0","        13","0","       167","0","        22","0","       138"," ","        14"," ","        32"," ","  -13.3","0,0209, ","   152"," ,0,0209, ","   152"," ,0,0208, ","  43.2"," ,0,0824, ","   35.0","0,0709,+","-0.6","0,1019","-2.8","0,1020","-5.0","0,1126","-7.8","0,1127","","","0.0","0,0411","-4.4","0,0326","-4.4","0,0326","-7.2","0,0227","-11.1","0,0210","    2505.1","1","    2505.1","0","    960.0"," ,0","      59.5","X","      432"," ,0","     12.95","0","     18.10","0","      7.79","0","   162378","X","","","","","        45","X","       315","X","","","","","      27.2","X","      17.9","X"
"USW00013739","1975","39.87327","-75.22678","3.0","PHILADELPHIA INTERNATIONAL AIRPORT, PA US","","","    673.6","","     673.6","0","       120","0","        83","0","        13","0","        5","","         6","0","         0","0","        89","0","         9","0","       172","0","        18","0","       156"," ","        24"," ","        33"," ","  -10.6","0,0210, ","    51"," ,0,0205,+","    66"," ,0,0205, ","  69.9"," ,0,0923, ","   37.2","0,0802, ","-0.6","0,1031","-2.2","0,1203","-6.7","0,1218","-6.7","0,1218","-8.9","0,1219","-1.7","0,0414","-2.2","0,0409","-5.0","0,0327","-7.8","0,0309","-10.6","0,0210","    2583.8","8","    2583.8","0","   1324.3"," ,0","      55.6","X","      353"," ,0","     13.36","0","     18.26","0","      8.45","0","   150978","X","","","","","       315","X","       270","X","","","","","      28.8","X","      21.0","X"
"USW00013739","1976","39.87327","-75.22678","3.0","PHILADELPHIA INTERNATIONAL AIRPORT, PA US","","","    654.6","","     654.6","0","       110","0","        65","0","         6","0","       13","","         6","0","         0","0","       107","0","        20","0","       163","0","        25","0","       127"," ","         9"," ","        25"," ","  -14.4","0,0123, ","   152"," ,0,0310, ","   175"," ,0,0309, ","  45.0"," ,0,0501, ","   34.4","0,0418, ","-1.7","0,1019","-2.2","0,1028","-5.0","0,1109","-9.4","0,1130","-9.4","0,1130","-1.1","0,0413","-2.2","0,0323","-6.7","0,0318","-6.7","0,0318","-10.6","0,0203","    2397.6","6","    2397.6","0","    845.6"," ,0","      61.3","X","      489"," ,0","     12.33","0","     17.61","0","      7.06","0","   164706","X","","","","","       315","X","       315","X","","","","","      29.8","X","      22.4","X"
"USW00013739","1977","39.87327","-75.22678","3.0","PHILADELPHIA INTERNATIONAL AIRPORT, PA US","","","    672.4","","     672.4","0","       119","0","        79","0","        14","0","       22","","         6","0","         3","0","        99","0","        36","0","       170","0","        26","0","       156"," ","        10"," ","        35"," ","  -20.0","0,0117, ","   102"," ,0,0125, ","   112"," ,0,0114, "," 101.3"," ,0,1107, ","   37.8","0,0721, ","-1.7","0,1112","-2.2","0,1113","-6.7","0,1207","-6.7","0,1207","-8.9","0,1209","-1.1","0,0410","-3.3","0,0409","-4.4","0,0302","-10.6","0,0218","-10.6","0,0218","    3017.5","5","    3017.5","0","   1255.6"," ,0","      55.1","X","      416"," ,0","     12.37","0","     17.57","0","      7.17","0","   149220","X","","","","","       315","X","       315","X","","","","","      25.2","X","      21.9","X"
"USW00013739","1978","39.87327","-75.22678","3.0","PHILADELPHIA INTERNATIONAL AIRPORT, PA US","","","    676.8","","     676.8","0","       126","0","        75","0","        11","0","       41","","        13","0","         0","0","        93","0","        37","0","       150","0","        25","0","       160"," ","        17"," ","        34"," ","  -13.3","0,0305, ","   356"," ,0,0207, ","   315"," ,0,0206, ","  93.0"," ,0,0703, ","   37.2","0,0723, ","-1.7","0,1126","-3.9","0,1127","-5.6","0,1210","-7.8","0,1211","","","-1.1","0,0409","-3.9","0,0318","-4.4","0,0308","-8.3","0,0307","-12.2","0,0306","    3123.4","4","    3123.4","0","   1167.3"," ,0","      55.5","X","     1449"," ,0","     11.91","0","     16.84","0","      6.98","0","   147828","X","","","","","       180","X","       180","X","","","","","      25.2","X","      20.6","X"
"USW00013739","1979","39.87327","-75.22678","3.0","PHILADELPHIA INTERNATIONAL AIRPORT, PA US","","","    592.4","","     592.4","0","       143","0","        92","0","        16","0","       23","","        10","0","         3","0","        83","0","        29","0","       160","0","        14","0","       188"," ","        23"," ","        34"," ","  -18.9","0,0211, ","   508"," ,0,0220, ","   353"," ,0,0219, ","  48.0"," ,0,0716, ","   34.4","0,0713, ","0.0","0,1116","-2.8","0,1130","-5.0","0,1203","-7.8","0,1217","","","-1.1","0,0408","-2.2","0,0328","-8.3","0,0316","-8.3","0,0316","-17.2","0,0220","    2711.5","5","    2711.5","0","   1340.8"," ,0","      51.0","X","     1134"," ,0","     12.47","0","     17.26","0","      7.68","0","   136518","X","","","","","       180","X","       180","X","","","","","      26.2","X","      22.4","X"
"USW00013739","1980","39.87327","-75.22678","3.0","PHILADELPHIA INTERNATIONAL AIRPORT, PA US","","","    778.7","","     778.7","0","       113","0","        69","0","         9","0","        9","","         5","0","         0","0","       100","0","        33","0","       159","0","        36","0","       146"," ","         5"," ","        41"," ","  -17.2","0,1225, ","   102"," ,0,0105, ","    71"," ,0,0313, ","  97.0"," ,0,1025, ","   37.2","0,0721, ","-0.6","0,1103","-3.9","0,1117","-4.4","0,1204","-7.2","0,1215","-8.9","0,1219","-2.8","0,0417","-2.8","0,0417","-4.4","0,0312","-9.4","0,0303","-9.4","0,0303","    2709.3","3","    2709.3","0","    986.3"," ,0","      57.9","X","      395"," ,0","     12.47","0","     17.32","0","      7.62","0","   156660","X","","","","","       315","X","       225","X","","","","","      27.2","X","      21.9","X"
"USW00013739","1981","39.87327","-75.22678","3.0","PHILADELPHIA INTERNATIONAL AIRPORT, PA US","","","    594.7","","     594.7","0","       104","0","        63","0","         8","0","       16","","         3","0","         1","0","        98","0","        23","0","       147","0","        15","0","       175"," ","         8"," ","        21"," ","  -17.8","0,0113, ","    76"," ,0,0306,+","   224"," ,0,0305, "," 111.8"," ,0,0808, ","   35.0","0,0719, ","-0.6","0,1020","-2.2","0,1123","-6.1","0,1213","-7.8","0,1219","-10.0","0,1221","0.0","0,0416","-2.8","0,0326","-5.6","0,0320","-8.9","0,0318","-8.9","0,0318","    2909.1","1","    2909.1","0","    961.4"," ,0","      47.9","X","      424"," ,0","     12.04","0","     16.96","0","      7.12","0","   130962","X","","","","","       180","X","","","","","","","      23.1","X","",""
"USW00013739","1982","39.87327","-75.22678","3.0","PHILADELPHIA INTERNATIONAL AIRPORT, PA US","","","    557.7","","     557.7","0","       122","0","        67","0","        13","0","       25","","         7","0","         2","0","        95","0","        18","0","       163","0","        12","0","       198"," ","        24"," ","        26"," ","  -21.7","0,0117, ","   229"," ,0,0123,+","   173"," ,0,1212, ","  57.9"," ,0,0528, ","   34.4","0,0726,+","0.0","0,1018","-2.2","0,1115","-5.0","0,1128","-7.2","0,1209","-8.9","0,1210","0.0","0,0412","-5.0","0,0408","-5.0","0,0408","-7.2","0,0407","-8.9","0,0207","    2955.4","4","    2955.4","0","   1027.7"," ,0","      53.1","X","      749"," ,0","     12.31","0","     17.25","0","      7.37","0","   144714","X","","","","","       315","X","","","","","","","      21.6","X","",""
"USW00013739","1983","39.87327","-75.22678","3.0","PHILADELPHIA INTERNATIONAL AIRPORT, PA US","","","    697.7","","     697.7","0","       114","0","        84","0","        21","0","       13","","         4","0","         0","0","        87","0","        14","0","       145","0","        41","0","       178"," ","        21"," ","        31"," ","  -17.2","0,1225, ","   559"," ,0,0212, ","   536"," ,0,0211, ","  62.0"," ,0,0921, ","   37.2","0,0820,+","0.0","0,1030","-3.9","0,1202","-4.4","0,1209","-6.7","0,1219","-11.1","0,1221","0.0","0,0420","-3.3","0,0330","-5.0","0,0326","-6.7","0,0227","-16.1","0,0213","    2582.3","3","    2582.3","0","   1389.0"," ,0","      54.1","X","      810"," ,0","     12.60","0","     17.60","0","      7.59","0","   147828","X","","","","","        45","X","        45","X","","","","","      22.6","X","      16.1","X"
"USW00013739","1984","39.87327","-75.22678","3.0","PHILADELPHIA INTERNATIONAL AIRPORT, PA US","       3.8","X","    550.9","","     550.9","0","       131","0","        77","0","         9","0","       22","","         6","0","         3","0","        94","0","        20","0","       151","0","         7","0","       186"," ","        16"," ","        36"," ","  -21.7","0,0122, ","   229"," ,0,0119, ","   109"," ,0,0308, ","  56.9"," ,0,0810, ","   34.4","0,0610,+","-1.1","0,1108","-2.2","0,1115","-6.1","0,1120","","","","","0.0","0,0402","-3.9","0,0324","-5.0","0,0313","-10.0","0,0312","-10.0","0,0312","    3013.2","2","    3013.2","0","   1109.8"," ,0","","","      535"," ,0","     12.07","0","     16.97","0","      7.17","0","   138533","X","","","","","       315","X","","","","","","","      29.8","X","",""
"USW00013739","1985","39.87327","-75.22678","3.0","PHILADELPHIA INTERNATIONAL AIRPORT, PA US","       4.2","X","    561.1","","     561.1","0","       113","0","        65","0","        10","0","       21","","        10","0","         2","0","        93","0","        21","0","       173","0","        12","0","       179"," ","         8"," ","        26"," ","  -21.1","0,0121, ","    76"," ,0,0206,+","    89"," ,0,0117, ","  70.9"," ,0,0926, ","   33.9","0,0814, ","-0.6","0,1029","-2.2","0,1202","-4.4","0,1205","-8.3","0,1215","-9.4","0,1218","-5.6","0,0410","-5.6","0,0410","-5.6","0,0410","-7.2","0,0319","-10.6","0,0208","    2570.9","9","    2570.9","0","    894.8"," ,0","","","      452"," ,0","     12.69","0","     17.87","0","      7.52","0","   149533","X","","","","","       270","X","","","","","","","      23.6","X","",""
"USW00013739","1986","39.87327","-75.22678","3.0","PHILADELPHIA INTERNATIONAL AIRPORT, PA US","       4.0","X","    705.5","","     705.5","0","       112","0","        67","0","        12","0","       16","","         7","0","         0","0","        94","0","        13","0","       168","0","        33","0","       179"," ","        11"," ","        28"," ","  -12.8","0,0129, ","   102"," ,0,0212, ","   102"," ,0,0211, ","  61.7"," ,0,0416, ","   36.7","0,0707, ","-3.9","0,1113","-3.9","0,1113","-7.2","0,1114","-7.2","0,1114","","","-1.1","0,0325","-2.8","0,0323","-5.6","0,0322","-8.9","0,0321","-8.9","0,0321","    2569.6","6","    2569.6","0","   1027.5"," ,0","","","      389"," ,0","     12.95","0","     18.22","0","      7.67","0","   145251","X","","","","","       315","X","       315","X","","","","","      21.6","X","      16.5","X"
"USW00013739","1987","39.87327","-75.22678","3.0","PHILADELPHIA INTERNATIONAL AIRPORT, PA US","       4.4","X","    722.4","","     722.4","0","       107","0","        66","0","         8","0","       26","","         5","0","         0","0","        89","0","        10","0","       160","0","        31","0","       179"," ","        12"," ","        32"," ","  -15.6","0,0128, ","   254"," ,0,0127, ","   224"," ,0,0122, ","  43.9"," ,0,0702, ","   36.1","0,0804,+","-1.1","0,1111","-6.1","0,1121","-6.1","0,1121","-6.7","0,1122","-10.6","0,1230","-1.7","0,0401","-7.2","0,0311","-7.2","0,0311","-7.2","0,0311","-12.8","0,0216","    2666.9","9","    2666.9","0","    849.0"," ,0","","","      717"," ,0","     13.01","0","     18.26","0","      7.76","0","   149278","X","","","","","       315","X","       315","X","","","","","      20.6","X","      14.8","X"
"USW00013739","1988","39.87327","-75.22678","3.0","PHILADELPHIA INTERNATIONAL AIRPORT, PA US","       4.4","X","    730.1","","     730.1","0","       109","0","        62","0","        11","0","       15","","         5","0","         0","0","       103","0","        21","0","       147","0","        49","0","       148"," ","        13"," ","        27"," ","  -16.1","0,0111, ","   102"," ,0,0110,+","    97"," ,0,0108, ","  87.6"," ,0,0721, ","   38.9","0,0717,+","0.0","0,1013","-2.2","0,1031","-4.4","0,1209","-6.7","0,1210","-9.4","0,1211","0.0","0,0422","-7.2","0,0322","-7.2","0,0322","-7.2","0,0322","-13.3","0,0207","    2754.4","4","    2754.4","0","    976.4"," ,0","","","      319"," ,0","     12.51","0","     18.02","0","      7.00","0","   158100","X","","","","","       315","X","       315","X","","","","","      25.7","X","      21.5","X"
"USW00013739","1989","39.87327","-75.22678","3.0","PHILADELPHIA INTERNATIONAL AIRPORT, PA US","       4.2","X","    683.0","","     683.0","0","       131","0","        80","0","        13","0","       16","","         7","0","         0","0","       101","0","        25","0","       169","0","        19","0","       204"," ","        17"," ","        30"," ","  -14.4","0,1222, ","   127"," ,0,1123,+","   130"," ,0,0106, "," 111.3"," ,0,0705, ","   34.4","0,0910,+","-1.7","0,1104","-3.3","0,1119","-5.6","0,1122","-6.7","0,1123","-8.9","0,1210","-0.6","0,0402","-2.2","0,0323","-4.4","0,0313","-8.3","0,0308","-10.0","0,0225","    2694.9","9","    2694.9","0","   1236.6"," ,0","","","      528"," ,0","     12.45","0","     17.46","0","      7.44","0","   134473","X","","","","","       315","X","","","","","","","      30.8","X","",""
"USW00013739","1990","39.87327","-75.22678","3.0","PHILADELPHIA INTERNATIONAL AIRPORT, PA US","       4.3","X","    691.6","","     691.6","0","       128","0","        76","0","         4","0","        3","","         4","0","         0","0","        75","0","         3","0","       170","0","        23","0","       215"," ","        14"," ","        38"," ","  -12.2","0,0226, ","   152"," ,0,1228, ","    86"," ,0,1227, ","  57.2"," ,0,0529, ","   36.1","0,0705, ","0.0","0,1030","-2.2","0,1211","-7.2","0,1225","-7.2","0,1225","","","-2.2","0,0413","-2.2","0,0413","-7.8","0,0308","-7.8","0,0308","-12.2","0,0226","    2581.8","8","    2581.8","0","    910.4"," ,0","","","      344"," ,0","     14.16","0","     19.47","0","      8.84","0","   141229","X","","","","","       225","X","","","","","","","      24.7","X","",""
"USW00013739","1991","39.87327","-75.22678","3.0","PHILADELPHIA INTERNATIONAL AIRPORT, PA US","       4.3","X","    910.8","","     910.8","0","       104","0","        61","0","        11","0","        3","","         1","0","         0","0","        73","0","         5","0","       175","0","        53","0","       189"," ","        11"," ","        20"," ","  -10.6","0,0122, ","    76"," ,0,0108, ","   127"," ,0,0107, ","  71.1"," ,0,0713, ","   37.8","0,0616, ","-1.1","0,1105","-2.2","0,1106","-4.4","0,1205","-7.8","0,1219","","","0.0","0,0313","-3.9","0,0312","-5.6","0,0224","-8.3","0,0216","-9.4","0,0123","    2205.5","5","    2205.5","0","    920.8"," ,0","","","      209"," ,0","     14.46","0","     19.62","0","      9.29","0","   157469","X","","","","","","","","","","","","","","","",""
"USW00013739","1992","39.87327","-75.22678","3.0","PHILADELPHIA INTERNATIONAL AIRPORT, PA US","       4.8","X","    588.8","","     588.8","0","       119","0","        70","0","         6","0","        2","","         1","0","         0","0","        75","0","         7","0","       149","0","        14","0","       187"," ","        21"," ","        21"," ","  -11.7","0,0119, ","    25"," ,0,0323,+","    53"," ,0,0322, ","  57.2"," ,0,1211, ","   36.1","0,0714, ","-0.6","0,1020","-2.2","0,1116","-4.4","0,1209","-6.7","0,1225","","","-1.1","0,0404","-5.0","0,0324","-5.0","0,0324","-7.2","0,0316","-8.9","0,0212","    2511.1","1","    2511.1","0","    772.9"," ,0","","","      121"," ,0","     12.89","0","     17.59","0","      8.20","0","   143846","X","","","","","       270","X","","","","","","","      26.7","X","",""
"USW00013739","1993","39.87327","-75.22678","3.0","PHILADELPHIA INTERNATIONAL AIRPORT, PA US","       4.4","X","    839.3","","     839.3","0","       111","0","        69","0","        15","0","       12","","         5","0","         0","0","        76","0","        15","0","       163","0","        41","0","       180"," ","        13"," ","        25"," ","  -12.8","0,0207, ","   305"," ,0,0314, ","   297"," ,0,0313, ","  58.9"," ,0,0917, ","   38.3","0,0710, ","-0.6","0,1108","-2.2","0,1125","-4.4","0,1212","-7.2","0,1226","","","-3.3","0,0320","-3.3","0,0320","-8.9","0,0319","-8.9","0,0319","-8.9","0,0319","    2562.8","8","    2562.8","0","   1072.2"," ,0","","","      641"," ,0","     13.70","0","     18.52","0","      8.88","0","   157214","X","","","","","        90","X","","","","","","","      29.3","X","",""
"USW00013739","1994","39.87327","-75.22678","3.0","PHILADELPHIA INTERNATIONAL AIRPORT, PA US","       3.9","X","    801.1","","     801.1","0","       116","0","        78","0","         9","0","       24","","         5","0","         1","0","        84","0","        14","0","       168","0","        36","0","       195"," ","        11"," ","        36"," ","  -20.6","0,0119, ","   203"," ,0,0212, ","   124"," ,0,0208, ","  87.6"," ,0,0718, ","   37.8","0,0619,+","-1.1","0,1123","-4.4","0,1124","-4.4","0,1124","","","","","0.0","0,0319","-5.0","0,0317","-5.0","0,0317","-8.9","0,0228","-8.9","0,0228","    2589.6","6","    2589.6","0","   1141.6"," ,0","","","      564"," ,0","     13.68","0","     18.68","0","      8.69","0","   156452","X","","","","","        45","X","","","","","","","      24.2","X","",""
"USW00013739","1995","39.87327","-75.22678","3.0","PHILADELPHIA INTERNATIONAL AIRPORT, PA US","       4.3","X","    863.5","","     863.5","0","       108","0","        65","0","         7","0","       26","","         7","0","         0","0","        90","0","        20","0","       176","0","        49","0","       187"," ","        15"," ","        28"," ","  -15.0","0,0206, ","   229"," ,Z,0204, ","   193"," ,0,0204, ","  40.1"," ,0,1005, ","   39.4","0,0715, ","-1.1","0,1105","-2.8","0,1117","-10.0","0,1210","-10.0","0,1210","-10.0","0,1210","-2.8","0,0405","-2.8","0,0405","-6.1","0,0310","-7.2","0,0214","-11.1","0,0213","    2280.7","7","    2280.7","0","    801.1"," ,0","","","      483"," ,0","     13.59","0","     18.44","0","      8.73","0","   152040","X","","","","","","","","","","","","","","","",""
"USW00013739","1996","39.87327","-75.22678","3.0","PHILADELPHIA INTERNATIONAL AIRPORT, PA US","       4.1","X","    584.5","","     584.5","0","       150","0","        87","0","        17","0","       27","","         8","0","         0","0","        92","0","        26","0","       150","0","         7","0","       213"," ","        17"," ","        29"," ","  -16.1","0,0205, ","   711"," ,0,0108, ","   701"," ,0,0107, ","  51.3"," ,0,1019, ","   34.4","0,0520, ","-1.1","0,1103","-2.2","0,1112","-4.4","0,1113","-6.7","0,1220","-8.9","0,1221","-0.6","0,0328","-3.3","0,0312","-6.7","0,0311","-6.7","0,0311","-10.6","0,0310","    2927.7","7","    2927.7","0","   1434.7"," ,0","","","     1433"," ,0","     12.05","0","     16.54","0","      7.55","0","   147757","X","         0","X","       180","X","","","","","      44.3","X","      25.5","X","","","",""
"USW00013739","1997","39.87327","-75.22678","3.0","PHILADELPHIA INTERNATIONAL AIRPORT, PA US","       4.3","X","    584.4","","     584.4","0","       121","0","        72","0","         4","0","        4","","         5","0","         0","0","        82","0","         8","0","       147","0","        20","0","       162"," ","         6"," ","        16"," ","  -14.4","0,0119, ","    76"," ,0,0401,+","    81"," ,0,0208, ","  38.9"," ,0,0820, ","   36.7","0,0816,+","0.0","0,1113","-3.9","0,1118","-4.4","0,1215","","","","","-1.7","0,0410","-2.8","0,0324","-5.6","0,0225","-6.7","0,0210","-8.9","0,0120","    2658.1","1","    2658.1","0","    827.0"," ,0","","","      332"," ,0","     12.63","0","     17.57","0","      7.70","0","   169154","X","       250","X","       240","X","","","","","      18.3","X","      23.2","X","","","",""
"USW00013739","1998","39.87327","-75.22678","3.0","PHILADELPHIA INTERNATIONAL AIRPORT, PA US","       4.0","X","    752.3","","     752.3","0","       116","0","        62","0","         5","0","        3","","         1","0","         0","0","        52","0","         5","0","       167","0","        31","0","       174"," ","         8"," ","        25"," ","   -8.9","0,0101, ","    51"," ,0,1224, ","    38"," ,0,1223, ","  58.9"," ,0,0123, ","   35.0","0,0626, ","0.0","0,1105","-2.8","0,1215","-4.4","0,1222","-6.7","0,1223","","","-0.6","0,0325","-2.2","0,0317","-5.6","0,0313","-6.7","0,0312","-8.9","0,0101","    2321.7","7","    2321.7","0","    804.7"," ,0","","","       67"," ,0","     14.48","0","     19.22","0","      9.75","0","   162197","X","       300","X","       300","X","","","","","      22.8","X","      31.7","X","","","",""
"USW00013739","1999","39.87327","-75.22678","3.0","PHILADELPHIA INTERNATIONAL AIRPORT, PA US","       4.2","X","    747.4","","     747.4","0","       107","0","        67","0","        12","0","        3","","         2","0","         0","0","        70","0","        14","0","       164","0","        35","0","       169"," ","        14"," ","        22"," ","  -11.1","0,0102, ","    51"," ,0,0315,+","   119"," ,0,0314, "," 168.4"," ,0,0916, ","   37.8","0,0705, ","-1.7","0,1117","-5.0","0,1201","-5.0","0,1201","-7.8","0,1225","","","0.0","0,0326","-3.3","0,0311","-5.6","0,0309","-7.8","0,0308","-8.9","0,0223","    2368.6","6","    2368.6","0","   1232.0"," ,0","","","      267"," ,0","     13.74","0","     18.65","0","      8.84","0","   164687","X","       280","X","       290","X","","","","","      19.7","X","      24.6","X","","","",""
"USW00013739","2000","39.87327","-75.22678","3.0","PHILADELPHIA INTERNATIONAL AIRPORT, PA US","       4.2","X","    567.4","","     567.4","0","       122","0","        73","0","        10","0","       27","","         7","0","         0","0","        89","0","        22","0","       149","0","        10","0","       163"," ","        16"," ","        32"," ","  -13.9","0,0122, ","   229"," ,0,1231,+","   229"," ,0,1230, ","  69.1"," ,0,0903, ","   34.4","0,0611,+","-0.6","0,1116","-3.9","0,1120","-5.0","0,1123","-6.7","0,1221","-10.0","0,1222","-0.6","0,0409","-4.4","0,0318","-4.4","0,0318","-7.2","0,0209","-10.0","0,0130","    2421.3","3","    2421.3","0","   1136.1"," ,0","","","      802"," ,0","     12.57","0","     17.29","0","      7.85","0","   155322","X","       270","X","       280","X","","","","","      20.1","X","      23.7","X","","","",""
"USW00013739","2001","39.87327","-75.22678","3.0","PHILADELPHIA INTERNATIONAL AIRPORT, PA US","       4.0","X","    759.5","","     759.5","0","       101","0","        61","0","         8","0","       18","","         4","0","         0","0","        71","0","         7","0","       174","0","        23","0","       158"," ","        15"," ","        18"," ","   -9.4","0,0103, ","   203"," ,0,0101, ","   178"," ,0,0222, ","  61.2"," ,0,0617, ","   38.3","0,0809, ","-1.7","0,1112","-2.8","0,1222","-5.0","0,1227","-6.7","0,1231","","","-3.3","0,0328","-3.3","0,0328","-5.0","0,0306","-7.2","0,0222","-9.4","0,0103","    2712.9","9","    2712.9","0","    787.9"," ,0","","","      396"," ,0","     13.93","0","     18.74","0","      9.12","0","   164834","X","       250","X","       290","X","","","","","      17.4","X","      21.0","X","","","",""
"USW00013739","2002","39.87327","-75.22678","3.0","PHILADELPHIA INTERNATIONAL AIRPORT, PA US","       4.3","X","    876.3","","     876.3","0","       119","0","        70","0","         9","0","       12","","         3","0","         0","0","        74","0","         4","0","       165","0","        46","0","       135"," ","         9"," ","        24"," ","   -8.9","0,1207, ","   152"," ,0,1206, ","   178"," ,0,1205, ","  51.8"," ,0,1011, ","   37.2","0,0814,+","-1.1","0,1119","-3.3","0,1128","-6.1","0,1203","-8.3","0,1204","-8.9","0,1207","-0.6","0,0407","-2.2","0,0323","-5.0","0,0322","-7.2","0,0305","","","    2106.0","0","    2106.0","0","   1000.3"," ,0","","","      316"," ,0","     14.17","0","     19.06","0","      9.29","0","    73774","X","       280","X","       280","X","","","","","      19.2","X","      26.4","X","","","",""
"USW00013739","2003","39.87327","-75.22678","3.0","PHILADELPHIA INTERNATIONAL AIRPORT, PA US","       4.2","X","    695.4","","     695.4","0","       149","0","        93","0","        10","0","       40","","        11","0","         0","0","        91","0","        24","0","       155","0","        23","0","       183"," ","        16"," ","        28"," ","  -13.3","0,0118, ","   584"," ,0,0218,+","   406"," ,0,0216, ","  47.8"," ,0,0222, ","   36.1","0,0626, ","-1.7","0,1109","-2.2","0,1110","-6.1","0,1203","","","","","-1.1","0,0401","-2.8","0,0314","-5.6","0,0311","-6.7","0,0307","-8.9","0,0217","    2826.0","0","    2826.0","0","   1219.9"," ,0","","","     1116"," ,0","     12.69","0","     17.16","0","      8.22","0","    32236","X","       270","X","       280","X","","","","","      20.6","X","      25.9","X","","","",""
"USW00013739","2004","39.87327","-75.22678","3.0","PHILADELPHIA INTERNATIONAL AIRPORT, PA US","       4.1","X","    687.8","","     687.8","0","       136","0","        77","0","        14","0","       19","","         5","0","         0","0","        89","0","        26","0","       166","0","         9","0","       108"," ","        12"," ","        39"," ","  -15.6","0,0110, ","    76"," ,0,0130,+","    66"," ,0,0126, "," 118.9"," ,0,0712, ","   33.9","0,0705, ","-0.6","0,1109","-2.2","0,1114","-5.6","0,1215","-6.7","0,1219","-12.2","0,1220","-0.6","0,0405","-4.4","0,0323","-4.4","0,0323","-9.4","0,0216","-9.4","0,0216","    2598.5","5","    2598.5","0","   1250.3"," ,0","","","      317"," ,0","     13.02","0","     17.60","0","      8.44","0","    26517","X","       270","X","       240","X","","","","","      19.2","X","      24.1","X","","","",""
"USW00013739","2005","39.87327","-75.22678","3.0","PHILADELPHIA INTERNATIONAL AIRPORT, PA US","       4.1","X","    835.9","","     835.9","0","       116","0","        69","0","         9","0","       29","","        11","0","         0","0","        87","0","        15","0","       162","0","        29","0","       122"," ","         8"," ","        24"," ","  -16.1","0,0124, ","   305"," ,0,0124,+","   274"," ,0,0122, "," 140.5"," ,0,1008, ","   36.7","0,0727, ","-1.7","0,1118","-4.4","0,1124","-4.4","0,1124","-6.7","0,1208","-9.4","0,1214","-1.7","0,0322","-2.2","0,0318","-5.6","0,0310","-7.8","0,0309","-8.9","0,0202","    2644.0","0","    2644.0","0","   1073.7"," ,0","","","      939"," ,0","     13.32","0","     18.11","0","      8.53","0","","","       280","X","       270","X","","","","","      23.2","X","      30.8","X","","","",""
"USW00013739","2006","39.87327","-75.22678","3.0","PHILADELPHIA INTERNATIONAL AIRPORT, PA US","       4.2","W","    716.3","","     716.3","0","       111","0","        74","0","        12","0","        5","","         2","0","         0","0","        61","0","         3","0","       170","0","        27","0","       136"," ","        18"," ","        45"," ","   -9.4","0,0219, ","   254"," ,0,0213, ","   269"," ,0,0212, ","  63.0"," ,0,0628, ","   36.7","0,0803,+","-1.1","0,1104","-2.2","0,1204","-5.0","0,1208","","","","","-0.6","0,0322","-3.9","0,0321","-5.0","0,0228","-7.8","0,0227","-9.4","0,0219","    2342.7","7","    2342.7","0","   1224.7"," ,0","","","      318"," ,0","     14.15","0","     18.95","0","      9.35","0","","","       330","X","       330","X","","","","","      19.7","X","      23.7","X","","","",""
"USW00013739","2007","39.87327","-75.22678","3.0","PHILADELPHIA INTERNATIONAL AIRPORT, PA US","       4.2","W","    818.5","","     818.5","0","       121","0","        72","0","        12","0","       17","","         6","0","         0","0","        89","0","        19","0","       176","0","        24","0","       162"," ","        16"," ","        27"," ","  -12.2","0,0206,+","    76"," ,0,0317,+","    76"," ,0,0316, "," 106.4"," ,0,0415, ","   36.1","0,0808, ","0.0","0,1108","-3.3","0,1124","-6.7","0,1206","-6.7","0,1206","","","-1.1","0,0409","-2.2","0,0321","-7.2","0,0309","-7.2","0,0309","-8.9","0,0308","    2485.4","4","    2485.4","0","   1070.4"," ,0","","","      383"," ,0","     13.45","0","     18.19","0","      8.72","0","","","       260","X","       260","X","","","","","      19.2","X","      23.2","X","","","",""
"USW00013739","2008","39.87327","-75.22678","3.0","PHILADELPHIA INTERNATIONAL AIRPORT, PA US","       4.2","W","    730.6","","     730.6","0","       117","0","        69","0","        10","0","        2","","         3","0","         0","0","        81","0","         9","0","       163","0","        23","0","       155"," ","         8"," ","        30"," ","  -11.7","0,0211, ","    51"," ,0,0222, ","    81"," ,0,0222, ","  69.1"," ,0,1211, ","   36.7","0,0610, ","0.0","0,1111","-3.3","0,1119","-5.0","0,1122","-6.7","0,1208","-9.4","0,1222","-0.6","0,0403","-2.2","0,0310","-6.7","0,0229","-6.7","0,0229","-11.7","0,0211","    2408.1","1","    2408.1","0","   1024.9"," ,0","","","      155"," ,0","     13.54","0","     18.32","0","      8.76","0","","","       240","X","       240","X","","","","","      21.9","X","      25.0","X","","","",""
"USW00013739","2009","39.87327","-75.22678","3.0","PHILADELPHIA INTERNATIONAL AIRPORT, PA US","       4.0","W","    662.8","","     662.8","0","       131","0","        86","0","        15","0","       16","","         5","0","         0","0","        84","0","        18","0","       162","0","        15","0","       165"," ","        10"," ","        41"," ","  -14.4","0,0117, ","   533"," ,0,1220, ","   572"," ,0,1219, ","  69.3"," ,0,0822, ","   35.0","0,0821,+","-0.6","0,1107","-2.2","0,1210","-5.0","0,1211","-8.3","0,1223","","","-1.1","0,0325","-3.9","0,0324","-6.1","0,0305","-9.4","0,0304","-9.4","0,0304","    2597.3","3","    2597.3","0","   1334.7"," ,0","","","     1160"," ,0","     13.11","0","     17.61","0","      8.61","0","","","       270","X","       280","X","","","","","      20.6","X","      25.0","X","","","",""
"USW00013739","2010","39.87327","-75.22678","3.0","PHILADELPHIA INTERNATIONAL AIRPORT, PA US","       4.2","W","    990.8","","     990.8","0","       103","0","        65","0","        14","0","       29","","         9","0","         0","0","        86","0","        16","0","       175","0","        55","0","       115"," ","         9"," ","        26"," ","  -10.6","0,0208, ","   508"," ,0,0207, ","   556"," ,0,0206, ","  76.2"," ,0,1001, ","   39.4","0,0707, ","0.0","0,1128","-4.4","0,1208","-4.4","0,1208","-7.2","0,1214","","","0.0","0,0328","-2.8","0,0227","-5.6","0,0217","-7.2","0,0209","-10.6","0,0208","    2416.1","1","    2416.1","0","   1129.6"," ,0","","","     1710"," ,0","     14.20","0","     18.92","0","      9.49","0","","","       330","X","       340","X","","","","","      27.7","X","      33.5","X","","","",""
"USW00013739","2011","39.87327","-75.22678","3.0","PHILADELPHIA INTERNATIONAL AIRPORT, PA US","       3.7","W","    877.5","","     877.5","X","       130","X","        75","X","        19","X","       26","","         7","X","         0","X","        74","X","        14","X","       172","X","        33","X","       129"," ","        15"," ","        31"," ","  -13.3","X,0124, ","   330"," ,X,0127, ","   361"," ,X,0126, "," 122.9"," ,X,0814, ","   39.4","X,0722, ","-0.6","X,1031","-2.2","X,1211","","","","","","","-0.6","X,0329","-2.2","X,0328","-5.6","X,0303","-8.9","X,0211","-8.9","X,0211","    2544.7","7","    2544.7","X","   1635.1"," ,X","","","      805"," ,X","     14.27","X","     19.04","X","      9.49","X","","","       250","X","       280","X","","","","","      23.7","X","      28.2","X","","","",""
"USW00013739","2012","39.87327","-75.22678","3.0","PHILADELPHIA INTERNATIONAL AIRPORT, PA US","       3.8","X","    871.5","","     871.5","X","       111","X","        67","X","         7","X","        4","","         1","X","         0","X","        54","X","         4","X","       173","X","        39","X","        79"," ","        15"," ","        28"," ","  -10.0","X,0104, ","    51"," ,X,0122,+","    58"," ,X,0121, ","  79.2"," ,X,0904, ","   38.3","X,0707, ","0.0","X,1106","-2.2","X,1126","","","","","","","0.0","X,0327","-2.8","X,0306","-7.2","X,0212","-7.2","X,0212","-10.0","X,0104","    2015.0","0","    2015.0","X","    913.6"," ,X","","","      104"," ,X","     14.90","X","     19.59","X","     10.20","X","","","        30","X","        20","X","","","","","      19.7","X","      30.4","X","","","",""
"USW00013739","2013","39.87327","-75.22678","3.0","PHILADELPHIA INTERNATIONAL AIRPORT, PA US","       3.9","W","    765.6","","     765.6","W","       119","W","        73","W","        15","W","       13","","         6","W","         0","W","        86","W","        12","W","       165","W","        20","W","        65"," ","         6"," ","         5"," ","  -11.1","W,0123, ","   150"," ,W,1209, ","   218"," ,W,1208, "," 203.7"," ,W,0728, ","   36.7","W,0718, ","-0.5","W,1112","-4.3","W,1124","-6.6","W,1125","","","","","-0.5","W,0404","-2.2","X,0322","-6.1","X,0218","-7.8","X,0202","-10.0","X,0126","    2452.1","1","    2452.1","W","   1420.1"," ,W","","","      488"," ,W","     13.47","W","     17.99","W","      8.94","W","","","       230","W","       220","W","","","","","      18.3","W","      29.5","W","","","",""
"USW00013739","2014","39.87327","-75.22678","3.0","PHILADELPHIA INTERNATIONAL AIRPORT, PA US","       4.0","W","    704.2","","     704.2","W","       121","W","        78","W","        13","W","       37","","        12","W","         0","W","        89","W","        22","W","       171","W","        19","W","        67"," ","         3"," ","        11"," ","  -15.5","W,0122,+","   330"," ,W,0122, ","   343"," ,W,0121, "," 112.3"," ,W,0430, ","   35.6","W,0702, ","0.0","W,1115","-4.3","W,1118","-6.6","W,1119","","","","","-0.5","W,0416","-4.9","W,0327","-4.9","W,0327","-7.1","W,0305","-11.0","W,0304","    2721.2","2","    2721.2","W","   1204.0"," ,W","","","     1444"," ,W","     12.90","W","     17.59","W","      8.20","W","","","       260","W","       240","W","","","","","      21.5","W","      26.4","W","","","",""
"USW00013739","2015","39.87327","-75.22678","3.0","PHILADELPHIA INTERNATIONAL AIRPORT, PA US","       4.0","W","    934.3","","     934.3","W","       113","W","        70","W","         9","W","       16","","         6","W","         0","W","        74","W","        22","W","       182","W","        37","W","       125"," ","        13"," ","        26"," ","  -16.6","W,0220, ","   200"," ,W,0306, ","   191"," ,W,0305, "," 120.9"," ,W,0910, ","   35.6","W,0903, ","0.0","W,1206","","","","","","","","","-3.2","W,0329","-3.2","W,0329","-11.6","W,0307","-11.6","W,0307","-11.6","W,0307","    2677.6","6","    2677.6","W","   1200.4"," ,W","","","      685"," ,W","     14.25","W","     19.02","W","      9.49","W","","","       300","W","       280","W","","","","","      23.3","W","      32.2","W","","","",""
"USW00013739","2016","39.87327","-75.22678","3.0","PHILADELPHIA INTERNATIONAL AIRPORT, PA US","       4.1","W","    939.4","","     939.4","W","       111","W","        70","W","         8","W","       11","","         4","W","         0","W","        67","W","        11","W","       171","W","        46","W","       116"," ","         7"," ","        28"," ","  -13.2","W,0214, ","   460"," ,W,0124, ","   493"," ,W,0123, ","  49.8"," ,W,0521, ","   36.7","W,0813, ","0.0","W,1123","-3.2","W,1210","-7.7","W,1215","-7.7","W,1215","","","-0.5","W,0410","-2.7","W,0303","-5.5","W,0219","-8.2","W,0215","-13.2","W,0214","    2024.2","2","    2024.2","W","    898.0"," ,W","","","      707"," ,W","     14.65","W","     19.45","W","      9.85","W","","","       270","W","       270","W","","","","","      19.7","W","      26.4","W","","","",""
"USW00013739","2017","39.87327","-75.22678","3.0","PHILADELPHIA INTERNATIONAL AIRPORT, PA US","       4.1","W","    810.0","","     810.0","W","       124","W","        68","W","        11","W","       14","","         9","W","         0","W","        65","W","        13","W","       174","W","        26","W","       129"," ","         7"," ","        28"," ","  -12.7","W,1231, ","   100"," ,W,1210, ","   122"," ,W,0314, ","  65.5"," ,W,0916, ","   35.6","W,0719,+","-3.8","W,1110","-3.8","W,1110","-4.9","W,1111","-7.1","W,1227","-9.9","W,1228","0.0","W,0324","-4.3","W,0323","-6.0","W,0315","-9.3","W,0305","-9.3","W,0305","    2172.0","0","    2172.0","W","   1051.0"," ,W","","","      591"," ,W","     14.43","W","     19.03","W","      9.83","W","","","       270","W","       330","W","","","","","      17.9","W","      23.3","W","","","",""
"USW00013739","2018","39.87327","-75.22678","3.0","PHILADELPHIA INTERNATIONAL AIRPORT, PA US","       4.1","W","    859.8","","     859.8","W","       145","W","        97","W","        15","W","       13","","         6","W","         0","W","        86","W","         8","W","       167","W","        30","W","       170"," ","        20"," ","        34"," ","  -15.5","W,0107, ","   150"," ,W,0322, ","   170"," ,W,0321, "," 115.3"," ,W,0907, ","   36.7","W,0703, ","-1.0","W,1111","-6.6","W,1122","-6.6","W,1122","-8.8","W,1123","","","-1.6","W,0411","-2.7","W,0213","-4.9","W,0209","-8.2","W,0203","-9.9","W,0114","    2474.0","0","    2474.0","W","   1563.5"," ,W","","","      637"," ,W","     13.66","W","     18.15","W","      9.16","W","","","       330","W","       340","W","","","","","      19.7","W","      26.4","W","","","",""
"USW00013739","2019","39.87327","-75.22678","3.0","PHILADELPHIA INTERNATIONAL AIRPORT, PA US","       4.0","W","    872.0","","     872.0","W","       146","W","        81","W","        12","W","        7","","         5","W","         0","W","        80","W","         8","W","       174","W","        35","W","       150"," ","         4"," ","        40"," ","  -14.9","W,0131, ","    80"," ,W,0301, ","    76"," ,W,0301, ","  72.9"," ,W,0620, ","   36.7","W,0721, ","-1.0","W,1108","-3.8","W,1109","-4.9","W,1113","-7.1","W,1219","","","0.0","W,0402","-4.3","W,0308","-7.1","W,0307","-7.1","W,0307","-11.6","W,0202","    2450.3","3","    2450.3","W","   1206.2"," ,W","","","      339"," ,W","     14.03","W","     18.67","W","      9.40","W","","","       250","W","       240","W","","","","","      23.3","W","      28.6","W","","","",""
"USW00013739","2020","39.87327","-75.22678","3.0","PHILADELPHIA INTERNATIONAL AIRPORT, PA US","","","","","","","","","","","","","","","","","","","","","","","","","","","       118"," ","        16"," ","        34"," ","","","","","","","","","","","","","","","","","","","","","","","","","","","","","","","    2340.2","2","    2340.2","D","","","","","","","","","","","","","","","","","","","","","","","","","","","","","",""
